corner points
-39.5662384    -50.61696625
-39.6625824    -50.78384018
-39.84169006    -50.55146408
-39.93894196    -50.71811676
========== RESULTS WAVE VERSION 16.10.2018 ====================
IMAGE SIZE  X: 4466     Y:4769    col:row     POLARIZATION:VV
COVERAGE    X: 20.7222214km       Y: 19.71419686km 
RESOLUTION dX: 4.639995835m       dY:4.133821945m  
resolution of original product 4.639995835m x 4.133821945m;   raster step x:5999.514615m  
===============================================================
FLAGS: H=HIGH PROBABILITY SEA STATE, I=LAND(ISLAND), O=OUTLIER NO SEA STATE, N=NO WIND AVAILABLE, SEA STATE NOT VISIBLE, M=MEAN PROBABILITY SEA STATE, L= LOW PROBABILITY SEA STATE
Filtering wave length
 integration  Lmin=1m
 integration  Lmax=2200m
  peak        Lmin=100m
               FFT=1024pixels, 4751.355735m 
   mean-Hs (SWH_c)=2.820838928m
         mean-wind=17.16337395m/s
--------------0--------------1---------2---------3---------4---------5---------6---------7---------8---------9--------10--------11--------12--------13--------14--------15--------16--------17--------18--------19------------------20--------21--------22--------23--------24--------25--------26--------27--------28--------29--------30--------31--------32--------33--------34--------35--------36--------37--------38--------39--------40--------41--------42--------43--------44--------45--------46--------47--------48--------49--------50--------51--------52--------53--------54--------55--------56--------57--------58--------59--------60--------61--------62--------63--------64--------65--------66--------67--------68--------69--------70--------71--------72--------73
            LAT            LON  P-LENGHT     SWH_o     SWH_c     P-DIR      LINE     POINT     ROW-Y     COL-X  M-INTENC        dB      WIND INC-ANGLE  ENERGY-M  ENERGY-N  ENERGY-R ENERGY-NN  FG-DEPTH      FLAG         HEADING-DEG    E30-75   E75-390  E390-600 meanincut   meanout   cut/out  STD-NORM  SPEC-MAX   GL-MEAN    GL-VAR      CORR   ENTROPY   HOMOGEN    ENERGY  CONTRAST  DISSIMIL     STD-O    E 1-30 E600-2000   E2000 >      GODA  LONG-HIG     Tmean  CONVOLUT  MEAN-DIR  relation     Sy/Sx  SKEWNESS  KURTOSIS  cutoff-A >50/10000     INT*V   INT-LOG  S-1_g1f1  S-2_g1f2  S-3_g1f3  S-4_g2f1  S-5_g2f2  S-6_g2f3  S-7_g3f1  S-8_g3f2  S-9_g3f3 S-10_g1f4 S-11_g2f4 S-12_g3f4 S-13_g1f5 S-14_g2f5 S-15_g3f5 S-16_g4f1 S-17_g4f2 S-18_g4f3 S-19_g4f4 S-20_g4f5
--------------1--------------2---------3---------4---------5---------6---------7---------8---------9--------10--------11--------12--------13--------14--------15--------16--------17--------18--------19--------20------------------21--------22--------23--------24--------25--------26--------27--------28--------29--------30--------31--------32--------33--------34--------35--------36--------37--------38--------39--------40--------41--------42--------43--------44--------45--------46--------47--------48--------49--------50--------51--------52--------53--------54--------55--------56--------57--------58--------59--------60--------61--------62--------63--------64--------65--------66--------67--------68--------69--------70--------71--------72--------73--------74
     -50.637169     -39.648941     136.2      2.84      4.51      77.0         1         1      1000      1000    983.05   -10.074      17.3      35.8   292.263     0.600      73.5   0.09637      12.4         H               195.6  0.058131  0.029986  0.001342  3.064075  0.763022  4.015708  1.099057     24.06   17.9875  297.9330   0.13929   7.56620   0.08537   0.00087 512.87061  16.80258    1080.4  0.509927  0.001166  0.000084  0.000182  0.179465  7.000131  0.607682     92.12  1.000225  1.000021     2.598    14.787     137.8      99.1    1010.3    1155.2     11.67     -0.10      3.67      2.80      1.54      6.70      5.12     -0.55      2.60      1.11      0.28      0.89      1.40      4.50      3.54     -7.58      3.64      9.32     -1.28      5.49
     -50.618134     -39.729111     128.1      3.00      4.51      76.0         1         2      1000      2293    977.61   -10.098      17.6      36.2   292.696     0.603     105.7   0.09856      10.8         H               195.6  0.057671  0.031820  0.001624  3.255292  0.757330  4.298382  1.102137     27.38   17.8864  296.2314   0.14506   7.55787   0.08595   0.00088 506.52057  16.68163    1077.4  0.510952  0.001551  0.000199  0.000185  0.182153  7.040493  0.611519     90.79  1.000218  1.000022     2.602    14.695     142.7      98.9    1002.9    1146.2     12.01      0.12      4.06      2.05      1.01      6.76      5.47      0.19      2.72      0.73      0.46      1.27      1.14      4.81      3.48     -9.46      2.00      9.11     -0.62      6.47
     -50.599220     -39.808502     148.6      2.78      4.51      75.8         1         3      1000      3586    927.73   -10.326      17.4      36.5   290.836     0.595     102.9   0.09484      15.1         H               195.6  0.056354  0.029187  0.001423  2.968051  0.742017  3.999978  1.094796     20.07   17.1153  278.4377   0.14028   7.51210   0.08854   0.00094 478.75790  16.12736    1015.7  0.506890  0.001736  0.000153  0.000176  0.183640  7.022291  0.602560     92.01  1.000212  1.000020     2.545    13.961     137.8      98.8     893.2    1035.1     12.09      0.24      3.92      2.37      0.59      7.09      4.80      0.53      1.97      0.89      0.71      0.75      1.38      4.32      3.69     -8.89      0.44      9.82     -0.10      4.04
     -50.687939     -39.678299     138.9      2.88      4.51      74.8         2         1      2451      1000    992.88   -10.031      17.4      35.8   293.234     0.604     100.4   0.09776      12.9         H               195.6  0.059001  0.030560  0.001415  3.105829  0.768505  4.041393  1.102317     26.83   18.1276  301.4914   0.14246   7.57151   0.08550   0.00087 517.08368  16.88525    1094.4  0.511150  0.001836  0.000136  0.000180  0.181462  7.011896  0.611594     89.72  1.000210  1.000020     2.624    15.400     142.7      99.1    1034.3    1179.1     11.88      0.66      3.74      2.55      1.15      7.20      5.29      0.16      2.25      1.43      1.05      1.51      1.51      4.60      3.30     -8.59      2.04      9.90     -0.61      5.12
     -50.668884     -39.758549     148.6      2.82      4.51      75.8         2         2      2451      2293    939.09   -10.273      17.3      36.1   293.328     0.605     119.6   0.09825      15.1         H               195.6  0.058793  0.030560  0.001804  3.150497  0.748050  4.211616  1.103278     27.34   17.2674  282.9008   0.14369   7.51857   0.08843   0.00093 484.50552  16.23484    1036.0  0.511892  0.001804  0.000228  0.000182  0.183187  7.016524  0.612831     88.91  1.000218  1.000021     2.625    15.098     137.8      98.7     923.6    1130.5     12.05      0.19      4.22      2.27      1.36      7.33      5.78      0.54      2.21      1.00      1.43      1.73      1.37      4.91      3.15    -10.35      2.29     10.17      0.18      6.70
     -50.649952     -39.838017     148.6      2.71      4.51      75.8         2         3      2451      3586    873.47   -10.588      16.9      36.5   292.233     0.598     120.4   0.09456      15.1         H               195.6  0.056718  0.030049  0.001229  3.055568  0.742105  4.117432  1.097727     27.03   16.2184  258.4187   0.13935   7.44592   0.09193   0.00103 444.82056  15.44174     958.8  0.508708  0.001621  0.000284  0.000178  0.185319  7.021219  0.605580     91.58  1.000204  1.000019     2.779    25.745     137.8      98.4     789.4    1093.4     11.92      0.02      4.51      3.43      0.93      7.29      4.55      0.31      2.39      0.36      1.02      0.61      2.08      4.51      3.36     -6.62      1.22      8.45      0.62      4.56
     -50.738705     -39.707714     154.5      2.91      4.51      77.3         3         1      3902      1000    957.11   -10.190      17.1      35.8   293.390     0.605      85.8   0.09784      16.5         H               195.6  0.057865  0.031852  0.001290  3.236465  0.762211  4.246152  1.103085     31.61   17.5626  289.3167   0.14245   7.53882   0.08706   0.00091 496.20709  16.47434    1055.8  0.512503  0.001435  0.000105  0.000188  0.184011  7.046312  0.612735     87.36  1.000266  1.000026     2.625    14.984     142.7      98.9     960.2    1140.0     11.49     -0.15      4.46      3.60      1.48      7.36      5.51      0.34      3.78      1.13      0.83      1.51      1.78      5.54      4.09     -5.88      2.84      9.04     -0.24      7.02
     -50.719631     -39.788044     150.1      2.85      4.51      71.4         3         2      3902      2293    917.20   -10.375      17.0      36.1   293.830     0.604     127.0   0.09755      15.4         H               195.6  0.057831  0.031463  0.001442  3.191550  0.757562  4.212925  1.102958     29.17   16.9146  274.9491   0.14399   7.49501   0.08961   0.00096 470.72076  15.95981    1011.7  0.511778  0.001805  0.000272  0.000178  0.186832  7.059045  0.612131     88.27  1.000224  1.000022     2.624    14.898     137.8      98.6     880.2    1073.4     11.96      0.07      4.08      2.86      1.26      7.70      5.19      0.62      2.69      0.76      1.22      0.81      1.53      4.96      3.96     -7.81      1.08     10.17      0.83      5.33
     -50.700676     -39.867592     156.5      2.59      4.51      72.8         3         3      3902      3586    830.23   -10.808      16.4      36.5   292.081     0.597     146.4   0.09466      17.0         H               195.6  0.055924  0.029497  0.001468  2.963313  0.738657  4.011760  1.096948     34.36   15.4841  242.8173   0.14200   7.38157   0.09577   0.00113 416.67273  14.84125     910.6  0.508428  0.002010  0.000342  0.000171  0.186387  7.048280  0.604472     86.55  1.000177  1.000016     2.564    14.198     137.8      98.1     711.7     954.4     12.11      0.22      4.48      2.73      1.82      6.76      4.75      0.07      2.04      1.36      1.50      1.25      1.47      4.41      2.89     -8.82      2.74      8.06     -0.39      5.04
