corner points
-21.36881828    10.62376785
-21.40439415    10.44853783
-21.55015182    10.65978813
-21.58562088    10.48459148
========== RESULTS WAVE VERSION 16.10.2018 ====================
IMAGE SIZE  X: 4466     Y:4785    col:row     POLARIZATION:VV
COVERAGE    X: 20.1722604km       Y: 19.82160574km 
RESOLUTION dX: 4.516851858m       dY:4.14244634m  
resolution of original product 4.516851858m x 4.14244634m;   raster step x:5998.379267m  
===============================================================
FLAGS: H=HIGH PROBABILITY SEA STATE, I=LAND(ISLAND), O=OUTLIER NO SEA STATE, N=NO WIND AVAILABLE, SEA STATE NOT VISIBLE, M=MEAN PROBABILITY SEA STATE, L= LOW PROBABILITY SEA STATE
Filtering wave length
 integration  Lmin=1m
 integration  Lmax=2200m
  peak        Lmin=100m
               FFT=1024pixels, 4625.256303m 
   mean-Hs (SWH_c)=0.2m
         mean-wind=6.744238377m/s
--------------0--------------1---------2---------3---------4---------5---------6---------7---------8---------9--------10--------11--------12--------13--------14--------15--------16--------17--------18--------19------------------20--------21--------22--------23--------24--------25--------26--------27--------28--------29--------30--------31--------32--------33--------34--------35--------36--------37--------38--------39--------40--------41--------42--------43--------44--------45--------46--------47--------48--------49--------50--------51--------52--------53--------54--------55--------56--------57--------58--------59--------60--------61--------62--------63--------64--------65--------66--------67--------68--------69--------70--------71--------72--------73
            LAT            LON  P-LENGHT     SWH_o     SWH_c     P-DIR      LINE     POINT     ROW-Y     COL-X  M-INTENC        dB      WIND INC-ANGLE  ENERGY-M  ENERGY-N  ENERGY-R ENERGY-NN  FG-DEPTH      FLAG         HEADING-DEG    E30-75   E75-390  E390-600 meanincut   meanout   cut/out  STD-NORM  SPEC-MAX   GL-MEAN    GL-VAR      CORR   ENTROPY   HOMOGEN    ENERGY  CONTRAST  DISSIMIL     STD-O    E 1-30 E600-2000   E2000 >      GODA  LONG-HIG     Tmean  CONVOLUT  MEAN-DIR  relation     Sy/Sx  SKEWNESS  KURTOSIS  cutoff-A >50/10000     INT*V   INT-LOG  S-1_g1f1  S-2_g1f2  S-3_g1f3  S-4_g2f1  S-5_g2f2  S-6_g2f3  S-7_g3f1  S-8_g3f2  S-9_g3f3 S-10_g1f4 S-11_g2f4 S-12_g3f4 S-13_g1f5 S-14_g2f5 S-15_g3f5 S-16_g4f1 S-17_g4f2 S-18_g4f3 S-19_g4f4 S-20_g4f5
--------------1--------------2---------3---------4---------5---------6---------7---------8---------9--------10--------11--------12--------13--------14--------15--------16--------17--------18--------19--------20------------------21--------22--------23--------24--------25--------26--------27--------28--------29--------30--------31--------32--------33--------34--------35--------36--------37--------38--------39--------40--------41--------42--------43--------44--------45--------46--------47--------48--------49--------50--------51--------52--------53--------54--------55--------56--------57--------58--------59--------60--------61--------62--------63--------64--------65--------66--------67--------68--------69--------70--------71--------72--------73--------74
      10.595308     -21.417315     323.1      0.41      1.42       8.0         1         1      1000      1000    210.24   -16.773       6.8      36.9   215.227     0.526      52.0   0.05369     100.0         H               192.0  0.036071  0.011924  0.000653  0.923632  0.608267  1.518465  1.029523     23.33    3.7256   18.6648   0.06636   4.87326   0.27268   0.01497  34.85225   4.09031     216.4  0.476773  0.000890  0.000065  0.000096  0.183114  6.854435  0.526903     12.80  0.999976  1.000000     2.163    10.314      81.3      81.9      38.5     193.0     12.67      3.76     -6.17     -2.22     -2.04      4.63      1.78     -0.09     -0.09     -3.02      3.31     -0.19      2.36     -2.89      0.75    -13.05     -5.10     10.62      7.27     -6.11
      10.606066     -21.471432     319.2      0.41      1.42      11.9         1         2      1000      2328    195.70   -17.084       6.6      37.3   215.544     0.527      56.7   0.05331     100.0         H               192.0  0.036044  0.012666  0.000610  0.950542  0.607505  1.564665  1.030382     32.93    3.4382   16.1629   0.06621   4.73190   0.28832   0.01717  30.18549   3.79820     201.6  0.477092  0.000761  0.000099  0.000102  0.187906  6.891973  0.528199     12.45  0.999912  0.999995     2.175    10.465      83.0      80.6      33.6     181.0     12.94      4.40     -7.26     -2.76     -2.70      5.61      1.32     -0.35     -0.05     -4.16      4.00      0.12      3.10     -3.63      0.68    -13.09     -6.36     12.69      8.13     -7.47
      10.616722     -21.525091     278.2      0.41      1.42      10.4         1         3      1000      3656    191.62   -17.176       6.7      37.7   215.590     0.526      68.4   0.05239     100.0         H               192.0  0.035966  0.011616  0.000567  0.902675  0.611637  1.475834  1.028820     19.91    3.3557   15.4539   0.06391   4.68956   0.29240   0.01789  28.93254   3.72135     197.1  0.476543  0.001116  0.000118  0.000096  0.181897  6.840799  0.526672     11.93  0.999948  0.999999     2.155    10.226      83.0      80.1      32.2     175.1     12.46      3.81     -6.09     -1.70     -1.87      3.94      1.29     -0.43      0.56     -2.84      2.60      0.64      2.05     -2.69      0.36    -11.63     -4.71      8.69      4.84     -5.01
      10.542273     -21.428074     297.3      0.41      1.42      11.1         2         1      2448      1000    210.18   -16.774       6.7      36.9   215.374     0.526      50.6   0.05381     100.0         H               192.0  0.036460  0.012188  0.000602  0.926784  0.609390  1.520840  1.029793     23.07    3.7248   18.6609   0.06682   4.87273   0.27302   0.01499  34.82772   4.08997     216.4  0.476390  0.000893  0.000063  0.000098  0.183765  6.859853  0.527098     11.86  0.999972  0.999998     2.163    10.363      81.3      81.8      38.5     197.7     12.57      3.68     -6.54     -1.98     -1.99      4.42      1.10     -0.65      0.55     -3.24      3.18      0.35      2.78     -2.96      0.56    -11.86     -4.60      9.71      6.18     -6.08
      10.553034     -21.482182     344.5      0.42      1.42      12.9         2         2      2448      2328    206.08   -16.860       6.9      37.3   214.860     0.525      49.8   0.05362     100.0         H               192.0  0.036213  0.011704  0.000597  0.925455  0.610281  1.516441  1.028811     20.32    3.6453   17.8837   0.06681   4.83490   0.27698   0.01550  33.37758   4.00339     212.0  0.476333  0.000811  0.000068  0.000095  0.178840  6.830357  0.526242     14.68  0.999960  0.999998     2.157    10.299      79.7      81.7      37.0     192.4     12.43      3.79     -5.82     -1.76     -2.12      4.31      1.67     -0.63     -0.43     -2.89      3.05     -0.08      2.21     -2.41      0.89    -12.23     -5.07     10.55      6.28     -5.20
      10.563693     -21.535831     352.5      0.41      1.42       4.4         2         3      2448      3656    192.18   -17.163       6.8      37.7   215.186     0.525      85.8   0.05282     100.0         H               192.0  0.035925  0.011495  0.000713  0.895786  0.603446  1.484450  1.028209     15.75    3.3676   15.5339   0.06437   4.69575   0.29141   0.01781  29.06789   3.73454     197.6  0.475553  0.001299  0.000188  0.000094  0.179945  6.840107  0.525788     17.00  0.999966  1.000000     2.141    10.133      84.8      80.1      32.3     177.1     12.48      3.12     -6.58     -2.17     -1.56      4.71      2.13     -0.53     -0.63     -2.18      2.13     -0.10      2.80     -3.23      1.11    -13.99     -4.20     12.31      4.67     -7.67
      10.489237     -21.438835     300.4      0.41      1.42       7.5         3         1      3896      1000    208.23   -16.814       6.7      36.9   215.381     0.527      51.0   0.05420     100.0         H               192.0  0.036253  0.012915  0.000624  0.953031  0.613445  1.553572  1.030596     29.03    3.6862   18.3459   0.06839   4.85424   0.27516   0.01529  34.18210   4.04979     214.6  0.476889  0.000770  0.000067  0.000102  0.189151  6.883216  0.528394     11.72  0.999946  0.999997     2.165    10.410      79.7      81.7      37.8     202.1     13.03      4.31     -7.07     -2.65     -2.36      5.08      0.83     -0.62      0.69     -3.76      3.53      0.38      3.11     -3.34      0.30    -12.74     -5.38     10.30      6.63     -6.47
      10.500001     -21.492933     344.5      0.42      1.42      12.9         3         2      3896      2328    202.53   -16.935       6.8      37.3   214.198     0.523      44.4   0.05308     100.0         H               192.0  0.036168  0.011678  0.000605  0.948226  0.613785  1.544884  1.026521     15.10    3.5735   17.1920   0.06604   4.79996   0.28084   0.01601  32.11326   3.92765     207.9  0.474226  0.000854  0.000042  0.000093  0.178007  6.834706  0.524186     18.02  0.999987  0.999999     2.137    10.032      79.7      81.4      35.7     181.1     12.25      3.33     -4.80     -1.14     -0.92      2.96      1.54     -1.09      0.39     -2.34      2.08      0.63      1.59     -2.10      0.44    -11.59     -2.07      6.61      3.73     -3.96
      10.510663     -21.546574     319.2      0.41      1.42      11.9         3         3      3896      3656    189.67   -17.220       6.7      37.7   214.996     0.523      44.5   0.05180     100.0         H               192.0  0.035578  0.012234  0.000549  0.907090  0.602834  1.504710  1.026215     29.81    3.3171   15.0759   0.06241   4.66954   0.29441   0.01821  28.26992   3.68117     194.6  0.474546  0.000714  0.000048  0.000101  0.188203  6.880381  0.524255     13.24  0.999932  0.999998     2.141    10.105      84.8      79.9      31.5     168.9     12.81      4.27     -7.17     -2.25     -2.07      4.70      0.59     -0.79      0.57     -3.74      3.44      0.69      2.82     -3.35      0.28    -11.60     -4.58     10.32      6.35     -6.39
