corner points
-38.49292374    -53.72491837
-38.59297943    -53.89728928
-38.79932404    -53.66047287
-38.90068817    -53.83259201
========== RESULTS WAVE VERSION 16.10.2018 ====================
IMAGE SIZE  X: 5599     Y:4901    col:row     POLARIZATION:VV
COVERAGE    X: 21.36670977km       Y: 20.21841262km 
RESOLUTION dX: 3.816165345m       dY:4.125364746m  
resolution of original product 3.816165345m x 4.125364746m;   raster step x:5999.011923m  
===============================================================
FLAGS: H=HIGH PROBABILITY SEA STATE, I=LAND(ISLAND), O=OUTLIER NO SEA STATE, N=NO WIND AVAILABLE, SEA STATE NOT VISIBLE, M=MEAN PROBABILITY SEA STATE, L= LOW PROBABILITY SEA STATE
Filtering wave length
 integration  Lmin=1m
 integration  Lmax=2200m
  peak        Lmin=100m
               FFT=1024pixels, 3907.753313m 
   mean-Hs (SWH_c)=0.291231308m
         mean-wind=10.19547367m/s
--------------0--------------1---------2---------3---------4---------5---------6---------7---------8---------9--------10--------11--------12--------13--------14--------15--------16--------17--------18--------19------------------20--------21--------22--------23--------24--------25--------26--------27--------28--------29--------30--------31--------32--------33--------34--------35--------36--------37--------38--------39--------40--------41--------42--------43--------44--------45--------46--------47--------48--------49--------50--------51--------52--------53--------54--------55--------56--------57--------58--------59--------60--------61--------62--------63--------64--------65--------66--------67--------68--------69--------70--------71--------72--------73
            LAT            LON  P-LENGHT     SWH_o     SWH_c     P-DIR      LINE     POINT     ROW-Y     COL-X  M-INTENC        dB      WIND INC-ANGLE  ENERGY-M  ENERGY-N  ENERGY-R ENERGY-NN  FG-DEPTH      FLAG         HEADING-DEG    E30-75   E75-390  E390-600 meanincut   meanout   cut/out  STD-NORM  SPEC-MAX   GL-MEAN    GL-VAR      CORR   ENTROPY   HOMOGEN    ENERGY  CONTRAST  DISSIMIL     STD-O    E 1-30 E600-2000   E2000 >      GODA  LONG-HIG     Tmean  CONVOLUT  MEAN-DIR  relation     Sy/Sx  SKEWNESS  KURTOSIS  cutoff-A >50/10000     INT*V   INT-LOG  S-1_g1f1  S-2_g1f2  S-3_g1f3  S-4_g2f1  S-5_g2f2  S-6_g2f3  S-7_g3f1  S-8_g3f2  S-9_g3f3 S-10_g1f4 S-11_g2f4 S-12_g3f4 S-13_g1f5 S-14_g2f5 S-15_g3f5 S-16_g4f1 S-17_g4f2 S-18_g4f3 S-19_g4f4 S-20_g4f5
--------------1--------------2---------3---------4---------5---------6---------7---------8---------9--------10--------11--------12--------13--------14--------15--------16--------17--------18--------19--------20------------------21--------22--------23--------24--------25--------26--------27--------28--------29--------30--------31--------32--------33--------34--------35--------36--------37--------38--------39--------40--------41--------42--------43--------44--------45--------46--------47--------48--------49--------50--------51--------52--------53--------54--------55--------56--------57--------58--------59--------60--------61--------62--------63--------64--------65--------66--------67--------68--------69--------70--------71--------72--------73--------74
     -53.748310     -38.569691     100.5      0.55      2.12     102.4         1         1      1000      1000   3820.53    -4.179       9.4      22.5   232.907     0.692      63.7   0.15456       6.4         H               196.3  0.086160  0.028351  0.000780  3.032076  0.928456  3.265718  1.179947      7.10    7.1197   75.7450   0.24539   6.00231   0.19365   0.00592 114.31612   7.07833    4508.0  0.576576  0.001029  0.000026  0.000250  0.148045  6.727911  0.718452     95.37  1.000229  1.000024     3.157    21.715      86.6      90.0     153.9     573.8     11.12     -0.20     -0.77      2.42      0.23      1.03      1.74     -0.04      1.17     -0.37      0.44      0.00     -1.34     -0.02      0.49     -5.32      0.75      1.86      0.81      1.09
     -53.730022     -38.656879     101.2      0.56      2.12     106.7         1         2      1000      2572   3511.22    -4.545       9.5      23.0   232.094     0.683      69.0   0.14931       6.5         H               196.3  0.082538  0.027688  0.000763  2.956813  0.939962  3.145673  1.171262      7.24    6.5133   64.2957   0.24092   5.84072   0.20660   0.00695  97.61194   6.51773    4112.6  0.571289  0.001126  0.000037  0.000222  0.148507  6.728974  0.707585     96.35  1.000224  1.000023     3.074    20.051      83.0      88.8     127.9     487.3     10.90      0.02     -1.04      2.60      0.31      1.28      2.12     -0.04      1.29      0.29     -0.11      0.21     -1.19     -0.58      0.58     -5.14      0.58      2.40     -0.55     -0.11
     -53.712021     -38.742336     100.5      0.63      2.12     102.4         1         3      1000      4144   3567.83    -4.476      10.9      23.4   232.705     0.692     104.5   0.15494       6.4         H               196.3  0.082962  0.029427  0.000781  3.110573  0.957367  3.249092  1.180164      8.98    6.6212   66.5829   0.24554   5.86887   0.20424   0.00676 100.46790   6.60931    4210.8  0.577905  0.001648  0.000071  0.000204  0.152382  6.764427  0.717733     97.03  1.000196  1.000021     3.225    23.208      84.8      89.1     133.5     564.8     11.15      0.26     -0.56      2.42     -0.19      1.36      1.58     -0.62      0.77      0.28      0.20     -0.20     -1.06      0.06      0.81     -5.06      0.23      2.39     -0.10      0.39
     -53.799450     -38.599422     380.8      0.60      2.12     144.2         2         1      2454      1000   4096.66    -3.876      10.3      22.5   224.134     0.649      93.5   0.13582     100.0         H               196.3  0.070306  0.023918  0.000884  2.470817  0.888649  2.780420  1.141960      8.32    7.6647   81.9833   0.22651   6.15062   0.17954   0.00491 126.82631   7.57600    4678.2  0.552460  0.001531  0.000076  0.000160  0.155603  6.778047  0.670152     99.75  1.000146  1.000013     2.913    18.699      71.1      91.2     170.6     575.5     11.07     -1.02     -1.22      1.96      1.14      1.34      2.32     -0.81      0.62      0.25      0.06      0.04     -1.72      0.37      0.23     -6.93      3.97      3.25     -0.50      2.46
     -53.781139     -38.686718     100.4      0.57      2.12     108.0         2         2      2454      2572   3582.40    -4.458       9.8      23.0   228.859     0.675      88.9   0.14830       6.4         H               196.3  0.075314  0.027068  0.000783  2.741562  0.932413  2.940285  1.165254      7.22    6.6557   66.0188   0.23868   5.88332   0.20152   0.00656 100.52316   6.64851    4174.5  0.571415  0.001362  0.000067  0.000157  0.159190  6.812878  0.699340     98.34  1.000157  1.000015     3.106    21.469      75.2      89.3     132.5     537.6     11.04      0.14     -0.98      2.41      0.85      0.89      1.70     -0.28      1.24      0.81      0.19     -0.02     -1.45     -0.15      0.75     -5.15      1.42      1.46     -0.19      0.75
     -53.763119     -38.772285     100.9      0.63      2.12     101.0         2         3      2454      4144   3563.92    -4.481      10.9      23.4   229.581     0.681     114.4   0.15122       6.5         H               196.3  0.077644  0.026936  0.000837  2.731235  0.932753  2.928143  1.170003      7.74    6.6161   65.5683   0.24185   5.87071   0.20316   0.00668  99.42233   6.60111    4170.0  0.573668  0.001953  0.000086  0.000169  0.158124  6.786237  0.705042     98.08  1.000178  1.000018     3.186    23.470      81.3      89.2     131.6     559.1     11.24     -0.60     -0.91      2.13      0.46      1.21      1.83     -0.12      1.02      0.19     -0.18     -0.20     -0.83     -0.12      0.46     -5.99      1.50      2.11     -0.24      0.38
     -53.850578     -38.629215     357.4      0.55      2.12     158.5         3         1      3908      1000   3835.83    -4.161       9.4      22.5   226.925     0.663      79.5   0.14179     100.0         H               196.3  0.071611  0.025337  0.000823  2.498353  0.924084  2.703599  1.154618      7.30    7.1552   73.7389   0.23056   6.02108   0.18985   0.00563 113.47580   7.11662    4429.0  0.564378  0.001282  0.000046  0.000138  0.163607  6.809952  0.685346     94.93  1.000157  1.000014     3.066    21.701      71.1      90.3     151.1     585.0     11.21     -0.39     -1.47      2.09      0.45      1.78      1.89     -0.69      1.18      0.30     -0.45      0.19     -1.11     -0.29      0.54     -5.83      1.80      3.59     -1.38      0.45
     -53.832249     -38.716625     354.4      0.64      2.12     147.0         3         2      3908      2572   3952.59    -4.031      11.0      23.0   224.546     0.656     114.9   0.14068     100.0         H               196.3  0.071372  0.023135  0.000923  2.289584  0.910296  2.515207  1.148299      6.10    7.3819   77.1778   0.23003   6.07967   0.18493   0.00529 118.84987   7.31197    4538.5  0.558766  0.001948  0.000088  0.000134  0.162402  6.781429  0.677156     90.27  1.000169  1.000016     3.034    21.964      73.8      90.8     159.2     599.9     11.25     -0.10     -0.90      2.06      0.78      1.31      2.03     -0.02      0.83      0.32      0.07      0.59     -1.04     -0.19      0.40     -7.01      1.75      2.28     -0.55      0.71
     -53.814205     -38.802299     339.8      0.61      2.12     164.9         3         3      3908      4144   3471.87    -4.594      10.5      23.4   226.192     0.662     123.9   0.14249     100.0         H               196.3  0.072468  0.024337  0.000805  2.421312  0.901175  2.686840  1.154071      5.98    6.4396   61.4314   0.23298   5.82618   0.20554   0.00689  94.23988   6.44830    4006.5  0.563237  0.001971  0.000084  0.000135  0.162991  6.805098  0.684529     87.32  1.000180  1.000018     3.032    20.753      75.2      89.0     122.4     522.8     11.02     -0.29     -1.06      2.48      0.95      1.54      2.08     -0.47      0.97      0.69     -0.26      0.02     -1.04     -0.25      0.31     -5.52      2.62      2.94     -0.65      0.74
