corner points
-28.491539    -21.17457199
-28.53686142    -21.34845543
-28.68261147    -21.12990952
-28.72817612    -21.30372238
========== RESULTS WAVE VERSION 16.10.2018 ====================
IMAGE SIZE  X: 4466     Y:4781    col:row     POLARIZATION:VV
COVERAGE    X: 20.38379905km       Y: 19.85203307km 
RESOLUTION dX: 4.564218326m       dY:4.152276316m  
resolution of original product 4.564218326m x 4.152276316m;   raster step x:5997.382881m  
===============================================================
FLAGS: H=HIGH PROBABILITY SEA STATE, I=LAND(ISLAND), O=OUTLIER NO SEA STATE, N=NO WIND AVAILABLE, SEA STATE NOT VISIBLE, M=MEAN PROBABILITY SEA STATE, L= LOW PROBABILITY SEA STATE
Filtering wave length
 integration  Lmin=1m
 integration  Lmax=2200m
  peak        Lmin=100m
               FFT=1024pixels, 4673.759566m 
   mean-Hs (SWH_c)=0.2438286209m
         mean-wind=9.696707726m/s
--------------0--------------1---------2---------3---------4---------5---------6---------7---------8---------9--------10--------11--------12--------13--------14--------15--------16--------17--------18--------19------------------20--------21--------22--------23--------24--------25--------26--------27--------28--------29--------30--------31--------32--------33--------34--------35--------36--------37--------38--------39--------40--------41--------42--------43--------44--------45--------46--------47--------48--------49--------50--------51--------52--------53--------54--------55--------56--------57--------58--------59--------60--------61--------62--------63--------64--------65--------66--------67--------68--------69--------70--------71--------72--------73
            LAT            LON  P-LENGHT     SWH_o     SWH_c     P-DIR      LINE     POINT     ROW-Y     COL-X  M-INTENC        dB      WIND INC-ANGLE  ENERGY-M  ENERGY-N  ENERGY-R ENERGY-NN  FG-DEPTH      FLAG         HEADING-DEG    E30-75   E75-390  E390-600 meanincut   meanout   cut/out  STD-NORM  SPEC-MAX   GL-MEAN    GL-VAR      CORR   ENTROPY   HOMOGEN    ENERGY  CONTRAST  DISSIMIL     STD-O    E 1-30 E600-2000   E2000 >      GODA  LONG-HIG     Tmean  CONVOLUT  MEAN-DIR  relation     Sy/Sx  SKEWNESS  KURTOSIS  cutoff-A >50/10000     INT*V   INT-LOG  S-1_g1f1  S-2_g1f2  S-3_g1f3  S-4_g2f1  S-5_g2f2  S-6_g2f3  S-7_g3f1  S-8_g3f2  S-9_g3f3 S-10_g1f4 S-11_g2f4 S-12_g3f4 S-13_g1f5 S-14_g2f5 S-15_g3f5 S-16_g4f1 S-17_g4f2 S-18_g4f3 S-19_g4f4 S-20_g4f5
--------------1--------------2---------3---------4---------5---------6---------7---------8---------9--------10--------11--------12--------13--------14--------15--------16--------17--------18--------19--------20------------------21--------22--------23--------24--------25--------26--------27--------28--------29--------30--------31--------32--------33--------34--------35--------36--------37--------38--------39--------40--------41--------42--------43--------44--------45--------46--------47--------48--------49--------50--------51--------52--------53--------54--------55--------56--------57--------58--------59--------60--------61--------62--------63--------64--------65--------66--------67--------68--------69--------70--------71--------72--------73--------74
     -21.200848     -28.544321     373.2      0.59      1.52      28.6         1         1      1000      1000    372.32   -14.291      10.1      36.5   236.296     0.548     191.2   0.06722     100.0         H               192.3  0.045623  0.014023  0.000560  1.437841  0.669610  2.147282  1.051768      3.88    6.9557   60.4846   0.10135   6.00483   0.17764   0.00500 108.70863   7.20828     391.6  0.485407  0.002444  0.000535  0.000128  0.148921  6.725455  0.552950     91.29  1.000049  1.000004     2.299    11.497      86.6      91.0     125.3     373.6     11.14      2.32     -1.65      0.84     -1.11     -0.49      2.43      0.30      0.62     -0.79      0.56      0.27     -0.47     -0.27      0.10     -9.43     -4.73     -0.43      1.18      0.86
     -21.187658     -28.600782     269.5      0.55      1.52      27.5         1         2      1000      2314    322.62   -14.913       9.4      36.9   236.671     0.550     207.6   0.06682     100.0         H               192.3  0.045464  0.014568  0.000530  1.456051  0.661623  2.200726  1.053222      4.72    5.9635   45.8522   0.10095   5.71994   0.19941   0.00668  82.44749   6.25919     339.8  0.486037  0.002695  0.000666  0.000134  0.150209  6.736664  0.554781     92.91  1.000003  1.000001     2.310    11.668      88.6      88.9      93.1     338.1     11.21      2.62     -2.43      0.81     -1.26      0.15      1.89     -0.33      0.63     -0.75      0.68      0.24     -0.77     -0.03      0.89     -8.87     -3.95      1.60      1.48      0.36
     -21.174566     -28.656740     399.6      0.52      1.52      20.0         1         3      1000      3628    280.61   -15.519       8.8      37.3   236.910     0.547      82.5   0.06540     100.0         H               192.3  0.045368  0.014506  0.000590  1.463020  0.663601  2.204670  1.049577      4.80    5.1292   34.5220   0.09501   5.44439   0.22240   0.00874  62.48419   5.44525     294.5  0.485020  0.001397  0.000157  0.000127  0.151244  6.749403  0.550850     91.95  1.000043  1.000003     2.269    11.185      81.3      86.8      69.5     270.9     11.30      2.53     -2.01      0.64     -1.69      0.11      2.28      0.30      0.65     -0.39      0.68      0.41     -0.59     -0.00      0.56     -9.84     -5.27      0.59      0.92      0.20
     -21.253372     -28.558025     242.4      0.58      1.52      31.2         2         1      2444      1000    365.25   -14.374      10.0      36.5   235.463     0.544      57.1   0.06475      60.9         H               192.3  0.045498  0.014321  0.000485  1.464003  0.657742  2.225800  1.046405      4.47    6.8159   57.7837   0.09369   5.96848   0.17957   0.00515 104.74072   7.08805     382.2  0.482705  0.000833  0.000119  0.000137  0.149089  6.745197  0.547524     94.02  1.000052  1.000002     2.254    11.072      86.6      90.9     119.7     367.7     11.14      2.56     -1.94      1.11     -1.76      0.07      2.08      0.42      0.61     -0.63      0.55      0.39     -0.71      0.02      0.28     -8.10     -5.58      0.44      0.68      1.05
     -21.240177     -28.614508     385.7      0.62      1.52      35.3         2         2      2444      2314    384.44   -14.152      10.7      36.9   236.009     0.547      66.1   0.06707     100.0         H               192.3  0.046265  0.015150  0.000516  1.540838  0.672254  2.292048  1.049638      5.17    7.1939   64.2534   0.09932   6.06765   0.17276   0.00469 115.74390   7.45215     403.5  0.484373  0.000876  0.000150  0.000137  0.149733  6.755754  0.551338     92.85  1.000026  1.000001     2.268    11.127      79.7      91.3     133.6     375.3     11.12      2.41     -3.33      0.95     -1.45      0.83      1.95      0.11      0.31     -0.78      0.99     -0.07     -0.64     -0.00      0.05     -8.43     -4.99      3.77      2.48      1.15
     -21.227077     -28.670486     252.4      0.53      1.52      44.6         2         3      2444      3628    284.99   -15.452       8.9      37.3   236.111     0.546     103.3   0.06564      76.2         H               192.3  0.044966  0.015068  0.000497  1.517285  0.655518  2.314633  1.049292      5.15    5.2179   35.5751   0.09651   5.47563   0.21946   0.00847  64.28278   5.52780     299.0  0.484417  0.001555  0.000240  0.000136  0.151006  6.749669  0.550858     96.42  1.000044  1.000004     2.273    11.347      84.8      87.1      71.8     292.7     11.23      2.69     -2.46      0.96     -1.34     -0.07      1.54     -0.41      1.05     -0.61      0.72      0.33     -0.90      0.15      0.77     -8.08     -4.10      0.52      1.19      0.92
     -21.305895     -28.571739     385.7      0.60      1.52      35.3         3         1      3888      1000    383.31   -14.164      10.3      36.5   234.941     0.543      48.3   0.06541     100.0         H               192.3  0.045644  0.014053  0.000477  1.436694  0.659477  2.178535  1.045721      4.34    7.1744   63.4189   0.09554   6.06360   0.17255   0.00468 114.71967   7.43463     400.8  0.482254  0.000815  0.000070  0.000139  0.148757  6.729422  0.546889     95.43  1.000038  1.000002     2.241    10.961      81.3      91.4     132.3     384.9     11.14      2.53     -2.18      1.26     -1.71      0.46      1.87      0.28      0.36     -0.96      0.78      0.18     -0.88      0.49      0.17     -8.01     -5.38      2.19      2.01      1.88
     -21.292694     -28.628242     225.3      0.60      1.52      32.0         3         2      3888      2314    366.58   -14.358      10.3      36.9   236.780     0.551     195.9   0.06828      45.5         H               192.3  0.046024  0.015205  0.000733  1.544759  0.668806  2.309728  1.054610      5.89    6.8384   59.0128   0.10431   5.97272   0.18052   0.00521 105.71426   7.10286     386.6  0.486125  0.003132  0.000493  0.000135  0.152814  6.758389  0.556983     93.04  1.000090  1.000005     2.299    11.518      88.6      90.6     121.8     372.6     11.74      2.54     -1.34     -0.05     -1.45     -0.63      2.32     -0.63      1.63     -1.15      0.34      0.41     -0.35     -0.34      0.79    -11.84     -4.05     -2.32      0.77     -0.91
     -21.279589     -28.684244     219.5      0.52      1.52      34.3         3         3      3888      3628    281.45   -15.506       8.8      37.3   235.569     0.545      79.6   0.06561      41.7         H               192.3  0.046391  0.014844  0.000523  1.525163  0.670896  2.273323  1.047923      5.09    5.1470   34.6399   0.09752   5.45063   0.22143   0.00869  62.52362   5.45331     294.9  0.482266  0.001419  0.000142  0.000131  0.150113  6.740809  0.549865     90.08  1.000034  1.000002     2.252    11.020      81.3      86.9      69.8     272.4     11.17      2.27     -2.51      1.03     -1.51      0.01      1.86      0.24      1.11     -0.44      0.33      0.48     -0.57     -0.02     -0.17     -8.41     -5.25      0.84      0.20      1.50
