corner points
-25.66661072    -17.15854836
-25.70857811    -17.33867836
-25.85629272    -17.11639786
-25.89852142    -17.29646683
========== RESULTS WAVE VERSION 16.10.2018 ====================
IMAGE SIZE  X: 5599     Y:4927    col:row     POLARIZATION:VV
COVERAGE    X: 20.65142104km       Y: 20.47330808km 
RESOLUTION dX: 3.688412402m       dY:4.155329426m  
resolution of original product 3.688412402m x 4.155329426m;   raster step x:5997.358566m  
===============================================================
FLAGS: H=HIGH PROBABILITY SEA STATE, I=LAND(ISLAND), O=OUTLIER NO SEA STATE, N=NO WIND AVAILABLE, SEA STATE NOT VISIBLE, M=MEAN PROBABILITY SEA STATE, L= LOW PROBABILITY SEA STATE
Filtering wave length
 integration  Lmin=1m
 integration  Lmax=2200m
  peak        Lmin=100m
               FFT=1024pixels, 3776.9343m 
   mean-Hs (SWH_c)=0.2m
         mean-wind=8.195062637m/s
--------------0--------------1---------2---------3---------4---------5---------6---------7---------8---------9--------10--------11--------12--------13--------14--------15--------16--------17--------18--------19------------------20--------21--------22--------23--------24--------25--------26--------27--------28--------29--------30--------31--------32--------33--------34--------35--------36--------37--------38--------39--------40--------41--------42--------43--------44--------45--------46--------47--------48--------49--------50--------51--------52--------53--------54--------55--------56--------57--------58--------59--------60--------61--------62--------63--------64--------65--------66--------67--------68--------69--------70--------71--------72--------73
            LAT            LON  P-LENGHT     SWH_o     SWH_c     P-DIR      LINE     POINT     ROW-Y     COL-X  M-INTENC        dB      WIND INC-ANGLE  ENERGY-M  ENERGY-N  ENERGY-R ENERGY-NN  FG-DEPTH      FLAG         HEADING-DEG    E30-75   E75-390  E390-600 meanincut   meanout   cut/out  STD-NORM  SPEC-MAX   GL-MEAN    GL-VAR      CORR   ENTROPY   HOMOGEN    ENERGY  CONTRAST  DISSIMIL     STD-O    E 1-30 E600-2000   E2000 >      GODA  LONG-HIG     Tmean  CONVOLUT  MEAN-DIR  relation     Sy/Sx  SKEWNESS  KURTOSIS  cutoff-A >50/10000     INT*V   INT-LOG  S-1_g1f1  S-2_g1f2  S-3_g1f3  S-4_g2f1  S-5_g2f2  S-6_g2f3  S-7_g3f1  S-8_g3f2  S-9_g3f3 S-10_g1f4 S-11_g2f4 S-12_g3f4 S-13_g1f5 S-14_g2f5 S-15_g3f5 S-16_g4f1 S-17_g4f2 S-18_g4f3 S-19_g4f4 S-20_g4f5
--------------1--------------2---------3---------4---------5---------6---------7---------8---------9--------10--------11--------12--------13--------14--------15--------16--------17--------18--------19--------20------------------21--------22--------23--------24--------25--------26--------27--------28--------29--------30--------31--------32--------33--------34--------35--------36--------37--------38--------39--------40--------41--------42--------43--------44--------45--------46--------47--------48--------49--------50--------51--------52--------53--------54--------55--------56--------57--------58--------59--------60--------61--------62--------63--------64--------65--------66--------67--------68--------69--------70--------71--------72--------73--------74
     -17.187399     -25.709921     235.0      0.42      1.62      34.1         1         1      1000      1000   2532.95    -5.964       6.9      23.4   384.813     0.743      77.5   0.17614      53.3         H               192.2  0.093801  0.031752  0.000672  3.360714  0.946813  3.549501  1.221956     11.78    4.5702   36.8970   0.26360   5.17907   0.27046   0.01406  54.34170   4.70888    3095.1  0.616481  0.001097  0.000050  0.000221  0.149407  6.732512  0.779682     85.30  1.000201  1.000026     3.517    27.413      88.6      82.8      68.9     420.7     11.40      2.42     -1.77      2.23     -0.40      1.61      0.57     -0.84      1.15     -0.09      1.12      0.52     -0.78     -0.30      0.55     -4.44     -1.25      2.90      1.05     -0.20
     -17.175028     -25.765631     248.1      0.47      1.62       7.5         1         2      1000      2626   2508.57    -6.006       7.8      23.9   381.382     0.733      59.1   0.17296      68.6         H               192.2  0.092293  0.030388  0.000670  3.203836  0.951289  3.367888  1.214041      9.76    4.5240   35.7704   0.26096   5.16374   0.27132   0.01413  52.87148   4.65665    3045.6  0.609325  0.000713  0.000024  0.000211  0.150065  6.724048  0.767940     85.23  1.000188  1.000025     3.551    31.196      84.8      82.8      66.9     446.1     11.35      2.30     -1.64      2.09     -0.64      1.33      0.89     -0.27      1.00     -0.12      0.51      0.23     -1.08     -0.27      0.30     -4.66     -2.38      2.55      0.44      0.56
     -17.162870     -25.820312     300.3      0.46      1.62      23.4         1         3      1000      4252   2226.43    -6.524       7.5      24.3   380.539     0.727      78.9   0.16882     100.0         H               192.2  0.090745  0.030066  0.000713  3.104822  0.954698  3.252149  1.207086     10.35    3.9641   28.1120   0.25851   4.92941   0.29529   0.01771  41.68963   4.12393    2687.3  0.604516  0.001102  0.000065  0.000200  0.150915  6.731029  0.761597     85.25  1.000191  1.000023     3.548    30.258      81.3      80.5      52.2     402.4     11.42      2.71     -2.01      2.04     -0.34      1.80      0.81     -0.78      1.02      0.42      1.21      0.51     -1.04      0.01      0.58     -5.20     -1.14      3.44      0.96      0.57
     -17.240162     -25.722225     246.2      0.48      1.62      35.9         2         1      2443      1000   2842.24    -5.463       8.0      23.4   386.961     0.750      71.8   0.18004      65.7         H               192.2  0.094476  0.031700  0.000801  3.295474  0.981748  3.356743  1.227691     11.08    5.1847   46.2509   0.26449   5.40632   0.24803   0.01122  68.03726   5.28725    3489.1  0.622831  0.000994  0.000038  0.000206  0.150050  6.721519  0.786851     86.83  1.000193  1.000026     3.608    29.245      86.6      84.9      88.2     498.8     11.51      2.32     -1.25      1.87     -0.88      1.35      0.93     -0.54      1.02     -0.01      0.86      0.13     -0.94     -0.10      0.31     -5.52     -2.54      2.23      0.91      0.61
     -17.227787     -25.777958     250.8      0.49      1.62      19.4         2         2      2443      2626   2633.20    -5.795       8.3      23.9   387.898     0.754      69.6   0.18218      73.3         H               192.2  0.095284  0.031048  0.000736  3.176924  0.995443  3.191469  1.232021     13.40    4.7782   40.0784   0.26538   5.25859   0.26232   0.01293  58.88403   4.90075    3243.9  0.626841  0.001031  0.000032  0.000212  0.151584  6.713304  0.790838     87.71  1.000190  1.000025     3.836    38.275      84.8      83.6      75.6     520.8     11.56      2.18     -2.07      1.67     -0.64      1.62      0.64     -0.75      0.84     -0.07      0.75      0.53     -0.58     -0.50      0.40     -5.47     -1.57      3.51      0.36     -0.53
     -17.215624     -25.832663     236.8      0.53      1.62      38.8         2         3      2443      4252   2573.65    -5.895       9.0      24.3   380.218     0.729      75.4   0.17069      54.9         H               192.2  0.090344  0.029910  0.000633  3.148324  0.961795  3.273384  1.210629     12.06    4.6546   37.3942   0.25947   5.21628   0.26538   0.01336  55.38169   4.77915    3115.6  0.607129  0.001083  0.000050  0.000209  0.150112  6.718584  0.763286     87.01  1.000187  1.000023     3.517    29.290      84.8      83.3      70.3     458.9     11.29      2.51     -1.74      2.29     -0.66      1.22      0.57     -0.62      0.67     -0.42      1.11      0.14     -1.55     -0.54      0.91     -4.49     -1.79      2.75      1.72     -0.16
     -17.292925     -25.734535     238.5      0.51      1.62      26.2         3         1      3886      1000   2968.85    -5.274       8.5      23.4   378.984     0.728      90.1   0.17001      56.6         H               192.2  0.089776  0.029222  0.000601  3.060906  0.934048  3.277033  1.209914      9.50    5.4388   49.2115   0.25895   5.49839   0.23907   0.01015  72.93580   5.51910    3591.7  0.607408  0.001188  0.000063  0.000222  0.149071  6.713398  0.762522     86.31  1.000192  1.000026     3.412    26.006      86.6      85.8      94.3     493.3     11.24      2.26     -1.51      2.60     -0.43      1.30      0.56     -0.76      1.49      0.48      0.76      0.36     -1.40     -0.17      0.62     -3.73     -1.78      2.18      0.32      0.86
     -17.280544     -25.790293     225.6      0.51      1.62      17.4         3         2      3886      2626   2704.82    -5.679       8.6      23.9   385.424     0.743      95.1   0.17703      45.7         H               192.2  0.092976  0.030192  0.000700  3.153153  0.969984  3.250725  1.222293      8.60    4.9147   41.7029   0.26223   5.31172   0.25696   0.01223  61.53443   5.02688    3306.1  0.618548  0.001402  0.000060  0.000207  0.150818  6.729081  0.778975     88.45  1.000196  1.000025     3.723    37.211      86.6      84.2      79.1     523.1     11.02      2.07     -1.48      2.74     -0.34      1.61      1.41     -0.06      1.33     -0.20      1.16      0.29     -0.82     -0.29      0.18     -4.17     -1.83      3.28      1.79      0.32
     -17.268375     -25.845018     279.8      0.54      1.62      31.2         3         3      3886      4252   2615.87    -5.824       9.2      24.3   378.307     0.722      51.2   0.16694     100.0         H               192.2  0.088324  0.029369  0.000627  3.077461  0.942438  3.265426  1.204969     10.41    4.7324   38.0610   0.25462   5.24916   0.26131   0.01280  56.73986   4.85416    3151.8  0.603096  0.000623  0.000026  0.000209  0.149364  6.719522  0.755335     86.97  1.000193  1.000024     3.568    31.398      83.0      83.8      72.0     480.2     11.27      1.94     -1.57      2.44     -0.67      1.24      0.79     -0.51      0.95     -0.42      1.13      0.06     -1.28     -0.40      0.50     -4.51     -1.54      2.54      1.69      0.16
