corner points
-34.63407516    -40.36009979
-34.70178986    -40.53062439
-34.8667717    -40.30490494
-34.93507004    -40.47529221
========== RESULTS WAVE VERSION 16.10.2018 ====================
IMAGE SIZE  X: 4466     Y:4772    col:row     POLARIZATION:VV
COVERAGE    X: 20.61288646km       Y: 19.76464459km 
RESOLUTION dX: 4.615514209m       dY:4.141794758m  
resolution of original product 4.615514209m x 4.141794758m;   raster step x:5995.552957m  
===============================================================
FLAGS: H=HIGH PROBABILITY SEA STATE, I=LAND(ISLAND), O=OUTLIER NO SEA STATE, N=NO WIND AVAILABLE, SEA STATE NOT VISIBLE, M=MEAN PROBABILITY SEA STATE, L= LOW PROBABILITY SEA STATE
Filtering wave length
 integration  Lmin=1m
 integration  Lmax=2200m
  peak        Lmin=100m
               FFT=1024pixels, 4726.28655m 
   mean-Hs (SWH_c)=1.425806427m
         mean-wind=13.95905399m/s
--------------0--------------1---------2---------3---------4---------5---------6---------7---------8---------9--------10--------11--------12--------13--------14--------15--------16--------17--------18--------19------------------20--------21--------22--------23--------24--------25--------26--------27--------28--------29--------30--------31--------32--------33--------34--------35--------36--------37--------38--------39--------40--------41--------42--------43--------44--------45--------46--------47--------48--------49--------50--------51--------52--------53--------54--------55--------56--------57--------58--------59--------60--------61--------62--------63--------64--------65--------66--------67--------68--------69--------70--------71--------72--------73
            LAT            LON  P-LENGHT     SWH_o     SWH_c     P-DIR      LINE     POINT     ROW-Y     COL-X  M-INTENC        dB      WIND INC-ANGLE  ENERGY-M  ENERGY-N  ENERGY-R ENERGY-NN  FG-DEPTH      FLAG         HEADING-DEG    E30-75   E75-390  E390-600 meanincut   meanout   cut/out  STD-NORM  SPEC-MAX   GL-MEAN    GL-VAR      CORR   ENTROPY   HOMOGEN    ENERGY  CONTRAST  DISSIMIL     STD-O    E 1-30 E600-2000   E2000 >      GODA  LONG-HIG     Tmean  CONVOLUT  MEAN-DIR  relation     Sy/Sx  SKEWNESS  KURTOSIS  cutoff-A >50/10000     INT*V   INT-LOG  S-1_g1f1  S-2_g1f2  S-3_g1f3  S-4_g2f1  S-5_g2f2  S-6_g2f3  S-7_g3f1  S-8_g3f2  S-9_g3f3 S-10_g1f4 S-11_g2f4 S-12_g3f4 S-13_g1f5 S-14_g2f5 S-15_g3f5 S-16_g4f1 S-17_g4f2 S-18_g4f3 S-19_g4f4 S-20_g4f5
--------------1--------------2---------3---------4---------5---------6---------7---------8---------9--------10--------11--------12--------13--------14--------15--------16--------17--------18--------19--------20------------------21--------22--------23--------24--------25--------26--------27--------28--------29--------30--------31--------32--------33--------34--------35--------36--------37--------38--------39--------40--------41--------42--------43--------44--------45--------46--------47--------48--------49--------50--------51--------52--------53--------54--------55--------56--------57--------58--------59--------60--------61--------62--------63--------64--------65--------66--------67--------68--------69--------70--------71--------72--------73--------74
     -40.383369     -34.701042     139.8      1.18      2.87      62.5         1         1      1000      1000    558.27   -12.532      12.8      36.0   271.663     0.579      44.1   0.08413      13.1         H               193.8  0.053422  0.020310  0.000539  2.030590  0.728446  2.787565  1.079727     10.26   10.5759  131.4450   0.12546   6.76776   0.12905   0.00233 229.90848  10.62828     602.7  0.504641  0.000507  0.000067  0.000128  0.168451  6.873037  0.584217     82.85  1.000197  1.000016     2.494    13.578     105.0      95.1     304.6     646.0     10.97      2.05      0.14      3.12      1.23      3.48      2.92      0.43      1.37      1.35      1.82      0.82     -0.94      0.01      1.34     -4.48      0.32      5.72      1.68      1.12
     -40.367256     -34.769054     141.9      1.33      2.87      64.2         1         2      1000      2299    591.41   -12.281      13.6      36.4   271.958     0.581      52.4   0.08587      13.6         H               193.8  0.053909  0.020398  0.000587  2.077062  0.738036  2.814311  1.081423      9.87   11.2037  145.0761   0.12688   6.86939   0.12339   0.00209 253.33578  11.20503     639.6  0.505842  0.000692  0.000097  0.000132  0.166217  6.860720  0.586021     81.27  1.000198  1.000016     2.508    13.932     107.8      95.6     344.7     718.8     10.91      1.51      0.79      3.10      1.48      2.90      3.03      0.68      1.28      1.40      1.71      1.16     -1.07      0.24      1.71     -4.75      0.64      4.45      1.27      0.85
     -40.351250     -34.836433     108.1      1.47      2.87      79.7         1         3      1000      3598    636.91   -11.959      14.4      36.8   270.118     0.579      53.8   0.08782       7.5         H               193.8  0.054988  0.020256  0.000459  2.052554  0.750569  2.734664  1.079420     10.26   12.0597  163.0545   0.13057   6.99774   0.11638   0.00180 283.53177  11.93430     687.4  0.502889  0.000659  0.000099  0.000135  0.166215  6.840086  0.584156     81.98  1.000188  1.000016     2.520    14.320     105.0      96.3     401.8     781.6     11.19      1.63      1.12      3.22      1.13      2.74      2.13     -0.05      1.27      1.54      1.32      0.48     -1.43      0.62      1.78     -3.86      0.53      3.21      0.77      1.41
     -40.435116     -34.721619     100.3      1.31      2.87      85.9         2         1      2448      1000    595.40   -12.252      13.3      36.0   271.478     0.580      89.4   0.08587       6.4         H               193.8  0.053438  0.020487  0.000612  2.075092  0.721683  2.875352  1.081077     10.58   11.2821  146.6344   0.12755   6.88218   0.12243   0.00206 255.86400  11.27238     643.7  0.504990  0.001020  0.000223  0.000129  0.168709  6.876661  0.585537     81.88  1.000166  1.000013     2.517    14.194     102.3      95.6     349.5     721.7     11.26      1.79      0.48      2.86      1.41      3.43      2.61      0.19      0.68      1.39      1.54      0.49     -1.15      0.22      1.93     -5.58      0.38      5.92      1.18      0.65
     -40.418991     -34.789684     100.1      1.39      2.87      84.6         2         2      2448      2299    605.61   -12.178      13.8      36.4   271.357     0.580      47.1   0.08600       6.4         H               193.8  0.054651  0.020832  0.000524  2.113734  0.729343  2.898134  1.080225     12.76   11.4736  150.7896   0.12836   6.91173   0.12081   0.00199 262.86966  11.43746     654.2  0.503575  0.000555  0.000075  0.000138  0.167535  6.866630  0.585053     82.61  1.000173  1.000014     2.489    13.614     105.0      95.8     362.1     706.9     11.15      1.14      0.28      3.02      1.41      3.45      2.34      0.33      0.92      0.96      1.33      1.07     -1.18      0.36      2.03     -4.47      1.15      6.11      0.77      0.88
     -40.402973     -34.857113     109.3      1.50      2.87      84.1         2         3      2448      3598    626.04   -12.034      14.3      36.8   272.887     0.587      61.8   0.08910       7.7         H               193.8  0.055293  0.021143  0.000605  2.145279  0.741197  2.894346  1.086313     13.31   11.8451  159.3097   0.13155   6.96444   0.11789   0.00188 276.70456  11.76380     680.1  0.509029  0.000796  0.000108  0.000140  0.166050  6.862112  0.592159     83.83  1.000217  1.000020     2.566    14.800     110.8      96.0     390.6     771.1     11.28      1.46      0.68      2.55      0.61      2.91      2.69      0.26      0.93      1.07      1.14      0.30     -0.66      0.38      1.85     -5.76     -0.37      4.53      0.92      0.77
     -40.486858     -34.742226     102.3      1.52      2.87      84.5         3         1      3896      1000    666.60   -11.761      14.2      36.0   270.319     0.578      67.5   0.08662       6.7         H               193.8  0.053894  0.020651  0.000545  2.058393  0.724628  2.840622  1.079240     10.62   12.6112  175.4304   0.12986   7.07235   0.11211   0.00165 305.29877  12.43899     719.4  0.502883  0.000781  0.000165  0.000139  0.164932  6.851009  0.583824     84.00  1.000183  1.000015     2.467    13.178     105.0      96.6     442.4     767.2     11.05      1.46      0.12      2.85      1.01      2.86      2.59      0.20      1.14      1.20      1.18      0.70     -0.68      0.09      2.06     -4.92      0.37      4.85      0.78     -0.06
     -40.470722     -34.810345     102.0      1.54      2.87      83.1         3         2      3896      2299    652.77   -11.852      14.4      36.4   272.545     0.586      59.3   0.08999       6.6         H               193.8  0.056175  0.021285  0.000577  2.170893  0.747660  2.903583  1.085857     12.62   12.3451  170.2834   0.13126   7.03482   0.11394   0.00173 295.86383  12.21356     708.8  0.507353  0.000761  0.000102  0.000145  0.165762  6.857848  0.591020     83.37  1.000202  1.000019     2.550    14.417     110.8      96.4     426.2     788.0     11.31      1.18      0.76      2.71      1.21      2.97      2.62      0.48      1.22      1.06      1.25      0.64     -1.09      0.55      1.49     -5.53      0.78      4.12      1.24      1.66
     -40.454689     -34.877823     103.9      1.60      2.87      81.5         3         3      3896      3598    671.40   -11.730      14.9      36.8   271.230     0.582      45.3   0.08896       6.9         H               193.8  0.055545  0.020819  0.000570  2.090835  0.719214  2.907111  1.082377     13.25   12.6922  177.7006   0.13154   7.08195   0.11193   0.00164 308.65057  12.50700     726.8  0.505308  0.000519  0.000068  0.000144  0.167204  6.846837  0.587692     83.37  1.000207  1.000018     2.506    13.919     107.8      96.6     450.4     792.7     11.35      1.16      0.70      2.49      0.48      2.71      2.40      0.61      1.39      0.91      1.30      0.45     -0.88      0.54      1.97     -5.40     -0.61      3.58      1.57      0.99
