corner points
-22.49204254    -3.004596233
-22.53015327    -3.185310364
-22.67248726    -2.965450525
-22.71067047    -3.146126986
========== RESULTS WAVE VERSION 16.10.2018 ====================
IMAGE SIZE  X: 5599     Y:4928    col:row     POLARIZATION:VV
COVERAGE    X: 20.46150973km       Y: 20.48808018km 
RESOLUTION dX: 3.654493612m       dY:4.157483802m  
resolution of original product 3.654493612m x 4.157483802m;   raster step x:5997.024017m  
===============================================================
FLAGS: H=HIGH PROBABILITY SEA STATE, I=LAND(ISLAND), O=OUTLIER NO SEA STATE, N=NO WIND AVAILABLE, SEA STATE NOT VISIBLE, M=MEAN PROBABILITY SEA STATE, L= LOW PROBABILITY SEA STATE
Filtering wave length
 integration  Lmin=1m
 integration  Lmax=2200m
  peak        Lmin=100m
               FFT=1024pixels, 3742.201459m 
   mean-Hs (SWH_c)=0.2m
         mean-wind=6.629218578m/s
--------------0--------------1---------2---------3---------4---------5---------6---------7---------8---------9--------10--------11--------12--------13--------14--------15--------16--------17--------18--------19------------------20--------21--------22--------23--------24--------25--------26--------27--------28--------29--------30--------31--------32--------33--------34--------35--------36--------37--------38--------39--------40--------41--------42--------43--------44--------45--------46--------47--------48--------49--------50--------51--------52--------53--------54--------55--------56--------57--------58--------59--------60--------61--------62--------63--------64--------65--------66--------67--------68--------69--------70--------71--------72--------73
            LAT            LON  P-LENGHT     SWH_o     SWH_c     P-DIR      LINE     POINT     ROW-Y     COL-X  M-INTENC        dB      WIND INC-ANGLE  ENERGY-M  ENERGY-N  ENERGY-R ENERGY-NN  FG-DEPTH      FLAG         HEADING-DEG    E30-75   E75-390  E390-600 meanincut   meanout   cut/out  STD-NORM  SPEC-MAX   GL-MEAN    GL-VAR      CORR   ENTROPY   HOMOGEN    ENERGY  CONTRAST  DISSIMIL     STD-O    E 1-30 E600-2000   E2000 >      GODA  LONG-HIG     Tmean  CONVOLUT  MEAN-DIR  relation     Sy/Sx  SKEWNESS  KURTOSIS  cutoff-A >50/10000     INT*V   INT-LOG  S-1_g1f1  S-2_g1f2  S-3_g1f3  S-4_g2f1  S-5_g2f2  S-6_g2f3  S-7_g3f1  S-8_g3f2  S-9_g3f3 S-10_g1f4 S-11_g2f4 S-12_g3f4 S-13_g1f5 S-14_g2f5 S-15_g3f5 S-16_g4f1 S-17_g4f2 S-18_g4f3 S-19_g4f4 S-20_g4f5
--------------1--------------2---------3---------4---------5---------6---------7---------8---------9--------10--------11--------12--------13--------14--------15--------16--------17--------18--------19--------20------------------21--------22--------23--------24--------25--------26--------27--------28--------29--------30--------31--------32--------33--------34--------35--------36--------37--------38--------39--------40--------41--------42--------43--------44--------45--------46--------47--------48--------49--------50--------51--------52--------53--------54--------55--------56--------57--------58--------59--------60--------61--------62--------63--------64--------65--------66--------67--------68--------69--------70--------71--------72--------73--------74
      -3.034102     -22.532848     300.2      0.39      1.65       9.2         1         1      1000      1000   2259.29    -6.460       6.3      23.6   410.263     0.710      58.8   0.16031     100.0         H               192.0  0.087842  0.032080  0.000659  3.374836  0.887638  3.802039  1.194831     11.99    4.0357   28.5788   0.25379   4.96309   0.29216   0.01721  42.65194   4.18988    2699.4  0.588717  0.000782  0.000025  0.000231  0.153852  6.770205  0.744151     82.34  1.000164  1.000018     3.251    23.329      78.1      80.8      53.0     346.3     11.75      3.34     -2.75      1.71     -0.05      2.16      0.01     -1.10      1.81      0.01      1.53      0.46     -0.34     -1.05      0.41     -5.04     -1.41      3.88      1.72     -1.37
      -3.022505     -22.586306     348.6      0.41      1.65      10.7         1         2      1000      2641   2141.34    -6.693       6.7      24.1   406.301     0.697      64.0   0.15531     100.0         H               192.0  0.082589  0.032299  0.000966  3.344333  0.902258  3.706625  1.181513     14.05    3.8000   25.2896   0.24906   4.85948   0.30242   0.01887  37.98231   3.96452    2529.8  0.580507  0.000990  0.000028  0.000202  0.157992  6.812230  0.729638     82.25  1.000134  1.000014     3.150    21.473      73.8      79.9      47.0     313.0     11.80      3.24     -3.11      1.26     -0.18      3.11      0.89     -0.93      0.71      0.19      1.20      0.47     -0.19     -1.92      1.30     -7.27     -1.42      7.44      1.34     -3.83
      -3.011116     -22.638792     326.2      0.41      1.65       5.0         1         3      1000      4282   1918.61    -7.170       6.7      24.5   408.445     0.703      56.1   0.15781     100.0         H               192.0  0.085196  0.031983  0.000701  3.285740  0.906901  3.623042  1.189208     12.72    3.3653   20.5719   0.25140   4.64462   0.32634   0.02330  30.79999   3.55283    2281.6  0.584974  0.000764  0.000020  0.000209  0.156710  6.792725  0.736595     82.39  1.000151  1.000016     3.267    24.354      75.2      77.5      38.2     303.9     11.73      2.99     -3.00      1.47     -0.22      2.13      0.26     -1.30      1.58      0.16      0.95      0.63     -0.52     -1.24      0.64     -5.46     -0.73      4.37      1.08     -1.84
      -3.087027     -22.544012     295.4      0.40      1.65      13.7         2         1      2443      1000   2316.65    -6.351       6.5      23.6   410.919     0.711      87.2   0.16096     100.0         H               192.0  0.087261  0.031359  0.000811  3.211768  0.924045  3.475768  1.195984     15.57    4.1403   29.9089   0.25413   5.00896   0.28691   0.01637  44.61562   4.28923    2770.6  0.590562  0.001269  0.000064  0.000213  0.155871  6.774589  0.745086     85.37  1.000164  1.000018     3.311    25.343      78.1      81.3      55.6     383.0     11.89      3.03     -3.16      1.12      0.04      2.71      0.45     -1.18      1.17     -0.33      1.59      0.71     -0.58     -1.54      1.19     -6.50     -0.56      5.85      1.91     -2.87
      -3.075426     -22.597477     326.2      0.42      1.65       5.0         2         2      2443      2641   2183.15    -6.609       6.9      24.1   404.114     0.693      64.6   0.15303     100.0         H               192.0  0.083110  0.030288  0.000852  3.149540  0.902319  3.490494  1.179333     15.74    3.8710   26.0031   0.24781   4.89347   0.29805   0.01813  39.11798   4.03075    2574.6  0.577895  0.000961  0.000031  0.000208  0.154195  6.775281  0.725397     83.75  1.000147  1.000016     3.130    21.074      76.6      80.3      48.3     311.4     11.81      2.85     -3.38      0.85     -0.28      3.08      1.19     -0.28      0.95      0.39      1.29      0.37      0.16     -1.74      0.96     -7.53     -1.79      7.16      1.43     -3.58
      -3.064034     -22.649969     269.0      0.41      1.65      46.0         2         3      2443      4282   1892.67    -7.229       6.6      24.5   406.592     0.699      72.5   0.15613     100.0         H               192.0  0.084053  0.032065  0.000987  3.316914  0.900251  3.684433  1.185769     16.57    3.3005   19.8096   0.25030   4.61118   0.33041   0.02406  29.70281   3.48722    2244.2  0.581715  0.001048  0.000036  0.000201  0.157863  6.802458  0.732812     83.25  1.000150  1.000016     3.212    22.838      78.1      77.1      36.7     286.9     12.02      3.60     -2.86      0.91     -0.25      3.24      0.76     -1.75      0.78      0.22      0.86      0.71     -1.05     -1.04      1.79     -7.60     -1.00      7.43      0.34     -2.50
      -3.139951     -22.555180     289.9      0.40      1.65      27.7         3         1      3886      1000   2295.34    -6.392       6.5      23.6   412.057     0.714     101.2   0.16193     100.0         H               192.0  0.086437  0.032617  0.000980  3.376935  0.910324  3.709596  1.198808     14.03    4.1050   29.5903   0.25474   4.99282   0.28887   0.01671  44.10496   4.26021    2751.7  0.593198  0.001654  0.000073  0.000206  0.157965  6.799789  0.749332     82.10  1.000148  1.000015     3.329    25.039      78.1      81.1      55.0     373.1     11.80      3.08     -3.03      1.25      0.00      2.72      0.81     -0.98      1.25     -0.76      1.44      0.78     -0.44     -1.25      0.96     -7.26     -0.88      6.14      2.19     -2.55
      -3.128348     -22.608650     316.7      0.40      1.65      14.7         3         2      3886      2641   2067.52    -6.845       6.4      24.1   406.083     0.698      52.4   0.15588     100.0         H               192.0  0.082903  0.031860  0.000754  3.259380  0.871127  3.741569  1.184010     12.07    3.6598   23.7066   0.24982   4.79292   0.30941   0.02007  35.56830   3.83173    2447.9  0.582355  0.000759  0.000015  0.000204  0.157824  6.786653  0.731120     83.37  1.000154  1.000016     3.175    21.855      75.2      79.2      44.0     300.7     11.77      3.16     -2.82      1.45      0.11      2.53      0.33     -1.47      1.38      0.22      1.10      0.40     -0.92     -0.94      1.42     -5.99     -0.68      5.09      1.16     -1.36
      -3.116952     -22.661148     281.1      0.42      1.65      48.7         3         3      3886      4282   1972.66    -7.049       6.9      24.5   402.037     0.686      91.1   0.15124     100.0         H               192.0  0.080131  0.030636  0.000743  3.190548  0.888589  3.590578  1.173918     12.94    3.4615   21.1614   0.24662   4.69738   0.31980   0.02194  31.88539   3.63915    2315.6  0.573449  0.001473  0.000071  0.000199  0.159144  6.827192  0.717859     82.19  1.000170  1.000017     3.091    20.628      78.1      78.2      39.4     274.9     11.85      3.55     -2.45      1.51     -0.27      2.14      0.30     -1.11      1.65      0.29      1.32      0.65     -1.08     -0.74      1.08     -6.11     -1.73      3.76      1.43     -1.05
