corner points
-22.87134552    -4.776330471
-22.90975571    -4.957119465
-23.05234146    -4.736861706
-23.09084702    -4.917611122
========== RESULTS WAVE VERSION 16.10.2018 ====================
IMAGE SIZE  X: 5599     Y:4931    col:row     POLARIZATION:VV
COVERAGE    X: 20.48815709km       Y: 20.50134208km 
RESOLUTION dX: 3.659252918m       dY:4.157643901m  
resolution of original product 3.659252918m x 4.157643901m;   raster step x:5997.515532m  
===============================================================
FLAGS: H=HIGH PROBABILITY SEA STATE, I=LAND(ISLAND), O=OUTLIER NO SEA STATE, N=NO WIND AVAILABLE, SEA STATE NOT VISIBLE, M=MEAN PROBABILITY SEA STATE, L= LOW PROBABILITY SEA STATE
Filtering wave length
 integration  Lmin=1m
 integration  Lmax=2200m
  peak        Lmin=100m
               FFT=1024pixels, 3747.074988m 
   mean-Hs (SWH_c)=0.2m
         mean-wind=7.52314806m/s
--------------0--------------1---------2---------3---------4---------5---------6---------7---------8---------9--------10--------11--------12--------13--------14--------15--------16--------17--------18--------19------------------20--------21--------22--------23--------24--------25--------26--------27--------28--------29--------30--------31--------32--------33--------34--------35--------36--------37--------38--------39--------40--------41--------42--------43--------44--------45--------46--------47--------48--------49--------50--------51--------52--------53--------54--------55--------56--------57--------58--------59--------60--------61--------62--------63--------64--------65--------66--------67--------68--------69--------70--------71--------72--------73
            LAT            LON  P-LENGHT     SWH_o     SWH_c     P-DIR      LINE     POINT     ROW-Y     COL-X  M-INTENC        dB      WIND INC-ANGLE  ENERGY-M  ENERGY-N  ENERGY-R ENERGY-NN  FG-DEPTH      FLAG         HEADING-DEG    E30-75   E75-390  E390-600 meanincut   meanout   cut/out  STD-NORM  SPEC-MAX   GL-MEAN    GL-VAR      CORR   ENTROPY   HOMOGEN    ENERGY  CONTRAST  DISSIMIL     STD-O    E 1-30 E600-2000   E2000 >      GODA  LONG-HIG     Tmean  CONVOLUT  MEAN-DIR  relation     Sy/Sx  SKEWNESS  KURTOSIS  cutoff-A >50/10000     INT*V   INT-LOG  S-1_g1f1  S-2_g1f2  S-3_g1f3  S-4_g2f1  S-5_g2f2  S-6_g2f3  S-7_g3f1  S-8_g3f2  S-9_g3f3 S-10_g1f4 S-11_g2f4 S-12_g3f4 S-13_g1f5 S-14_g2f5 S-15_g3f5 S-16_g4f1 S-17_g4f2 S-18_g4f3 S-19_g4f4 S-20_g4f5
--------------1--------------2---------3---------4---------5---------6---------7---------8---------9--------10--------11--------12--------13--------14--------15--------16--------17--------18--------19--------20------------------21--------22--------23--------24--------25--------26--------27--------28--------29--------30--------31--------32--------33--------34--------35--------36--------37--------38--------39--------40--------41--------42--------43--------44--------45--------46--------47--------48--------49--------50--------51--------52--------53--------54--------55--------56--------57--------58--------59--------60--------61--------62--------63--------64--------65--------66--------67--------68--------69--------70--------71--------72--------73--------74
      -4.805770     -22.912312     256.0      0.46      1.56      15.9         1         1      1000      1000   2627.83    -5.804       7.7      23.6   410.320     0.724      52.4   0.16706      85.0         H               192.0  0.091355  0.030055  0.000869  3.156039  0.945115  3.339317  1.207185     12.67    4.7716   38.9029   0.25787   5.26180   0.26109   0.01279  57.74148   4.89196    3172.1  0.601526  0.000675  0.000017  0.000219  0.150608  6.733845  0.759124     89.06  1.000174  1.000020     3.448    28.069      79.7      83.7      73.3     460.9     11.63      2.98     -2.98      1.42     -0.09      2.77      0.97     -1.17      0.75     -0.54      1.10      0.79     -0.51     -1.28      1.08     -6.66     -0.94      6.91      1.31     -2.60
      -4.794092     -22.965872     255.7      0.44      1.56      48.6         1         2      1000      2639   2274.72    -6.431       7.2      24.1   404.034     0.707      92.8   0.15989      84.3         H               192.0  0.088266  0.029179  0.000759  3.095381  0.905695  3.417685  1.192558     11.02    4.0635   28.8305   0.25326   4.97633   0.29024   0.01690  43.05765   4.21720    2712.7  0.588176  0.001296  0.000077  0.000223  0.151109  6.734898  0.741150     90.26  1.000164  1.000018     3.269    23.962      81.3      81.0      53.7     368.9     11.69      2.70     -2.38      1.52     -0.06      2.37      0.75     -1.04      1.04     -0.01      0.80      0.29     -0.75     -1.11      0.86     -6.05     -0.75      4.85      0.83     -1.73
      -4.782622     -23.018456     300.2      0.39      1.56       9.2         1         3      1000      4278   1851.67    -7.324       6.3      24.5   408.131     0.719      67.2   0.16490     100.0         H               192.0  0.089536  0.031588  0.000815  3.251293  0.912861  3.561651  1.200339     12.68    3.2383   19.6723   0.25668   4.57281   0.33588   0.02539  29.24611   3.43494    2222.5  0.596714  0.001005  0.000031  0.000209  0.155771  6.761621  0.754083     87.04  1.000163  1.000021     3.300    24.279      81.3      76.4      36.2     290.9     11.90      3.07     -2.86      1.23     -0.39      2.67      0.31     -0.86      0.93      0.12      0.90     -0.08     -0.50     -1.35      1.23     -6.49     -2.13      6.02      1.50     -2.55
      -4.858685     -22.923557     322.6      0.47      1.56       9.9         2         1      2443      1000   2661.34    -5.749       7.8      23.6   405.178     0.714      87.5   0.16437     100.0         H               192.0  0.089773  0.028989  0.000715  3.038317  0.934459  3.251419  1.198121     12.91    4.8236   39.2953   0.25641   5.28305   0.25912   0.01245  58.43934   4.93064    3188.3  0.593879  0.001134  0.000082  0.000217  0.152013  6.718018  0.748412     90.49  1.000172  1.000019     3.312    23.938      81.3      84.0      74.1     409.2     11.87      3.21     -2.28      1.34     -0.18      2.12      0.29     -1.31      0.74      0.63      1.09      0.05     -0.79     -1.10      1.11     -6.01     -1.16      4.66      0.89     -1.77
      -4.847003     -22.977127     245.6      0.47      1.56      36.1         2         2      2443      2639   2418.38    -6.165       7.8      24.1   405.260     0.712      61.3   0.16287      64.9         H               192.0  0.089813  0.029880  0.000704  3.141579  0.918007  3.422172  1.197152     11.98    4.3521   32.6584   0.25610   5.09853   0.27727   0.01491  48.58914   4.48378    2895.2  0.591741  0.000766  0.000036  0.000217  0.152548  6.733361  0.747218     87.04  1.000170  1.000020     3.366    25.533      79.7      82.3      61.2     391.4     11.75      3.11     -2.13      1.74     -0.73      1.80      0.02     -1.09      1.15      0.14      1.15      0.43     -1.29     -0.30      0.86     -5.29     -2.21      3.46      1.40      0.19
      -4.835530     -23.029718     295.7      0.40      1.56      33.5         2         3      2443      4278   1877.48    -7.264       6.5      24.5   409.258     0.721     290.3   0.16639     100.0         M               192.0  0.089486  0.030741  0.000863  3.196365  0.939518  3.402134  1.204905     15.48    3.2724   20.1006   0.26003   4.59028   0.33432   0.02501  29.74771   3.46318    2262.0  0.595842  0.004355  0.000330  0.000212  0.153443  6.749380  0.756966     90.14  1.000187  1.000022     3.390    26.923      86.6      76.6      36.9     318.3     11.88      2.88     -1.98      1.27     -0.26      1.87      0.59     -0.97      1.37     -0.24      1.30      0.83     -0.83     -0.74      1.48     -6.83     -1.15      3.39      1.14     -2.13
      -4.911599     -22.934807     308.5      0.48      1.56      29.6         3         1      3886      1000   2695.93    -5.693       7.9      23.6   408.017     0.721      70.9   0.16600     100.0         H               192.0  0.091325  0.028936  0.000626  2.969453  0.917592  3.236139  1.203837     13.22    4.9060   40.9501   0.25640   5.31176   0.25659   0.01221  60.90070   5.02153    3245.5  0.599449  0.000927  0.000043  0.000227  0.152001  6.703457  0.755590     90.80  1.000183  1.000022     3.309    23.560      83.0      84.2      76.9     407.8     11.52      3.08     -2.59      1.95     -0.32      2.14      0.29     -1.30      1.32     -0.24      1.34      0.71     -1.26     -0.58      0.86     -4.54     -1.30      4.37      1.60     -0.15
      -4.899914     -22.988384     205.2      0.48      1.56      61.2         3         2      3886      2639   2462.67    -6.086       8.0      24.0   408.911     0.721      68.7   0.16609      33.9         H               192.0  0.091234  0.029208  0.000759  3.105383  0.927207  3.349180  1.204087      9.02    4.4239   34.0584   0.25648   5.12568   0.27506   0.01462  50.64529   4.56303    2965.2  0.599773  0.000954  0.000046  0.000224  0.149599  6.715948  0.756211     88.80  1.000170  1.000018     3.396    26.764      83.0      82.5      63.5     415.7     11.65      3.01     -2.05      1.75     -0.35      1.92      0.56     -0.98      0.88      0.55      0.70      0.11     -1.03     -0.85      1.04     -6.00     -2.02      4.10      0.32     -1.31
      -4.888438     -23.040983     282.8      0.45      1.56      37.1         3         3      3886      4278   2105.76    -6.766       7.5      24.5   403.201     0.705      57.8   0.15986     100.0         H               192.0  0.086378  0.029682  0.000810  3.094283  0.918122  3.370231  1.190026     11.94    3.7382   24.7418   0.25150   4.82941   0.30483   0.01938  37.03828   3.90782    2505.7  0.587605  0.000791  0.000026  0.000208  0.152975  6.750208  0.737881     90.32  1.000157  1.000018     3.321    25.912      81.3      79.5      46.0     349.4     11.71      3.24     -2.75      1.42     -0.51      2.93      0.81     -1.04      0.70     -0.27      0.92      0.21     -0.88     -1.17      1.55     -6.51     -2.19      6.59      1.16     -2.28
