corner points
-76.52317047    -23.16859627
-76.56816101    -23.34814835
-76.7248764    -23.12381363
-76.77024078    -23.30328941
========== RESULTS WAVE VERSION 16.10.2018 ====================
IMAGE SIZE  X: 5715     Y:4923    col:row     POLARIZATION:VV
COVERAGE    X: 21.17454825km       Y: 20.44201454km 
RESOLUTION dX: 3.705082808m       dY:4.152349083m  
resolution of original product 3.705082808m x 4.152349083m;   raster step x:5998.529066m  
===============================================================
FLAGS: H=HIGH PROBABILITY SEA STATE, I=LAND(ISLAND), O=OUTLIER NO SEA STATE, N=NO WIND AVAILABLE, SEA STATE NOT VISIBLE, M=MEAN PROBABILITY SEA STATE, L= LOW PROBABILITY SEA STATE
Filtering wave length
 integration  Lmin=1m
 integration  Lmax=2200m
  peak        Lmin=100m
               FFT=1024pixels, 3794.004795m 
   mean-Hs (SWH_c)=0.4424358749m
         mean-wind=4.478601456m/s
--------------0--------------1---------2---------3---------4---------5---------6---------7---------8---------9--------10--------11--------12--------13--------14--------15--------16--------17--------18--------19------------------20--------21--------22--------23--------24--------25--------26--------27--------28--------29--------30--------31--------32--------33--------34--------35--------36--------37--------38--------39--------40--------41--------42--------43--------44--------45--------46--------47--------48--------49--------50--------51--------52--------53--------54--------55--------56--------57--------58--------59--------60--------61--------62--------63--------64--------65--------66--------67--------68--------69--------70--------71--------72--------73
            LAT            LON  P-LENGHT     SWH_o     SWH_c     P-DIR      LINE     POINT     ROW-Y     COL-X  M-INTENC        dB      WIND INC-ANGLE  ENERGY-M  ENERGY-N  ENERGY-R ENERGY-NN  FG-DEPTH      FLAG         HEADING-DEG    E30-75   E75-390  E390-600 meanincut   meanout   cut/out  STD-NORM  SPEC-MAX   GL-MEAN    GL-VAR      CORR   ENTROPY   HOMOGEN    ENERGY  CONTRAST  DISSIMIL     STD-O    E 1-30 E600-2000   E2000 >      GODA  LONG-HIG     Tmean  CONVOLUT  MEAN-DIR  relation     Sy/Sx  SKEWNESS  KURTOSIS  cutoff-A >50/10000     INT*V   INT-LOG  S-1_g1f1  S-2_g1f2  S-3_g1f3  S-4_g2f1  S-5_g2f2  S-6_g2f3  S-7_g3f1  S-8_g3f2  S-9_g3f3 S-10_g1f4 S-11_g2f4 S-12_g3f4 S-13_g1f5 S-14_g2f5 S-15_g3f5 S-16_g4f1 S-17_g4f2 S-18_g4f3 S-19_g4f4 S-20_g4f5
--------------1--------------2---------3---------4---------5---------6---------7---------8---------9--------10--------11--------12--------13--------14--------15--------16--------17--------18--------19--------20------------------21--------22--------23--------24--------25--------26--------27--------28--------29--------30--------31--------32--------33--------34--------35--------36--------37--------38--------39--------40--------41--------42--------43--------44--------45--------46--------47--------48--------49--------50--------51--------52--------53--------54--------55--------56--------57--------58--------59--------60--------61--------62--------63--------64--------65--------66--------67--------68--------69--------70--------71--------72--------73--------74
     -23.197042     -76.568588     245.0      0.54      1.76     157.2         1         1      1000      1000   1658.67    -7.802       4.1      23.3   341.875     0.648     332.9   0.13160      64.1         H               192.4  0.056779  0.046008  0.000879  3.164942  0.850885  3.719589  1.142266     42.38    2.8343   14.1427   0.23183   4.35833   0.35941   0.03041  21.72815   3.02937    1894.4  0.539250  0.004781  0.000431  0.000167  0.221170  7.448089  0.677843    149.74  0.999982  0.999997     2.745    15.766      65.3      74.2      26.9     201.6     12.13     -3.34     -5.85      2.16      0.83     -0.19     -3.53      2.90      4.49      2.82     -0.79     -2.10     -2.01     -2.01     -0.03     -3.30      1.21      0.74     -0.97     -1.33
     -23.184216     -76.626434     241.9      0.44      1.76     165.2         1         2      1000      2619   1788.46    -7.475       4.9      23.7   336.593     0.635     150.4   0.12777      60.2         H               192.4  0.056766  0.041492  0.001129  2.956076  0.845965  3.494325  1.130982     49.68    3.1101   16.2889   0.22646   4.52218   0.33795   0.02538  25.20061   3.29078    2022.7  0.533466  0.002614  0.000108  0.000161  0.219694  7.359666  0.663210    153.20  1.000011  1.000001     2.696    15.257      62.2      76.5      31.2     215.6     12.29     -3.43     -5.79      1.54      0.52     -0.19     -3.06      2.65      4.85      3.39     -0.95     -2.45     -1.76     -2.17      0.06     -5.04      0.97     -0.20     -1.19     -1.49
     -23.171602     -76.683197     243.3      0.59      1.76     149.1         1         3      1000      4238   1390.17    -8.569       4.2      24.2   342.331     0.650     251.5   0.13247      62.0         H               192.4  0.056965  0.046588  0.000916  2.777430  0.851973  3.259997  1.143718     63.57    2.3095    9.9546   0.23032   4.01348   0.40344   0.04250  15.32368   2.52438    1589.9  0.541690  0.003518  0.000318  0.000204  0.228960  7.461123  0.679242    150.08  1.000007  1.000000     2.804    16.846      67.5      69.6      19.3     176.0     12.50     -4.58     -6.58      1.62      0.53     -0.13     -4.57      3.99      4.79      4.13     -0.93     -3.01     -2.68     -1.63      0.94     -3.87      0.65      0.98     -1.41     -0.69
     -23.249716     -76.581810     237.5      0.46      1.76     161.8         2         1      2444      1000   1698.93    -7.698       4.1      23.3   338.735     0.639     161.9   0.12825      55.7         H               192.4  0.057173  0.044339  0.000897  3.206283  0.846461  3.787866  1.134683     53.71    2.9250   14.7102   0.22715   4.41535   0.35157   0.02837  22.73761   3.11333    1927.8  0.534223  0.002615  0.000118  0.000168  0.219186  7.413029  0.667760    148.85  0.999992  0.999999     2.719    15.518      65.3      75.1      28.2     198.2     12.01     -3.11     -6.16      2.29      0.56     -0.09     -3.33      2.29      4.68      2.72     -1.08     -2.40     -1.77     -2.24     -0.56     -3.54      0.84      0.71     -0.66     -0.79
     -23.236881     -76.639679     215.1      0.47      1.76     149.3         2         2      2444      2619   1783.26    -7.488       4.9      23.7   338.045     0.640     244.0   0.13032      39.1         H               192.4  0.057328  0.042396  0.000868  2.895370  0.848270  3.413267  1.135519     49.32    3.0851   16.2055   0.22964   4.50670   0.33991   0.02587  24.96833   3.26564    2025.0  0.536016  0.003579  0.000285  0.000165  0.222043  7.390544  0.668653    148.03  0.999994  1.000000     2.760    16.229      62.2      76.3      30.9     216.6     12.32     -3.72     -5.94      1.72      0.99     -0.04     -3.83      2.78      4.63      2.95     -1.18     -2.11     -2.40     -1.58      0.46     -3.78      1.29      0.48     -1.12     -0.76
     -23.224262     -76.696480     238.6      0.38      1.76     153.9         2         3      2444      4238   1498.03    -8.245       4.5      24.2   340.035     0.644     271.4   0.13041      56.7         H               192.4  0.057937  0.042065  0.000945  2.929200  0.858821  3.410723  1.138701     55.25    2.5299   11.5445   0.22928   4.16780   0.38201   0.03615  17.79507   2.73692    1705.6  0.538368  0.004602  0.000241  0.000164  0.220419  7.362576  0.672792    151.48  1.000006  1.000001     2.800    16.801      62.2      71.9      22.3     182.8     12.31     -3.04     -6.50      1.58      0.98      0.07     -3.69      2.52      4.68      3.14     -0.90     -2.43     -1.70     -1.79      0.20     -4.32      1.02      1.16     -0.68     -1.28
     -23.302387     -76.595032     215.1      0.36      1.76     149.3         3         1      3888      1000   1812.23    -7.418       4.4      23.2   334.818     0.628     123.3   0.12459      39.1         H               192.4  0.055413  0.040828  0.000759  2.899397  0.829166  3.496764  1.124802     39.68    3.1566   16.5335   0.22266   4.54984   0.33378   0.02449  25.70414   3.33217    2038.3  0.529684  0.001855  0.000086  0.000160  0.216673  7.358813  0.655427    143.99  1.000015  1.000001     2.688    15.358      62.2      76.9      31.8     213.1     11.91     -2.04     -5.81      2.55      0.95     -0.49     -3.52      2.18      4.23      2.44     -0.83     -1.96     -2.15     -1.70     -0.02     -3.04      0.57      0.83     -1.02     -0.32
     -23.289547     -76.652931     227.1      0.33      1.76     155.2         3         2      3888      2619   1596.47    -7.968       4.4      23.7   336.612     0.636     183.2   0.12774      46.8         H               192.4  0.057404  0.041469  0.000873  3.009499  0.841183  3.577697  1.130749     52.08    2.7138   12.8521   0.22676   4.28790   0.36704   0.03201  19.87578   2.90893    1805.1  0.532993  0.003231  0.000123  0.000161  0.217911  7.354701  0.663932    151.60  1.000010  1.000001     2.700    15.282      60.3      73.6      24.8     185.8     12.17     -2.85     -6.07      1.83      0.68      0.25     -3.38      2.72      4.47      3.29     -0.96     -2.58     -1.93     -1.91      0.05     -3.70      0.20      1.35     -0.79     -1.13
     -23.276922     -76.709763     241.9      0.43      1.76     165.2         3         3      3888      4238   1559.12    -8.071       4.7      24.2   339.276     0.642     271.4   0.13089      60.2         H               192.4  0.057623  0.042365  0.000829  2.943134  0.858240  3.429266  1.137667     54.07    2.6503   12.4721   0.22996   4.24621   0.37253   0.03348  19.20819   2.84962    1773.7  0.537354  0.004300  0.000304  0.000165  0.221427  7.367783  0.671230    151.94  1.000002  1.000000     2.772    16.460      63.2      73.0      24.0     188.7     12.32     -3.58     -6.06      1.88      0.78      0.10     -3.97      2.88      4.43      3.13     -1.09     -2.46     -2.08     -1.90      0.18     -3.68      0.86      0.94     -0.98     -0.54
