corner points
-79.47872925    -33.70161438
-79.53242493    -33.87966537
-79.70304108    -33.65248489
-79.75731659    -33.83042908
========== RESULTS WAVE VERSION 16.10.2018 ====================
IMAGE SIZE  X: 5715     Y:4914    col:row     POLARIZATION:VV
COVERAGE    X: 21.42184976km       Y: 20.36621983km 
RESOLUTION dX: 3.748355163m       dY:4.144529879m  
resolution of original product 3.748355163m x 4.144529879m;   raster step x:5997.368261m  
===============================================================
FLAGS: H=HIGH PROBABILITY SEA STATE, I=LAND(ISLAND), O=OUTLIER NO SEA STATE, N=NO WIND AVAILABLE, SEA STATE NOT VISIBLE, M=MEAN PROBABILITY SEA STATE, L= LOW PROBABILITY SEA STATE
Filtering wave length
 integration  Lmin=1m
 integration  Lmax=2200m
  peak        Lmin=100m
               FFT=1024pixels, 3838.315687m 
   mean-Hs (SWH_c)=0.407485199m
         mean-wind=5.481481552m/s
--------------0--------------1---------2---------3---------4---------5---------6---------7---------8---------9--------10--------11--------12--------13--------14--------15--------16--------17--------18--------19------------------20--------21--------22--------23--------24--------25--------26--------27--------28--------29--------30--------31--------32--------33--------34--------35--------36--------37--------38--------39--------40--------41--------42--------43--------44--------45--------46--------47--------48--------49--------50--------51--------52--------53--------54--------55--------56--------57--------58--------59--------60--------61--------62--------63--------64--------65--------66--------67--------68--------69--------70--------71--------72--------73
            LAT            LON  P-LENGHT     SWH_o     SWH_c     P-DIR      LINE     POINT     ROW-Y     COL-X  M-INTENC        dB      WIND INC-ANGLE  ENERGY-M  ENERGY-N  ENERGY-R ENERGY-NN  FG-DEPTH      FLAG         HEADING-DEG    E30-75   E75-390  E390-600 meanincut   meanout   cut/out  STD-NORM  SPEC-MAX   GL-MEAN    GL-VAR      CORR   ENTROPY   HOMOGEN    ENERGY  CONTRAST  DISSIMIL     STD-O    E 1-30 E600-2000   E2000 >      GODA  LONG-HIG     Tmean  CONVOLUT  MEAN-DIR  relation     Sy/Sx  SKEWNESS  KURTOSIS  cutoff-A >50/10000     INT*V   INT-LOG  S-1_g1f1  S-2_g1f2  S-3_g1f3  S-4_g2f1  S-5_g2f2  S-6_g2f3  S-7_g3f1  S-8_g3f2  S-9_g3f3 S-10_g1f4 S-11_g2f4 S-12_g3f4 S-13_g1f5 S-14_g2f5 S-15_g3f5 S-16_g4f1 S-17_g4f2 S-18_g4f3 S-19_g4f4 S-20_g4f5
--------------1--------------2---------3---------4---------5---------6---------7---------8---------9--------10--------11--------12--------13--------14--------15--------16--------17--------18--------19--------20------------------21--------22--------23--------24--------25--------26--------27--------28--------29--------30--------31--------32--------33--------34--------35--------36--------37--------38--------39--------40--------41--------42--------43--------44--------45--------46--------47--------48--------49--------50--------51--------52--------53--------54--------55--------56--------57--------58--------59--------60--------61--------62--------63--------64--------65--------66--------67--------68--------69--------70--------71--------72--------73--------74
     -33.729046     -79.530037     177.3      0.32      1.96     163.9         1         1      1000      1000   2200.08    -6.576       5.1      23.0   314.526     0.716     101.6   0.16407      23.0         H               193.0  0.087332  0.045329  0.000814  4.223002  0.944118  4.472959  1.198287     32.63    3.9344   27.5937   0.26282   4.91352   0.29950   0.01844  40.68245   4.08102    2636.2  0.582034  0.001243  0.000092  0.000227  0.166760  6.945670  0.751374     75.78  1.000121  1.000013     3.188    21.823      75.2      80.0      50.8     328.9     11.70     -1.45     -4.01      1.95      0.07      0.98     -1.15      1.51      4.05      2.93      0.18     -1.22      1.10     -0.46     -0.75     -3.94      0.54      2.19     -0.68     -0.71
     -33.715137     -79.593651     102.3      0.40      1.96      68.8         1         2      1000      2600   2365.82    -6.260       6.4      23.4   310.139     0.704     133.1   0.15860       6.7         H               193.0  0.081736  0.043645  0.000895  3.956681  0.892365  4.433926  1.190201     35.85    4.2295   30.9053   0.25729   5.04528   0.28524   0.01610  45.90700   4.35967    2815.7  0.576697  0.001910  0.000125  0.000239  0.166008  6.950920  0.737939     73.78  1.000106  1.000011     3.137    21.479      78.1      81.5      57.4     352.8     11.64     -1.07     -3.52      1.83      0.44      1.28     -0.17      1.17      3.91      2.24      0.93     -0.60      0.84     -0.74     -0.54     -4.98      1.59      2.20      1.02     -1.06
     -33.701454     -79.656059     104.0      0.35      1.96      71.4         1         3      1000      4200   1919.91    -7.167       5.6      23.9   314.388     0.714     146.2   0.16184       6.9         H               193.0  0.084023  0.046179  0.000859  4.040864  0.914435  4.418975  1.198615     34.12    3.3555   20.8065   0.25986   4.63245   0.33201   0.02448  30.79954   3.53253    2301.2  0.580745  0.002153  0.000135  0.000250  0.168109  6.978852  0.748066     74.69  1.000109  1.000011     3.145    21.427      81.3      76.8      38.1     288.8     11.52     -0.46     -3.33      2.20      0.57      1.72     -0.23      1.72      4.20      2.23      1.15     -0.29      0.90     -0.64     -0.53     -3.75      0.89      2.75      1.63     -0.75
     -33.781479     -79.545876     103.1      0.45      1.96      70.1         2         1      2447      1000   2305.99    -6.371       5.4      23.0   319.746     0.740      73.2   0.17497       6.8         H               193.0  0.093383  0.050929  0.000847  4.611030  0.954990  4.828352  1.218800     38.79    4.1341   31.0230   0.27238   4.99442   0.29301   0.01740  45.14631   4.26937    2810.6  0.594361  0.000879  0.000027  0.000255  0.164680  6.942367  0.778096     74.84  1.000149  1.000020     3.331    24.487      83.0      80.6      56.9     377.8     11.76     -0.93     -3.60      1.95      0.45      1.95     -0.73      1.32      4.11      2.40      0.15     -0.85      0.82     -0.46     -0.77     -3.79      0.58      2.85     -0.20     -0.18
     -33.767563     -79.609535     103.1      0.59      1.96      70.1         2         2      2447      2600   2205.44    -6.565       5.8      23.4   322.400     0.746     116.3   0.17583       6.8         H               193.0  0.091891  0.052780  0.001036  4.719550  0.963807  4.896781  1.224667     40.19    3.9243   28.5403   0.27234   4.89970   0.30433   0.01927  41.53471   4.07539    2700.8  0.599201  0.001707  0.000079  0.000257  0.165036  6.971414  0.784842     76.10  1.000133  1.000016     3.369    24.993      84.8      79.5      52.0     360.4     11.83     -1.12     -3.44      1.57      0.49      1.50     -0.44      1.64      3.95      2.17      0.68     -0.84      0.56     -0.77     -0.45     -4.99      0.76      2.35      1.07     -0.95
     -33.753876     -79.671989     102.8      0.49      1.96      74.6         2         3      2447      4200   1842.81    -7.345       5.3      23.9   326.871     0.759     207.8   0.18134       6.7         H               193.0  0.096015  0.053814  0.001184  4.837609  0.971256  4.980778  1.236381     53.55    3.2010   20.3421   0.27684   4.53712   0.34655   0.02787  29.42128   3.39029    2278.2  0.605729  0.003026  0.000238  0.000269  0.161309  6.948141  0.799419     76.40  1.000170  1.000022     3.394    24.300      88.6      75.2      36.6     284.6     11.60     -0.85     -2.81      1.64      0.53      0.84      0.33      1.65      4.42      2.36      0.61     -0.51      0.82     -0.56     -0.48     -5.63      0.64      0.91      0.50     -0.32
     -33.833916     -79.561729     100.2      0.42      1.96      74.9         3         1      3894      1000   2256.00    -6.467       5.2      22.9   319.398     0.737      77.9   0.17262       6.4         H               193.0  0.090323  0.049946  0.000905  4.195904  0.934737  4.488863  1.215709     40.73    4.0308   29.5873   0.26930   4.95027   0.29785   0.01813  43.23830   4.17176    2742.6  0.595068  0.000927  0.000044  0.000292  0.164119  6.958142  0.773998     73.39  1.000116  1.000014     3.294    23.037      83.0      80.2      54.1     343.7     11.94     -0.82     -3.35      1.60     -0.03      1.58     -0.63      1.42      4.02      2.19      0.18     -0.94      1.11     -0.27     -0.68     -4.80     -0.13      2.52      0.05     -0.37
     -33.819988     -79.625443     100.2      0.35      1.96      74.9         3         2      3894      2600   2138.50    -6.699       5.6      23.4   316.716     0.730     128.2   0.17122       6.4         H               193.0  0.090098  0.046390  0.000920  4.423759  0.965670  4.581024  1.212075     32.27    3.7925   26.3778   0.26790   4.84327   0.30891   0.02009  38.62240   3.95031    2591.9  0.591587  0.001935  0.000104  0.000231  0.165054  6.925633  0.766744     75.10  1.000152  1.000017     3.247    22.593      79.7      79.1      48.1     329.9     11.54     -1.20     -2.99      1.95      0.47      0.87     -0.19      1.64      3.65      2.75      0.61     -0.82      0.61     -0.56     -0.55     -4.60      1.21      1.43      0.52     -0.83
     -33.806290     -79.687935     107.5      0.45      1.96      72.3         3         3      3894      4200   1773.78    -7.511       5.1      23.9   320.951     0.741     383.4   0.17386       7.4         H               193.0  0.088764  0.051677  0.000993  4.494473  0.935026  4.806787  1.222722     38.86    3.0709   18.5352   0.27292   4.46884   0.35452   0.02961  26.95296   3.25814    2168.9  0.593799  0.005550  0.000539  0.000249  0.167513  6.979934  0.779490     74.69  1.000133  1.000014     3.265    22.440      83.0      74.4      33.5     269.7     11.75     -1.23     -3.72      1.65      0.61      1.16     -0.56      1.83      4.41      2.85      0.76     -0.73      0.90     -0.59     -1.15     -4.68      1.36      1.79      0.72     -0.88
