corner points
-78.94881439    -31.95100784
-79.00068665    -32.12940598
-79.16841888    -31.90275383
-79.22083282    -32.08105087
========== RESULTS WAVE VERSION 16.10.2018 ====================
IMAGE SIZE  X: 5715     Y:4917    col:row     POLARIZATION:VV
COVERAGE    X: 21.36691112km       Y: 20.38594384km 
RESOLUTION dX: 3.738742104m       dY:4.146012577m  
resolution of original product 3.738742104m x 4.146012577m;   raster step x:5996.942334m  
===============================================================
FLAGS: H=HIGH PROBABILITY SEA STATE, I=LAND(ISLAND), O=OUTLIER NO SEA STATE, N=NO WIND AVAILABLE, SEA STATE NOT VISIBLE, M=MEAN PROBABILITY SEA STATE, L= LOW PROBABILITY SEA STATE
Filtering wave length
 integration  Lmin=1m
 integration  Lmax=2200m
  peak        Lmin=100m
               FFT=1024pixels, 3828.471914m 
   mean-Hs (SWH_c)=0.2m
         mean-wind=5.481481552m/s
--------------0--------------1---------2---------3---------4---------5---------6---------7---------8---------9--------10--------11--------12--------13--------14--------15--------16--------17--------18--------19------------------20--------21--------22--------23--------24--------25--------26--------27--------28--------29--------30--------31--------32--------33--------34--------35--------36--------37--------38--------39--------40--------41--------42--------43--------44--------45--------46--------47--------48--------49--------50--------51--------52--------53--------54--------55--------56--------57--------58--------59--------60--------61--------62--------63--------64--------65--------66--------67--------68--------69--------70--------71--------72--------73
            LAT            LON  P-LENGHT     SWH_o     SWH_c     P-DIR      LINE     POINT     ROW-Y     COL-X  M-INTENC        dB      WIND INC-ANGLE  ENERGY-M  ENERGY-N  ENERGY-R ENERGY-NN  FG-DEPTH      FLAG         HEADING-DEG    E30-75   E75-390  E390-600 meanincut   meanout   cut/out  STD-NORM  SPEC-MAX   GL-MEAN    GL-VAR      CORR   ENTROPY   HOMOGEN    ENERGY  CONTRAST  DISSIMIL     STD-O    E 1-30 E600-2000   E2000 >      GODA  LONG-HIG     Tmean  CONVOLUT  MEAN-DIR  relation     Sy/Sx  SKEWNESS  KURTOSIS  cutoff-A >50/10000     INT*V   INT-LOG  S-1_g1f1  S-2_g1f2  S-3_g1f3  S-4_g2f1  S-5_g2f2  S-6_g2f3  S-7_g3f1  S-8_g3f2  S-9_g3f3 S-10_g1f4 S-11_g2f4 S-12_g3f4 S-13_g1f5 S-14_g2f5 S-15_g3f5 S-16_g4f1 S-17_g4f2 S-18_g4f3 S-19_g4f4 S-20_g4f5
--------------1--------------2---------3---------4---------5---------6---------7---------8---------9--------10--------11--------12--------13--------14--------15--------16--------17--------18--------19--------20------------------21--------22--------23--------24--------25--------26--------27--------28--------29--------30--------31--------32--------33--------34--------35--------36--------37--------38--------39--------40--------41--------42--------43--------44--------45--------46--------47--------48--------49--------50--------51--------52--------53--------54--------55--------56--------57--------58--------59--------60--------61--------62--------63--------64--------65--------66--------67--------68--------69--------70--------71--------72--------73--------74
     -31.978643     -78.998894     107.3      0.36      1.99      72.3         1         1      1000      1000   2402.89    -6.193       5.8      23.0   324.470     0.721     124.3   0.16619       7.4         H               192.9  0.086811  0.039129  0.000954  3.871090  0.931054  4.157751  1.203567     17.00    4.3123   32.6549   0.26121   5.07660   0.28221   0.01567  48.24987   4.44798    2892.1  0.592951  0.001728  0.000119  0.000193  0.168953  6.904045  0.755485     77.36  1.000168  1.000017     3.260    24.073      81.3      81.7      60.4     393.5     11.48     -0.02     -1.39      2.61      0.29      1.80      0.92      1.38      2.84      1.08      0.54      0.80     -0.57     -1.08     -0.58     -4.25      0.56      2.45      0.12     -0.05
     -31.964949     -79.061317     108.4      0.35      1.99      69.1         1         2      1000      2604   2133.00    -6.710       5.7      23.5   324.457     0.718     135.1   0.16451       7.5         H               192.9  0.086996  0.040116  0.001020  3.985925  0.921064  4.327522  1.202549     21.26    3.7900   25.8960   0.25936   4.84743   0.30589   0.01959  38.35891   3.95195    2564.9  0.587983  0.001997  0.000128  0.000205  0.166610  6.898932  0.751284     78.93  1.000164  1.000019     3.261    23.283      81.3      79.4      47.7     325.8     11.50     -0.16     -1.49      2.50      0.59      1.59      0.82      1.32      3.21      1.09      0.68      0.76     -0.26     -1.19     -0.24     -4.62      1.19      1.84      0.64     -0.91
     -31.951479     -79.122559     105.2      0.34      1.99      74.2         1         3      1000      4208   1842.72    -7.345       5.4      24.0   324.286     0.718      84.9   0.16361       7.1         H               192.9  0.087156  0.040004  0.000897  3.958051  0.902163  4.387292  1.200360     21.14    3.2058   19.3056   0.25868   4.55399   0.33968   0.02615  28.62321   3.39752    2211.8  0.589187  0.001371  0.000044  0.000200  0.169326  6.900450  0.752392     78.45  1.000154  1.000017     3.229    22.781      83.0      76.1      35.4     284.8     11.50      0.38     -1.25      2.81      0.50      2.35      0.72      1.10      3.38      1.11      0.67      0.51      0.15     -0.90     -0.44     -3.61      0.28      2.57      0.89     -0.28
     -32.031147     -79.014183     212.0      0.34      1.99       3.2         2         1      2447      1000   2307.54    -6.369       5.5      23.0   324.457     0.720     116.8   0.16498      37.3         H               192.9  0.087096  0.037888  0.001017  3.758580  0.927101  4.054120  1.202650     15.67    4.1317   30.2760   0.25847   5.00029   0.29014   0.01691  44.90095   4.28081    2775.2  0.592646  0.001906  0.000086  0.000187  0.170515  6.903202  0.753945     78.82  1.000163  1.000019     3.212    22.086      81.3      80.9      55.8     345.7     11.67     -0.36     -1.61      2.45      0.52      1.59      0.44      1.15      3.13      1.08      0.60      0.27     -0.75     -1.33     -0.20     -5.01      0.99      1.58      0.65     -0.77
     -32.017445     -79.076653     114.4      0.35      1.99      67.8         2         2      2447      2604   2096.61    -6.785       5.5      23.5   321.282     0.707      64.3   0.15827       8.4         H               192.9  0.083709  0.036327  0.000743  3.591264  0.893381  4.019856  1.191760     16.01    3.7190   24.7490   0.25199   4.81779   0.30793   0.01993  37.02493   3.89482    2498.5  0.585852  0.000917  0.000024  0.000191  0.167168  6.869411  0.739236     79.00  1.000168  1.000019     3.143    20.749      81.3      79.2      45.6     290.2     11.31      0.08     -1.62      3.00      0.91      1.77      0.53      1.19      3.00      1.06      0.79      0.59     -0.59     -1.17     -0.33     -3.03      1.80      2.10      1.08     -0.61
     -32.003971     -79.137939     100.5      0.33      1.99      76.3         2         3      2447      4208   1781.44    -7.492       5.2      24.0   324.052     0.716      95.1   0.16248       6.4         H               192.9  0.086325  0.038205  0.000940  3.831301  0.919457  4.166916  1.200077     19.35    3.0935   18.0937   0.25675   4.49304   0.34658   0.02766  26.89633   3.29128    2137.9  0.589491  0.001455  0.000055  0.000193  0.167746  6.892057  0.749399     79.06  1.000174  1.000019     3.240    22.717      79.7      75.4      33.2     261.4     11.48     -0.85     -1.45      2.67      0.51      1.51      0.73      1.70      3.29      0.66      0.28      0.38     -0.32     -1.60      0.02     -4.28      1.24      1.47      0.70     -1.39
     -32.083652     -79.029488     197.8      0.34      1.99     168.1         3         1      3894      1000   2307.00    -6.370       5.5      23.0   322.398     0.710      78.7   0.16062      30.6         H               192.9  0.082276  0.036578  0.000833  3.518854  0.903613  3.894204  1.195063     15.88    4.1357   29.9118   0.25344   5.00608   0.28777   0.01656  44.66206   4.28801    2757.0  0.589798  0.001181  0.000047  0.000181  0.170676  6.904602  0.742318     79.33  1.000150  1.000016     3.209    22.187      76.6      81.2      55.5     342.9     11.37     -0.37     -2.28      2.92      0.18      1.78      0.49      1.06      3.22      0.79      0.20     -0.11     -0.19     -1.31     -0.84     -3.72      0.35      2.44      0.45     -0.47
     -32.069942     -79.092003     209.4      0.34      1.99     170.6         3         2      3894      2604   2073.96    -6.832       5.4      23.5   320.418     0.704      76.9   0.15769      36.0         H               192.9  0.081821  0.035935  0.000930  3.449753  0.915237  3.769246  1.189805     17.58    3.6703   24.0499   0.25173   4.79509   0.31041   0.02036  35.99189   3.84382    2467.5  0.585061  0.001083  0.000042  0.000180  0.171260  6.884284  0.735962     80.61  1.000169  1.000017     3.150    21.285      76.6      78.9      44.4     295.0     11.61     -0.90     -1.81      2.58      0.03      1.53      0.21      1.17      2.96      0.83      0.19     -0.10     -0.31     -1.18     -0.59     -4.46      0.80      1.50      0.59     -0.72
     -32.056458     -79.153336     199.7      0.34      1.99     171.0         3         3      3894      4208   1869.60    -7.283       5.4      24.0   318.661     0.703     111.7   0.16009      31.4         H               192.9  0.082494  0.037742  0.001006  3.656138  0.906213  4.034526  1.189874     14.05    3.2622   19.5426   0.25649   4.58809   0.33449   0.02490  29.06035   3.44381    2224.5  0.580751  0.001870  0.000083  0.000179  0.171358  6.926471  0.735993     77.74  1.000158  1.000016     3.143    20.808      76.6      76.7      36.1     269.1     11.61     -0.62     -1.61      2.31      0.38      1.36      0.55      0.95      2.93      0.69      0.31      0.16     -0.01     -1.37     -0.77     -5.12      1.06      1.11      0.50     -1.11
