corner points
-81.13465881    -32.39248657
-81.19008636    -32.5646286
-81.34689331    -32.34223175
-81.40274048    -32.5142746
========== RESULTS WAVE VERSION 16.10.2018 ====================
IMAGE SIZE  X: 4500     Y:4772    col:row     POLARIZATION:VV
COVERAGE    X: 20.65712594km       Y: 19.79077104km 
RESOLUTION dX: 4.590472431m       dY:4.147269707m  
resolution of original product 4.590472431m x 4.147269707m;   raster step x:5999.747467m  
===============================================================
FLAGS: H=HIGH PROBABILITY SEA STATE, I=LAND(ISLAND), O=OUTLIER NO SEA STATE, N=NO WIND AVAILABLE, SEA STATE NOT VISIBLE, M=MEAN PROBABILITY SEA STATE, L= LOW PROBABILITY SEA STATE
Filtering wave length
 integration  Lmin=1m
 integration  Lmax=2200m
  peak        Lmin=100m
               FFT=1024pixels, 4700.643769m 
   mean-Hs (SWH_c)=0.2m
         mean-wind=6.537036896m/s
--------------0--------------1---------2---------3---------4---------5---------6---------7---------8---------9--------10--------11--------12--------13--------14--------15--------16--------17--------18--------19------------------20--------21--------22--------23--------24--------25--------26--------27--------28--------29--------30--------31--------32--------33--------34--------35--------36--------37--------38--------39--------40--------41--------42--------43--------44--------45--------46--------47--------48--------49--------50--------51--------52--------53--------54--------55--------56--------57--------58--------59--------60--------61--------62--------63--------64--------65--------66--------67--------68--------69--------70--------71--------72--------73
            LAT            LON  P-LENGHT     SWH_o     SWH_c     P-DIR      LINE     POINT     ROW-Y     COL-X  M-INTENC        dB      WIND INC-ANGLE  ENERGY-M  ENERGY-N  ENERGY-R ENERGY-NN  FG-DEPTH      FLAG         HEADING-DEG    E30-75   E75-390  E390-600 meanincut   meanout   cut/out  STD-NORM  SPEC-MAX   GL-MEAN    GL-VAR      CORR   ENTROPY   HOMOGEN    ENERGY  CONTRAST  DISSIMIL     STD-O    E 1-30 E600-2000   E2000 >      GODA  LONG-HIG     Tmean  CONVOLUT  MEAN-DIR  relation     Sy/Sx  SKEWNESS  KURTOSIS  cutoff-A >50/10000     INT*V   INT-LOG  S-1_g1f1  S-2_g1f2  S-3_g1f3  S-4_g2f1  S-5_g2f2  S-6_g2f3  S-7_g3f1  S-8_g3f2  S-9_g3f3 S-10_g1f4 S-11_g2f4 S-12_g3f4 S-13_g1f5 S-14_g2f5 S-15_g3f5 S-16_g4f1 S-17_g4f2 S-18_g4f3 S-19_g4f4 S-20_g4f5
--------------1--------------2---------3---------4---------5---------6---------7---------8---------9--------10--------11--------12--------13--------14--------15--------16--------17--------18--------19--------20------------------21--------22--------23--------24--------25--------26--------27--------28--------29--------30--------31--------32--------33--------34--------35--------36--------37--------38--------39--------40--------41--------42--------43--------44--------45--------46--------47--------48--------49--------50--------51--------52--------53--------54--------55--------56--------57--------58--------59--------60--------61--------62--------63--------64--------65--------66--------67--------68--------69--------70--------71--------72--------73--------74
     -32.417290     -81.194038     104.2      0.34      1.79      77.2         1         1      1000      1000    176.47   -17.533       5.4      36.2   261.607     0.569     393.6   0.06670       6.9         H               193.0  0.044293  0.018010  0.001023  1.688777  0.652338  2.588806  1.072688      8.98    3.0538   14.2445   0.09678   4.51924   0.31686   0.02244  25.73187   3.43201     189.3  0.499425  0.005370  0.001125  0.000128  0.168498  6.887318  0.575252     73.10  1.000173  1.000008     2.413    12.575     124.8      77.4      28.7     179.8     12.09     -1.14     -1.18     -0.76      0.72     -1.08      2.51      0.53      3.25      1.00      0.59     -0.13      1.53     -1.28      0.00    -13.71      2.63     -4.41      0.90     -2.84
     -32.402641     -81.255974     104.1      0.43      1.79      68.4         1         2      1000      2307    232.62   -16.333       7.1      36.6   256.904     0.562     249.0   0.06920       6.9         H               193.0  0.045329  0.018504  0.000937  1.704750  0.669545  2.546132  1.064704     11.45    4.1727   24.3811   0.10364   5.06924   0.25862   0.01290  43.70855   4.51092     247.7  0.492922  0.003853  0.000618  0.000131  0.169359  6.886495  0.567583     73.31  1.000070  1.000005     2.403    14.189      94.9      83.4      48.7     280.1     11.85     -1.47     -2.41     -0.06      0.76     -0.45      1.97      0.68      3.23      0.96      0.50     -0.40      0.85     -1.00     -0.15    -11.91      2.49     -2.29      0.95     -1.71
     -32.388092     -81.317337     102.5      0.45      1.79      78.9         1         3      1000      3614    234.09   -16.306       7.4      37.0   255.067     0.555     201.2   0.06720       6.7         H               193.0  0.045086  0.017564  0.000668  1.652291  0.669031  2.469677  1.058645      8.40    4.2012   24.4858   0.09983   5.08210   0.25687   0.01272  44.08260   4.54250     247.8  0.488729  0.002910  0.000545  0.000128  0.168359  6.877285  0.560135     76.25  1.000040  1.000003     2.313    11.516      90.6      83.5      48.9     224.1     11.51     -0.76     -2.37      0.91      0.43     -0.11      1.58      1.15      3.06      1.26      0.61      0.28     -0.02     -0.88     -0.38     -8.59      0.82     -0.84      0.28     -0.19
     -32.469460     -81.210854     101.5      0.35      1.79      71.9         2         1      2446      1000    186.33   -17.297       5.6      36.2   256.220     0.553      62.9   0.06217       6.6         H               193.0  0.043952  0.017458  0.000565  1.638051  0.638295  2.566293  1.055013      9.88    3.2488   15.3770   0.08571   4.62941   0.30212   0.01967  28.11808   3.62129     196.6  0.489904  0.001097  0.000096  0.000132  0.165261  6.868321  0.557100     73.73  1.000091  1.000005     2.327    11.802      94.9      78.9      31.3     185.9     11.23     -0.72     -2.37      1.51      0.28     -0.10      1.33      0.33      3.02      0.91      0.19      0.00      1.03     -0.57     -0.24     -7.10      1.46     -0.95      0.16     -0.90
     -32.454800     -81.272827     102.8      0.45      1.79      70.2         2         2      2446      2307    245.62   -16.097       7.4      36.6   258.276     0.567     393.6   0.07205       6.7         H               193.0  0.045786  0.019789  0.000892  1.836120  0.664152  2.764606  1.070801      8.52    4.4323   27.5136   0.11111   5.17606   0.24954   0.01174  48.91312   4.75972     263.0  0.494796  0.005284  0.001090  0.000137  0.170653  6.919420  0.573657     73.29  1.000056  1.000003     2.409    12.779     102.3      84.3      54.5     267.3     11.96     -1.61     -2.17     -0.07      0.40     -0.33      1.77      0.93      2.99      0.56      1.12     -0.57      0.06     -0.93      0.17    -11.37      1.77     -1.28      2.49     -1.06
     -32.440243     -81.334229     102.0      0.41      1.79      68.9         2         3      2446      3614    204.89   -16.885       6.7      37.0   256.684     0.557     155.2   0.06506       6.6         H               193.0  0.044804  0.016990  0.000503  1.659472  0.647050  2.564672  1.059726     11.60    3.6201   18.7734   0.09253   4.81816   0.28197   0.01639  34.07243   3.98706     217.2  0.492045  0.002140  0.000412  0.000131  0.164134  6.845637  0.561150     74.55  1.000103  1.000005     2.354    12.038     102.3      80.9      37.8     203.9     11.06     -0.04     -1.43      2.06      0.65      0.58      1.74      0.54      2.56      1.02      0.28      0.32     -0.19     -0.20      0.49     -6.13      1.67      0.02      0.67      0.25
     -32.521626     -81.227692     102.8      0.34      1.79      70.2         3         1      3892      1000    179.80   -17.452       5.5      36.2   263.849     0.577     678.2   0.06997       6.7         H               193.0  0.044232  0.018112  0.001097  1.710634  0.649592  2.633396  1.082262     10.77    3.1196   15.0505   0.10558   4.55418   0.31414   0.02193  26.92325   3.49461     194.6  0.503313  0.008404  0.002024  0.000128  0.168382  6.886740  0.584360     73.29  1.000145  1.000007     2.479    13.273     160.0      77.6      30.0     191.1     12.02     -1.38     -0.84     -0.58      1.29     -1.23      2.90      0.06      3.36      0.48      1.12     -0.65      1.06     -1.29      0.30    -14.00      3.83     -4.63      2.89     -3.29
     -32.506958     -81.289703     102.8      0.43      1.79      70.2         3         2      3892      2307    227.92   -16.422       7.0      36.6   256.690     0.562     170.1   0.06886       6.7         H               193.0  0.046555  0.018814  0.000807  1.790567  0.658691  2.718370  1.064023     11.34    4.0802   23.4044   0.10263   5.02920   0.26261   0.01342  42.00499   4.42072     242.5  0.492783  0.002693  0.000437  0.000138  0.164625  6.872334  0.567386     74.45  1.000062  1.000005     2.369    12.289      97.3      83.1      46.8     242.5     11.71     -0.76     -2.60      0.09      0.76      0.23      2.12      0.65      2.83      0.80      0.42      0.16      0.76     -1.22      0.13    -10.98      1.61     -0.35      0.61     -2.20
     -32.492390     -81.351143     105.0      0.41      1.79      69.7         3         3      3892      3614    207.40   -16.832       6.7      37.0   257.974     0.562     218.3   0.06744       7.0         H               193.0  0.045684  0.018043  0.000615  1.707178  0.647945  2.634759  1.065412     11.72    3.6705   19.4488   0.09899   4.84128   0.28121   0.01618  35.04715   4.03104     220.9  0.494376  0.003298  0.000557  0.000134  0.165744  6.861892  0.567747     74.16  1.000073  1.000003     2.376    12.239      99.7      81.0      38.9     209.5     11.48     -0.76     -2.36      0.98      0.09      0.39      1.51      1.31      2.63      0.84      0.64      0.12      0.15     -0.43      0.16     -8.34     -0.24      0.16      0.59     -0.56
