corner points
-98.3213501    -54.85532379
-98.43669891    -54.69068909
-98.02707672    -54.78501511
-98.14349365    -54.62065506
========== RESULTS WAVE VERSION 16.10.2018 ====================
IMAGE SIZE  X: 4376     Y:4770    col:row     POLARIZATION:VV
COVERAGE    X: 20.3613888km       Y: 19.70204389km 
RESOLUTION dX: 4.652968191m       dY:4.130407524m  
resolution of original product 4.652968191m x 4.130407524m;   raster step x:5997.675998m  
===============================================================
FLAGS: H=HIGH PROBABILITY SEA STATE, I=LAND(ISLAND), O=OUTLIER NO SEA STATE, N=NO WIND AVAILABLE, SEA STATE NOT VISIBLE, M=MEAN PROBABILITY SEA STATE, L= LOW PROBABILITY SEA STATE
Filtering wave length
 integration  Lmin=1m
 integration  Lmax=2200m
  peak        Lmin=100m
               FFT=1024pixels, 4764.639428m 
   mean-Hs (SWH_c)=2.649588623m
         mean-wind=10.42777729m/s
--------------0--------------1---------2---------3---------4---------5---------6---------7---------8---------9--------10--------11--------12--------13--------14--------15--------16--------17--------18--------19------------------20--------21--------22--------23--------24--------25--------26--------27--------28--------29--------30--------31--------32--------33--------34--------35--------36--------37--------38--------39--------40--------41--------42--------43--------44--------45--------46--------47--------48--------49--------50--------51--------52--------53--------54--------55--------56--------57--------58--------59--------60--------61--------62--------63--------64--------65--------66--------67--------68--------69--------70--------71--------72--------73
            LAT            LON  P-LENGHT     SWH_o     SWH_c     P-DIR      LINE     POINT     ROW-Y     COL-X  M-INTENC        dB      WIND INC-ANGLE  ENERGY-M  ENERGY-N  ENERGY-R ENERGY-NN  FG-DEPTH      FLAG         HEADING-DEG    E30-75   E75-390  E390-600 meanincut   meanout   cut/out  STD-NORM  SPEC-MAX   GL-MEAN    GL-VAR      CORR   ENTROPY   HOMOGEN    ENERGY  CONTRAST  DISSIMIL     STD-O    E 1-30 E600-2000   E2000 >      GODA  LONG-HIG     Tmean  CONVOLUT  MEAN-DIR  relation     Sy/Sx  SKEWNESS  KURTOSIS  cutoff-A >50/10000     INT*V   INT-LOG  S-1_g1f1  S-2_g1f2  S-3_g1f3  S-4_g2f1  S-5_g2f2  S-6_g2f3  S-7_g3f1  S-8_g3f2  S-9_g3f3 S-10_g1f4 S-11_g2f4 S-12_g3f4 S-13_g1f5 S-14_g2f5 S-15_g3f5 S-16_g4f1 S-17_g4f2 S-18_g4f3 S-19_g4f4 S-20_g4f5
--------------1--------------2---------3---------4---------5---------6---------7---------8---------9--------10--------11--------12--------13--------14--------15--------16--------17--------18--------19--------20------------------21--------22--------23--------24--------25--------26--------27--------28--------29--------30--------31--------32--------33--------34--------35--------36--------37--------38--------39--------40--------41--------42--------43--------44--------45--------46--------47--------48--------49--------50--------51--------52--------53--------54--------55--------56--------57--------58--------59--------60--------61--------62--------63--------64--------65--------66--------67--------68--------69--------70--------71--------72--------73--------74
     -54.804623     -98.277512     286.6      2.74      4.80     105.7         1         1      1000      1000    424.87   -13.717      10.4      35.7   317.607     0.657     121.2   0.11735     100.0         H               343.2  0.060802  0.052891  0.001338  4.542164  0.830252  5.470829  1.149647     93.57    7.9623   87.5360   0.17566   6.22910   0.16933   0.00440 144.31813   8.11229     488.5  0.540414  0.001457  0.000134  0.000192  0.221996  7.408262  0.669790     98.43  1.000318  1.000033     3.225    30.058     160.0      91.7     185.7     744.2     14.67     -2.97     11.34      2.14      1.05      3.86     -1.61      2.35     -2.10     -4.29      1.72      3.24      4.91      3.25      0.29     -5.24      1.29      0.22      2.70      1.77
     -54.783875     -98.190521     289.6      2.80      4.80     114.3         1         2      1000      2289    404.86   -13.927      10.4      36.0   316.475     0.654     139.2   0.11694     100.0         H               343.2  0.059496  0.053408  0.001686  4.509165  0.802090  5.621767  1.147578     73.19    7.5738   80.6806   0.17723   6.13632   0.17597   0.00485 132.76387   7.74836     464.6  0.538094  0.001843  0.000155  0.000194  0.224374  7.435236  0.667520     92.58  1.000347  1.000037     2.991    20.106     174.0      91.0     167.6     600.7     14.67     -2.52     11.40      1.89      1.42      4.32     -0.59      1.80     -1.67     -3.41      1.98      2.64      4.67      3.87      0.73     -6.41      2.69      1.25      3.45      2.80
     -54.763252     -98.104393     266.0      2.57      4.80     108.3         1         3      1000      3578    388.74   -14.103      10.4      36.4   313.121     0.642     126.2   0.11056     100.0         H               343.2  0.058024  0.049485  0.001430  4.190101  0.790891  5.297950  1.136945     69.92    7.2592   73.7291   0.16925   6.06194   0.18054   0.00517 122.50159   7.45417     442.0  0.532022  0.001532  0.000157  0.000195  0.220669  7.395782  0.654434     95.15  1.000308  1.000033     2.994    21.743     166.7      90.7     151.8     601.2     14.62     -2.92     11.54      1.94      1.33      3.80     -1.01      1.86     -2.10     -4.36      1.93      2.87      5.29      3.03      0.23     -5.75      2.55      0.97      3.88      1.77
     -54.754524     -98.312744     256.8      2.55      4.80     104.1         2         1      2452      1000    428.43   -13.681      10.5      35.7   314.413     0.645     121.3   0.11296      87.5         H               343.2  0.059529  0.049325  0.001204  4.346751  0.807481  5.383097  1.139789     78.78    8.0354   88.2244   0.17119   6.24787   0.16705   0.00428 146.24234   8.18719     488.3  0.534153  0.001351  0.000164  0.000188  0.217792  7.360316  0.657104     95.75  1.000337  1.000037     2.972    20.423     166.7      91.9     186.9     629.4     14.34     -2.64     11.55      2.86      0.84      4.32     -1.09      1.73     -1.96     -3.95      1.04      2.76      5.78      3.07      0.19     -4.44      1.85      1.17      2.69      1.29
     -54.733799     -98.225845     286.6      2.55      4.80     105.7         2         2      2452      2289    387.70   -14.115      10.1      36.0   314.535     0.649     116.2   0.11277     100.0         H               343.2  0.058815  0.050421  0.001658  4.484975  0.804160  5.577216  1.142486     70.42    7.2381   73.6852   0.17028   6.05569   0.18131   0.00522 122.27704   7.43767     442.9  0.536474  0.001465  0.000117  0.000189  0.219860  7.397642  0.661115     93.99  1.000329  1.000035     3.039    21.656     166.7      90.5     152.1     592.7     14.59     -2.24     11.63      2.00      1.08      3.72     -0.78      1.62     -1.87     -3.45      1.61      2.33      5.32      3.09      0.21     -6.64      1.93     -0.58      3.26      1.04
     -54.713200     -98.139824     286.6      2.40      4.80     105.7         2         3      2452      3578    399.35   -13.986      10.6      36.4   310.250     0.628      84.3   0.10483     100.0         H               343.2  0.055925  0.045587  0.001222  3.967283  0.769182  5.157796  1.124477     72.64    7.4723   76.4174   0.16073   6.11869   0.17590   0.00484 128.27005   7.66335     449.0  0.524911  0.000931  0.000057  0.000182  0.221438  7.374673  0.638449     96.72  1.000292  1.000031     2.861    19.572     153.8      91.1     158.3     591.8     14.52     -2.73     11.09      2.21      1.03      3.95     -1.20      2.02     -2.11     -4.18      1.61      2.94      4.87      2.84      0.43     -5.17      1.77      1.33      3.13      1.33
     -54.704411     -98.347893     280.9      2.83      4.80     109.4         3         1      3904      1000    445.06   -13.516      10.7      35.7   314.078     0.645     114.7   0.11282     100.0         H               343.2  0.057709  0.051780  0.001431  4.310565  0.800797  5.382840  1.139477     78.61    8.3598   94.7171   0.17365   6.31977   0.16242   0.00399 156.53882   8.48616     507.2  0.533197  0.001228  0.000126  0.000196  0.224104  7.437610  0.657552    101.01  1.000287  1.000032     2.913    18.891     160.0      92.3     202.5     634.9     14.73     -3.54     11.52      2.08      0.83      3.93     -1.41      2.27     -2.11     -5.25      1.23      3.28      4.81      3.14      0.75     -5.60      1.61      0.47      2.61      1.17
     -54.683708     -98.261093     274.9      2.95      4.80     101.2         3         2      3904      2289    407.15   -13.902      10.4      36.0   317.607     0.659     149.8   0.11786     100.0         H               343.2  0.060396  0.056054  0.001451  4.640060  0.829191  5.595890  1.151572    110.48    7.6159   81.5628   0.17892   6.14607   0.17540   0.00481 133.93924   7.78609     468.9  0.539316  0.001673  0.000234  0.000205  0.224905  7.445786  0.672990     94.79  1.000314  1.000036     3.075    21.869     174.0      91.0     170.4     612.6     14.90     -2.80     12.00      1.69      1.66      3.45     -1.67      2.23     -2.59     -4.20      2.43      3.46      5.53      2.73      0.13     -5.46      2.18      0.61      3.39      0.96
     -54.663136     -98.175163     266.0      2.45      4.80     108.3         3         3      3904      3578    389.47   -14.095      10.4      36.4   311.059     0.632     111.0   0.10573     100.0         H               343.2  0.056412  0.047002  0.001258  4.342738  0.776230  5.594655  1.127680     61.25    7.2757   72.9533   0.16346   6.06900   0.17945   0.00508 122.05662   7.46740     439.2  0.526082  0.001277  0.000142  0.000182  0.218222  7.372108  0.642792     92.22  1.000279  1.000031     2.942    20.701     160.0      90.8     150.9     588.8     14.35     -2.06     11.12      2.51      1.06      4.16     -0.79      1.69     -1.64     -3.27      1.85      2.05      4.57      3.41      0.86     -5.00      1.39      1.11      3.65      1.95
