corner points
-96.63123322    -61.31048965
-96.77845001    -61.14287949
-96.26889038    -61.23438644
-96.41789246    -61.06716537
========== RESULTS WAVE VERSION 16.10.2018 ====================
IMAGE SIZE  X: 5471     Y:4903    col:row     POLARIZATION:VV
COVERAGE    X: 21.08110724km       Y: 20.19194834km 
RESOLUTION dX: 3.853245702m       dY:4.118284386m  
resolution of original product 3.853245702m x 4.118284386m;   raster step x:5999.503559m  
===============================================================
FLAGS: H=HIGH PROBABILITY SEA STATE, I=LAND(ISLAND), O=OUTLIER NO SEA STATE, N=NO WIND AVAILABLE, SEA STATE NOT VISIBLE, M=MEAN PROBABILITY SEA STATE, L= LOW PROBABILITY SEA STATE
Filtering wave length
 integration  Lmin=1m
 integration  Lmax=2200m
  peak        Lmin=100m
               FFT=1024pixels, 3945.723599m 
   mean-Hs (SWH_c)=2.5254953m
         mean-wind=10.83806515m/s
--------------0--------------1---------2---------3---------4---------5---------6---------7---------8---------9--------10--------11--------12--------13--------14--------15--------16--------17--------18--------19------------------20--------21--------22--------23--------24--------25--------26--------27--------28--------29--------30--------31--------32--------33--------34--------35--------36--------37--------38--------39--------40--------41--------42--------43--------44--------45--------46--------47--------48--------49--------50--------51--------52--------53--------54--------55--------56--------57--------58--------59--------60--------61--------62--------63--------64--------65--------66--------67--------68--------69--------70--------71--------72--------73
            LAT            LON  P-LENGHT     SWH_o     SWH_c     P-DIR      LINE     POINT     ROW-Y     COL-X  M-INTENC        dB      WIND INC-ANGLE  ENERGY-M  ENERGY-N  ENERGY-R ENERGY-NN  FG-DEPTH      FLAG         HEADING-DEG    E30-75   E75-390  E390-600 meanincut   meanout   cut/out  STD-NORM  SPEC-MAX   GL-MEAN    GL-VAR      CORR   ENTROPY   HOMOGEN    ENERGY  CONTRAST  DISSIMIL     STD-O    E 1-30 E600-2000   E2000 >      GODA  LONG-HIG     Tmean  CONVOLUT  MEAN-DIR  relation     Sy/Sx  SKEWNESS  KURTOSIS  cutoff-A >50/10000     INT*V   INT-LOG  S-1_g1f1  S-2_g1f2  S-3_g1f3  S-4_g2f1  S-5_g2f2  S-6_g2f3  S-7_g3f1  S-8_g3f2  S-9_g3f3 S-10_g1f4 S-11_g2f4 S-12_g3f4 S-13_g1f5 S-14_g2f5 S-15_g3f5 S-16_g4f1 S-17_g4f2 S-18_g4f3 S-19_g4f4 S-20_g4f5
--------------1--------------2---------3---------4---------5---------6---------7---------8---------9--------10--------11--------12--------13--------14--------15--------16--------17--------18--------19--------20------------------21--------22--------23--------24--------25--------26--------27--------28--------29--------30--------31--------32--------33--------34--------35--------36--------37--------38--------39--------40--------41--------42--------43--------44--------45--------46--------47--------48--------49--------50--------51--------52--------53--------54--------55--------56--------57--------58--------59--------60--------61--------62--------63--------64--------65--------66--------67--------68--------69--------70--------71--------72--------73--------74
     -61.262093     -96.593201     248.5      2.51      4.07      61.9         1         1      1000      1000   4378.56    -3.587      10.5      22.3   212.889     0.783     107.4   0.19465      69.3         H               340.7  0.084318  0.077044  0.001857  5.727426  1.010208  5.669553  1.253681     91.45    8.1487  103.8665   0.28224   6.21625   0.18533   0.00525 149.10330   7.97827    5489.3  0.619512  0.000884  0.000010  0.000202  0.230364  7.474699  0.820609     69.56  1.000286  1.000028     3.572    28.268     107.8      90.6     221.8     756.1     14.59      5.53      7.45      2.25      0.10      4.75     -3.19     -3.38     -2.62      4.24      0.86     -2.46      0.27      2.15      1.52     -4.50     -1.09      4.18      0.09      1.77
     -61.240250     -96.488899     241.1      2.68      4.07      66.4         1         2      1000      2557   4115.79    -3.855      11.0      22.8   216.384     0.805     126.2   0.20465      59.4         H               340.7  0.088883  0.082153  0.001802  5.712330  1.039045  5.497675  1.271912    143.71    7.6455   94.7357   0.28861   6.09494   0.19549   0.00600 134.78699   7.51937    5234.9  0.631696  0.000956  0.000027  0.000231  0.236618  7.485354  0.844338     66.94  1.000318  1.000033     3.725    30.806     114.0      89.7     199.3     745.6     15.26      6.23      9.02      1.54     -0.17      3.70     -4.36     -4.10     -3.78      6.27      0.15     -4.09      0.91      2.06      1.19     -4.88     -1.24      2.07     -1.01      1.26
     -61.218750     -96.386749     272.3      2.61      4.07      75.0         1         3      1000      4114   3728.05    -4.285      10.9      23.2   215.678     0.801     127.7   0.20322     100.0         H               340.7  0.088669  0.081368  0.001970  5.872263  1.076478  5.455070  1.269828    115.33    6.8893   79.6732   0.29132   5.90405   0.21110   0.00730 112.92622   6.82489    4733.5  0.628862  0.001113  0.000021  0.000207  0.233611  7.473018  0.840986     72.26  1.000330  1.000034     3.653    28.211     114.0      88.3     160.9     644.7     15.23      5.02      9.45      1.29     -0.43      3.30     -3.75     -2.92     -3.52      4.42     -0.23     -2.51      1.80      1.80      0.77     -5.30     -1.33      2.02     -0.95      0.95
     -61.212334     -96.637093     255.3      2.61      4.07      64.9         2         1      2456      1000   4414.94    -3.551      10.6      22.3   215.408     0.797     125.9   0.20070      83.1         H               340.7  0.088830  0.081054  0.001847  5.533950  1.044024  5.300598  1.266718     90.22    8.2237  106.6688   0.28835   6.22835   0.18458   0.00519 151.82092   8.03611    5592.2  0.624950  0.001072  0.000027  0.000214  0.234948  7.484964  0.836435     73.39  1.000319  1.000034     3.634    29.823     114.0      90.7     229.4     786.4     14.98      5.17      8.96      2.28     -0.02      4.70     -3.80     -2.85     -3.35      4.46      0.39     -1.97      1.43      2.60      1.08     -4.59     -1.30      3.05     -1.04      1.47
     -61.190525     -96.532951     271.1      2.55      4.07      63.3         2         2      2456      2557   4127.78    -3.843      11.0      22.8   214.216     0.792     127.6   0.19920     100.0         H               340.7  0.087175  0.078068  0.001969  5.516041  1.032318  5.343355  1.262050    132.26    7.6842   94.8515   0.28667   6.10719   0.19374   0.00588 135.32257   7.55464    5209.3  0.624012  0.001133  0.000026  0.000221  0.236069  7.465790  0.829982     70.12  1.000357  1.000036     3.617    28.612     114.0      89.8     198.6     721.5     15.40      5.95      9.37      0.88     -0.81      3.44     -3.91     -3.45     -3.93      5.62     -0.52     -2.74      1.67      2.41      0.36     -5.85     -1.44      2.66     -1.61      1.74
     -61.169060     -96.430946     267.3      2.53      4.07      71.5         2         3      2456      4114   3735.28    -4.277      10.9      23.2   213.999     0.794     121.6   0.20007     100.0         H               340.7  0.088303  0.079196  0.001973  5.701772  1.005163  5.672484  1.265531    135.08    6.9304   80.0225   0.28935   5.91705   0.20957   0.00715 113.73779   6.85968    4726.7  0.624172  0.000932  0.000015  0.000222  0.235477  7.468852  0.833431     70.11  1.000352  1.000037     3.630    28.132     117.4      88.5     161.7     642.8     15.55      5.75      9.23      0.40     -0.83      2.87     -4.30     -3.34     -4.11      5.44     -0.59     -3.26      1.37      1.96      0.69     -5.93     -1.78      2.35     -0.81      1.46
     -61.162563     -96.680855     244.9      2.56      4.07      83.3         3         1      3912      1000   4500.02    -3.468      10.9      22.3   213.320     0.789     111.6   0.19843      64.1         H               340.7  0.087119  0.078090  0.001778  5.830505  1.014597  5.746623  1.258848     90.89    8.3696  108.8474   0.28578   6.26264   0.18120   0.00497 155.48221   8.16749    5664.5  0.621876  0.000887  0.000018  0.000200  0.227819  7.431355  0.827693     81.56  1.000338  1.000036     3.550    26.479     114.0      90.9     236.0     738.8     14.80      3.12      8.86      2.42     -0.20      4.80     -3.40     -2.06     -3.22      2.52     -0.16     -1.57      2.34      2.71     -0.09     -4.47     -0.72      3.08     -0.65      2.04
     -61.140793     -96.576859     236.7      2.28      4.07      73.7         3         2      3912      2557   4013.27    -3.965      10.7      22.8   210.950     0.773     107.5   0.19082      54.8         H               340.7  0.086492  0.072785  0.001595  5.523013  1.019437  5.417711  1.245350     83.12    7.4693   89.0395   0.28163   6.06160   0.19607   0.00607 127.92599   7.35995    4997.6  0.611526  0.000867  0.000018  0.000195  0.229309  7.409387  0.809019     71.73  1.000299  1.000030     3.517    27.276     107.8      89.6     183.9     701.2     14.79      4.74      8.48      1.89     -0.05      3.89     -3.44     -2.76     -3.02      3.52      0.50     -1.79      1.02      1.98      1.00     -4.34     -0.82      2.76     -0.15      1.65
     -61.119358     -96.475006     251.1      2.41      4.07      72.7         3         3      3912      4114   3733.63    -4.279      10.9      23.2   214.048     0.792     116.7   0.19942      73.8         H               340.7  0.088305  0.076346  0.002350  5.760154  1.042524  5.525200  1.260629    103.89    6.9349   79.8048   0.28642   5.92039   0.20845   0.00709 113.89545   6.87347    4706.3  0.624394  0.000986  0.000012  0.000194  0.232574  7.430737  0.829714     74.08  1.000301  1.000030     3.653    29.270     110.8      88.6     161.4     649.4     15.13      4.55      8.22      0.93     -0.40      3.61     -3.32     -2.49     -3.59      3.89     -0.24     -1.89      1.66      1.03      0.67     -6.64     -1.37      3.19     -1.10      0.18
