corner points
-110.396637    -27.3553257
-110.4466476    -27.18209839
-110.2000809    -27.30896568
-110.250412    -27.1358223
========== RESULTS WAVE VERSION 16.10.2018 ====================
IMAGE SIZE  X: 4376     Y:4781    col:row     POLARIZATION:VV
COVERAGE    X: 20.04188123km       Y: 19.84132209km 
RESOLUTION dX: 4.579954578m       dY:4.150035994m  
resolution of original product 4.579954578m x 4.150035994m;   raster step x:5999.740497m  
===============================================================
FLAGS: H=HIGH PROBABILITY SEA STATE, I=LAND(ISLAND), O=OUTLIER NO SEA STATE, N=NO WIND AVAILABLE, SEA STATE NOT VISIBLE, M=MEAN PROBABILITY SEA STATE, L= LOW PROBABILITY SEA STATE
Filtering wave length
 integration  Lmin=1m
 integration  Lmax=2200m
  peak        Lmin=100m
               FFT=1024pixels, 4689.873487m 
   mean-Hs (SWH_c)=0.2422313118m
         mean-wind=8.782715797m/s
--------------0--------------1---------2---------3---------4---------5---------6---------7---------8---------9--------10--------11--------12--------13--------14--------15--------16--------17--------18--------19------------------20--------21--------22--------23--------24--------25--------26--------27--------28--------29--------30--------31--------32--------33--------34--------35--------36--------37--------38--------39--------40--------41--------42--------43--------44--------45--------46--------47--------48--------49--------50--------51--------52--------53--------54--------55--------56--------57--------58--------59--------60--------61--------62--------63--------64--------65--------66--------67--------68--------69--------70--------71--------72--------73
            LAT            LON  P-LENGHT     SWH_o     SWH_c     P-DIR      LINE     POINT     ROW-Y     COL-X  M-INTENC        dB      WIND INC-ANGLE  ENERGY-M  ENERGY-N  ENERGY-R ENERGY-NN  FG-DEPTH      FLAG         HEADING-DEG    E30-75   E75-390  E390-600 meanincut   meanout   cut/out  STD-NORM  SPEC-MAX   GL-MEAN    GL-VAR      CORR   ENTROPY   HOMOGEN    ENERGY  CONTRAST  DISSIMIL     STD-O    E 1-30 E600-2000   E2000 >      GODA  LONG-HIG     Tmean  CONVOLUT  MEAN-DIR  relation     Sy/Sx  SKEWNESS  KURTOSIS  cutoff-A >50/10000     INT*V   INT-LOG  S-1_g1f1  S-2_g1f2  S-3_g1f3  S-4_g2f1  S-5_g2f2  S-6_g2f3  S-7_g3f1  S-8_g3f2  S-9_g3f3 S-10_g1f4 S-11_g2f4 S-12_g3f4 S-13_g1f5 S-14_g2f5 S-15_g3f5 S-16_g4f1 S-17_g4f2 S-18_g4f3 S-19_g4f4 S-20_g4f5
--------------1--------------2---------3---------4---------5---------6---------7---------8---------9--------10--------11--------12--------13--------14--------15--------16--------17--------18--------19--------20------------------21--------22--------23--------24--------25--------26--------27--------28--------29--------30--------31--------32--------33--------34--------35--------36--------37--------38--------39--------40--------41--------42--------43--------44--------45--------46--------47--------48--------49--------50--------51--------52--------53--------54--------55--------56--------57--------58--------59--------60--------61--------62--------63--------64--------65--------66--------67--------68--------69--------70--------71--------72--------73--------74
     -27.308399    -110.361671     194.1      0.56      2.37      29.8         1         1      1000      1000    346.61   -14.602       9.5      36.4   245.189     0.551     121.0   0.07006      29.1         H               347.4  0.043764  0.015392  0.000880  1.320893  0.678298  1.947364  1.053987     13.68    6.4421   52.7621   0.10398   5.86188   0.18874   0.00581  94.55273   6.71275     365.3  0.489572  0.001659  0.000273  0.000097  0.188854  6.887793  0.555216     39.62  1.000075  1.000006     2.319    11.934      76.6      90.0     108.2     372.2     12.79      5.52     -1.34     -0.55     -1.44      0.45      0.27     -0.76      1.43     -0.56      0.45      1.71     -3.09      0.86      1.08    -11.37     -7.03     -0.33     -0.24      3.49
     -27.294483    -110.302628     194.1      0.53      2.37      29.8         1         2      1000      2310    303.14   -15.184       8.9      36.7   245.284     0.550     125.7   0.06832      29.1         H               347.4  0.042384  0.015713  0.001101  1.320010  0.669043  1.972981  1.052201     14.82    5.5770   40.4630   0.10020   5.59657   0.20919   0.00753  72.81776   5.87869     319.0  0.488469  0.001969  0.000265  0.000096  0.192750  6.929008  0.553462     36.41  1.000113  1.000007     2.303    11.528      79.7      88.1      81.6     292.1     13.18      5.22     -0.61     -1.51     -1.91     -0.16      0.69     -0.46      1.47     -0.18     -0.47      1.85     -3.34      1.52      0.79    -14.08     -8.02     -2.13     -2.50      5.26
     -27.280666    -110.244118     190.1      0.45      2.37      31.8         1         3      1000      3620    230.70   -16.370       7.4      37.1   245.721     0.545     130.9   0.06355      27.5         H               347.4  0.041568  0.013553  0.000745  1.154348  0.660103  1.748741  1.048372     10.67    4.1333   23.2961   0.08893   5.05468   0.25784   0.01282  42.44878   4.47726     241.9  0.487262  0.001722  0.000389  0.000094  0.184105  6.852420  0.547886     39.76  1.000049  1.000003     2.296    11.677      83.0      83.4      47.0     230.2     12.37      4.60     -1.85     -0.05     -0.97      0.56      0.48     -1.05      0.66     -0.85     -0.06      1.77     -2.30      0.11      1.29    -10.64     -5.14      1.10     -1.09      1.21
     -27.256039    -110.376823     195.2      0.54      2.37      38.6         2         1      2445      1000    331.89   -14.790       9.2      36.4   244.840     0.553     143.4   0.07048      29.5         H               347.4  0.044232  0.015668  0.001325  1.329018  0.688261  1.930981  1.055386     13.84    6.1492   48.6586   0.10576   5.77553   0.19537   0.00634  87.02489   6.42960     350.2  0.488904  0.002487  0.000283  0.000098  0.189683  6.894941  0.557108     42.69  1.000135  1.000009     2.313    11.642      83.0      89.3      99.0     337.7     13.24      5.54     -0.91     -2.19     -1.64     -0.42      1.64     -0.50      1.73     -0.40      0.07      1.23     -2.95      0.47      1.11    -16.73     -7.81     -2.45     -0.34      2.75
     -27.242130    -110.317810     190.2      0.52      2.37      26.5         2         2      2445      2310    300.36   -15.224       8.8      36.7   243.835     0.548     144.3   0.06913      27.5         H               347.4  0.043211  0.015978  0.000918  1.320936  0.683416  1.932843  1.051056     15.12    5.5211   39.5904   0.10287   5.57799   0.21115   0.00768  71.03613   5.81108     315.7  0.486054  0.002154  0.000326  0.000099  0.193341  6.932435  0.552585     35.26  1.000125  1.000008     2.313    12.142      81.3      87.9      80.0     336.1     13.05      5.76     -1.56     -1.08     -1.40     -0.04     -0.22     -0.99      1.41     -0.29     -0.19      1.40     -3.33      0.80      1.51    -11.94     -7.38     -0.53     -0.94      3.67
     -27.228321    -110.259323     194.1      0.44      2.37      29.8         2         3      2445      3620    221.51   -16.546       7.2      37.1   245.631     0.547     190.2   0.06501      29.1         H               347.4  0.041967  0.013975  0.000797  1.184689  0.663766  1.784800  1.050545     13.29    3.9503   21.5645   0.09316   4.97336   0.26640   0.01396  39.11072   4.29123     232.8  0.487758  0.002181  0.000526  0.000095  0.185353  6.866411  0.550417     36.80  1.000079  1.000004     2.304    11.753      88.6      82.6      43.5     217.8     12.63      4.63     -1.34     -0.61     -1.19      0.27      0.61     -0.67      0.95     -0.81      0.42      1.36     -2.59      0.69      1.35    -11.49     -5.94      0.24      0.68      2.54
     -27.203674    -110.391960     210.6      0.61      2.37      32.6         3         1      3890      1000    392.53   -14.061      10.4      36.4   244.985     0.555      88.0   0.07421      36.6         H               347.4  0.045592  0.016973  0.001038  1.387000  0.706870  1.962172  1.057383     23.89    7.3533   67.5112   0.11103   6.10591   0.17137   0.00457 120.03111   7.57848     415.0  0.490431  0.001223  0.000179  0.000102  0.195626  6.940117  0.559322     34.41  1.000087  1.000007     2.351    12.537      76.6      91.5     141.0     453.3     13.09      6.20     -2.24     -1.14     -1.75      0.71     -0.18     -1.02      1.34     -1.51      0.69      1.44     -4.44      1.62      1.04    -12.39     -8.07      1.35      1.55      5.99
     -27.189775    -110.332970     186.0      0.55      2.37      33.7         3         2      3890      2310    322.15   -14.919       9.3      36.7   247.572     0.560     264.5   0.07290      26.0         H               347.4  0.044493  0.016282  0.001343  1.353636  0.695977  1.944943  1.062802     19.34    5.9555   46.4697   0.11008   5.71535   0.20145   0.00680  82.70867   6.23611     342.3  0.493674  0.003400  0.000725  0.000101  0.191379  6.914479  0.564409     35.81  1.000118  1.000008     2.366    12.220      90.6      88.8      93.9     348.3     13.14      6.12     -1.63     -2.02     -2.47     -0.24      1.19      0.11      1.64     -1.10     -0.13      1.78     -3.32      1.24      0.87    -16.01    -11.08     -1.15     -0.50      5.20
     -27.175974    -110.274513     198.1      0.49      2.37      27.7         3         3      3890      3620    259.87   -15.852       8.2      37.1   248.589     0.561     457.0   0.07122      30.7         H               347.4  0.043214  0.015141  0.001151  1.247747  0.682415  1.828428  1.065684     15.32    4.7142   30.5059   0.10990   5.28794   0.23798   0.01043  54.30647   5.03621     276.9  0.494564  0.005623  0.001468  0.000098  0.188861  6.894112  0.566656     35.98  1.000055  1.000003     2.392    12.605     107.8      85.2      60.7     282.1     12.93      5.27     -1.72     -1.58     -1.52     -0.35      1.06     -0.78      1.61     -1.38     -0.16      1.88     -2.67      0.47      1.51    -15.11     -7.25     -1.28     -0.51      2.08
