corner points
-113.2227402    -16.81769371
-113.2653961    -16.64319611
-113.0403748    -16.77549553
-113.0832138    -16.60105896
========== RESULTS WAVE VERSION 16.10.2018 ====================
IMAGE SIZE  X: 4376     Y:4787    col:row     POLARIZATION:VV
COVERAGE    X: 19.92568515km       Y: 19.88231896km 
RESOLUTION dX: 4.553401542m       dY:4.153398572m  
resolution of original product 4.553401542m x 4.153398572m;   raster step x:5996.829831m  
===============================================================
FLAGS: H=HIGH PROBABILITY SEA STATE, I=LAND(ISLAND), O=OUTLIER NO SEA STATE, N=NO WIND AVAILABLE, SEA STATE NOT VISIBLE, M=MEAN PROBABILITY SEA STATE, L= LOW PROBABILITY SEA STATE
Filtering wave length
 integration  Lmin=1m
 integration  Lmax=2200m
  peak        Lmin=100m
               FFT=1024pixels, 4662.683179m 
   mean-Hs (SWH_c)=0.9320000458m
         mean-wind=11.31399155m/s
--------------0--------------1---------2---------3---------4---------5---------6---------7---------8---------9--------10--------11--------12--------13--------14--------15--------16--------17--------18--------19------------------20--------21--------22--------23--------24--------25--------26--------27--------28--------29--------30--------31--------32--------33--------34--------35--------36--------37--------38--------39--------40--------41--------42--------43--------44--------45--------46--------47--------48--------49--------50--------51--------52--------53--------54--------55--------56--------57--------58--------59--------60--------61--------62--------63--------64--------65--------66--------67--------68--------69--------70--------71--------72--------73
            LAT            LON  P-LENGHT     SWH_o     SWH_c     P-DIR      LINE     POINT     ROW-Y     COL-X  M-INTENC        dB      WIND INC-ANGLE  ENERGY-M  ENERGY-N  ENERGY-R ENERGY-NN  FG-DEPTH      FLAG         HEADING-DEG    E30-75   E75-390  E390-600 meanincut   meanout   cut/out  STD-NORM  SPEC-MAX   GL-MEAN    GL-VAR      CORR   ENTROPY   HOMOGEN    ENERGY  CONTRAST  DISSIMIL     STD-O    E 1-30 E600-2000   E2000 >      GODA  LONG-HIG     Tmean  CONVOLUT  MEAN-DIR  relation     Sy/Sx  SKEWNESS  KURTOSIS  cutoff-A >50/10000     INT*V   INT-LOG  S-1_g1f1  S-2_g1f2  S-3_g1f3  S-4_g2f1  S-5_g2f2  S-6_g2f3  S-7_g3f1  S-8_g3f2  S-9_g3f3 S-10_g1f4 S-11_g2f4 S-12_g3f4 S-13_g1f5 S-14_g2f5 S-15_g3f5 S-16_g4f1 S-17_g4f2 S-18_g4f3 S-19_g4f4 S-20_g4f5
--------------1--------------2---------3---------4---------5---------6---------7---------8---------9--------10--------11--------12--------13--------14--------15--------16--------17--------18--------19--------20------------------21--------22--------23--------24--------25--------26--------27--------28--------29--------30--------31--------32--------33--------34--------35--------36--------37--------38--------39--------40--------41--------42--------43--------44--------45--------46--------47--------48--------49--------50--------51--------52--------53--------54--------55--------56--------57--------58--------59--------60--------61--------62--------63--------64--------65--------66--------67--------68--------69--------70--------71--------72--------73--------74
     -16.771500    -113.189514     105.1      1.05      2.44     104.3         1         1      1000      1000    446.05   -13.506      11.5      36.6   234.018     0.579      94.2   0.08615       7.0         H               347.8  0.052003  0.022622  0.000882  2.223218  0.729982  3.045578  1.079399     11.85    8.4048   88.7350   0.13375   6.34749   0.15670   0.00367 153.73486   8.55081     481.5  0.501919  0.001562  0.000165  0.000148  0.164430  6.896183  0.586245     84.33  1.000133  1.000013     2.464    13.263      94.9      92.8     189.6     514.0     12.00      0.89     -1.09     -0.01     -1.11      2.10      2.72     -0.09      0.91     -1.55      0.45     -0.00     -1.81      1.39      0.76    -11.10     -2.12      4.00      1.52      3.48
     -16.758762    -113.134438     385.4      0.93      2.44      35.4         1         2      1000      2317    406.35   -13.911      11.2      37.0   235.020     0.579      97.0   0.08436     100.0         H               347.8  0.052059  0.022287  0.001030  2.203237  0.721140  3.055215  1.079557     16.88    7.6238   74.7413   0.12974   6.16746   0.16895   0.00442 130.08897   7.83086     438.7  0.502165  0.001564  0.000167  0.000144  0.165526  6.887300  0.586127     83.99  1.000149  1.000012     2.456    13.031     102.3      91.6     155.8     447.4     12.54      1.82     -1.37     -1.24     -2.19      2.50      2.75      0.41      0.20     -2.24      1.09      0.10     -2.19      1.71      0.22    -13.35     -5.20      5.83      2.77      4.85
     -16.746122    -113.079842     385.4      0.82      2.44      35.4         1         3      1000      3634    384.13   -14.155      11.1      37.4   234.143     0.575      89.9   0.08141     100.0         H               347.8  0.050377  0.021078  0.000821  2.077912  0.706224  2.942284  1.075481     11.48    7.1837   66.7008   0.12482   6.05856   0.17614   0.00489 116.74974   7.41172     413.2  0.501207  0.001449  0.000159  0.000141  0.164564  6.884011  0.581540     82.97  1.000139  1.000012     2.443    12.916      97.3      91.1     137.8     420.9     12.15      1.28     -1.28     -0.05     -1.41      1.91      2.08      0.06      0.51     -1.98      0.34      0.86     -1.69      1.11      0.74    -10.99     -2.83      4.25      1.26      2.86
     -16.718855    -113.202400     343.6      0.92      2.44      36.1         2         1      2444      1000    417.25   -13.796      11.0      36.6   235.043     0.578      93.2   0.08363     100.0         H               347.8  0.051464  0.022089  0.000919  2.173853  0.716839  3.032555  1.079191     14.90    7.8380   78.3643   0.12840   6.21920   0.16541   0.00418 136.60370   8.03373     450.3  0.502831  0.001336  0.000176  0.000138  0.166459  6.897894  0.585546     85.47  1.000143  1.000012     2.465    13.248      99.7      92.0     164.7     482.2     12.21      1.28     -1.00     -0.36     -1.89      2.51      2.57      0.52     -0.22     -1.93      0.76      0.14     -2.24      1.22      0.82    -11.67     -3.99      5.78      2.36      3.40
     -16.706125    -113.147339     385.4      1.03      2.44      35.4         2         2      2444      2317    441.21   -13.554      11.8      37.0   234.027     0.580     103.1   0.08626     100.0         H               347.8  0.052818  0.022152  0.000872  2.211235  0.722058  3.062405  1.080228     10.67    8.3086   87.1492   0.13358   6.32587   0.15854   0.00377 151.01491   8.46138     476.6  0.502399  0.001645  0.000184  0.000143  0.164364  6.877168  0.587303     86.71  1.000131  1.000012     2.462    13.086      97.3      92.6     185.7     489.6     12.10      0.87     -0.99      0.03     -0.86      2.11      2.19      0.14      0.10     -1.65      0.55      0.98     -2.14      1.26      0.82    -10.79     -1.60      4.94      1.12      3.58
     -16.693491    -113.092766     102.1      0.86      2.44      99.7         2         3      2444      3634    391.15   -14.077      11.2      37.4   234.933     0.578      87.2   0.08318       6.6         H               347.8  0.051677  0.021512  0.000882  2.143295  0.716719  2.990425  1.078715     10.50    7.3214   69.1756   0.12671   6.09312   0.17385   0.00473 120.81898   7.54107     421.9  0.502913  0.001405  0.000144  0.000143  0.162282  6.868887  0.585230     84.21  1.000132  1.000010     2.496    13.669      99.7      91.3     143.8     451.5     12.00      0.59     -0.86     -0.14     -0.60      1.74      2.77     -0.07      0.32     -0.90      0.26      0.23     -1.57      0.96      0.74    -11.45     -0.66      4.10      0.34      2.78
     -16.666210    -113.215271     367.1      1.01      2.44      39.0         3         1      3888      1000    443.36   -13.532      11.5      36.6   235.763     0.582     134.6   0.08659     100.0         H               347.8  0.052451  0.022254  0.000964  2.212297  0.714669  3.095554  1.083103     12.26    8.3507   88.1952   0.13372   6.33489   0.15776   0.00373 152.80408   8.51032     480.2  0.504649  0.002250  0.000261  0.000141  0.165193  6.893556  0.589945     85.39  1.000147  1.000012     2.494    13.677      99.7      92.7     188.0     534.2     12.24      1.34     -1.21     -0.54     -1.42      1.98      2.57     -0.32      0.66     -1.63      0.64     -0.07     -1.79      1.11      0.80    -12.24     -2.50      4.20      1.92      3.05
     -16.653486    -113.160233     373.1      0.90      2.44      28.7         3         2      3888      2317    417.83   -13.790      11.4      37.0   234.873     0.579      78.0   0.08501     100.0         H               347.8  0.052510  0.021391  0.000824  2.134075  0.717144  2.975797  1.079860      9.85    7.8478   78.5590   0.12954   6.22100   0.16506   0.00417 136.76462   8.03996     451.2  0.503592  0.001246  0.000129  0.000139  0.164065  6.875885  0.586175     86.07  1.000139  1.000012     2.493    13.615      97.3      92.0     165.3     487.5     12.02      0.77     -0.79      0.15     -0.95      2.00      2.56     -0.39      0.55     -1.35      0.60      0.19     -1.77      1.17      0.42    -10.59     -0.96      4.11      1.62      3.55
     -16.640856    -113.105675     100.7      0.88      2.44     103.7         3         3      3888      3634    393.97   -14.045      11.2      37.4   234.797     0.576     107.5   0.08194       6.4         H               347.8  0.050935  0.021469  0.000851  2.120780  0.707261  2.998582  1.077036     11.85    7.3787   70.2273   0.12548   6.10777   0.17292   0.00467 122.83086   7.60175     424.3  0.501449  0.001687  0.000215  0.000149  0.163503  6.887804  0.583099     83.92  1.000127  1.000011     2.442    12.936      99.7      91.4     145.4     449.0     11.97      0.98     -1.30     -0.09     -1.21      2.26      2.58     -0.33     -0.03     -1.54      0.41      0.05     -1.60      0.81      1.05    -11.20     -2.37      5.33      1.62      2.32
