corner points
-105.2197342    -47.79281616
-105.2982635    -47.61784363
-104.9533234    -47.73624039
-105.0328369    -47.56145477
========== RESULTS WAVE VERSION 16.10.2018 ====================
IMAGE SIZE  X: 5471     Y:4909    col:row     POLARIZATION:VV
COVERAGE    X: 20.82929914km       Y: 20.28032444km 
RESOLUTION dX: 3.807219729m       dY:4.131253706m  
resolution of original product 3.807219729m x 4.131253706m;   raster step x:5996.371073m  
===============================================================
FLAGS: H=HIGH PROBABILITY SEA STATE, I=LAND(ISLAND), O=OUTLIER NO SEA STATE, N=NO WIND AVAILABLE, SEA STATE NOT VISIBLE, M=MEAN PROBABILITY SEA STATE, L= LOW PROBABILITY SEA STATE
Filtering wave length
 integration  Lmin=1m
 integration  Lmax=2200m
  peak        Lmin=100m
               FFT=1024pixels, 3898.593002m 
   mean-Hs (SWH_c)=1.508207245m
         mean-wind=7.008024693m/s
--------------0--------------1---------2---------3---------4---------5---------6---------7---------8---------9--------10--------11--------12--------13--------14--------15--------16--------17--------18--------19------------------20--------21--------22--------23--------24--------25--------26--------27--------28--------29--------30--------31--------32--------33--------34--------35--------36--------37--------38--------39--------40--------41--------42--------43--------44--------45--------46--------47--------48--------49--------50--------51--------52--------53--------54--------55--------56--------57--------58--------59--------60--------61--------62--------63--------64--------65--------66--------67--------68--------69--------70--------71--------72--------73
            LAT            LON  P-LENGHT     SWH_o     SWH_c     P-DIR      LINE     POINT     ROW-Y     COL-X  M-INTENC        dB      WIND INC-ANGLE  ENERGY-M  ENERGY-N  ENERGY-R ENERGY-NN  FG-DEPTH      FLAG         HEADING-DEG    E30-75   E75-390  E390-600 meanincut   meanout   cut/out  STD-NORM  SPEC-MAX   GL-MEAN    GL-VAR      CORR   ENTROPY   HOMOGEN    ENERGY  CONTRAST  DISSIMIL     STD-O    E 1-30 E600-2000   E2000 >      GODA  LONG-HIG     Tmean  CONVOLUT  MEAN-DIR  relation     Sy/Sx  SKEWNESS  KURTOSIS  cutoff-A >50/10000     INT*V   INT-LOG  S-1_g1f1  S-2_g1f2  S-3_g1f3  S-4_g2f1  S-5_g2f2  S-6_g2f3  S-7_g3f1  S-8_g3f2  S-9_g3f3 S-10_g1f4 S-11_g2f4 S-12_g3f4 S-13_g1f5 S-14_g2f5 S-15_g3f5 S-16_g4f1 S-17_g4f2 S-18_g4f3 S-19_g4f4 S-20_g4f5
--------------1--------------2---------3---------4---------5---------6---------7---------8---------9--------10--------11--------12--------13--------14--------15--------16--------17--------18--------19--------20------------------21--------22--------23--------24--------25--------26--------27--------28--------29--------30--------31--------32--------33--------34--------35--------36--------37--------38--------39--------40--------41--------42--------43--------44--------45--------46--------47--------48--------49--------50--------51--------52--------53--------54--------55--------56--------57--------58--------59--------60--------61--------62--------63--------64--------65--------66--------67--------68--------69--------70--------71--------72--------73--------74
     -47.746593    -105.185722     260.9      1.53      2.83     119.6         1         1      1000      1000   3128.85    -5.046       7.3      22.6   261.340     0.762     120.5   0.18469     106.4         H               345.2  0.090454  0.068608  0.001499  5.948458  0.993378  5.988113  1.236632     87.63    5.7539   56.7365   0.28109   5.58543   0.23703   0.00985  81.57567   5.77812    3869.0  0.600315  0.001233  0.000046  0.000205  0.204862  7.214726  0.799877     98.94  1.000251  1.000026     3.408    25.011      97.3      86.0     108.6     528.5     14.00     -6.68      7.00      2.18      1.13      3.45     -1.82      3.03     -1.22     -5.59     -0.15      2.53     -1.39      2.47      1.73     -4.60      3.30      1.92      1.68      3.07
     -47.730167    -105.108192     252.8      1.62      2.83     122.5         1         2      1000      2575   2713.31    -5.665       6.9      23.1   262.594     0.766     109.9   0.18644      77.2         H               345.2  0.089121  0.072279  0.001698  6.228161  0.978019  6.368141  1.240409    103.20    4.9354   43.7097   0.28254   5.30379   0.26415   0.01317  62.71971   5.01819    3365.5  0.602690  0.000911  0.000032  0.000205  0.210625  7.262619  0.805361    106.59  1.000255  1.000027     3.420    25.287      99.7      83.4      81.1     451.9     14.24     -7.23      6.57      1.55      1.49      3.51     -1.89      3.35     -0.71     -4.79     -0.13      2.10     -2.52      2.74      2.77     -5.18      3.41      1.87      1.00      3.05
     -47.713997    -105.032181     239.6      1.58      2.83     120.6         1         3      1000      4150   2523.60    -5.980       7.2      23.5   262.953     0.773     119.4   0.19168      57.7         H               345.2  0.092798  0.072128  0.001717  6.072842  0.985559  6.161826  1.246673     91.47    4.5564   38.3665   0.28754   5.15725   0.27959   0.01527  54.66816   4.65648    3146.1  0.605855  0.001156  0.000036  0.000206  0.207704  7.235620  0.812878    103.48  1.000260  1.000029     3.455    25.278      99.7      82.0      70.3     419.2     14.39     -7.28      6.58      1.23      1.57      2.66     -2.73      3.86     -1.19     -4.62      0.25      1.85     -1.93      2.33      2.28     -5.25      3.18      0.83      1.80      2.38
     -47.694843    -105.209030     260.9      1.48      2.83     119.6         2         1      2452      1000   3088.87    -5.102       7.2      22.6   264.513     0.779     151.7   0.19343     106.4         H               345.2  0.094532  0.069214  0.001386  6.095476  1.043424  5.841803  1.251835    131.06    5.6685   56.2966   0.28700   5.55282   0.24058   0.01028  80.27901   5.70437    3866.8  0.613069  0.001671  0.000101  0.000208  0.203516  7.195516  0.819702    105.74  1.000270  1.000030     3.531    26.892      99.7      85.7     107.2     535.1     14.07     -6.66      6.78      1.87      1.34      3.00     -2.22      4.36     -1.05     -5.70      0.92      3.36     -2.07      2.29      2.87     -4.08      1.91      1.58      2.26      2.01
     -47.678429    -105.131584     305.7      1.37      2.83     120.4         2         2      2452      2575   2699.66    -5.687       6.9      23.1   263.703     0.775     128.1   0.19075     100.0         H               345.2  0.094179  0.068119  0.001574  6.149311  1.004975  6.118867  1.249216     80.97    4.9037   43.2346   0.28429   5.29243   0.26460   0.01324  61.88578   4.98888    3372.4  0.610282  0.001308  0.000059  0.000210  0.199453  7.161795  0.814674     92.60  1.000267  1.000029     3.692    32.764      99.7      83.3      81.0     515.0     14.11     -6.18      6.95      1.75      1.76      3.10     -1.71      2.81     -1.08     -5.27      0.76      2.24     -1.15      2.60      1.61     -5.36      3.80      1.03      2.96      2.99
     -47.662277    -105.055656     294.4      1.30      2.83     123.8         2         3      2452      4150   2475.81    -6.063       7.0      23.5   258.791     0.748     111.9   0.17930     100.0         H               345.2  0.086924  0.063793  0.001381  5.736501  0.997483  5.750975  1.226157     87.50    4.4680   35.9573   0.27626   5.13012   0.27982   0.01537  52.04793   4.58000    3035.6  0.595239  0.000992  0.000054  0.000190  0.205943  7.206313  0.783898     99.64  1.000265  1.000026     3.347    24.241      94.9      81.9      66.2     410.3     14.17     -6.41      6.57      1.53      2.21      2.89     -1.82      2.60     -1.08     -4.34      0.50      1.91     -1.89      2.48      1.31     -5.28      4.39      1.04      1.78      3.24
     -47.643089    -105.232300     268.6      1.54      2.83     116.4         3         1      3904      1000   3254.85    -4.875       7.7      22.6   260.746     0.760     173.1   0.18433     100.0         H               345.2  0.087854  0.066241  0.001416  6.235612  0.989310  6.302993  1.236308     65.52    5.9999   60.9108   0.27955   5.66264   0.22956   0.00909  87.76443   6.00974    4024.1  0.603233  0.002031  0.000145  0.000197  0.200217  7.213041  0.797983     92.04  1.000295  1.000033     3.406    24.629      99.7      86.7     117.7     523.9     13.70     -4.48      7.05      2.69      1.30      3.64     -1.23      2.81     -0.43     -3.76      1.10      2.33     -0.02      2.09      1.60     -4.20      2.15      1.21      2.27      1.91
     -47.626690    -105.154938     295.1      1.57      2.83     114.7         3         2      3904      2575   2573.73    -5.894       6.4      23.1   261.052     0.761     163.0   0.18558     100.0         H               345.2  0.087874  0.072308  0.001592  6.311592  1.005456  6.277340  1.237073    121.64    4.6615   39.2938   0.28298   5.20206   0.27418   0.01448  56.34827   4.75056    3183.6  0.597823  0.001717  0.000099  0.000194  0.207964  7.263372  0.799966    102.38  1.000270  1.000028     3.432    25.537      97.3      82.5      72.5     424.9     14.27     -6.25      7.72      1.64      1.88      2.40     -2.07      3.05     -1.45     -5.79      1.51      2.85     -0.66      1.88      1.24     -5.04      3.88      0.15      3.31      2.13
     -47.610554    -105.079094     260.9      1.58      2.83     119.6         3         3      3904      4150   2327.64    -6.331       6.5      23.5   258.219     0.745     103.3   0.17717     106.4         H               345.2  0.083139  0.070651  0.001373  6.217748  0.981993  6.331766  1.223014     87.76    4.1745   31.7311   0.27614   5.00911   0.29274   0.01726  45.93769   4.29463    2846.7  0.589455  0.000850  0.000030  0.000192  0.208576  7.301385  0.781938    101.54  1.000245  1.000025     3.365    25.487      94.9      80.8      58.1     392.6     14.04     -5.51      7.13      2.29      1.64      3.33     -2.09      3.28     -0.96     -3.81      0.70      2.16     -1.40      2.07      2.08     -3.97      2.87      1.31      2.03      2.13
