corner points
-112.9396896    -25.13750267
-112.9857941    -24.95817947
-112.7429199    -25.09388351
-112.7894058    -24.91463661
========== RESULTS WAVE VERSION 16.10.2018 ====================
IMAGE SIZE  X: 5471     Y:4921    col:row     POLARIZATION:VV
COVERAGE    X: 20.34497646km       Y: 20.4282347km 
RESOLUTION dX: 3.71869429m       dY:4.151236476m  
resolution of original product 3.71869429m x 4.151236476m;   raster step x:5998.253889m  
===============================================================
FLAGS: H=HIGH PROBABILITY SEA STATE, I=LAND(ISLAND), O=OUTLIER NO SEA STATE, N=NO WIND AVAILABLE, SEA STATE NOT VISIBLE, M=MEAN PROBABILITY SEA STATE, L= LOW PROBABILITY SEA STATE
Filtering wave length
 integration  Lmin=1m
 integration  Lmax=2200m
  peak        Lmin=100m
               FFT=1024pixels, 3807.942953m 
   mean-Hs (SWH_c)=0.2871200943m
         mean-wind=5.590535164m/s
--------------0--------------1---------2---------3---------4---------5---------6---------7---------8---------9--------10--------11--------12--------13--------14--------15--------16--------17--------18--------19------------------20--------21--------22--------23--------24--------25--------26--------27--------28--------29--------30--------31--------32--------33--------34--------35--------36--------37--------38--------39--------40--------41--------42--------43--------44--------45--------46--------47--------48--------49--------50--------51--------52--------53--------54--------55--------56--------57--------58--------59--------60--------61--------62--------63--------64--------65--------66--------67--------68--------69--------70--------71--------72--------73
            LAT            LON  P-LENGHT     SWH_o     SWH_c     P-DIR      LINE     POINT     ROW-Y     COL-X  M-INTENC        dB      WIND INC-ANGLE  ENERGY-M  ENERGY-N  ENERGY-R ENERGY-NN  FG-DEPTH      FLAG         HEADING-DEG    E30-75   E75-390  E390-600 meanincut   meanout   cut/out  STD-NORM  SPEC-MAX   GL-MEAN    GL-VAR      CORR   ENTROPY   HOMOGEN    ENERGY  CONTRAST  DISSIMIL     STD-O    E 1-30 E600-2000   E2000 >      GODA  LONG-HIG     Tmean  CONVOLUT  MEAN-DIR  relation     Sy/Sx  SKEWNESS  KURTOSIS  cutoff-A >50/10000     INT*V   INT-LOG  S-1_g1f1  S-2_g1f2  S-3_g1f3  S-4_g2f1  S-5_g2f2  S-6_g2f3  S-7_g3f1  S-8_g3f2  S-9_g3f3 S-10_g1f4 S-11_g2f4 S-12_g3f4 S-13_g1f5 S-14_g2f5 S-15_g3f5 S-16_g4f1 S-17_g4f2 S-18_g4f3 S-19_g4f4 S-20_g4f5
--------------1--------------2---------3---------4---------5---------6---------7---------8---------9--------10--------11--------12--------13--------14--------15--------16--------17--------18--------19--------20------------------21--------22--------23--------24--------25--------26--------27--------28--------29--------30--------31--------32--------33--------34--------35--------36--------37--------38--------39--------40--------41--------42--------43--------44--------45--------46--------47--------48--------49--------50--------51--------52--------53--------54--------55--------56--------57--------58--------59--------60--------61--------62--------63--------64--------65--------66--------67--------68--------69--------70--------71--------72--------73--------74
     -25.092896    -112.912155     215.3      0.37      2.38      30.6         1         1      1000      1000   2350.41    -6.289       5.9      23.2   350.365     0.731      97.3   0.17147      39.2         H               347.5  0.087791  0.044659  0.001692  3.719577  0.914818  4.065918  1.210822     64.01    4.2086   31.7047   0.26670   5.02866   0.28910   0.01672  46.49798   4.34194    2845.7  0.595944  0.001047  0.000055  0.000193  0.192540  6.974602  0.767515     61.94  1.000172  1.000018     3.239    22.189      76.6      81.0      58.3     353.1     13.23      6.19     -2.96      0.26     -0.14      1.23     -2.67     -2.89      2.25     -3.71      1.05      2.61     -4.82      0.33      1.96     -7.83     -3.36      2.59      2.35      3.15
     -25.079918    -112.853554     215.3      0.36      2.38      30.6         1         2      1000      2613   2071.26    -6.838       5.7      23.7   350.282     0.726      68.8   0.16889      39.2         H               347.5  0.085751  0.045533  0.001297  3.598099  0.939259  3.830782  1.209154     76.69    3.6656   24.7039   0.26160   4.78421   0.31557   0.02132  36.48271   3.83603    2504.4  0.593625  0.000561  0.000015  0.000190  0.196844  7.022579  0.761668     45.20  1.000145  1.000016     3.209    21.929      73.8      78.4      45.1     305.9     13.10      6.53     -4.45      0.51      0.17      1.44     -3.56     -4.03      3.43     -4.13      0.54      3.64     -3.82     -0.40      1.88     -5.90     -1.38      2.60      0.95      1.38
     -25.067156    -112.796036     206.2      0.36      2.38      29.2         1         3      1000      4226   1876.72    -7.266       5.8      24.1   345.164     0.706      76.6   0.16000      34.4         H               347.5  0.082075  0.043725  0.001489  3.636385  0.900691  4.037326  1.190233     67.68    3.2854   19.8336   0.25622   4.59813   0.33491   0.02506  29.50395   3.46614    2233.6  0.577931  0.000721  0.000027  0.000179  0.194370  7.024931  0.739188     45.02  1.000151  1.000015     3.103    20.528      72.4      76.6      36.5     265.2     13.07      6.81     -4.07      0.26     -0.87      1.42     -2.74     -3.21      2.87     -4.55      0.76      2.95     -4.46      0.32      1.57     -7.24     -4.25      2.97      2.61      2.99
     -25.040234    -112.925728     211.6      0.33      2.38      26.4         2         1      2445      1000   2166.21    -6.643       5.3      23.2   353.660     0.739     106.4   0.17513      37.1         H               347.5  0.089671  0.047190  0.001696  3.822870  0.955329  4.001628  1.219395     66.85    3.8526   27.4208   0.27002   4.86828   0.30742   0.01982  40.03323   4.00735    2641.5  0.600006  0.001131  0.000062  0.000191  0.194768  7.008121  0.776891     57.99  1.000163  1.000017     3.299    23.224      75.2      79.2      50.0     331.9     13.16      6.91     -4.10      0.31     -0.34      1.77     -2.98     -3.41      2.76     -4.02      1.39      2.51     -4.32     -0.14      1.73     -7.18     -3.22      3.78      3.52      2.28
     -25.027262    -112.867149     238.7      0.33      2.38      26.0         2         2      2445      2613   1934.43    -7.134       5.3      23.7   351.609     0.733      77.3   0.17254      56.8         H               347.5  0.089686  0.044564  0.001861  3.911559  0.949561  4.119336  1.213267     54.01    3.4013   21.8802   0.26659   4.65049   0.33102   0.02438  32.09416   3.58145    2347.0  0.597012  0.000654  0.000020  0.000190  0.189386  6.961242  0.769875     77.94  1.000155  1.000018     3.230    22.241      75.2      76.9      39.8     295.2     13.37      6.16     -3.40     -0.37     -1.31      1.63     -2.35     -2.23      2.23     -4.23      1.18      2.19     -4.17      0.33      1.38     -8.80     -5.41      3.30      3.56      3.37
     -25.014507    -112.809669     211.6      0.36      2.38      26.4         2         3      2445      4226   1900.42    -7.212       5.8      24.1   344.657     0.708      78.5   0.16102      37.1         H               347.5  0.082947  0.041475  0.001627  3.622404  0.920097  3.936982  1.192227     53.04    3.3228   20.2747   0.25692   4.61797   0.33216   0.02451  30.13197   3.50270    2265.7  0.581735  0.000722  0.000032  0.000180  0.189422  6.974080  0.742030     68.46  1.000154  1.000015     3.155    21.883      73.8      76.8      37.3     292.6     13.25      6.17     -3.79     -0.16     -1.23      1.80     -2.29     -1.78      2.36     -3.76      1.42      2.43     -4.56      0.14      1.55     -8.42     -5.47      3.70      3.27      3.09
     -24.987570    -112.939285     211.6      0.40      2.38      26.4         3         1      3890      1000   2088.40    -6.802       5.1      23.2   352.141     0.733     108.5   0.17124      37.1         H               347.5  0.087514  0.049672  0.001385  3.792312  0.949622  3.993497  1.214712     96.51    3.6976   25.3330   0.26749   4.79650   0.31547   0.02129  37.11337   3.85785    2536.6  0.594063  0.001215  0.000060  0.000201  0.200200  7.062450  0.771295     34.34  1.000153  1.000015     3.244    22.739      75.2      78.4      46.2     322.7     13.15      6.49     -4.24      0.56      0.15      1.19     -3.69     -3.91      3.60     -4.67      0.40      4.41     -3.89     -0.59      1.69     -5.86     -1.54      1.94      0.58      1.12
     -24.974606    -112.880745     209.0      0.35      2.38      33.3         3         2      3890      2613   2030.07    -6.925       5.6      23.7   348.128     0.718      84.3   0.16460      35.8         H               347.5  0.084106  0.044047  0.001593  3.670264  0.923932  3.972442  1.203462     65.52    3.5828   23.4705   0.25968   4.74702   0.31860   0.02181  34.75158   3.75103    2443.0  0.587479  0.000819  0.000041  0.000187  0.193390  6.997363  0.752550     59.21  1.000148  1.000016     3.216    22.336      75.2      78.2      43.0     301.9     13.24      5.96     -3.73      0.28     -0.87      1.84     -2.93     -2.43      2.48     -3.98      0.94      2.31     -4.54     -0.20      2.08     -7.41     -4.50      3.85      2.95      2.14
     -24.961857    -112.823296     221.4      0.36      2.38      27.7         3         3      3890      4226   1893.47    -7.227       5.8      24.1   342.996     0.701     111.0   0.15871      42.9         H               347.5  0.080788  0.042954  0.001197  3.571752  0.899596  3.970397  1.187719     68.87    3.3086   19.9777   0.25535   4.61083   0.33336   0.02474  29.75300   3.48496    2248.8  0.575239  0.001292  0.000081  0.000186  0.194869  7.025533  0.734075     49.84  1.000152  1.000015     3.052    19.657      73.8      76.7      36.9     267.1     13.30      6.00     -3.80      0.26     -0.92      1.75     -3.40     -3.22      3.30     -4.80      0.91      3.69     -3.90      0.62      1.82     -6.19     -2.81      2.57      1.82      2.38
