corner points
-101.5033493    -49.81355286
-101.5960312    -49.64604568
-101.2372513    -49.75033569
-101.3307953    -49.58303833
========== RESULTS WAVE VERSION 16.10.2018 ====================
IMAGE SIZE  X: 4376     Y:4774    col:row     POLARIZATION:VV
COVERAGE    X: 20.30977538km       Y: 19.73811282km 
RESOLUTION dX: 4.641173533m       dY:4.134502057m  
resolution of original product 4.641173533m x 4.134502057m;   raster step x:5996.396204m  
===============================================================
FLAGS: H=HIGH PROBABILITY SEA STATE, I=LAND(ISLAND), O=OUTLIER NO SEA STATE, N=NO WIND AVAILABLE, SEA STATE NOT VISIBLE, M=MEAN PROBABILITY SEA STATE, L= LOW PROBABILITY SEA STATE
Filtering wave length
 integration  Lmin=1m
 integration  Lmax=2200m
  peak        Lmin=100m
               FFT=1024pixels, 4752.561698m 
   mean-Hs (SWH_c)=1.003740768m
         mean-wind=7.061110497m/s
--------------0--------------1---------2---------3---------4---------5---------6---------7---------8---------9--------10--------11--------12--------13--------14--------15--------16--------17--------18--------19------------------20--------21--------22--------23--------24--------25--------26--------27--------28--------29--------30--------31--------32--------33--------34--------35--------36--------37--------38--------39--------40--------41--------42--------43--------44--------45--------46--------47--------48--------49--------50--------51--------52--------53--------54--------55--------56--------57--------58--------59--------60--------61--------62--------63--------64--------65--------66--------67--------68--------69--------70--------71--------72--------73
            LAT            LON  P-LENGHT     SWH_o     SWH_c     P-DIR      LINE     POINT     ROW-Y     COL-X  M-INTENC        dB      WIND INC-ANGLE  ENERGY-M  ENERGY-N  ENERGY-R ENERGY-NN  FG-DEPTH      FLAG         HEADING-DEG    E30-75   E75-390  E390-600 meanincut   meanout   cut/out  STD-NORM  SPEC-MAX   GL-MEAN    GL-VAR      CORR   ENTROPY   HOMOGEN    ENERGY  CONTRAST  DISSIMIL     STD-O    E 1-30 E600-2000   E2000 >      GODA  LONG-HIG     Tmean  CONVOLUT  MEAN-DIR  relation     Sy/Sx  SKEWNESS  KURTOSIS  cutoff-A >50/10000     INT*V   INT-LOG  S-1_g1f1  S-2_g1f2  S-3_g1f3  S-4_g2f1  S-5_g2f2  S-6_g2f3  S-7_g3f1  S-8_g3f2  S-9_g3f3 S-10_g1f4 S-11_g2f4 S-12_g3f4 S-13_g1f5 S-14_g2f5 S-15_g3f5 S-16_g4f1 S-17_g4f2 S-18_g4f3 S-19_g4f4 S-20_g4f5
--------------1--------------2---------3---------4---------5---------6---------7---------8---------9--------10--------11--------12--------13--------14--------15--------16--------17--------18--------19--------20------------------21--------22--------23--------24--------25--------26--------27--------28--------29--------30--------31--------32--------33--------34--------35--------36--------37--------38--------39--------40--------41--------42--------43--------44--------45--------46--------47--------48--------49--------50--------51--------52--------53--------54--------55--------56--------57--------58--------59--------60--------61--------62--------63--------64--------65--------66--------67--------68--------69--------70--------71--------72--------73--------74
     -49.763908    -101.461258     324.6      1.16      3.37     117.4         1         1      1000      1000    267.20   -15.732       7.3      35.8   296.817     0.601      73.3   0.08816     100.0         H               344.6  0.053071  0.035485  0.000925  3.237236  0.730950  4.428806  1.100168     72.55    4.8600   34.1787   0.13745   5.33609   0.23718   0.01029  58.96097   5.17007     293.9  0.511527  0.000638  0.000074  0.000146  0.212683  7.214458  0.609687    109.05  1.000243  1.000019     2.662    15.916     133.1      85.5      67.0     342.6     14.69     -6.24      8.81      0.48      2.40      1.67     -1.68      2.25     -1.95     -6.42      2.08      2.00      0.08      2.68      1.26     -6.81      4.73     -0.59      4.84      3.39
     -49.745205    -101.382416     273.8      0.98      3.37     112.8         1         2      1000      2292    245.94   -16.092       7.1      36.2   296.850     0.598     107.4   0.08584     100.0         H               344.6  0.052821  0.033436  0.000870  3.029194  0.724081  4.183503  1.097501     71.90    4.4366   28.8922   0.13352   5.17209   0.25190   0.01206  50.06927   4.75986     269.9  0.510281  0.000997  0.000201  0.000146  0.206610  7.146814  0.606095    110.22  1.000261  1.000018     2.661    15.864     133.1      83.9      56.5     306.5     14.57     -5.66      8.59      0.63      2.26      1.29     -2.06      2.63     -2.24     -5.70      2.12      2.84      0.62      2.04      1.14     -6.38      3.87     -1.09      3.47      1.83
     -49.726616    -101.304337     296.0      0.90      3.37     119.3         1         3      1000      3584    239.10   -16.214       7.2      36.5   294.367     0.590      65.1   0.08227     100.0         H               344.6  0.050481  0.031459  0.000781  2.899775  0.707715  4.097379  1.090492     45.07    4.3042   26.9711   0.12702   5.11949   0.25659   0.01259  47.09021   4.62895     260.7  0.507359  0.000544  0.000078  0.000134  0.207776  7.155527  0.597200    105.53  1.000231  1.000016     2.612    15.423     124.8      83.7      52.9     296.8     14.51     -5.19      7.70      0.53      2.60      1.92     -1.88      2.55     -2.07     -4.40      2.02      2.12     -0.23      2.85      1.24     -6.60      3.95      0.28      3.31      3.19
     -49.713001    -101.489517     289.0      0.99      3.37     114.2         2         1      2451      1000    260.97   -15.834       7.2      35.8   296.082     0.599      58.9   0.08643     100.0         H               344.6  0.053797  0.033705  0.000774  3.142389  0.740149  4.245614  1.097956     51.49    4.7366   32.4627   0.13436   5.29023   0.24118   0.01074  56.20199   5.05283     286.5  0.510440  0.000481  0.000050  0.000144  0.207186  7.159225  0.607032    104.71  1.000243  1.000017     2.660    16.041     133.1      85.1      63.6     335.5     14.28     -5.17      8.41      1.60      1.65      2.59     -1.82      2.52     -2.10     -5.34      1.46      2.13      0.67      2.16      0.90     -5.29      2.92      0.67      3.11      2.43
     -49.694317    -101.410759     305.9      1.06      3.37     115.7         2         2      2451      2292    241.84   -16.165       7.0      36.2   297.339     0.601      64.5   0.08648     100.0         H               344.6  0.052686  0.034782  0.000871  3.070086  0.728035  4.216948  1.099648     59.26    4.3545   28.0429   0.13385   5.13812   0.25548   0.01251  48.57842   4.68411     265.9  0.512313  0.000569  0.000047  0.000146  0.213188  7.191529  0.609141    107.07  1.000272  1.000019     2.681    16.199     133.1      83.6      54.8     309.4     14.83     -6.21      9.21      0.54      2.67      1.66     -2.06      2.75     -2.19     -5.81      2.15      2.95      0.89      2.57      0.85     -6.55      4.78     -0.98      3.71      2.66
     -49.675751    -101.332756     265.5      0.87      3.37     108.3         2         3      2451      3584    224.74   -16.483       6.9      36.5   294.593     0.588      71.5   0.08098     100.0         H               344.6  0.049727  0.031769  0.000794  3.047999  0.692112  4.403909  1.088374     42.99    4.0185   23.7300   0.12509   4.99710   0.26805   0.01416  41.52336   4.34981     244.6  0.505307  0.000651  0.000104  0.000142  0.207445  7.181274  0.594870    102.33  1.000234  1.000015     2.602    16.040     133.1      82.6      46.7     294.4     14.31     -4.58      8.82      1.40      1.22      2.31     -1.77      2.16     -2.33     -4.92      1.23      2.12      1.26      1.99      0.75     -5.59      2.35      0.30      2.49      1.90
     -49.662090    -101.517723     273.8      1.18      3.37     112.8         3         1      3902      1000    267.24   -15.731       7.3      35.8   297.264     0.604     160.3   0.08951     100.0         H               344.6  0.053077  0.035744  0.000935  3.135815  0.735007  4.266375  1.103387     69.77    4.8611   34.4232   0.14114   5.33555   0.23769   0.01035  59.12863   5.17047     294.8  0.512675  0.001764  0.000354  0.000148  0.214807  7.209463  0.613296    111.91  1.000271  1.000019     2.653    15.251     133.1      85.4      67.2     310.6     14.91     -5.86      9.03      0.46      2.50      1.72     -2.48      3.39     -2.61     -5.42      2.26      3.13      0.51      2.36      1.50     -6.52      3.57     -0.38      3.33      1.76
     -49.643425    -101.439041     280.7      1.07      3.37     117.6         3         2      3902      2292    240.05   -16.197       7.0      36.2   296.946     0.598      65.7   0.08489     100.0         H               344.6  0.051744  0.034772  0.000787  3.259811  0.723199  4.507490  1.096643     48.35    4.3196   27.5060   0.13148   5.12430   0.25649   0.01267  47.77920   4.65067     263.3  0.510011  0.000596  0.000058  0.000143  0.210356  7.201108  0.605387    104.59  1.000273  1.000020     2.644    15.606     137.8      83.4      53.7     292.0     14.45     -4.76      9.16      1.58      1.55      2.31     -1.96      2.45     -1.95     -4.65      1.47      2.09      1.37      2.34      1.18     -5.37      2.51     -0.83      2.83      1.46
     -49.624878    -101.361122     335.6      0.84      3.37     113.4         3         3      3902      3584    214.71   -16.681       6.6      36.5   296.417     0.592      65.7   0.08167     100.0         H               344.6  0.050955  0.032309  0.000808  3.093850  0.710805  4.352602  1.092176     48.86    3.8194   21.8235   0.12473   4.90613   0.27811   0.01559  38.20325   4.15849     234.5  0.507910  0.000539  0.000079  0.000138  0.207811  7.171474  0.599110    105.55  1.000253  1.000018     2.592    15.082     128.8      81.6      42.9     264.8     14.45     -5.83      8.54      0.82      2.22      1.83     -1.44      1.74     -1.71     -5.38      1.47      1.55      0.86      2.55      0.78     -6.55      4.70     -0.87      3.64      2.68
