corner points
-116.4631805    -2.691899776
-116.5005798    -2.516809225
-116.2884979    -2.653738737
-116.3259277    -2.478692532
========== RESULTS WAVE VERSION 16.10.2018 ====================
IMAGE SIZE  X: 4376     Y:4784    col:row     POLARIZATION:VV
COVERAGE    X: 19.81598134km       Y: 19.86091km 
RESOLUTION dX: 4.528332116m       dY:4.151528009m  
resolution of original product 4.528332116m x 4.151528009m;   raster step x:5995.511721m  
===============================================================
FLAGS: H=HIGH PROBABILITY SEA STATE, I=LAND(ISLAND), O=OUTLIER NO SEA STATE, N=NO WIND AVAILABLE, SEA STATE NOT VISIBLE, M=MEAN PROBABILITY SEA STATE, L= LOW PROBABILITY SEA STATE
Filtering wave length
 integration  Lmin=1m
 integration  Lmax=2200m
  peak        Lmin=100m
               FFT=1024pixels, 4637.012087m 
   mean-Hs (SWH_c)=0.54216362m
         mean-wind=11.23868179m/s
--------------0--------------1---------2---------3---------4---------5---------6---------7---------8---------9--------10--------11--------12--------13--------14--------15--------16--------17--------18--------19------------------20--------21--------22--------23--------24--------25--------26--------27--------28--------29--------30--------31--------32--------33--------34--------35--------36--------37--------38--------39--------40--------41--------42--------43--------44--------45--------46--------47--------48--------49--------50--------51--------52--------53--------54--------55--------56--------57--------58--------59--------60--------61--------62--------63--------64--------65--------66--------67--------68--------69--------70--------71--------72--------73
            LAT            LON  P-LENGHT     SWH_o     SWH_c     P-DIR      LINE     POINT     ROW-Y     COL-X  M-INTENC        dB      WIND INC-ANGLE  ENERGY-M  ENERGY-N  ENERGY-R ENERGY-NN  FG-DEPTH      FLAG         HEADING-DEG    E30-75   E75-390  E390-600 meanincut   meanout   cut/out  STD-NORM  SPEC-MAX   GL-MEAN    GL-VAR      CORR   ENTROPY   HOMOGEN    ENERGY  CONTRAST  DISSIMIL     STD-O    E 1-30 E600-2000   E2000 >      GODA  LONG-HIG     Tmean  CONVOLUT  MEAN-DIR  relation     Sy/Sx  SKEWNESS  KURTOSIS  cutoff-A >50/10000     INT*V   INT-LOG  S-1_g1f1  S-2_g1f2  S-3_g1f3  S-4_g2f1  S-5_g2f2  S-6_g2f3  S-7_g3f1  S-8_g3f2  S-9_g3f3 S-10_g1f4 S-11_g2f4 S-12_g3f4 S-13_g1f5 S-14_g2f5 S-15_g3f5 S-16_g4f1 S-17_g4f2 S-18_g4f3 S-19_g4f4 S-20_g4f5
--------------1--------------2---------3---------4---------5---------6---------7---------8---------9--------10--------11--------12--------13--------14--------15--------16--------17--------18--------19--------20------------------21--------22--------23--------24--------25--------26--------27--------28--------29--------30--------31--------32--------33--------34--------35--------36--------37--------38--------39--------40--------41--------42--------43--------44--------45--------46--------47--------48--------49--------50--------51--------52--------53--------54--------55--------56--------57--------58--------59--------60--------61--------62--------63--------64--------65--------66--------67--------68--------69--------70--------71--------72--------73--------74
      -2.646479    -116.430634     265.3      0.67      2.36       3.3         1         1      1000      1000    441.17   -13.554      11.6      36.8   218.850     0.565      97.6   0.08082     100.0         H               348.0  0.049073  0.015938  0.000597  1.522582  0.699888  2.175465  1.066510      7.47    8.3104   85.3607   0.12116   6.33020   0.15654   0.00367 150.03592   8.48043     470.5  0.497580  0.001786  0.000166  0.000118  0.167907  6.800650  0.569653     80.97  1.000115  1.000009     2.393    12.489      92.7      92.8     182.4     478.4     11.81      1.44     -0.91      0.71      0.05      1.79      1.76      0.06      1.20      0.05      0.95      0.90     -0.66      0.13      0.84     -7.98     -0.26      2.08      1.11      1.01
      -2.634896    -116.377594     314.7      0.65      2.36      15.8         1         2      1000      2324    401.98   -13.958      11.3      37.2   220.042     0.566     130.0   0.07930     100.0         H               348.0  0.048953  0.015719  0.000749  1.475253  0.693356  2.127700  1.068464      7.39    7.5409   71.7644   0.11888   6.15034   0.16868   0.00440 126.46552   7.75196     429.5  0.498815  0.002386  0.000246  0.000119  0.169295  6.791943  0.571610     82.62  1.000114  1.000009     2.426    12.964      97.3      91.7     150.4     452.5     12.03      0.57     -0.68      0.27      1.32      2.46      2.61     -0.58      0.32      0.49      1.22      0.60     -0.84      0.73      0.27    -10.47      3.69      4.27      1.63      2.22
      -2.623410    -116.325012     281.5      0.64      2.36      37.4         1         3      1000      3648    380.71   -14.194      11.1      37.6   219.081     0.559     111.4   0.07522     100.0         H               348.0  0.047901  0.015184  0.000609  1.434964  0.686208  2.091149  1.061563      8.57    7.1195   64.0893   0.11271   6.04532   0.17583   0.00487 113.73100   7.35868     404.1  0.493791  0.001731  0.000280  0.000122  0.165566  6.783869  0.563599     81.31  1.000112  1.000007     2.371    12.470      92.7      91.1     132.8     425.7     11.62      0.61     -1.24      0.65      0.85      1.86      2.35     -0.60      0.88     -0.13      1.24      0.72     -1.47      1.08      0.64     -8.68      3.55      3.12      1.92      2.92
      -2.593585    -116.441940     309.2      0.64      2.36      36.9         2         1      2445      1000    409.75   -13.875      11.1      36.9   221.205     0.572      91.4   0.08128     100.0         H               348.0  0.049852  0.017456  0.000767  1.627731  0.697784  2.332716  1.072711      9.49    7.6895   74.9286   0.12158   6.18562   0.16660   0.00428 131.63733   7.90002     439.5  0.501835  0.001888  0.000129  0.000118  0.171790  6.832887  0.577100     79.27  1.000111  1.000007     2.460    13.556      90.6      91.9     157.2     492.2     12.06      1.11     -1.29      0.02      0.73      2.03      2.10     -0.77      0.90     -0.29      1.13      0.94     -1.71      0.97      0.02     -9.95      3.57      3.27      1.32      3.61
      -2.582006    -116.388908     293.2      0.64      2.36      26.3         2         2      2445      2324    388.92   -14.101      11.0      37.2   220.659     0.570      90.8   0.08024     100.0         H               348.0  0.049577  0.016813  0.000779  1.555974  0.695672  2.236648  1.071579      9.60    7.2819   67.7539   0.12065   6.08486   0.17370   0.00472 119.15807   7.50795     416.7  0.501476  0.001761  0.000135  0.000118  0.171624  6.818464  0.575678     80.90  1.000116  1.000009     2.444    13.136      92.7      91.2     140.7     443.1     12.18      1.22     -0.90      0.01      0.23      1.88      2.03     -0.55      0.75      0.05      1.09      0.39     -1.04      0.85      0.45    -10.40      1.37      2.70      1.52      2.70
      -2.570524    -116.336327     293.7      0.67      2.36      14.7         2         3      2445      3648    412.58   -13.845      11.7      37.6   220.187     0.566     110.1   0.07924     100.0         H               348.0  0.048935  0.015747  0.000778  1.470872  0.706191  2.082824  1.067288      8.16    7.7476   75.3495   0.11799   6.20046   0.16521   0.00418 132.91911   7.95925     440.3  0.498494  0.001996  0.000205  0.000112  0.167875  6.798358  0.570577     80.32  1.000112  1.000009     2.410    12.734      88.6      92.1     158.6     461.6     11.98      0.89     -1.42     -0.09      1.11      1.66      2.57     -1.00      0.79     -0.13      1.59      0.04     -1.36      1.13      0.11    -11.19      3.85      2.75      2.64      3.95
      -2.540691    -116.453239     366.2      0.63      2.36     140.8         3         1      3890      1000    403.58   -13.941      11.0      36.9   221.193     0.570      85.9   0.08025     100.0         H               348.0  0.049596  0.017473  0.000775  1.593414  0.698614  2.280824  1.071298     10.00    7.5667   72.5655   0.12011   6.15596   0.16858   0.00440 127.69940   7.78570     432.4  0.500845  0.001342  0.000153  0.000120  0.174135  6.834288  0.575184     79.82  1.000116  1.000010     2.476    14.490      90.6      91.7     151.9     510.0     12.40      0.62     -1.76     -0.61      1.55      2.22      1.88     -0.93      0.60     -0.05      1.23      0.52     -2.14      1.30      0.22    -11.00      4.34      4.13      1.60      4.01
      -2.529116    -116.400208     104.1      0.64      2.36      66.9         3         2      3890      2324    389.14   -14.099      11.0      37.2   219.649     0.566      95.5   0.07930       6.9         H               348.0  0.049434  0.017027  0.000720  1.593617  0.699655  2.277719  1.068047      8.20    7.2886   67.6225   0.12045   6.08707   0.17349   0.00470 118.95386   7.50410     415.6  0.497730  0.001475  0.000203  0.000118  0.170055  6.822294  0.571781     79.30  1.000114  1.000009     2.406    12.569      88.6      91.3     140.5     429.7     11.99      0.97     -1.67      0.21      0.99      2.16      2.13     -0.64      0.75      0.08      0.95      0.68     -1.80      0.55      0.38     -9.71      3.09      4.05      1.38      2.52
      -2.517638    -116.347633     314.7      0.65      2.36      15.8         3         3      3890      3648    388.00   -14.112      11.3      37.6   221.149     0.571     116.5   0.08068     100.0         H               348.0  0.050219  0.017191  0.000817  1.592820  0.711006  2.240235  1.072405      8.87    7.2613   67.5439   0.12098   6.07929   0.17453   0.00477 118.74452   7.48699     416.0  0.500877  0.001933  0.000233  0.000124  0.169192  6.813852  0.576427     80.52  1.000150  1.000012     2.453    13.274      94.9      91.3     140.2     446.3     12.03      0.69     -1.66     -0.20      1.35      2.09      2.68     -0.79      1.05     -0.08      1.45      1.02     -1.15      0.19      0.31    -10.95      4.28      3.36      1.79      1.95
