corner points
-112.782486    -18.57839584
-112.8261032    -18.40407372
-112.5982819    -18.5355835
-112.6421127    -18.36132622
========== RESULTS WAVE VERSION 16.10.2018 ====================
IMAGE SIZE  X: 4376     Y:4786    col:row     POLARIZATION:VV
COVERAGE    X: 19.9457383km       Y: 19.87667368km 
RESOLUTION dX: 4.557984072m       dY:4.153086853m  
resolution of original product 4.557984072m x 4.153086853m;   raster step x:5998.307038m  
===============================================================
FLAGS: H=HIGH PROBABILITY SEA STATE, I=LAND(ISLAND), O=OUTLIER NO SEA STATE, N=NO WIND AVAILABLE, SEA STATE NOT VISIBLE, M=MEAN PROBABILITY SEA STATE, L= LOW PROBABILITY SEA STATE
Filtering wave length
 integration  Lmin=1m
 integration  Lmax=2200m
  peak        Lmin=100m
               FFT=1024pixels, 4667.37569m 
   mean-Hs (SWH_c)=0.7225842285m
         mean-wind=10.56893063m/s
--------------0--------------1---------2---------3---------4---------5---------6---------7---------8---------9--------10--------11--------12--------13--------14--------15--------16--------17--------18--------19------------------20--------21--------22--------23--------24--------25--------26--------27--------28--------29--------30--------31--------32--------33--------34--------35--------36--------37--------38--------39--------40--------41--------42--------43--------44--------45--------46--------47--------48--------49--------50--------51--------52--------53--------54--------55--------56--------57--------58--------59--------60--------61--------62--------63--------64--------65--------66--------67--------68--------69--------70--------71--------72--------73
            LAT            LON  P-LENGHT     SWH_o     SWH_c     P-DIR      LINE     POINT     ROW-Y     COL-X  M-INTENC        dB      WIND INC-ANGLE  ENERGY-M  ENERGY-N  ENERGY-R ENERGY-NN  FG-DEPTH      FLAG         HEADING-DEG    E30-75   E75-390  E390-600 meanincut   meanout   cut/out  STD-NORM  SPEC-MAX   GL-MEAN    GL-VAR      CORR   ENTROPY   HOMOGEN    ENERGY  CONTRAST  DISSIMIL     STD-O    E 1-30 E600-2000   E2000 >      GODA  LONG-HIG     Tmean  CONVOLUT  MEAN-DIR  relation     Sy/Sx  SKEWNESS  KURTOSIS  cutoff-A >50/10000     INT*V   INT-LOG  S-1_g1f1  S-2_g1f2  S-3_g1f3  S-4_g2f1  S-5_g2f2  S-6_g2f3  S-7_g3f1  S-8_g3f2  S-9_g3f3 S-10_g1f4 S-11_g2f4 S-12_g3f4 S-13_g1f5 S-14_g2f5 S-15_g3f5 S-16_g4f1 S-17_g4f2 S-18_g4f3 S-19_g4f4 S-20_g4f5
--------------1--------------2---------3---------4---------5---------6---------7---------8---------9--------10--------11--------12--------13--------14--------15--------16--------17--------18--------19--------20------------------21--------22--------23--------24--------25--------26--------27--------28--------29--------30--------31--------32--------33--------34--------35--------36--------37--------38--------39--------40--------41--------42--------43--------44--------45--------46--------47--------48--------49--------50--------51--------52--------53--------54--------55--------56--------57--------58--------59--------60--------61--------62--------63--------64--------65--------66--------67--------68--------69--------70--------71--------72--------73--------74
     -18.532089    -112.749031     367.2      0.68      2.38      39.0         1         1      1000      1000    373.82   -14.273      10.2      36.6   236.220     0.572      60.7   0.08029     100.0         H               347.8  0.050937  0.020983  0.000752  2.034139  0.703683  2.890704  1.073001     12.00    6.9818   63.0174   0.12309   6.00649   0.17977   0.00513 110.52081   7.21271     401.1  0.498761  0.000836  0.000090  0.000134  0.166262  6.876496  0.578619     85.07  1.000128  1.000010     2.438    12.971      92.7      90.8     129.7     418.3     12.46      2.54     -2.00     -0.36     -1.35      1.78      1.03     -0.11      0.67     -1.95      0.88      1.16     -2.04      1.13      0.60    -10.55     -3.89      3.71      1.94      3.11
     -18.519178    -112.693443     373.2      0.76      2.38      28.7         1         2      1000      2316    375.69   -14.252      10.6      37.0   235.848     0.571      67.5   0.08002     100.0         H               347.8  0.050168  0.021217  0.000938  2.067644  0.703556  2.938847  1.071739     16.17    7.0174   63.6091   0.12296   6.01588   0.17904   0.00511 111.57565   7.25212     402.6  0.497617  0.001084  0.000088  0.000143  0.164851  6.880823  0.577339     85.85  1.000110  1.000008     2.418    12.780      94.9      90.7     130.9     422.2     12.58      2.51     -1.74     -1.08     -2.41      1.79      2.06      0.59      0.33     -2.09      0.81      0.27     -2.31      1.61     -0.00    -12.90     -6.31      4.20      3.09      4.49
     -18.506363    -112.638351     385.5      0.76      2.38      35.3         1         3      1000      3632    365.13   -14.376      10.7      37.3   235.206     0.567      77.2   0.07795     100.0         H               347.8  0.049335  0.021119  0.000811  2.040792  0.700268  2.914302  1.068162     13.68    6.8099   59.8736   0.11949   5.96123   0.18292   0.00536 105.43886   7.05117     390.0  0.494681  0.001193  0.000132  0.000139  0.165384  6.888542  0.573342     84.37  1.000115  1.000008     2.389    12.438      92.7      90.5     122.8     404.9     12.37      2.52     -2.54     -0.58     -2.08      2.32      1.66      0.11      0.66     -2.24      1.21      0.56     -1.75      0.69      0.28    -11.27     -5.39      5.03      3.19      2.71
     -18.479488    -112.762215     373.2      0.65      2.38      28.7         2         1      2444      1000    376.22   -14.246      10.2      36.6   237.181     0.575      69.2   0.08039     100.0         H               347.8  0.051260  0.020558  0.000807  2.020091  0.708134  2.852695  1.075406     12.12    7.0304   64.1547   0.12269   6.01908   0.17917   0.00509 112.56690   7.27134     404.5  0.501160  0.001057  0.000102  0.000137  0.164070  6.851311  0.581233     85.99  1.000136  1.000011     2.435    12.860      92.7      90.9     132.0     423.3     12.52      2.45     -1.53     -0.53     -2.40      1.52      1.40      1.02      0.92     -2.05      0.85      1.04     -1.90      0.93      0.28    -11.05     -6.66      2.81      2.27      2.96
     -18.466583    -112.706650     385.5      0.67      2.38      35.3         2         2      2444      2316    377.19   -14.234      10.6      37.0   235.786     0.571      73.5   0.08015     100.0         H               347.8  0.050235  0.020030  0.000863  1.963331  0.701148  2.800166  1.071900     13.40    7.0457   64.0555   0.12246   6.02325   0.17839   0.00507 112.42268   7.28221     404.3  0.498797  0.001184  0.000112  0.000136  0.162824  6.850855  0.577228     85.22  1.000131  1.000011     2.419    12.753      90.6      90.8     131.9     415.1     12.37      3.13     -1.73     -0.72     -2.50      1.27      1.83      0.14      0.36     -1.58      0.20      0.94     -2.46      1.54      0.35    -12.12     -6.41      3.39      1.10      4.69
     -18.453773    -112.651573     373.2      0.83      2.38      28.7         2         3      2444      3632    385.94   -14.135      11.1      37.3   236.864     0.576     203.9   0.08301     100.0         H               347.8  0.050307  0.021140  0.001206  2.061887  0.702924  2.933302  1.077826     16.14    7.2193   67.4072   0.12883   6.06713   0.17576   0.00486 117.44546   7.43424     415.9  0.500405  0.003130  0.000507  0.000136  0.165103  6.880289  0.583684     87.95  1.000148  1.000011     2.472    13.545      99.7      91.1     139.4     452.6     12.81      2.15     -1.11     -1.83     -2.26      1.48      2.85      0.41      0.32     -1.59      0.60      0.44     -1.70      1.47      0.10    -15.85     -5.44      3.11      2.15      3.82
     -18.426886    -112.775391     255.0      0.70      2.38      25.9         3         1      3888      1000    386.36   -14.130      10.4      36.6   236.158     0.573      73.0   0.08123      82.3         H               347.8  0.051450  0.020666  0.000714  2.020512  0.708725  2.850910  1.073792      9.76    7.2308   67.2719   0.12463   6.07102   0.17494   0.00481 117.77614   7.45224     414.9  0.499073  0.001150  0.000112  0.000142  0.161816  6.849246  0.579441     82.89  1.000124  1.000010     2.437    12.883      92.7      91.2     139.2     433.5     12.17      1.89     -2.16     -0.08     -1.36      1.46      1.20     -0.08      0.63     -2.28      0.67      0.89     -1.53      0.56      0.49     -9.94     -3.63      3.06      1.96      1.92
     -18.413986    -112.719841     357.2      0.68      2.38      22.5         3         2      3888      2316    374.23   -14.269      10.5      37.0   236.017     0.572      88.7   0.07957     100.0         H               347.8  0.050016  0.020246  0.000814  1.992215  0.712241  2.797107  1.072957     10.34    6.9876   63.3053   0.12271   6.00783   0.17953   0.00515 111.07513   7.22982     401.5  0.499259  0.001481  0.000163  0.000135  0.164820  6.872375  0.578382     86.93  1.000133  1.000010     2.416    12.622      92.7      90.7     130.0     409.5     12.28      2.02     -1.63     -0.25     -1.66      1.94      1.68     -0.21      0.45     -1.89      0.64      0.59     -1.97      0.59      1.05    -11.11     -3.78      4.26      1.74      1.97
     -18.401182    -112.664780     357.2      0.77      2.38      22.5         3         3      3888      3632    374.97   -14.260      10.9      37.3   236.155     0.571     104.2   0.07958     100.0         H               347.8  0.050174  0.020835  0.001074  2.043027  0.715829  2.854072  1.072287     14.65    7.0038   63.4109   0.12268   6.01235   0.17949   0.00512 111.26198   7.23668     402.0  0.497448  0.001666  0.000193  0.000136  0.164334  6.858234  0.577722     84.09  1.000140  1.000012     2.421    12.854      92.7      90.8     130.4     426.7     12.44      1.68     -1.98     -1.00     -1.72      2.16      2.55      0.20     -0.16     -2.07      0.84     -0.07     -1.19      0.12      1.21    -13.97     -4.57      5.50      3.49      0.26
