corner points
-98.03703308    -59.65486145
-98.17070007    -59.48579788
-97.69059753    -59.58223343
-97.8259201    -59.413517
========== RESULTS WAVE VERSION 16.10.2018 ====================
IMAGE SIZE  X: 5471     Y:4905    col:row     POLARIZATION:VV
COVERAGE    X: 21.03751647km       Y: 20.20754936km 
RESOLUTION dX: 3.845278098m       dY:4.119785803m  
resolution of original product 3.845278098m x 4.119785803m;   raster step x:5998.633833m  
===============================================================
FLAGS: H=HIGH PROBABILITY SEA STATE, I=LAND(ISLAND), O=OUTLIER NO SEA STATE, N=NO WIND AVAILABLE, SEA STATE NOT VISIBLE, M=MEAN PROBABILITY SEA STATE, L= LOW PROBABILITY SEA STATE
Filtering wave length
 integration  Lmin=1m
 integration  Lmax=2200m
  peak        Lmin=100m
               FFT=1024pixels, 3937.564772m 
   mean-Hs (SWH_c)=3.086471252m
         mean-wind=12.75020599m/s
--------------0--------------1---------2---------3---------4---------5---------6---------7---------8---------9--------10--------11--------12--------13--------14--------15--------16--------17--------18--------19------------------20--------21--------22--------23--------24--------25--------26--------27--------28--------29--------30--------31--------32--------33--------34--------35--------36--------37--------38--------39--------40--------41--------42--------43--------44--------45--------46--------47--------48--------49--------50--------51--------52--------53--------54--------55--------56--------57--------58--------59--------60--------61--------62--------63--------64--------65--------66--------67--------68--------69--------70--------71--------72--------73
            LAT            LON  P-LENGHT     SWH_o     SWH_c     P-DIR      LINE     POINT     ROW-Y     COL-X  M-INTENC        dB      WIND INC-ANGLE  ENERGY-M  ENERGY-N  ENERGY-R ENERGY-NN  FG-DEPTH      FLAG         HEADING-DEG    E30-75   E75-390  E390-600 meanincut   meanout   cut/out  STD-NORM  SPEC-MAX   GL-MEAN    GL-VAR      CORR   ENTROPY   HOMOGEN    ENERGY  CONTRAST  DISSIMIL     STD-O    E 1-30 E600-2000   E2000 >      GODA  LONG-HIG     Tmean  CONVOLUT  MEAN-DIR  relation     Sy/Sx  SKEWNESS  KURTOSIS  cutoff-A >50/10000     INT*V   INT-LOG  S-1_g1f1  S-2_g1f2  S-3_g1f3  S-4_g2f1  S-5_g2f2  S-6_g2f3  S-7_g3f1  S-8_g3f2  S-9_g3f3 S-10_g1f4 S-11_g2f4 S-12_g3f4 S-13_g1f5 S-14_g2f5 S-15_g3f5 S-16_g4f1 S-17_g4f2 S-18_g4f3 S-19_g4f4 S-20_g4f5
--------------1--------------2---------3---------4---------5---------6---------7---------8---------9--------10--------11--------12--------13--------14--------15--------16--------17--------18--------19--------20------------------21--------22--------23--------24--------25--------26--------27--------28--------29--------30--------31--------32--------33--------34--------35--------36--------37--------38--------39--------40--------41--------42--------43--------44--------45--------46--------47--------48--------49--------50--------51--------52--------53--------54--------55--------56--------57--------58--------59--------60--------61--------62--------63--------64--------65--------66--------67--------68--------69--------70--------71--------72--------73--------74
     -59.606831     -97.999222     231.3      2.92      4.80      93.1         1         1      1000      1000   4953.69    -3.051      12.4      22.3   232.929     0.852     134.0   0.22528      50.0         H               341.5  0.100368  0.087345  0.002600  6.843547  1.092033  6.266794  1.309434     83.40    9.1951  131.0224   0.29943   6.41461   0.17150   0.00432 183.58197   8.88706    6486.1  0.661247  0.001421  0.000023  0.000227  0.220121  7.378937  0.896752     83.63  1.000372  1.000048     4.044    37.078     128.8      91.8     305.1     968.4     14.66      1.59      9.58      2.34      0.59      5.11     -2.09      0.15     -2.95      1.76      1.30     -0.07      3.93      2.92     -0.68     -5.63     -0.97      3.64      0.44      2.79
     -59.585945     -97.899323     196.0      3.01      4.80      71.0         1         2      1000      2560   4589.30    -3.383      12.7      22.8   234.821     0.868     133.8   0.23473      29.8         H               341.5  0.103592  0.090996  0.002336  6.767025  1.128450  5.996742  1.319864    103.66    8.5084  116.9054   0.30590   6.27073   0.18307   0.00509 162.28900   8.26954    6057.3  0.670752  0.001162  0.000027  0.000237  0.222835  7.399136  0.914877     79.76  1.000363  1.000050     4.188    41.686     133.1      90.8     263.1     920.5     14.68      2.43     10.66      2.83      1.07      5.15     -2.47     -0.88     -3.52      2.68      1.84     -0.81      4.47      2.52     -0.39     -4.47      0.01      3.66      0.93      1.52
     -59.565388     -97.801460     236.3      3.09      4.80      73.7         1         3      1000      4120   4211.28    -3.756      12.7      23.3   235.135     0.864     140.2   0.23021      54.4         H               341.5  0.100119  0.091956  0.002367  6.949954  1.103411  6.298610  1.317192    105.71    7.8095  101.4872   0.30242   6.11874   0.19472   0.00597 141.59109   7.66482    5546.3  0.668527  0.001416  0.000013  0.000224  0.226194  7.423094  0.908994     80.52  1.000354  1.000044     4.213    41.415     128.8      89.7     219.7     828.8     14.98      2.71     10.05      1.71      0.62      3.98     -2.86     -1.32     -3.27      2.60      1.23     -1.06      3.78      2.14     -0.43     -5.35     -0.27      2.26      0.13      1.74
     -59.556656     -98.039062     244.4      3.07      4.80      96.7         2         1      2456      1000   5014.27    -2.998      12.6      22.3   232.293     0.858     131.1   0.23086      63.4         H               341.5  0.102193  0.091168  0.002030  6.547539  1.121019  5.840703  1.313399     97.13    9.2862  133.7608   0.30526   6.42810   0.17130   0.00430 185.85843   8.95113    6585.7  0.662239  0.001224  0.000018  0.000233  0.224760  7.406767  0.904491     83.60  1.000360  1.000048     4.004    35.971     133.1      91.7     313.1     933.8     14.55      1.60     10.59      3.15      0.70      5.17     -2.32     -0.25     -2.93      1.55      1.27      0.13      4.70      2.50     -0.50     -3.52      0.41      3.34      1.07      1.78
     -59.535805     -97.939301     223.4      3.16      4.80      74.6         2         2      2456      2560   4661.04    -3.315      12.9      22.8   235.625     0.868     152.6   0.23217      44.2         H               341.5  0.101941  0.093081  0.003135  6.940759  1.075806  6.451685  1.321306    112.43    8.6481  120.0762   0.30365   6.30012   0.18117   0.00495 167.23096   8.41081    6158.2  0.668862  0.001749  0.000028  0.000240  0.222907  7.429463  0.914669     80.78  1.000346  1.000046     4.366    58.329     133.1      91.0     271.8     949.9     14.75      2.20     10.43      2.55      0.59      5.35     -1.96     -0.56     -3.51      2.38      1.40     -0.57      4.55      2.85     -0.74     -6.18     -0.70      3.87      0.63      2.00
     -59.515274     -97.841576     236.3      3.19      4.80      73.7         2         3      2456      4120   4354.17    -3.611      13.2      23.3   236.097     0.872     151.6   0.23482      54.4         H               341.5  0.101942  0.093506  0.002402  6.849712  1.099468  6.230024  1.323215    100.50    8.0760  107.8342   0.30644   6.17587   0.19072   0.00566 149.57672   7.89059    5761.5  0.673570  0.001478  0.000042  0.000235  0.227041  7.431829  0.919199     81.93  1.000357  1.000048     4.251    44.470     133.1      90.1     237.6     896.3     14.76      1.50     10.55      2.66      0.49      5.01     -2.39     -0.45     -2.87      1.60      1.41     -0.63      3.91      2.91      0.10     -4.64     -0.28      2.98      1.21      2.08
     -59.506477     -98.078781     212.1      3.11      4.80      66.3         3         1      3912      1000   5065.39    -2.954      12.8      22.3   234.231     0.860     134.7   0.22888      37.4         H               341.5  0.101767  0.091437  0.002400  6.656367  1.116996  5.959168  1.314230    103.50    9.3924  135.9840   0.30245   6.44913   0.16980   0.00419 189.71411   9.04977    6656.8  0.663812  0.001311  0.000019  0.000231  0.226269  7.424822  0.905982     78.30  1.000350  1.000046     4.045    36.718     128.8      92.0     321.4     977.8     14.78      2.10     10.07      2.77      0.89      5.21     -2.59     -0.61     -3.21      2.26      1.58     -0.80      3.58      2.42     -0.11     -5.01     -0.35      3.10      0.94      1.67
     -59.485649     -97.979164     239.7      3.24      4.80     103.1         3         2      3912      2560   4624.29    -3.350      12.8      22.8   236.974     0.879     141.5   0.23754      57.8         H               341.5  0.105491  0.097361  0.002563  7.094255  1.111441  6.382933  1.329993    108.47    8.5709  119.3890   0.30867   6.27935   0.18353   0.00511 165.07449   8.32493    6150.0  0.673224  0.001301  0.000021  0.000242  0.224892  7.417647  0.927426     83.89  1.000337  1.000047     4.222    41.534     133.1      90.7     269.8     935.6     14.85      1.79     10.58      2.62      0.80      5.05     -2.57     -0.56     -3.32      1.82      1.34     -0.44      4.43      2.53     -0.36     -4.98      0.03      2.99      0.81      1.41
     -59.465153     -97.881584     228.5      2.98      4.80      80.6         3         3      3912      4120   4204.93    -3.762      12.7      23.3   234.606     0.865     139.9   0.23318      47.9         H               341.5  0.104720  0.091090  0.003018  6.800991  1.102906  6.166428  1.319318    104.54    7.7876  101.6194   0.30623   6.11024   0.19596   0.00607 141.00134   7.63486    5547.0  0.665763  0.001520  0.000017  0.000236  0.221713  7.393285  0.911355     81.43  1.000362  1.000049     4.120    38.339     133.1      89.6     218.6     814.5     14.68      2.34     10.10      2.39      0.96      5.14     -1.89     -0.78     -3.27      2.30      1.96     -0.73      4.20      2.58     -0.51     -6.00     -0.27      4.16      1.21      2.09
