corner points
-123.7741241    32.69113541
-123.812294    32.86554718
-123.5657959    32.7231636
-123.6035385    32.89756393
========== RESULTS WAVE VERSION 16.10.2018 ====================
IMAGE SIZE  X: 4376     Y:4780    col:row     POLARIZATION:VV
COVERAGE    X: 19.77115542km       Y: 19.67085158km 
RESOLUTION dX: 4.518088533m       dY:4.115240917m  
resolution of original product 4.518088533m x 4.115240917m;   raster step x:5995.503483m  
===============================================================
FLAGS: H=HIGH PROBABILITY SEA STATE, I=LAND(ISLAND), O=OUTLIER NO SEA STATE, N=NO WIND AVAILABLE, SEA STATE NOT VISIBLE, M=MEAN PROBABILITY SEA STATE, L= LOW PROBABILITY SEA STATE
Filtering wave length
 integration  Lmin=1m
 integration  Lmax=2200m
  peak        Lmin=100m
               FFT=1024pixels, 4626.522658m 
   mean-Hs (SWH_c)=0.2m
         mean-wind=7.479218483m/s
--------------0--------------1---------2---------3---------4---------5---------6---------7---------8---------9--------10--------11--------12--------13--------14--------15--------16--------17--------18--------19------------------20--------21--------22--------23--------24--------25--------26--------27--------28--------29--------30--------31--------32--------33--------34--------35--------36--------37--------38--------39--------40--------41--------42--------43--------44--------45--------46--------47--------48--------49--------50--------51--------52--------53--------54--------55--------56--------57--------58--------59--------60--------61--------62--------63--------64--------65--------66--------67--------68--------69--------70--------71--------72--------73
            LAT            LON  P-LENGHT     SWH_o     SWH_c     P-DIR      LINE     POINT     ROW-Y     COL-X  M-INTENC        dB      WIND INC-ANGLE  ENERGY-M  ENERGY-N  ENERGY-R ENERGY-NN  FG-DEPTH      FLAG         HEADING-DEG    E30-75   E75-390  E390-600 meanincut   meanout   cut/out  STD-NORM  SPEC-MAX   GL-MEAN    GL-VAR      CORR   ENTROPY   HOMOGEN    ENERGY  CONTRAST  DISSIMIL     STD-O    E 1-30 E600-2000   E2000 >      GODA  LONG-HIG     Tmean  CONVOLUT  MEAN-DIR  relation     Sy/Sx  SKEWNESS  KURTOSIS  cutoff-A >50/10000     INT*V   INT-LOG  S-1_g1f1  S-2_g1f2  S-3_g1f3  S-4_g2f1  S-5_g2f2  S-6_g2f3  S-7_g3f1  S-8_g3f2  S-9_g3f3 S-10_g1f4 S-11_g2f4 S-12_g3f4 S-13_g1f5 S-14_g2f5 S-15_g3f5 S-16_g4f1 S-17_g4f2 S-18_g4f3 S-19_g4f4 S-20_g4f5
--------------1--------------2---------3---------4---------5---------6---------7---------8---------9--------10--------11--------12--------13--------14--------15--------16--------17--------18--------19--------20------------------21--------22--------23--------24--------25--------26--------27--------28--------29--------30--------31--------32--------33--------34--------35--------36--------37--------38--------39--------40--------41--------42--------43--------44--------45--------46--------47--------48--------49--------50--------51--------52--------53--------54--------55--------56--------57--------58--------59--------60--------61--------62--------63--------64--------65--------66--------67--------68--------69--------70--------71--------72--------73--------74
      32.735062    -123.733955     324.7      0.47      2.35      57.4         1         1      1000      1000    251.22   -15.999       7.8      36.9   233.199     0.551      45.9   0.06733     100.0         H               347.2  0.042006  0.016755  0.000639  1.548802  0.666729  2.322985  1.053015     20.39    4.5403   27.8727   0.09746   5.22243   0.24194   0.01090  50.31251   4.87173     264.5  0.491176  0.000508  0.000063  0.000100  0.191723  6.948336  0.550144     61.37  1.000131  1.000008     2.346    12.202      86.6      85.0      56.0     263.5     13.02      5.96      2.90      0.47     -1.80      0.43     -0.03     -1.60     -0.24      3.75     -0.21     -0.78     -2.76      1.85      1.57     -7.84     -5.39     -1.24     -2.09      3.72
      32.744820    -123.670540     311.1      0.47      2.35      53.8         1         2      1000      2327    237.81   -16.238       7.7      37.2   233.803     0.550      43.9   0.06705     100.0         H               347.2  0.041994  0.016962  0.000597  1.585321  0.664683  2.385078  1.052247     22.22    4.2763   24.8957   0.09643   5.11482   0.25235   0.01208  44.99023   4.60382     250.2  0.490340  0.000500  0.000051  0.000104  0.195957  6.967678  0.549300     56.37  1.000119  1.000008     2.372    12.807      84.8      84.1      50.2     261.6     13.36      7.01      2.97      0.29     -1.53      0.81     -0.87     -2.39     -0.63      4.21     -0.27     -1.04     -3.50      1.66      2.18     -7.59     -4.79     -0.60     -2.75      3.17
      32.754463    -123.607651     347.6      0.45      2.35      48.7         1         3      1000      3654    219.83   -16.579       7.5      37.6   234.982     0.553      46.8   0.06734     100.0         H               347.2  0.041885  0.016957  0.000707  1.557049  0.672757  2.314430  1.054967     28.52    3.9169   21.3738   0.09572   4.95780   0.26817   0.01417  38.65575   4.25717     231.9  0.493183  0.000517  0.000059  0.000104  0.193421  6.959256  0.552174     58.10  1.000122  1.000007     2.396    13.372      84.8      82.5      43.1     256.3     13.35      7.57      3.34     -0.08     -2.71      0.26     -0.09     -1.43     -0.58      4.48     -0.06     -1.02     -3.72      3.03      1.54     -9.21     -8.30     -1.89     -2.98      5.92
      32.788235    -123.745560     344.8      0.46      2.35      55.1         2         1      2457      1000    243.58   -16.134       7.6      36.9   234.948     0.553      38.8   0.06783     100.0         H               347.2  0.042596  0.017439  0.000660  1.611974  0.673259  2.394285  1.055436     20.78    4.3877   26.3006   0.09754   5.16051   0.24859   0.01163  47.46995   4.72373     257.1  0.492663  0.000421  0.000033  0.000103  0.195356  6.965425  0.552759     59.59  1.000123  1.000008     2.371    12.750      86.6      84.4      52.8     274.4     13.59      7.09      3.15     -0.20     -1.71      0.57     -0.80     -2.37     -0.86      4.55     -0.11     -1.41     -2.84      1.71      1.74     -8.76     -5.36     -0.91     -2.28      2.96
      32.797993    -123.682098     219.4      0.45      2.35      58.6         2         2      2457      2327    224.02   -16.497       7.4      37.2   234.284     0.551      35.1   0.06689      41.7         H               347.2  0.042110  0.016679  0.000608  1.570836  0.665149  2.361632  1.053179     18.90    4.0018   22.1290   0.09501   4.99615   0.26407   0.01362  40.05301   4.33939     235.9  0.491580  0.000395  0.000026  0.000105  0.192741  6.934087  0.549963     60.85  1.000122  1.000007     2.360    12.752      86.6      82.9      44.7     254.2     13.21      6.62      3.07      0.85     -1.20      0.98     -0.91     -2.37     -0.80      4.68      0.37     -1.41     -2.98      1.74      2.07     -7.43     -4.79     -0.58     -2.36      3.35
      32.807636    -123.619171     328.7      0.44      2.35      51.4         2         3      2457      3654    213.91   -16.698       7.3      37.6   232.580     0.546      49.8   0.06441     100.0         H               347.2  0.041259  0.015826  0.000667  1.466696  0.658231  2.228238  1.048260     21.47    3.7994   20.0182   0.09190   4.90455   0.27317   0.01487  36.35714   4.13838     224.2  0.487690  0.000506  0.000079  0.000102  0.190920  6.923339  0.544818     59.27  1.000107  1.000007     2.304    11.726      86.6      82.1      40.6     209.7     13.29      6.97      3.05     -0.02     -1.93      0.28     -0.15     -1.81     -0.36      4.39     -0.29     -0.91     -3.21      2.35      1.45     -9.07     -6.49     -1.97     -3.21      4.82
      32.841408    -123.757172     344.8      0.45      2.35      55.1         3         1      3914      1000    240.72   -16.185       7.5      36.9   233.721     0.549      57.1   0.06634     100.0         H               347.2  0.042065  0.016469  0.000595  1.534141  0.659243  2.327126  1.051711     20.79    4.3309   25.5306   0.09525   5.13760   0.25006   0.01186  46.19715   4.66911     253.2  0.489726  0.000631  0.000098  0.000104  0.192707  6.943895  0.548368     60.95  1.000143  1.000009     2.317    11.843      88.6      84.2      51.3     244.2     13.26      6.76      3.53      0.52     -1.49      0.35     -0.66     -2.03     -0.97      4.46      0.56     -1.17     -2.94      1.67      1.82     -7.89     -5.43     -1.74     -1.79      3.17
      32.851166    -123.693672     311.1      0.44      2.35      53.8         3         2      3914      2327    221.07   -16.555       7.3      37.2   234.468     0.550      63.5   0.06642     100.0         H               347.2  0.041631  0.016471  0.000533  1.535956  0.656762  2.338678  1.052301     18.60    3.9429   21.5376   0.09460   4.96984   0.26672   0.01396  39.00037   4.28199     232.6  0.490910  0.000674  0.000122  0.000100  0.191852  6.938227  0.548852     59.17  1.000100  1.000006     2.334    12.056      83.0      82.7      43.5     218.5     13.12      6.51      2.79      0.68     -1.38      0.51     -0.93     -2.32     -0.85      4.00      0.26     -1.18     -2.84      1.49      1.89     -6.80     -4.61     -0.61     -1.79      2.69
      32.860806    -123.630707     344.8      0.44      2.35      55.1         3         3      3914      3654    211.85   -16.740       7.3      37.6   233.472     0.548      53.4   0.06585     100.0         H               347.2  0.041593  0.016365  0.000651  1.526059  0.661119  2.308298  1.050377     15.69    3.7584   19.7098   0.09462   4.88478   0.27534   0.01522  35.68975   4.09888     222.5  0.489039  0.000606  0.000093  0.000102  0.193322  6.948367  0.547065     61.01  1.000101  1.000005     2.307    11.789      84.8      81.8      39.9     210.8     13.21      6.38      3.11      0.61     -1.09      0.80     -0.46     -1.86     -0.55      4.13      0.58     -1.21     -2.90      1.49      1.46     -8.11     -5.23     -1.29     -1.67      3.52
