corner points
-103.2853394    -46.41016388
-103.3669586    -46.24134445
-103.0349808    -46.35074997
-103.1173477    -46.18210983
========== RESULTS WAVE VERSION 16.10.2018 ====================
IMAGE SIZE  X: 4376     Y:4773    col:row     POLARIZATION:VV
COVERAGE    X: 20.26164236km       Y: 19.74695144km 
RESOLUTION dX: 4.630174215m       dY:4.13722008m  
resolution of original product 4.630174215m x 4.13722008m;   raster step x:5996.075608m  
===============================================================
FLAGS: H=HIGH PROBABILITY SEA STATE, I=LAND(ISLAND), O=OUTLIER NO SEA STATE, N=NO WIND AVAILABLE, SEA STATE NOT VISIBLE, M=MEAN PROBABILITY SEA STATE, L= LOW PROBABILITY SEA STATE
Filtering wave length
 integration  Lmin=1m
 integration  Lmax=2200m
  peak        Lmin=100m
               FFT=1024pixels, 4741.298396m 
   mean-Hs (SWH_c)=1.053196259m
         mean-wind=8.421398163m/s
--------------0--------------1---------2---------3---------4---------5---------6---------7---------8---------9--------10--------11--------12--------13--------14--------15--------16--------17--------18--------19------------------20--------21--------22--------23--------24--------25--------26--------27--------28--------29--------30--------31--------32--------33--------34--------35--------36--------37--------38--------39--------40--------41--------42--------43--------44--------45--------46--------47--------48--------49--------50--------51--------52--------53--------54--------55--------56--------57--------58--------59--------60--------61--------62--------63--------64--------65--------66--------67--------68--------69--------70--------71--------72--------73
            LAT            LON  P-LENGHT     SWH_o     SWH_c     P-DIR      LINE     POINT     ROW-Y     COL-X  M-INTENC        dB      WIND INC-ANGLE  ENERGY-M  ENERGY-N  ENERGY-R ENERGY-NN  FG-DEPTH      FLAG         HEADING-DEG    E30-75   E75-390  E390-600 meanincut   meanout   cut/out  STD-NORM  SPEC-MAX   GL-MEAN    GL-VAR      CORR   ENTROPY   HOMOGEN    ENERGY  CONTRAST  DISSIMIL     STD-O    E 1-30 E600-2000   E2000 >      GODA  LONG-HIG     Tmean  CONVOLUT  MEAN-DIR  relation     Sy/Sx  SKEWNESS  KURTOSIS  cutoff-A >50/10000     INT*V   INT-LOG  S-1_g1f1  S-2_g1f2  S-3_g1f3  S-4_g2f1  S-5_g2f2  S-6_g2f3  S-7_g3f1  S-8_g3f2  S-9_g3f3 S-10_g1f4 S-11_g2f4 S-12_g3f4 S-13_g1f5 S-14_g2f5 S-15_g3f5 S-16_g4f1 S-17_g4f2 S-18_g4f3 S-19_g4f4 S-20_g4f5
--------------1--------------2---------3---------4---------5---------6---------7---------8---------9--------10--------11--------12--------13--------14--------15--------16--------17--------18--------19--------20------------------21--------22--------23--------24--------25--------26--------27--------28--------29--------30--------31--------32--------33--------34--------35--------36--------37--------38--------39--------40--------41--------42--------43--------44--------45--------46--------47--------48--------49--------50--------51--------52--------53--------54--------55--------56--------57--------58--------59--------60--------61--------62--------63--------64--------65--------66--------67--------68--------69--------70--------71--------72--------73--------74
     -46.361107    -103.244568     288.5      0.90      3.14     114.1         1         1      1000      1000    301.51   -15.207       8.2      35.9   285.047     0.582     145.8   0.08086     100.0         H               345.3  0.047291  0.028003  0.000906  2.640552  0.713809  3.699244  1.082745     32.61    5.5436   42.0657   0.12376   5.58005   0.21347   0.00792  73.71913   5.84185     326.5  0.503795  0.001841  0.000322  0.000120  0.208299  7.175784  0.587772    104.62  1.000182  1.000012     2.607    17.985     114.0      87.7      83.9     408.9     14.07     -5.19      6.28      0.07      2.75      1.95     -0.13      1.73     -0.15     -3.21      1.19      1.25     -0.63      3.29      1.59     -8.39      4.76     -0.44      1.99      4.01
     -46.343491    -103.170227     351.1      1.18      3.14     125.5         1         2      1000      2295    331.30   -14.798       9.1      36.3   284.012     0.583     150.5   0.08339     100.0         H               345.3  0.047737  0.029541  0.001288  2.762265  0.721851  3.826643  1.083859     39.79    6.1344   50.8790   0.13088   5.76485   0.19946   0.00665  88.43951   6.40069     359.1  0.502402  0.002548  0.000235  0.000123  0.210847  7.192533  0.590232    101.42  1.000231  1.000018     2.498    13.461     117.4      88.9     102.1     370.8     14.39     -5.71      6.86     -0.75      3.28      1.42      0.42      1.62      0.07     -3.33      1.26      1.38     -0.53      3.56      1.61    -11.13      6.79     -2.36      3.03      4.06
     -46.325981    -103.096588     285.3      1.30      3.14     122.6         1         3      1000      3590    329.19   -14.826       9.4      36.6   284.667     0.584     177.2   0.08337     100.0         H               345.3  0.046997  0.030488  0.001216  2.959386  0.724800  4.083038  1.084697     27.55    6.0960   50.2526   0.13106   5.75343   0.20016   0.00670  87.33322   6.35775     357.0  0.502656  0.002287  0.000389  0.000126  0.211998  7.235256  0.590522     92.97  1.000224  1.000018     2.516    13.697     117.4      88.9     100.8     370.1     14.25     -3.22      7.71      0.37      1.27      2.02      0.16      1.73      0.24     -1.62     -0.21      1.42      1.05      2.73      1.44     -9.41      1.60     -2.73     -1.08      2.13
     -46.309826    -103.269447     334.0      1.09      3.14     135.2         2         1      2450      1000    298.79   -15.246       8.1      35.9   285.270     0.587     240.7   0.08336     100.0         H               345.3  0.047590  0.030694  0.001000  2.958737  0.728424  4.061831  1.088325     29.81    5.4900   41.8170   0.13195   5.56051   0.21612   0.00815  72.59769   5.78056     325.2  0.504321  0.003250  0.000597  0.000126  0.211858  7.244373  0.594787    103.03  1.000257  1.000019     2.553    14.239     124.8      87.4      82.9     338.1     13.92     -5.44      6.74      0.76      2.26      2.77      0.04      1.63      0.04     -2.74      0.27      1.00     -0.00      3.29      1.87     -7.59      4.98      0.39      1.03      3.70
     -46.292225    -103.195168     351.1      1.04      3.14     125.5         2         2      2450      2295    292.76   -15.335       8.3      36.3   285.292     0.583     214.3   0.08111     100.0         H               345.3  0.046749  0.029504  0.001189  2.759339  0.709596  3.888603  1.084313     35.88    5.3681   39.9302   0.12728   5.52033   0.21960   0.00846  69.69574   5.66598     317.4  0.502574  0.002922  0.000493  0.000123  0.215813  7.239088  0.589994    106.62  1.000216  1.000015     2.525    13.931     121.0      87.1      79.1     332.0     14.34     -5.54      7.08     -0.18      3.44      1.84      0.10      1.21      0.07     -2.86      1.32      0.71     -0.50      3.39      1.57     -9.74      7.04     -1.87      2.95      3.94
     -46.274731    -103.121597     358.1      0.84      3.14     115.0         2         3      2450      3590    275.49   -15.599       8.2      36.6   283.649     0.578     203.9   0.07893     100.0         H               345.3  0.045671  0.026981  0.001269  2.597149  0.698133  3.720135  1.079292     32.52    5.0267   35.0619   0.12211   5.40172   0.22929   0.00945  61.56066   5.33312     297.4  0.501004  0.002785  0.000456  0.000116  0.209988  7.185242  0.583807    101.40  1.000239  1.000017     2.495    13.772     121.0      86.2      69.5     312.5     14.28     -4.63      7.47     -0.32      2.64      1.46      0.83      1.01      0.25     -3.38      1.61      0.62      0.27      3.21      1.40    -11.05      5.35     -3.07      3.68      3.61
     -46.258541    -103.294281     330.8      1.20      3.14     123.1         3         1      3900      1000    315.97   -15.004       8.5      35.9   285.220     0.587     215.4   0.08398     100.0         H               345.3  0.047482  0.031324  0.001140  2.969753  0.707368  4.198314  1.088216     31.44    5.8314   46.6743   0.13314   5.67109   0.20712   0.00729  80.91940   6.10557     343.8  0.504410  0.002375  0.000615  0.000124  0.215668  7.249160  0.594596    104.29  1.000214  1.000016     2.534    13.797     121.0      88.3      93.1     347.0     14.38     -5.43      7.13      0.02      2.67      2.02     -0.52      2.01     -0.69     -2.90      0.67      1.36      0.17      2.74      1.23     -8.77      5.21     -0.59      1.50      3.10
     -46.240952    -103.220062     317.9      1.03      3.14     132.5         3         2      3900      2295    285.65   -15.442       8.2      36.3   285.630     0.582     198.0   0.08066     100.0         H               345.3  0.046459  0.029714  0.001078  2.848789  0.716577  3.975552  1.083501     29.99    5.2270   37.9957   0.12544   5.47192   0.22354   0.00886  66.45886   5.53190     309.5  0.502377  0.002660  0.000437  0.000119  0.211599  7.232182  0.589023    102.01  1.000225  1.000017     2.522    14.072     117.4      86.7      75.3     342.4     14.10     -4.69      6.66      0.29      2.19      2.12      0.11      1.49      0.12     -2.11      0.10      0.93     -0.94      3.14      1.75     -8.98      4.65     -1.20      0.72      4.20
     -46.223476    -103.146561     302.6      0.89      3.14     130.0         3         3      3900      3590    263.47   -15.793       7.9      36.6   282.074     0.572     141.3   0.07611     100.0         H               345.3  0.044977  0.028112  0.000876  2.565702  0.690381  3.716355  1.073259     38.74    4.7875   31.8057   0.11833   5.31435   0.23691   0.01025  56.08411   5.09824     282.8  0.496038  0.001734  0.000290  0.000122  0.216198  7.229809  0.577727    116.17  1.000193  1.000014     2.418    12.583     117.4      85.5      63.0     269.8     14.35     -6.10      6.52      0.06      3.12      2.19     -0.63      2.05     -0.42     -3.25      0.75      1.15     -1.82      3.75      1.80     -8.23      5.58     -0.37      1.96      4.92
