corner points
-119.0348434    1.38162446
-119.0724792    1.56255281
-118.8591309    1.419148922
-118.8967819    1.600046277
========== RESULTS WAVE VERSION 16.10.2018 ====================
IMAGE SIZE  X: 5471     Y:4932    col:row     POLARIZATION:VV
COVERAGE    X: 19.92657147km       Y: 20.50121367km 
RESOLUTION dX: 3.642217414m       dY:4.156774873m  
resolution of original product 3.642217414m x 4.156774873m;   raster step x:5998.732081m  
===============================================================
FLAGS: H=HIGH PROBABILITY SEA STATE, I=LAND(ISLAND), O=OUTLIER NO SEA STATE, N=NO WIND AVAILABLE, SEA STATE NOT VISIBLE, M=MEAN PROBABILITY SEA STATE, L= LOW PROBABILITY SEA STATE
Filtering wave length
 integration  Lmin=1m
 integration  Lmax=2200m
  peak        Lmin=100m
               FFT=1024pixels, 3729.630632m 
   mean-Hs (SWH_c)=0.2m
         mean-wind=6.702469349m/s
--------------0--------------1---------2---------3---------4---------5---------6---------7---------8---------9--------10--------11--------12--------13--------14--------15--------16--------17--------18--------19------------------20--------21--------22--------23--------24--------25--------26--------27--------28--------29--------30--------31--------32--------33--------34--------35--------36--------37--------38--------39--------40--------41--------42--------43--------44--------45--------46--------47--------48--------49--------50--------51--------52--------53--------54--------55--------56--------57--------58--------59--------60--------61--------62--------63--------64--------65--------66--------67--------68--------69--------70--------71--------72--------73
            LAT            LON  P-LENGHT     SWH_o     SWH_c     P-DIR      LINE     POINT     ROW-Y     COL-X  M-INTENC        dB      WIND INC-ANGLE  ENERGY-M  ENERGY-N  ENERGY-R ENERGY-NN  FG-DEPTH      FLAG         HEADING-DEG    E30-75   E75-390  E390-600 meanincut   meanout   cut/out  STD-NORM  SPEC-MAX   GL-MEAN    GL-VAR      CORR   ENTROPY   HOMOGEN    ENERGY  CONTRAST  DISSIMIL     STD-O    E 1-30 E600-2000   E2000 >      GODA  LONG-HIG     Tmean  CONVOLUT  MEAN-DIR  relation     Sy/Sx  SKEWNESS  KURTOSIS  cutoff-A >50/10000     INT*V   INT-LOG  S-1_g1f1  S-2_g1f2  S-3_g1f3  S-4_g2f1  S-5_g2f2  S-6_g2f3  S-7_g3f1  S-8_g3f2  S-9_g3f3 S-10_g1f4 S-11_g2f4 S-12_g3f4 S-13_g1f5 S-14_g2f5 S-15_g3f5 S-16_g4f1 S-17_g4f2 S-18_g4f3 S-19_g4f4 S-20_g4f5
--------------1--------------2---------3---------4---------5---------6---------7---------8---------9--------10--------11--------12--------13--------14--------15--------16--------17--------18--------19--------20------------------21--------22--------23--------24--------25--------26--------27--------28--------29--------30--------31--------32--------33--------34--------35--------36--------37--------38--------39--------40--------41--------42--------43--------44--------45--------46--------47--------48--------49--------50--------51--------52--------53--------54--------55--------56--------57--------58--------59--------60--------61--------62--------63--------64--------65--------66--------67--------68--------69--------70--------71--------72--------73--------74
       1.425348    -119.009552     322.5      0.41      1.79      10.0         1         1      1000      1000   2301.12    -6.381       6.7      23.7   404.743     0.662      81.1   0.14143     100.0         H               348.0  0.070349  0.029293  0.000728  2.457575  0.838521  2.930845  1.153049     32.85    4.1168   27.8007   0.23506   5.01048   0.28365   0.01582  42.53199   4.26042    2653.3  0.560729  0.001005  0.000056  0.000159  0.181573  6.914758  0.689694     76.05  1.000084  1.000008     2.929    18.526      68.7      81.7      52.5     309.3     12.93      2.22     -5.85     -0.92     -1.29      3.33     -1.17     -0.71      2.25     -1.69      1.64      0.92      0.77     -1.84     -0.31     -8.02     -1.86      6.14      2.43     -2.35
       1.436756    -118.956131     300.1      0.43      1.79       9.3         1         2      1000      2647   2157.62    -6.660       7.0      24.2   405.268     0.661     108.2   0.14087     100.0         H               348.0  0.069485  0.029832  0.000801  2.459107  0.842027  2.920462  1.153109     37.83    3.8137   24.1999   0.23376   4.87448   0.29796   0.01811  37.08547   3.97449    2488.0  0.559555  0.001404  0.000098  0.000155  0.185586  6.938051  0.688228     69.03  1.000092  1.000008     2.951    19.736      68.7      80.3      45.6     315.8     13.29      2.34     -6.00     -1.71     -1.29      3.80     -1.04     -0.48      2.33     -1.76      1.64      0.69      1.13     -2.09     -0.25     -9.34     -1.67      6.70      2.64     -3.05
       1.447956    -118.903671     295.3      0.38      1.79      13.7         1         3      1000      4294   1764.69    -7.533       6.2      24.6   405.712     0.658      81.4   0.13841     100.0         H               348.0  0.068984  0.030314  0.000764  2.553447  0.837195  3.050002  1.150980     37.14    3.0538   16.3183   0.23163   4.48640   0.34182   0.02649  25.07701   3.25105    2031.1  0.557256  0.000992  0.000061  0.000159  0.182878  6.934167  0.685645     72.38  1.000067  1.000007     2.917    18.263      66.4      76.0      30.9     227.2     12.94      2.00     -6.54     -1.08     -0.69      3.44     -1.32     -0.31      2.09     -2.39      1.77      0.99      0.49     -2.10     -0.23     -8.25     -1.12      7.23      2.84     -2.67
       1.478293    -119.020569     300.1      0.43      1.79       9.3         2         1      2443      1000   2379.24    -6.236       7.0      23.7   405.162     0.664      80.2   0.14189     100.0         H               348.0  0.070936  0.028920  0.000697  2.380393  0.864920  2.752153  1.156682     30.74    4.2740   29.7516   0.23485   5.07774   0.27616   0.01474  45.52895   4.40764    2752.0  0.563153  0.000989  0.000066  0.000154  0.183031  6.908852  0.692408     74.71  1.000097  1.000007     3.057    21.426      69.9      82.5      56.3     360.7     12.84      1.95     -6.10     -0.84     -0.60      3.80     -1.04     -0.74      2.38     -1.22      1.24      0.96      0.79     -1.85     -0.19     -7.68     -0.55      6.78      1.70     -2.35
       1.489698    -118.967148     303.0      0.40      1.79       4.7         2         2      2443      2647   2043.60    -6.896       6.5      24.2   404.356     0.660     113.1   0.14032     100.0         H               348.0  0.069949  0.029264  0.000752  2.408790  0.850372  2.832631  1.153074     43.40    3.6045   21.9289   0.23465   4.77472   0.30916   0.01997  33.56641   3.77439    2356.4  0.559055  0.001545  0.000103  0.000155  0.184854  6.915432  0.688356     70.13  1.000066  1.000006     2.898    17.834      68.7      79.3      41.2     266.7     13.03      1.93     -6.53     -1.36     -0.79      4.01     -0.87     -0.35      2.53     -1.35      1.68      0.48      1.72     -3.09     -0.43     -8.82     -1.23      6.84      3.00     -4.46
       1.500895    -118.914688     300.1      0.39      1.79       9.3         2         3      2443      4294   1793.13    -7.464       6.3      24.6   402.231     0.656      95.2   0.13790     100.0         H               348.0  0.069062  0.028185  0.000778  2.374940  0.844106  2.813558  1.149202     24.70    3.1172   16.8518   0.23131   4.52252   0.33734   0.02545  25.90757   3.30891    2060.7  0.556690  0.001338  0.000062  0.000153  0.181286  6.897939  0.683506     77.01  1.000079  1.000006     2.907    18.274      67.5      76.5      32.0     233.4     12.66      1.60     -5.65     -0.59     -0.86      2.94     -0.94     -0.50      2.21     -1.34      1.00      0.91      0.45     -1.85      0.16     -7.93     -0.89      5.88      1.43     -2.66
       1.531238    -119.031578     300.1      0.43      1.79       9.3         3         1      3886      1000   2419.20    -6.163       7.1      23.7   403.068     0.659      71.6   0.14124     100.0         H               348.0  0.069907  0.027295  0.000683  2.255786  0.873538  2.582355  1.151203     31.91    4.3573   30.6374   0.23457   5.11304   0.27234   0.01423  46.90180   4.48838    2784.9  0.560440  0.000936  0.000036  0.000144  0.182164  6.893278  0.686165     71.14  1.000086  1.000008     2.922    18.564      66.4      82.7      58.0     332.8     12.90      1.91     -6.02     -1.02     -0.94      3.32     -1.19     -0.80      1.83     -1.04      1.09      0.59      0.58     -1.92     -0.23     -8.10     -1.04      6.30      1.72     -2.31
       1.542640    -118.978157     300.1      0.43      1.79       9.3         3         2      3886      2647   2169.38    -6.637       7.0      24.2   403.440     0.658      92.6   0.13981     100.0         H               348.0  0.070037  0.029042  0.000804  2.385123  0.853645  2.794046  1.149746     31.51    3.8567   24.6187   0.23356   4.89508   0.29577   0.01767  37.73742   4.00994    2494.3  0.557550  0.001266  0.000062  0.000150  0.183968  6.917500  0.685931     70.38  1.000088  1.000008     2.928    18.735      67.5      80.6      46.5     291.9     12.91      2.46     -6.11     -1.28     -1.20      3.84     -0.59     -0.92      2.09     -2.53      1.40      1.33      0.74     -2.32     -0.31     -8.78     -1.25      7.18      2.19     -3.14
       1.553835    -118.925705     280.5      0.40      1.79       8.7         3         3      3886      4294   1841.60    -7.348       6.5      24.6   402.699     0.654      59.4   0.13825     100.0         H               348.0  0.068483  0.028342  0.000708  2.364168  0.852058  2.774656  1.147458     31.88    3.1996   17.6004   0.23089   4.56821   0.33217   0.02428  27.07326   3.38644    2113.2  0.556533  0.000676  0.000027  0.000147  0.185045  6.917783  0.681303     73.23  1.000089  1.000008     2.908    18.306      67.5      77.1      33.3     237.4     13.03      2.19     -5.82     -1.03     -1.16      3.64     -1.21     -0.62      2.12     -1.18      1.25      0.27      0.26     -2.05      0.26     -8.22     -1.53      6.78      2.33     -2.66
