corner points
-121.9972763    15.5650301
-122.0354156    15.74571037
-121.8152313    15.60096169
-121.8531952    15.78162956
========== RESULTS WAVE VERSION 16.10.2018 ====================
IMAGE SIZE  X: 5471     Y:4930    col:row     POLARIZATION:VV
COVERAGE    X: 19.8596517km       Y: 20.45308019km 
RESOLUTION dX: 3.629985687m       dY:4.148697807m  
resolution of original product 3.629985687m x 4.148697807m;   raster step x:5996.736356m  
===============================================================
FLAGS: H=HIGH PROBABILITY SEA STATE, I=LAND(ISLAND), O=OUTLIER NO SEA STATE, N=NO WIND AVAILABLE, SEA STATE NOT VISIBLE, M=MEAN PROBABILITY SEA STATE, L= LOW PROBABILITY SEA STATE
Filtering wave length
 integration  Lmin=1m
 integration  Lmax=2200m
  peak        Lmin=100m
               FFT=1024pixels, 3717.105344m 
   mean-Hs (SWH_c)=0.7548275757m
         mean-wind=4.742592335m/s
--------------0--------------1---------2---------3---------4---------5---------6---------7---------8---------9--------10--------11--------12--------13--------14--------15--------16--------17--------18--------19------------------20--------21--------22--------23--------24--------25--------26--------27--------28--------29--------30--------31--------32--------33--------34--------35--------36--------37--------38--------39--------40--------41--------42--------43--------44--------45--------46--------47--------48--------49--------50--------51--------52--------53--------54--------55--------56--------57--------58--------59--------60--------61--------62--------63--------64--------65--------66--------67--------68--------69--------70--------71--------72--------73
            LAT            LON  P-LENGHT     SWH_o     SWH_c     P-DIR      LINE     POINT     ROW-Y     COL-X  M-INTENC        dB      WIND INC-ANGLE  ENERGY-M  ENERGY-N  ENERGY-R ENERGY-NN  FG-DEPTH      FLAG         HEADING-DEG    E30-75   E75-390  E390-600 meanincut   meanout   cut/out  STD-NORM  SPEC-MAX   GL-MEAN    GL-VAR      CORR   ENTROPY   HOMOGEN    ENERGY  CONTRAST  DISSIMIL     STD-O    E 1-30 E600-2000   E2000 >      GODA  LONG-HIG     Tmean  CONVOLUT  MEAN-DIR  relation     Sy/Sx  SKEWNESS  KURTOSIS  cutoff-A >50/10000     INT*V   INT-LOG  S-1_g1f1  S-2_g1f2  S-3_g1f3  S-4_g2f1  S-5_g2f2  S-6_g2f3  S-7_g3f1  S-8_g3f2  S-9_g3f3 S-10_g1f4 S-11_g2f4 S-12_g3f4 S-13_g1f5 S-14_g2f5 S-15_g3f5 S-16_g4f1 S-17_g4f2 S-18_g4f3 S-19_g4f4 S-20_g4f5
--------------1--------------2---------3---------4---------5---------6---------7---------8---------9--------10--------11--------12--------13--------14--------15--------16--------17--------18--------19--------20------------------21--------22--------23--------24--------25--------26--------27--------28--------29--------30--------31--------32--------33--------34--------35--------36--------37--------38--------39--------40--------41--------42--------43--------44--------45--------46--------47--------48--------49--------50--------51--------52--------53--------54--------55--------56--------57--------58--------59--------60--------61--------62--------63--------64--------65--------66--------67--------68--------69--------70--------71--------72--------73--------74
      15.608430    -121.970901     312.3      0.56      1.97      36.0         1         1      1000      1000   1761.54    -7.541       4.9      23.8   413.966     0.669     122.0   0.14315     100.0         H               347.9  0.060503  0.045262  0.002225  2.705091  0.854762  3.164730  1.159471     78.77    3.0479   16.5208   0.23862   4.47849   0.34618   0.02734  25.15688   3.23813    2042.4  0.559987  0.001406  0.000052  0.000158  0.231739  7.375478  0.698333     43.96  0.999948  0.999997     2.909    18.109      64.2      75.5      31.0     230.9     14.14      4.08     -7.81     -3.66     -3.92      3.61     -1.57      0.18      2.48     -1.25      1.73     -0.10     -0.97     -0.53      0.36    -13.49     -7.35      8.94      3.11     -1.69
      15.619393    -121.915382     312.3      0.69      1.97      36.0         1         2      1000      2652   1679.07    -7.749       5.2      24.2   419.068     0.680     386.6   0.14694     100.0         H               347.9  0.061340  0.047379  0.002789  2.892076  0.863356  3.349806  1.171312     71.67    2.8804   15.2354   0.24552   4.37704   0.36062   0.03068  22.98972   3.07280    1966.7  0.562727  0.005630  0.000427  0.000153  0.232868  7.381122  0.711651     44.65  0.999910  0.999992     2.995    20.192      64.2      74.1      28.5     249.0     14.19      3.41     -8.09     -3.96     -3.92      4.03     -0.98      0.76      2.00     -1.38      2.50     -0.54     -0.05     -1.61      0.22    -15.32     -7.65     10.32      4.81     -3.64
      15.630146    -121.860855     331.7      0.66      1.97      38.7         1         3      1000      4304   1387.65    -8.577       4.8      24.7   414.517     0.666     140.9   0.14078     100.0         H               347.9  0.059602  0.047530  0.001961  2.952763  0.841603  3.508500  1.156556     65.14    2.3112   10.2052   0.23713   4.01071   0.40502   0.04306  15.57048   2.52829    1604.8  0.555530  0.002033  0.000060  0.000154  0.231730  7.421416  0.696461     51.41  0.999928  0.999993     2.879    17.557      61.3      69.5      19.5     172.4     13.79      3.00     -7.05     -2.54     -3.65      2.13     -2.14      0.11      2.91     -0.63      1.82     -0.52     -1.02     -0.84     -0.43    -11.45     -6.20      5.72      3.68     -0.89
      15.661435    -121.982079     312.3      0.87      1.97      36.0         2         1      2446      1000   1622.82    -7.897       4.5      23.8   410.587     0.654     195.4   0.13449     100.0         H               347.9  0.057141  0.051009  0.002403  2.854841  0.843507  3.384488  1.144173    107.66    2.7908   13.8598   0.23530   4.32997   0.36430   0.03145  21.19699   2.98332    1856.8  0.540898  0.002418  0.000157  0.000173  0.236259  7.477300  0.683785     35.37  0.999897  0.999991     2.744    15.758      60.3      73.8      26.4     201.6     14.03      4.49     -8.31     -3.58     -4.31      2.90     -1.76      0.02      2.57     -2.11      2.56      0.08     -1.25      0.01     -0.03    -13.57     -7.89      8.28      4.33     -0.53
      15.672398    -121.926544     281.6      0.64      1.97      37.3         2         2      2446      2652   1637.02    -7.859       5.0      24.2   409.368     0.656     268.6   0.13766     100.0         H               347.9  0.059003  0.046031  0.002125  2.683490  0.859628  3.121686  1.149474     66.13    2.7734   13.7714   0.23772   4.31864   0.36520   0.03176  20.99556   2.96535    1881.7  0.544982  0.003730  0.000267  0.000155  0.232518  7.382689  0.685489     48.19  0.999875  0.999990     2.802    16.406      61.3      73.7      26.1     195.6     14.04      4.24     -7.87     -3.24     -3.04      3.20     -2.25     -0.85      2.44     -0.72      1.45     -0.09     -0.40     -0.97      0.52    -12.43     -5.56      8.45      2.28     -2.67
      15.683148    -121.872002     312.3      0.81      1.97      36.0         2         3      2446      4304   1344.23    -8.715       4.6      24.7   414.521     0.669     137.0   0.14256     100.0         H               347.9  0.059348  0.050551  0.002263  3.043537  0.860064  3.538734  1.158465     83.93    2.2197    9.5505   0.23948   3.94229   0.41540   0.04642  14.52646   2.43547    1557.3  0.555179  0.001517  0.000087  0.000165  0.235241  7.465792  0.699004     55.04  0.999880  0.999990     2.862    17.353      62.2      68.4      18.3     171.3     13.91      3.40     -7.69     -2.98     -3.99      2.95     -1.77      0.22      2.65     -0.44      1.86     -0.74     -0.80     -0.73     -0.29    -12.48     -6.94      7.88      3.48     -1.03
      15.714439    -121.993263     327.7      1.01      1.97      31.9         3         1      3892      1000   1700.60    -7.694       4.7      23.8   413.333     0.665     291.5   0.14088     100.0         H               347.9  0.057470  0.053266  0.002288  3.004315  0.852638  3.523552  1.157243     70.19    2.9346   15.4025   0.24289   4.41235   0.35525   0.02937  23.32244   3.11859    1968.1  0.548609  0.003854  0.000336  0.000170  0.239213  7.542306  0.697284     51.46  0.999880  0.999990     2.865    18.003      61.3      74.7      29.0     237.2     13.75      3.71     -7.77     -2.48     -3.60      2.14     -2.53     -0.12      2.83     -1.38      1.95     -0.38     -1.02     -0.38      0.17    -11.38     -6.64      6.73      3.73     -1.08
      15.725401    -121.937714     294.6      0.82      1.97      33.7         3         2      3892      2652   1402.47    -8.531       4.3      24.2   408.217     0.652     168.9   0.13494     100.0         H               347.9  0.056222  0.050308  0.002506  2.826979  0.827319  3.417037  1.145280    113.69    2.3371   10.1869   0.23526   4.03125   0.40236   0.04211  15.58051   2.54579    1606.2  0.540837  0.002236  0.000099  0.000178  0.238708  7.497930  0.682163     35.91  0.999891  0.999990     2.726    15.326      63.2      69.8      19.6     164.2     14.07      4.60     -8.45     -3.57     -4.05      3.53     -1.76     -0.36      1.94     -1.75      2.86     -0.36     -1.18     -0.66      0.52    -13.60     -7.18     10.08      4.88     -2.22
      15.736151    -121.883156     312.3      0.74      1.97      36.0         3         3      3892      4304   1358.25    -8.670       4.7      24.7   409.812     0.657     150.6   0.13752     100.0         H               347.9  0.058033  0.048523  0.002125  2.761521  0.842358  3.278321  1.150970     78.77    2.2533    9.6402   0.23587   3.96977   0.41073   0.04479  14.73276   2.46772    1563.3  0.546681  0.002054  0.000084  0.000164  0.237488  7.458957  0.687005     38.90  0.999896  0.999992     2.789    16.273      61.3      68.9      18.6     162.2     13.89      3.49     -8.30     -3.00     -3.19      2.91     -2.35     -0.03      3.32     -1.36      1.92      0.11     -0.21     -0.63     -0.35    -11.85     -5.74      7.39      3.29     -1.44
