corner points
-120.1468506    6.700465202
-120.184288    6.881201744
-119.9701614    6.737286568
-120.0075455    6.917998791
========== RESULTS WAVE VERSION 16.10.2018 ====================
IMAGE SIZE  X: 5471     Y:4927    col:row     POLARIZATION:VV
COVERAGE    X: 19.89137916km       Y: 20.46986735km 
RESOLUTION dX: 3.635784895m       dY:4.154631084m  
resolution of original product 3.635784895m x 4.154631084m;   raster step x:5999.045077m  
===============================================================
FLAGS: H=HIGH PROBABILITY SEA STATE, I=LAND(ISLAND), O=OUTLIER NO SEA STATE, N=NO WIND AVAILABLE, SEA STATE NOT VISIBLE, M=MEAN PROBABILITY SEA STATE, L= LOW PROBABILITY SEA STATE
Filtering wave length
 integration  Lmin=1m
 integration  Lmax=2200m
  peak        Lmin=100m
               FFT=1024pixels, 3723.043733m 
   mean-Hs (SWH_c)=0.175m
         mean-wind=2.421064854m/s
--------------0--------------1---------2---------3---------4---------5---------6---------7---------8---------9--------10--------11--------12--------13--------14--------15--------16--------17--------18--------19------------------20--------21--------22--------23--------24--------25--------26--------27--------28--------29--------30--------31--------32--------33--------34--------35--------36--------37--------38--------39--------40--------41--------42--------43--------44--------45--------46--------47--------48--------49--------50--------51--------52--------53--------54--------55--------56--------57--------58--------59--------60--------61--------62--------63--------64--------65--------66--------67--------68--------69--------70--------71--------72--------73
            LAT            LON  P-LENGHT     SWH_o     SWH_c     P-DIR      LINE     POINT     ROW-Y     COL-X  M-INTENC        dB      WIND INC-ANGLE  ENERGY-M  ENERGY-N  ENERGY-R ENERGY-NN  FG-DEPTH      FLAG         HEADING-DEG    E30-75   E75-390  E390-600 meanincut   meanout   cut/out  STD-NORM  SPEC-MAX   GL-MEAN    GL-VAR      CORR   ENTROPY   HOMOGEN    ENERGY  CONTRAST  DISSIMIL     STD-O    E 1-30 E600-2000   E2000 >      GODA  LONG-HIG     Tmean  CONVOLUT  MEAN-DIR  relation     Sy/Sx  SKEWNESS  KURTOSIS  cutoff-A >50/10000     INT*V   INT-LOG  S-1_g1f1  S-2_g1f2  S-3_g1f3  S-4_g2f1  S-5_g2f2  S-6_g2f3  S-7_g3f1  S-8_g3f2  S-9_g3f3 S-10_g1f4 S-11_g2f4 S-12_g3f4 S-13_g1f5 S-14_g2f5 S-15_g3f5 S-16_g4f1 S-17_g4f2 S-18_g4f3 S-19_g4f4 S-20_g4f5
--------------1--------------2---------3---------4---------5---------6---------7---------8---------9--------10--------11--------12--------13--------14--------15--------16--------17--------18--------19--------20------------------21--------22--------23--------24--------25--------26--------27--------28--------29--------30--------31--------32--------33--------34--------35--------36--------37--------38--------39--------40--------41--------42--------43--------44--------45--------46--------47--------48--------49--------50--------51--------52--------53--------54--------55--------56--------57--------58--------59--------60--------61--------62--------63--------64--------65--------66--------67--------68--------69--------70--------71--------72--------73--------74
       6.744059    -120.121346     352.9      0.20      1.60       5.4         1         1      1000      1000    858.39   -10.663       2.5      23.7   417.013     0.665     265.7   0.13853     100.0         H               348.0  0.067122  0.049176  0.003075  3.632659  0.907351  4.003588  1.154720     59.01    1.2645    3.7817   0.23722   3.06416   0.54315   0.10688   5.76915   1.48671     991.2  0.541364  0.004478  0.000226  0.000138  0.202304  7.179013  0.698729     66.14  0.999875  0.999990     2.791    16.165      54.5      54.4       7.6     103.5     13.31     -0.33     -7.03     -2.60     -0.84      2.25     -0.02     -0.47      2.07     -1.43      1.64     -0.11      2.59     -3.23     -0.74    -14.85      0.35      6.30      3.58     -6.15
       6.755276    -120.067528     316.4      0.20      1.60      14.8         1         2      1000      2650    680.04   -11.675       2.3      24.2   416.374     0.665     383.5   0.13877     100.0         H               348.0  0.066716  0.047732  0.002877  3.675768  0.906978  4.052767  1.155668     42.17    0.9396    2.3953   0.23565   2.64469   0.60956   0.15685   3.66174   1.15074     785.9  0.540946  0.006939  0.000272  0.000135  0.198281  7.164492  0.698972     75.14  0.999995  0.999999     2.809    16.510      56.9      46.8       4.9      71.9     13.18      0.09     -4.75     -2.04     -0.72     -0.36     -0.23     -0.56      3.18     -1.69      2.04     -0.26      2.68     -2.93     -0.49    -13.89      0.43     -0.70      4.20     -6.71
       6.766284    -120.014679     348.3      0.15      1.60      10.8         1         3      1000      4300    529.84   -12.759       2.1      24.7   424.384     0.684     904.0   0.14600     100.0         H               348.0  0.065262  0.048223  0.004009  3.635159  0.895437  4.059649  1.179604     53.99    0.6534    1.4502   0.24091   2.17443   0.68803   0.23993   2.20158   0.84023     624.9  0.551263  0.014468  0.001203  0.000136  0.202240  7.193673  0.720790     52.07  1.000012  1.000000     2.933    17.753      81.3      37.5       2.9      59.7     13.79      0.89     -4.30     -3.82     -1.72     -0.11      0.97     -0.41      3.96     -2.28      2.68     -0.54      4.37     -4.08      0.16    -18.75     -1.93     -2.89      6.32    -11.21
       6.797039    -120.132317     326.0      0.20      1.60       5.0         2         1      2444      1000    976.84   -10.102       2.8      23.7   417.227     0.670     426.2   0.14185     100.0         H               348.0  0.068661  0.048176  0.002765  3.567144  0.896716  3.978011  1.160463     56.53    1.4882    4.9504   0.24553   3.30497   0.50870   0.08625   7.46985   1.70628    1133.5  0.542925  0.007050  0.000431  0.000146  0.196727  7.129728  0.704436     64.29  0.999916  0.999993     2.830    16.681      57.7      58.4       9.8     113.2     13.21      0.48     -7.36     -2.50     -1.54      1.81     -0.35     -0.58      2.97     -1.86      2.06     -0.13      2.77     -3.19     -0.62    -14.12     -1.09      4.53      4.42     -6.69
       6.808253    -120.078499     322.3      0.20      1.60      10.0         2         2      2444      2650    724.23   -11.401       2.3      24.2   413.492     0.662     275.8   0.13903     100.0         H               348.0  0.066042  0.049731  0.003357  3.619151  0.919191  3.937324  1.153966     59.59    1.0231    2.7060   0.23749   2.76211   0.59384   0.13983   4.12666   1.22826     835.8  0.536899  0.005764  0.000171  0.000137  0.201759  7.190194  0.695654     39.67  0.999884  0.999990     2.843    17.042      53.1      49.4       5.5      84.5     13.27      0.36     -6.72     -2.90     -0.97      1.69      0.37     -0.56      2.42     -1.94      1.95     -0.22      2.37     -2.37     -1.07    -15.79      0.13      4.53      4.21     -4.54
       6.819260    -120.025642     299.9      0.20      1.60       9.3         2         3      2444      4300    571.75   -12.428       2.3      24.7   413.209     0.653     274.5   0.13276     100.0         H               348.0  0.064689  0.045789  0.002262  3.460589  0.894685  3.867943  1.145232     40.82    0.7227    1.5992   0.22436   2.30710   0.66239   0.20854   2.48088   0.92207     654.8  0.535755  0.005059  0.000213  0.000135  0.199308  7.165068  0.685041     73.02  0.999971  0.999998     2.771    16.035      54.5      40.6       3.3      59.9     13.06      0.35     -5.70     -1.64     -1.21      0.69     -0.91      0.03      2.77     -1.15      1.54     -0.28      2.78     -2.46     -1.05    -11.93     -1.23      2.16      3.24     -5.03
       6.850018    -120.143288     326.0      0.20      1.60       5.0         3         1      3888      1000    819.44   -10.865       2.4      23.7   425.165     0.688     805.5   0.14884     100.0         H               348.0  0.067977  0.050729  0.003161  3.721688  0.902948  4.121709  1.175203     51.81    1.1771    3.5131   0.25116   2.95084   0.56652   0.12235   5.26148   1.38889     962.9  0.552194  0.013767  0.000814  0.000141  0.205418  7.208326  0.725736     63.07  0.999882  0.999991     2.880    17.219      68.7      52.0       6.9      99.3     13.58      0.22     -6.44     -2.85     -1.57      2.13     -0.50      0.36      2.19     -1.77      1.56      0.15      2.38     -2.65     -0.71    -14.87     -2.26      5.54      3.37     -5.80
       6.861230    -120.089462     302.9      0.13      1.60       4.7         3         2      3888      2650    389.97   -14.090       1.8      24.2   508.104     0.934    6588.3   0.27225     100.0         M               348.0  0.083963  0.069738  0.010790  5.110491  1.106258  4.619620  1.407348     60.36    0.3888    1.1709   0.36413   1.45153   0.82972   0.50916   1.48902   0.48680     548.8  0.656647  0.103357  0.010510  0.000139  0.208708  7.259164  1.016633     74.87  1.000206  1.000021     4.611    39.122     450.0      20.3       2.0      69.5     14.26     -0.87     -1.89     -6.40      0.05     -2.31      4.24     -0.90      4.17     -0.90      0.84      0.21      4.39     -4.02      1.10    -30.05      2.76     -8.83      1.66    -12.71
       6.872234    -120.036598     352.9      0.20      1.60       5.4         3         3      3888      4300    715.64   -11.453       2.7      24.7   411.142     0.650     195.1   0.13282     100.0         H               348.0  0.065182  0.046205  0.002453  3.406008  0.873613  3.898762  1.141043     53.72    0.9908    2.5364   0.22859   2.72119   0.59546   0.14445   3.91321   1.20603     816.6  0.533176  0.003153  0.000154  0.000141  0.197267  7.147137  0.681526     59.66  0.999882  0.999990     2.727    15.564      52.4      48.5       5.2      76.7     13.21      0.73     -7.71     -2.31     -1.39      2.58     -0.58     -0.12      2.04     -1.75      1.63      0.01      2.70     -2.77     -1.00    -13.31     -2.21      7.48      3.57     -5.45
