corner points
-108.0713425    -40.87938309
-108.1347885    -40.70248413
-107.8342133    -40.82823563
-107.8983994    -40.65147018
========== RESULTS WAVE VERSION 16.10.2018 ====================
IMAGE SIZE  X: 5471     Y:4915    col:row     POLARIZATION:VV
COVERAGE    X: 20.68613343km       Y: 20.33855936km 
RESOLUTION dX: 3.781051623m       dY:4.138058872m  
resolution of original product 3.781051623m x 4.138058872m;   raster step x:5996.747874m  
===============================================================
FLAGS: H=HIGH PROBABILITY SEA STATE, I=LAND(ISLAND), O=OUTLIER NO SEA STATE, N=NO WIND AVAILABLE, SEA STATE NOT VISIBLE, M=MEAN PROBABILITY SEA STATE, L= LOW PROBABILITY SEA STATE
Filtering wave length
 integration  Lmin=1m
 integration  Lmax=2200m
  peak        Lmin=100m
               FFT=1024pixels, 3871.796862m 
   mean-Hs (SWH_c)=0.9304359436m
         mean-wind=10.84711933m/s
--------------0--------------1---------2---------3---------4---------5---------6---------7---------8---------9--------10--------11--------12--------13--------14--------15--------16--------17--------18--------19------------------20--------21--------22--------23--------24--------25--------26--------27--------28--------29--------30--------31--------32--------33--------34--------35--------36--------37--------38--------39--------40--------41--------42--------43--------44--------45--------46--------47--------48--------49--------50--------51--------52--------53--------54--------55--------56--------57--------58--------59--------60--------61--------62--------63--------64--------65--------66--------67--------68--------69--------70--------71--------72--------73
            LAT            LON  P-LENGHT     SWH_o     SWH_c     P-DIR      LINE     POINT     ROW-Y     COL-X  M-INTENC        dB      WIND INC-ANGLE  ENERGY-M  ENERGY-N  ENERGY-R ENERGY-NN  FG-DEPTH      FLAG         HEADING-DEG    E30-75   E75-390  E390-600 meanincut   meanout   cut/out  STD-NORM  SPEC-MAX   GL-MEAN    GL-VAR      CORR   ENTROPY   HOMOGEN    ENERGY  CONTRAST  DISSIMIL     STD-O    E 1-30 E600-2000   E2000 >      GODA  LONG-HIG     Tmean  CONVOLUT  MEAN-DIR  relation     Sy/Sx  SKEWNESS  KURTOSIS  cutoff-A >50/10000     INT*V   INT-LOG  S-1_g1f1  S-2_g1f2  S-3_g1f3  S-4_g2f1  S-5_g2f2  S-6_g2f3  S-7_g3f1  S-8_g3f2  S-9_g3f3 S-10_g1f4 S-11_g2f4 S-12_g3f4 S-13_g1f5 S-14_g2f5 S-15_g3f5 S-16_g4f1 S-17_g4f2 S-18_g4f3 S-19_g4f4 S-20_g4f5
--------------1--------------2---------3---------4---------5---------6---------7---------8---------9--------10--------11--------12--------13--------14--------15--------16--------17--------18--------19--------20------------------21--------22--------23--------24--------25--------26--------27--------28--------29--------30--------31--------32--------33--------34--------35--------36--------37--------38--------39--------40--------41--------42--------43--------44--------45--------46--------47--------48--------49--------50--------51--------52--------53--------54--------55--------56--------57--------58--------59--------60--------61--------62--------63--------64--------65--------66--------67--------68--------69--------70--------71--------72--------73--------74
     -40.833824    -108.039749     247.3      0.93      2.98     129.9         1         1      1000      1000   3927.47    -4.059      10.4      22.8   278.088     0.718      77.2   0.16708      67.4         H               346.3  0.083226  0.041050  0.000925  3.881356  0.944756  4.108316  1.201136     37.95    7.3253   81.9426   0.25679   6.04498   0.19312   0.00585 121.80313   7.25782    4717.1  0.592290  0.000821  0.000037  0.000167  0.195305  7.003980  0.748527     87.65  1.000200  1.000022     3.217    21.827      88.6      90.0     167.5     588.2     12.88     -3.25      2.57      1.95      1.99      2.92     -0.70      3.39      0.82     -1.36      1.18      2.61     -2.59      1.29      2.07     -4.08      2.67      2.98      2.11      2.74
     -40.818867    -107.970276     256.7      0.89      2.98     127.3         1         2      1000      2586   3697.54    -4.321      10.8      23.2   279.339     0.719      63.0   0.16724      87.2         H               346.3  0.084305  0.039945  0.001450  3.739547  0.945400  3.955519  1.201200     46.67    6.8725   73.4969   0.25723   5.92774   0.20232   0.00658 109.18352   6.83937    4441.2  0.592838  0.000568  0.000012  0.000165  0.192913  6.969321  0.749226     94.46  1.000225  1.000024     3.245    22.529      90.6      89.2     147.6     567.4     13.14     -3.50      3.30      1.04      2.66      2.15      0.00      2.83      0.81     -1.59      1.87      2.18     -3.20      1.96      2.11     -6.79      4.10      1.09      2.73      4.19
     -40.804146    -107.902138     259.6      0.96      2.98     119.3         1         3      1000      4172   3465.72    -4.602      11.1      23.7   277.540     0.715      69.2   0.16506      98.8         H               346.3  0.082069  0.040501  0.001289  3.722268  0.944998  3.938916  1.198195     38.47    6.4210   65.0989   0.25558   5.80398   0.21225   0.00746  96.92256   6.43018    4152.3  0.590820  0.000680  0.000017  0.000159  0.197910  7.022067  0.745213     95.37  1.000234  1.000025     3.240    23.042      90.6      88.2     128.3     551.6     13.27     -3.79      3.25      1.24      2.31      2.24     -0.49      2.68      0.47     -1.74      1.62      1.89     -3.28      1.75      2.28     -6.22      3.59      1.75      2.75      3.67
     -40.781670    -108.058517     256.7      0.95      2.98     127.3         2         1      2449      1000   3912.15    -4.076      10.3      22.8   278.678     0.717      78.5   0.16624      87.2         H               346.3  0.082776  0.041609  0.001320  3.697884  0.938952  3.938310  1.200200     51.68    7.2909   81.1396   0.25542   6.03697   0.19362   0.00589 120.82880   7.23063    4694.9  0.590634  0.000801  0.000024  0.000162  0.199358  7.019874  0.746830    100.66  1.000200  1.000021     3.237    22.563      88.6      90.0     165.7     594.9     13.35     -4.60      2.23      0.87      2.11      2.81     -0.79      3.38      0.56     -1.48      0.88      2.03     -3.99      1.66      2.49     -6.28      4.07      3.13      1.66      3.75
     -40.766724    -107.989098     243.7      0.91      2.98     125.1         2         2      2449      2586   3713.15    -4.303      10.9      23.2   280.957     0.729      69.8   0.17216      62.4         H               346.3  0.085718  0.040337  0.001127  3.827960  0.952001  4.020964  1.210496     34.12    6.8957   74.4090   0.25914   5.93210   0.20192   0.00657 110.25283   6.86985    4494.4  0.601765  0.000784  0.000020  0.000163  0.194698  6.987004  0.760523     92.54  1.000222  1.000025     3.386    26.069      92.7      89.2     149.9     628.8     13.09     -2.39      3.00      1.60      1.45      2.43     -0.72      2.98      0.64     -1.37      1.46      2.15     -2.59      1.51      1.90     -5.27      0.96      1.80      1.88      3.17
     -40.752018    -107.921028     247.3      0.88      2.98     129.9         2         3      2449      4172   3422.53    -4.657      11.0      23.7   274.727     0.701      65.8   0.15989      67.4         H               346.3  0.079670  0.038767  0.001317  3.467973  0.923677  3.754528  1.187208     47.69    6.3381   62.5929   0.25035   5.78458   0.21296   0.00751  93.84460   6.34848    4063.3  0.581466  0.000631  0.000018  0.000167  0.197776  6.987053  0.730278     98.34  1.000213  1.000022     3.200    22.524      88.6      88.2     123.5     530.1     13.39     -4.28      2.44      0.71      2.51      2.65     -0.55      2.82      0.12     -1.42      0.54      2.20     -3.68      2.19      2.23     -7.02      3.85      3.10      0.44      4.46
     -40.729515    -108.077248     243.7      0.99      2.98     125.1         3         1      3898      1000   4086.74    -3.886      10.9      22.8   277.464     0.715      96.2   0.16587      62.4         H               346.3  0.082236  0.040232  0.001291  3.722620  0.957561  3.887608  1.198686     34.63    7.6233   87.3404   0.25622   6.11878   0.18704   0.00540 129.92294   7.52762    4898.7  0.590266  0.001054  0.000059  0.000161  0.200467  7.018362  0.745271     92.64  1.000217  1.000021     3.225    22.821      90.6      90.5     180.8     640.6     13.48     -3.11      2.93      1.21      1.60      3.00     -1.06      2.85      0.09     -1.48      1.07      2.51     -2.68      1.25      1.78     -6.33      2.86      2.78      1.47      2.96
     -40.714581    -108.007904     266.2      0.92      2.98     124.4         3         2      3898      2586   3725.46    -4.288      10.9      23.2   277.483     0.714      63.4   0.16534     100.0         H               346.3  0.082271  0.039685  0.001284  3.577822  0.933776  3.831563  1.198832     47.82    6.9227   73.8907   0.25468   5.94299   0.20080   0.00646 110.14539   6.89056    4465.9  0.591181  0.000532  0.000011  0.000160  0.200942  7.027113  0.744641    100.70  1.000216  1.000023     3.275    23.515      90.6      89.3     149.1     590.7     13.49     -4.63      2.98      0.97      2.77      2.80     -0.93      3.04      0.17     -1.61      0.63      2.65     -3.71      2.12      2.22     -6.36      4.96      2.96      0.69      4.57
     -40.699883    -107.939896     256.7      0.95      2.98     127.3         3         3      3898      4172   3511.99    -4.544      11.3      23.7   277.647     0.714      73.7   0.16410      87.2         H               346.3  0.081887  0.039616  0.001707  3.659694  0.920765  3.974623  1.197507     39.23    6.5065   66.2015   0.25487   5.82960   0.20932   0.00723  98.65762   6.50408    4205.7  0.590422  0.000740  0.000019  0.000159  0.198674  7.010700  0.744124     93.66  1.000236  1.000024     3.287    23.582      92.7      88.5     131.8     545.6     13.67     -3.37      2.64      0.01      3.21      2.62     -0.20      1.73      0.20     -0.59      1.33      1.86     -3.29      2.75      0.99     -9.04      6.05      2.38      1.25      6.47
