corner points
-97.09066772    -56.51589966
-97.21580505    -56.35250473
-96.78546906    -56.44273758
-96.91174316    -56.2796402
========== RESULTS WAVE VERSION 16.10.2018 ====================
IMAGE SIZE  X: 4376     Y:4768    col:row     POLARIZATION:VV
COVERAGE    X: 20.38309606km       Y: 19.68765981km 
RESOLUTION dX: 4.657928717m       dY:4.129123281m  
resolution of original product 4.657928717m x 4.129123281m;   raster step x:5999.412187m  
===============================================================
FLAGS: H=HIGH PROBABILITY SEA STATE, I=LAND(ISLAND), O=OUTLIER NO SEA STATE, N=NO WIND AVAILABLE, SEA STATE NOT VISIBLE, M=MEAN PROBABILITY SEA STATE, L= LOW PROBABILITY SEA STATE
Filtering wave length
 integration  Lmin=1m
 integration  Lmax=2200m
  peak        Lmin=100m
               FFT=1024pixels, 4769.719006m 
   mean-Hs (SWH_c)=2.881781311m
         mean-wind=11.47571945m/s
--------------0--------------1---------2---------3---------4---------5---------6---------7---------8---------9--------10--------11--------12--------13--------14--------15--------16--------17--------18--------19------------------20--------21--------22--------23--------24--------25--------26--------27--------28--------29--------30--------31--------32--------33--------34--------35--------36--------37--------38--------39--------40--------41--------42--------43--------44--------45--------46--------47--------48--------49--------50--------51--------52--------53--------54--------55--------56--------57--------58--------59--------60--------61--------62--------63--------64--------65--------66--------67--------68--------69--------70--------71--------72--------73
            LAT            LON  P-LENGHT     SWH_o     SWH_c     P-DIR      LINE     POINT     ROW-Y     COL-X  M-INTENC        dB      WIND INC-ANGLE  ENERGY-M  ENERGY-N  ENERGY-R ENERGY-NN  FG-DEPTH      FLAG         HEADING-DEG    E30-75   E75-390  E390-600 meanincut   meanout   cut/out  STD-NORM  SPEC-MAX   GL-MEAN    GL-VAR      CORR   ENTROPY   HOMOGEN    ENERGY  CONTRAST  DISSIMIL     STD-O    E 1-30 E600-2000   E2000 >      GODA  LONG-HIG     Tmean  CONVOLUT  MEAN-DIR  relation     Sy/Sx  SKEWNESS  KURTOSIS  cutoff-A >50/10000     INT*V   INT-LOG  S-1_g1f1  S-2_g1f2  S-3_g1f3  S-4_g2f1  S-5_g2f2  S-6_g2f3  S-7_g3f1  S-8_g3f2  S-9_g3f3 S-10_g1f4 S-11_g2f4 S-12_g3f4 S-13_g1f5 S-14_g2f5 S-15_g3f5 S-16_g4f1 S-17_g4f2 S-18_g4f3 S-19_g4f4 S-20_g4f5
--------------1--------------2---------3---------4---------5---------6---------7---------8---------9--------10--------11--------12--------13--------14--------15--------16--------17--------18--------19--------20------------------21--------22--------23--------24--------25--------26--------27--------28--------29--------30--------31--------32--------33--------34--------35--------36--------37--------38--------39--------40--------41--------42--------43--------44--------45--------46--------47--------48--------49--------50--------51--------52--------53--------54--------55--------56--------57--------58--------59--------60--------61--------62--------63--------64--------65--------66--------67--------68--------69--------70--------71--------72--------73--------74
     -56.464790     -97.046364     291.7      3.26      5.10     101.9         1         1      1000      1000    494.92   -13.055      11.5      35.6   320.257     0.658     153.4   0.12047     100.0         H               342.6  0.059897  0.056924  0.001868  4.312029  0.810051  5.323158  1.151282    107.24    9.3142  115.4535   0.18269   6.51223   0.15104   0.00331 188.72189   9.35461     569.7  0.538212  0.001720  0.000188  0.000203  0.235592  7.510263  0.672397     90.00  1.000293  1.000034     2.979    19.942     174.0      93.3     256.4     722.9     15.44      0.09     12.27      0.84      1.43      3.25     -1.81      0.77     -3.05     -0.39      2.33      1.31      5.12      2.87     -0.03     -7.56      0.82      0.39      1.83      1.60
     -56.443214     -96.956200     286.9      3.19      5.10     105.7         1         2      1000      2288    510.17   -12.923      12.1      36.0   318.137     0.651     152.5   0.11749     100.0         H               342.6  0.058464  0.053499  0.002024  4.472361  0.810895  5.515337  1.144349     80.92    9.6052  119.9705   0.17751   6.57091   0.14633   0.00307 197.35016   9.62062     583.9  0.534530  0.002297  0.000167  0.000190  0.229857  7.475215  0.663566     90.95  1.000288  1.000034     2.973    19.756     166.7      93.6     271.1     721.1     15.04     -0.04     11.98      1.30      0.79      3.28     -1.16      0.50     -2.57     -0.51      1.58      0.73      5.31      2.74      0.08     -7.88      0.74     -0.39      2.41      1.09
     -56.421772     -96.866959     291.7      2.89      5.10     101.9         1         3      1000      3576    454.24   -13.427      11.5      36.4   316.540     0.644     178.1   0.11260     100.0         H               342.6  0.056890  0.050285  0.001756  4.162244  0.797778  5.217296  1.138769     79.71    8.5354   97.7965   0.17254   6.35926   0.15953   0.00383 161.84705   8.65320     517.2  0.532846  0.002171  0.000316  0.000183  0.231133  7.469206  0.656197     91.81  1.000289  1.000031     3.058    25.951     166.7      92.4     211.0     739.4     15.14     -0.36     11.89      1.08      1.27      3.10     -1.58      0.38     -3.00     -0.91      1.83      1.10      5.20      2.58     -0.19     -7.52      1.56     -0.13      1.60      1.28
     -56.415012     -97.084625     281.1      2.84      5.10     109.4         2         1      2453      1000    505.40   -12.964      11.7      35.6   314.829     0.642     128.5   0.11342     100.0         H               342.6  0.058287  0.049392  0.001657  4.218197  0.815410  5.173097  1.136632     73.97    9.5211  117.4453   0.17324   6.55825   0.14677   0.00310 194.19676   9.55251     574.5  0.531173  0.001644  0.000148  0.000184  0.226570  7.421314  0.654130     86.47  1.000266  1.000030     2.901    18.687     153.8      93.7     263.8     701.2     14.78     -0.62     11.26      2.01      1.78      4.01     -1.22      0.74     -2.39     -1.38      2.74      1.46      4.62      2.90      0.02     -6.71      2.25      0.56      3.57      1.72
     -56.393463     -96.994576     271.2      2.82      5.10     104.9         2         2      2453      2288    472.29   -13.258      11.5      36.0   317.622     0.647     172.1   0.11477     100.0         H               342.6  0.058420  0.049846  0.001807  4.144153  0.813222  5.095964  1.141723     94.30    8.8841  105.1707   0.17441   6.43088   0.15553   0.00357 173.65442   8.96804     539.3  0.535210  0.002215  0.000270  0.000191  0.228857  7.435266  0.659691     95.53  1.000275  1.000031     2.962    20.189     166.7      92.9     230.1     693.0     15.26     -1.66     12.12      1.03      1.57      2.76     -1.80      1.62     -3.04     -2.55      2.66      2.20      5.44      2.22     -0.40     -7.90      1.92     -1.40      3.73      0.49
     -56.372047     -96.905434     271.2      2.82      5.10     104.9         2         3      2453      3576    457.23   -13.399      11.6      36.4   317.027     0.645     175.4   0.11282     100.0         H               342.6  0.056986  0.049177  0.001778  4.113137  0.795070  5.173303  1.139410     80.27    8.5921   99.0444   0.17228   6.37037   0.15920   0.00380 163.96265   8.70508     521.0  0.534475  0.002245  0.000311  0.000184  0.228733  7.447917  0.656568     93.00  1.000263  1.000028     2.965    20.535     166.7      92.5     214.1     681.6     15.09     -0.66     11.29      1.21      1.50      3.52     -1.96      0.47     -3.39     -1.49      2.15      1.23      5.13      2.44     -0.43     -7.44      2.39      0.65      3.12      0.81
     -56.365223     -97.122795     271.2      2.83      5.10     104.9         3         1      3906      1000    478.67   -13.200      11.2      35.6   319.054     0.654     169.3   0.11737     100.0         H               342.6  0.059978  0.051283  0.001850  4.328692  0.817294  5.296372  1.147639     67.53    9.0003  108.0356   0.17660   6.45279   0.15427   0.00349 177.91443   9.07767     549.3  0.538919  0.002130  0.000258  0.000184  0.225809  7.423768  0.666921     88.77  1.000317  1.000035     2.979    19.559     166.7      93.0     238.3     679.3     14.91     -0.97     11.42      1.65      1.53      3.89     -1.40      0.82     -2.90     -1.25      2.14      1.31      4.86      2.83      0.19     -7.18      2.06      0.95      2.76      1.36
     -56.343704     -97.032845     266.3      2.68      5.10     108.4         3         2      3906      2288    449.43   -13.473      11.1      36.0   318.521     0.648     195.6   0.11420     100.0         H               342.6  0.058941  0.049151  0.001821  4.165954  0.803175  5.186856  1.142731     60.06    8.4411   96.1716   0.17234   6.33780   0.16149   0.00392 159.19415   8.55955     513.6  0.535696  0.002505  0.000357  0.000184  0.223651  7.401047  0.659916     80.88  1.000276  1.000030     3.033    22.004     160.0      92.3     207.5     686.2     14.75      1.02     10.92      1.56      1.65      4.04     -0.64      0.30     -2.23      1.05      3.07      0.52      4.65      3.18     -0.01     -7.83      1.23      0.97      2.94      2.11
     -56.322315     -96.943802     184.2      2.60      5.10      74.9         3         3      3906      3576    432.83   -13.637      11.2      36.4   315.759     0.637     167.6   0.10825      25.3         H               342.6  0.056866  0.047187  0.001395  4.167428  0.800971  5.202972  1.132314     48.97    8.1232   89.4813   0.16653   6.26986   0.16583   0.00418 149.16061   8.27815     490.1  0.529218  0.002024  0.000302  0.000181  0.222649  7.389292  0.647543     80.31  1.000276  1.000030     2.870    18.481     160.0      92.0     189.3     616.8     14.56      0.42     10.89      2.38      1.61      4.35     -1.31      0.29     -2.32      0.46      2.50      0.62      4.46      3.27      0.13     -6.06      1.48      0.62      2.55      1.85
