corner points
146.3443604    20.92384911
146.3051605    21.10433578
146.5394135    20.96080589
146.500473    21.14128685
========== RESULTS WAVE VERSION 16.10.2018 ====================
IMAGE SIZE  X: 5683     Y:4930    col:row     POLARIZATION:VV
COVERAGE    X: 20.62367823km       Y: 20.42866052km 
RESOLUTION dX: 3.629012534m       dY:4.143744528m  
resolution of original product 3.629012534m x 4.143744528m;   raster step x:5998.757718m  
===============================================================
FLAGS: H=HIGH PROBABILITY SEA STATE, I=LAND(ISLAND), O=OUTLIER NO SEA STATE, N=NO WIND AVAILABLE, SEA STATE NOT VISIBLE, M=MEAN PROBABILITY SEA STATE, L= LOW PROBABILITY SEA STATE
Filtering wave length
 integration  Lmin=1m
 integration  Lmax=2200m
  peak        Lmin=100m
               FFT=1024pixels, 3716.108834m 
   mean-Hs (SWH_c)=2.205615387m
         mean-wind=7.003498554m/s
--------------0--------------1---------2---------3---------4---------5---------6---------7---------8---------9--------10--------11--------12--------13--------14--------15--------16--------17--------18--------19------------------20--------21--------22--------23--------24--------25--------26--------27--------28--------29--------30--------31--------32--------33--------34--------35--------36--------37--------38--------39--------40--------41--------42--------43--------44--------45--------46--------47--------48--------49--------50--------51--------52--------53--------54--------55--------56--------57--------58--------59--------60--------61--------62--------63--------64--------65--------66--------67--------68--------69--------70--------71--------72--------73
            LAT            LON  P-LENGHT     SWH_o     SWH_c     P-DIR      LINE     POINT     ROW-Y     COL-X  M-INTENC        dB      WIND INC-ANGLE  ENERGY-M  ENERGY-N  ENERGY-R ENERGY-NN  FG-DEPTH      FLAG         HEADING-DEG    E30-75   E75-390  E390-600 meanincut   meanout   cut/out  STD-NORM  SPEC-MAX   GL-MEAN    GL-VAR      CORR   ENTROPY   HOMOGEN    ENERGY  CONTRAST  DISSIMIL     STD-O    E 1-30 E600-2000   E2000 >      GODA  LONG-HIG     Tmean  CONVOLUT  MEAN-DIR  relation     Sy/Sx  SKEWNESS  KURTOSIS  cutoff-A >50/10000     INT*V   INT-LOG  S-1_g1f1  S-2_g1f2  S-3_g1f3  S-4_g2f1  S-5_g2f2  S-6_g2f3  S-7_g3f1  S-8_g3f2  S-9_g3f3 S-10_g1f4 S-11_g2f4 S-12_g3f4 S-13_g1f5 S-14_g2f5 S-15_g3f5 S-16_g4f1 S-17_g4f2 S-18_g4f3 S-19_g4f4 S-20_g4f5
--------------1--------------2---------3---------4---------5---------6---------7---------8---------9--------10--------11--------12--------13--------14--------15--------16--------17--------18--------19--------20------------------21--------22--------23--------24--------25--------26--------27--------28--------29--------30--------31--------32--------33--------34--------35--------36--------37--------38--------39--------40--------41--------42--------43--------44--------45--------46--------47--------48--------49--------50--------51--------52--------53--------54--------55--------56--------57--------58--------59--------60--------61--------62--------63--------64--------65--------66--------67--------68--------69--------70--------71--------72--------73--------74
      20.967155     146.371643     268.6      2.07      3.27      40.6         1         1      1000      1000   2446.30    -6.115       7.3      23.7   443.261     0.764     156.1   0.18223     100.0         H               347.7  0.075124  0.075150  0.001506  4.538155  0.933862  4.859556  1.238683    138.12    4.3933   35.7376   0.27789   5.09205   0.28806   0.01668  51.61247   4.52205    3030.0  0.611050  0.001527  0.000082  0.000258  0.242066  7.571440  0.806337     50.92  1.000156  1.000012     3.282    22.401      92.7      81.0      64.9     377.0     14.94     11.51      1.63     -0.74     -1.47      3.24     -4.02     -5.39      0.47      3.51      2.48     -0.53     -6.60      1.52      3.94     -6.26     -3.35      3.36      0.98      2.85
      20.978035     146.429001     267.4      2.41      3.27      59.7         1         2      1000      2653   2145.26    -6.685       7.0      24.2   450.254     0.785     138.8   0.19323     100.0         H               347.7  0.075828  0.083687  0.001856  4.440671  0.962990  4.611335  1.258573    183.94    3.8157   28.4711   0.28646   4.83350   0.31789   0.02192  40.63060   3.96958    2699.9  0.623344  0.001144  0.000021  0.000282  0.250092  7.649830  0.830878     58.28  1.000153  1.000013     3.473    26.746      97.3      78.0      51.0     376.7     15.47     11.32      3.03     -1.15     -1.16      2.87     -4.62     -5.73     -0.36      5.84      1.26     -1.72     -5.64      1.82      3.58     -6.96     -3.16      2.65     -0.90      2.93
      20.988697     146.485352     267.6      2.34      3.27      46.1         1         3      1000      4306   1789.72    -7.472       6.3      24.7   449.975     0.782     150.6   0.19033     100.0         H               347.7  0.074762  0.083584  0.002105  4.557394  0.946699  4.813982  1.253336    129.40    3.1123   19.8953   0.28186   4.47806   0.35871   0.03092  28.57564   3.30362    2243.1  0.620552  0.001304  0.000035  0.000265  0.249470  7.675952  0.825871     51.36  1.000134  1.000010     3.383    23.963      94.9      73.9      35.3     284.8     15.28     11.06      0.68     -1.64     -1.95      4.29     -3.61     -4.70      1.21      2.69      3.23     -0.36     -4.50      1.34      3.33     -8.20     -4.93      3.98      2.11      2.26
      21.020142     146.360153     281.4      2.32      3.27      37.3         2         1      2447      1000   2409.09    -6.181       7.1      23.7   448.544     0.782     141.3   0.19209     100.0         H               347.7  0.076977  0.081914  0.001953  4.639215  0.983069  4.719116  1.254866    185.24    4.3230   35.4358   0.28577   5.05605   0.29387   0.01766  50.61875   4.45097    3023.1  0.620344  0.001052  0.000030  0.000261  0.246332  7.611593  0.826576     46.01  1.000155  1.000013     3.365    23.330      97.3      80.3      64.0     368.2     15.42     11.19      1.27     -2.07     -2.18      3.65     -3.63     -4.97      0.64      2.57      2.64      0.36     -5.81      2.14      3.25     -8.45     -4.25      3.60      0.72      3.61
      21.031019     146.417526     267.1      2.12      3.27      35.1         2         2      2447      2653   2139.34    -6.697       7.0      24.2   444.638     0.771     127.9   0.18662     100.0         H               347.7  0.075485  0.077379  0.001823  4.648259  0.947295  4.906878  1.244985    122.88    3.8010   27.8152   0.28092   4.83255   0.31612   0.02153  40.00209   3.95833    2663.3  0.615397  0.001089  0.000016  0.000244  0.242228  7.586540  0.814145     49.17  1.000157  1.000013     3.360    24.060      94.9      78.2      50.1     344.0     15.02     10.13      0.57     -1.37     -1.40      4.01     -3.48     -4.53      1.29      2.73      2.50      0.54     -4.68      1.55      3.16     -7.47     -3.38      4.31      0.47      2.84
      21.041681     146.473892     284.9      2.30      3.27      57.5         2         3      2447      4306   1934.77    -7.134       7.0      24.7   449.792     0.786     184.0   0.19352     100.0         H               347.7  0.076431  0.081564  0.002190  4.878267  0.966413  5.047809  1.257123    201.40    3.3900   23.2223   0.28602   4.62481   0.34211   0.02692  33.16077   3.56460    2432.1  0.624125  0.001784  0.000088  0.000282  0.249772  7.640983  0.830838     48.38  1.000179  1.000015     3.394    24.013      97.3      75.6      41.3     306.8     15.66     11.99      1.32     -2.85     -3.24      2.68     -3.92     -5.69      0.96      2.79      1.33     -0.04     -6.82      2.80      4.19     -9.03     -5.03      2.64      0.16      4.26
      21.073126     146.348648     281.9      2.21      3.27      43.1         3         1      3894      1000   2415.56    -6.170       7.2      23.7   445.064     0.769     180.7   0.18429     100.0         H               347.7  0.073616  0.077739  0.001642  4.258005  0.936669  4.545903  1.244185    221.90    4.3391   35.0378   0.27903   5.06795   0.29147   0.01724  50.52305   4.47000    3005.5  0.614415  0.001862  0.000080  0.000305  0.254033  7.648902  0.812264     41.46  1.000146  1.000012     3.377    25.095      97.3      80.6      63.6     407.0     15.70     12.76     -0.96     -3.17     -3.81      3.62     -4.75     -6.14      1.32      0.40      2.90      0.72     -7.72      2.71      4.68     -8.60     -5.92      4.28      2.17      3.94
      21.084003     146.406067     263.2      2.12      3.27      29.7         3         2      3894      2653   2136.82    -6.702       7.0      24.2   448.464     0.778     135.3   0.18954     136.4         H               347.7  0.075451  0.077379  0.001698  4.510452  0.966152  4.668469  1.251328    166.53    3.7954   28.0250   0.28084   4.82722   0.31740   0.02181  40.30914   3.95715    2673.7  0.622895  0.001134  0.000019  0.000261  0.249931  7.596551  0.821242     42.27  1.000158  1.000013     3.382    24.033      94.9      78.1      50.2     334.6     15.47     11.67      0.24     -2.39     -3.13      3.24     -4.57     -5.67      0.86      1.58      2.08      0.15     -6.32      2.25      3.89     -7.88     -5.15      3.55      0.86      3.35
      21.094666     146.462433     268.6      1.97      3.27      40.6         3         3      3894      4306   1960.93    -7.075       7.1      24.7   439.915     0.755     145.4   0.17862     100.0         H               347.7  0.071879  0.071948  0.001712  4.338247  0.928218  4.673735  1.230491    152.68    3.4467   23.0364   0.27285   4.66532   0.33318   0.02498  33.50200   3.62611    2412.7  0.608317  0.001289  0.000057  0.000249  0.245959  7.585115  0.795189     37.97  1.000138  1.000012     3.251    21.939      92.7      76.5      41.4     284.9     15.10     10.56     -0.87     -1.98     -2.23      4.25     -3.70     -5.13      1.95      0.45      2.59      1.36     -5.97      1.89      4.02     -7.81     -3.86      4.83      1.00      2.96
