corner points
146.0760193    30.97023582
146.0383911    31.14464951
146.2858734    31.00330353
146.248642    31.17770195
========== RESULTS WAVE VERSION 16.10.2018 ====================
IMAGE SIZE  X: 4492     Y:4778    col:row     POLARIZATION:VV
COVERAGE    X: 20.294537km       Y: 19.67389065km 
RESOLUTION dX: 4.517928984m       dY:4.117599549m  
resolution of original product 4.517928984m x 4.117599549m;   raster step x:5999.809691m  
===============================================================
FLAGS: H=HIGH PROBABILITY SEA STATE, I=LAND(ISLAND), O=OUTLIER NO SEA STATE, N=NO WIND AVAILABLE, SEA STATE NOT VISIBLE, M=MEAN PROBABILITY SEA STATE, L= LOW PROBABILITY SEA STATE
Filtering wave length
 integration  Lmin=1m
 integration  Lmax=2200m
  peak        Lmin=100m
               FFT=1024pixels, 4626.35928m 
   mean-Hs (SWH_c)=2.704884949m
         mean-wind=16.60637856m/s
--------------0--------------1---------2---------3---------4---------5---------6---------7---------8---------9--------10--------11--------12--------13--------14--------15--------16--------17--------18--------19------------------20--------21--------22--------23--------24--------25--------26--------27--------28--------29--------30--------31--------32--------33--------34--------35--------36--------37--------38--------39--------40--------41--------42--------43--------44--------45--------46--------47--------48--------49--------50--------51--------52--------53--------54--------55--------56--------57--------58--------59--------60--------61--------62--------63--------64--------65--------66--------67--------68--------69--------70--------71--------72--------73
            LAT            LON  P-LENGHT     SWH_o     SWH_c     P-DIR      LINE     POINT     ROW-Y     COL-X  M-INTENC        dB      WIND INC-ANGLE  ENERGY-M  ENERGY-N  ENERGY-R ENERGY-NN  FG-DEPTH      FLAG         HEADING-DEG    E30-75   E75-390  E390-600 meanincut   meanout   cut/out  STD-NORM  SPEC-MAX   GL-MEAN    GL-VAR      CORR   ENTROPY   HOMOGEN    ENERGY  CONTRAST  DISSIMIL     STD-O    E 1-30 E600-2000   E2000 >      GODA  LONG-HIG     Tmean  CONVOLUT  MEAN-DIR  relation     Sy/Sx  SKEWNESS  KURTOSIS  cutoff-A >50/10000     INT*V   INT-LOG  S-1_g1f1  S-2_g1f2  S-3_g1f3  S-4_g2f1  S-5_g2f2  S-6_g2f3  S-7_g3f1  S-8_g3f2  S-9_g3f3 S-10_g1f4 S-11_g2f4 S-12_g3f4 S-13_g1f5 S-14_g2f5 S-15_g3f5 S-16_g4f1 S-17_g4f2 S-18_g4f3 S-19_g4f4 S-20_g4f5
--------------1--------------2---------3---------4---------5---------6---------7---------8---------9--------10--------11--------12--------13--------14--------15--------16--------17--------18--------19--------20------------------21--------22--------23--------24--------25--------26--------27--------28--------29--------30--------31--------32--------33--------34--------35--------36--------37--------38--------39--------40--------41--------42--------43--------44--------45--------46--------47--------48--------49--------50--------51--------52--------53--------54--------55--------56--------57--------58--------59--------60--------61--------62--------63--------64--------65--------66--------67--------68--------69--------70--------71--------72--------73--------74
      31.014221     146.115417     217.6      2.72      4.06      98.9         1         1      1000      1000    810.24   -10.914      16.5      36.9   239.974     0.597     246.3   0.09397      40.6         H               347.3  0.052822  0.030659  0.001199  3.063048  0.710363  4.311946  1.097863     29.58   15.1400  235.9557   0.14431   7.34791   0.09767   0.00118 403.81476  14.56587     889.5  0.509150  0.003313  0.000653  0.000161  0.199850  7.119134  0.602999     98.00  1.000153  1.000013     2.552    14.025     124.8      97.8     677.0     932.1     12.99     -2.41      6.12      3.19      0.03      6.11      1.47      0.25     -0.19     -2.51     -1.09      0.12      1.73      3.42      1.53     -6.46      1.04      5.63     -0.44      3.14
      31.024050     146.177719     195.7      2.76      4.06     103.4         1         2      1000      2328    771.29   -11.128      16.4      37.2   240.815     0.598     134.1   0.09359      29.7         H               347.3  0.053358  0.032021  0.001182  3.102878  0.731553  4.241493  1.097634     36.75   14.4652  220.6946   0.14239   7.28188   0.10128   0.00129 378.53943  14.01661     846.6  0.509652  0.002240  0.000229  0.000166  0.201311  7.142932  0.603595     98.07  1.000173  1.000016     2.545    13.878     128.8      97.5     611.5     895.7     13.32     -3.06      7.13      2.79      0.94      5.26      0.69      0.68     -0.49     -3.30     -0.47      1.54      2.51      3.33      1.33     -6.48      3.18      3.39      0.18      2.38
      31.033760     146.239502     197.6      2.74      4.06     100.8         1         3      1000      3656    774.27   -11.111      16.7      37.6   240.096     0.596     241.8   0.09311      30.5         H               347.3  0.052587  0.030874  0.001293  3.032573  0.718300  4.221877  1.096163     30.82   14.5176  221.5719   0.14435   7.28807   0.10083   0.00128 379.17410  14.04316     848.6  0.507333  0.003435  0.000587  0.000164  0.199723  7.131575  0.601304     98.30  1.000171  1.000016     2.541    13.842     128.8      97.5     615.0     889.8     13.24     -3.15      6.61      2.72      0.57      5.81      1.45      0.20     -0.36     -2.96     -1.55      1.20      2.48      3.63      1.21     -7.78      3.41      4.48     -1.30      2.68
      31.067419     146.103958     215.6      2.70      4.06     101.8         2         1      2457      1000    828.34   -10.818      16.7      36.9   239.133     0.595     201.1   0.09303      39.4         H               347.3  0.053346  0.029853  0.001189  2.968489  0.731215  4.059667  1.094972     28.29   15.4535  242.1256   0.14212   7.37867   0.09552   0.00113 415.42981  14.81894     906.9  0.507159  0.003201  0.000418  0.000163  0.196081  7.094936  0.600115     98.05  1.000147  1.000013     2.536    13.749     124.8      98.0     706.7     938.6     12.93     -2.86      6.01      2.86      0.68      5.78      1.65      0.43     -0.07     -2.75     -1.00      1.05      1.89      3.79      1.39     -6.83      3.04      5.18     -0.74      3.66
      31.077244     146.166306     182.3      2.55      4.06     100.0         2         2      2457      2328    778.10   -11.090      16.5      37.2   238.771     0.591     164.0   0.09026      24.6         H               347.3  0.052585  0.028607  0.001254  2.894316  0.704982  4.105520  1.091050     28.17   14.5973  221.9570   0.13907   7.29989   0.09978   0.00126 382.17856  14.11763     848.9  0.505744  0.002393  0.000349  0.000167  0.194383  7.086259  0.595297     96.53  1.000132  1.000012     2.523    13.685     124.8      97.6     618.5     887.2     12.99     -1.98      5.48      2.83      0.75      6.19      1.91     -0.18     -0.32     -1.90     -0.66      0.67      1.48      2.94      1.66     -8.08      3.04      5.86     -0.55      2.31
      31.086954     146.228119     167.9      2.71      4.06     101.5         2         3      2457      3656    769.98   -11.135      16.6      37.6   239.695     0.594     152.6   0.09174      20.1         H               347.3  0.052605  0.030552  0.001081  3.059676  0.720845  4.244568  1.093866     26.48   14.4507  219.5710   0.14085   7.28227   0.10104   0.00129 377.28833  13.99803     842.3  0.507527  0.002292  0.000309  0.000165  0.196749  7.118263  0.599115     97.78  1.000153  1.000012     2.545    14.098     124.8      97.6     606.6     901.0     12.99     -2.05      6.21      3.06      0.70      5.68      1.40      0.29     -0.06     -2.17     -0.30      0.66      1.45      3.74      1.53     -6.32      2.00      4.53      0.34      3.91
      31.120615     146.092514     225.9      2.79      4.06     102.4         3         1      3914      1000    844.80   -10.732      16.9      36.9   240.166     0.597     224.1   0.09327      46.0         H               347.3  0.053482  0.030581  0.001255  2.956860  0.725637  4.074849  1.097743     40.99   15.7240  248.5875   0.14325   7.40137   0.09463   0.00110 425.95563  15.03433     927.4  0.508702  0.003278  0.000573  0.000163  0.199905  7.122629  0.603253     99.17  1.000118  1.000011     2.557    14.015     133.1      98.1     737.9     966.1     13.30     -1.97      6.66      2.85      0.05      5.90      0.93      0.25     -1.38     -3.18     -0.70      0.94      2.61      2.80      0.80     -7.48      1.42      5.41      0.38      1.78
      31.130438     146.154892     237.2      2.66      4.06     103.0         3         2      3914      2328    781.75   -11.069      16.5      37.2   240.876     0.600     227.7   0.09441      55.4         H               347.3  0.053508  0.030379  0.001360  3.016176  0.731121  4.125414  1.099997     31.20   14.6391  224.8269   0.14408   7.29858   0.10056   0.00126 384.87000  14.15492     859.9  0.511005  0.003631  0.000511  0.000165  0.197021  7.097283  0.605827     97.76  1.000165  1.000015     2.561    13.992     133.1      97.6     630.3     900.7     13.21     -2.40      6.22      2.16      0.58      5.22      1.60      0.37     -0.27     -2.53     -0.84      1.06      1.82      3.55      1.49     -8.28      2.39      4.51     -0.67      3.52
      31.140148     146.216736     193.4      2.72      4.06     106.0         3         3      3914      3656    784.73   -11.053      16.8      37.6   238.615     0.593     175.3   0.09177      28.8         H               347.3  0.052678  0.030318  0.001114  3.019517  0.717420  4.208853  1.092850     30.30   14.7087  225.1129   0.14190   7.30907   0.09974   0.00124 386.33621  14.20071     857.6  0.505789  0.002781  0.000366  0.000169  0.197032  7.108777  0.598028     97.85  1.000140  1.000012     2.524    13.642     124.8      97.7     630.8     897.2     12.87     -2.09      6.43      3.41      0.57      5.61      1.31     -0.00      0.11     -2.63     -0.70      0.72      1.90      3.19      1.60     -6.09      2.33      3.82     -0.24      2.49
