corner points
149.7133942    13.28672028
149.6779175    13.46189594
149.8975372    13.32242298
149.8621979    13.49756718
========== RESULTS WAVE VERSION 16.10.2018 ====================
IMAGE SIZE  X: 4492     Y:4784    col:row     POLARIZATION:VV
COVERAGE    X: 20.27223314km       Y: 19.80553105km 
RESOLUTION dX: 4.512963744m       dY:4.139952142m  
resolution of original product 4.512963744m x 4.139952142m;   raster step x:5997.728816m  
===============================================================
FLAGS: H=HIGH PROBABILITY SEA STATE, I=LAND(ISLAND), O=OUTLIER NO SEA STATE, N=NO WIND AVAILABLE, SEA STATE NOT VISIBLE, M=MEAN PROBABILITY SEA STATE, L= LOW PROBABILITY SEA STATE
Filtering wave length
 integration  Lmin=1m
 integration  Lmax=2200m
  peak        Lmin=100m
               FFT=1024pixels, 4621.274874m 
   mean-Hs (SWH_c)=1.802716522m
         mean-wind=13.54197502m/s
--------------0--------------1---------2---------3---------4---------5---------6---------7---------8---------9--------10--------11--------12--------13--------14--------15--------16--------17--------18--------19------------------20--------21--------22--------23--------24--------25--------26--------27--------28--------29--------30--------31--------32--------33--------34--------35--------36--------37--------38--------39--------40--------41--------42--------43--------44--------45--------46--------47--------48--------49--------50--------51--------52--------53--------54--------55--------56--------57--------58--------59--------60--------61--------62--------63--------64--------65--------66--------67--------68--------69--------70--------71--------72--------73
            LAT            LON  P-LENGHT     SWH_o     SWH_c     P-DIR      LINE     POINT     ROW-Y     COL-X  M-INTENC        dB      WIND INC-ANGLE  ENERGY-M  ENERGY-N  ENERGY-R ENERGY-NN  FG-DEPTH      FLAG         HEADING-DEG    E30-75   E75-390  E390-600 meanincut   meanout   cut/out  STD-NORM  SPEC-MAX   GL-MEAN    GL-VAR      CORR   ENTROPY   HOMOGEN    ENERGY  CONTRAST  DISSIMIL     STD-O    E 1-30 E600-2000   E2000 >      GODA  LONG-HIG     Tmean  CONVOLUT  MEAN-DIR  relation     Sy/Sx  SKEWNESS  KURTOSIS  cutoff-A >50/10000     INT*V   INT-LOG  S-1_g1f1  S-2_g1f2  S-3_g1f3  S-4_g2f1  S-5_g2f2  S-6_g2f3  S-7_g3f1  S-8_g3f2  S-9_g3f3 S-10_g1f4 S-11_g2f4 S-12_g3f4 S-13_g1f5 S-14_g2f5 S-15_g3f5 S-16_g4f1 S-17_g4f2 S-18_g4f3 S-19_g4f4 S-20_g4f5
--------------1--------------2---------3---------4---------5---------6---------7---------8---------9--------10--------11--------12--------13--------14--------15--------16--------17--------18--------19--------20------------------21--------22--------23--------24--------25--------26--------27--------28--------29--------30--------31--------32--------33--------34--------35--------36--------37--------38--------39--------40--------41--------42--------43--------44--------45--------46--------47--------48--------49--------50--------51--------52--------53--------54--------55--------56--------57--------58--------59--------60--------61--------62--------63--------64--------65--------66--------67--------68--------69--------70--------71--------72--------73--------74
      13.331395     149.747437     161.4      1.91      2.39      65.2         1         1      1000      1000    573.57   -12.414      13.7      37.0   226.218     0.596      86.9   0.08890      18.3         H               347.9  0.053775  0.028516  0.000563  2.953321  0.710191  4.158487  1.095206     27.86   10.8540  140.6124   0.13534   6.80757   0.12827   0.00228 243.16461  10.89700     628.2  0.512035  0.001255  0.000158  0.000185  0.184190  7.048407  0.603311     73.20  1.000147  1.000013     2.535    13.780     114.0      95.1     328.4     678.8     10.92      3.84      3.80      6.09      4.53      6.34      3.59      1.56      3.42      4.42      5.24      2.75     -0.59      1.00      3.28     -0.40      2.75      6.40      3.41      1.65
      13.342002     149.802139     126.1      1.75      2.39      72.7         1         2      1000      2329    538.36   -12.689      13.6      37.3   223.565     0.591     103.0   0.08804      10.4         H               347.9  0.053476  0.027148  0.000679  2.808128  0.708509  3.963434  1.090441     26.06   10.1870  125.3138   0.13662   6.69674   0.13464   0.00256 216.38695  10.24885     587.1  0.507814  0.001689  0.000186  0.000185  0.180767  7.013840  0.598417     76.02  1.000127  1.000012     2.537    13.993     117.4      94.6     285.5     631.0     10.81      3.46      3.22      5.61      4.11      6.62      4.07      1.35      3.03      4.27      5.06      2.17      0.07      1.45      3.12     -1.77      2.37      8.02      3.86      1.50
      13.352507     149.856384     122.9      1.74      2.39      73.2         1         3      1000      3658    504.74   -12.969      13.3      37.7   224.376     0.589      77.0   0.08526       9.9         H               347.9  0.052190  0.027677  0.000574  2.821775  0.687966  4.101622  1.088865     31.71    9.5436  112.1563   0.13099   6.57960   0.14190   0.00290 194.92953   9.67328     549.6  0.507598  0.001162  0.000123  0.000194  0.185046  7.065247  0.596114     74.74  1.000142  1.000011     2.513    13.606     117.4      94.0     249.1     584.3     10.76      3.61      3.92      6.06      4.31      6.35      3.85      1.72      3.71      4.43      5.33      2.93      0.03      1.70      3.24     -0.33      2.52      6.47      4.04      2.35
      13.384462     149.736694     156.4      1.89      2.39      66.1         2         1      2449      1000    558.63   -12.529      13.5      37.0   225.766     0.597      89.9   0.08965      17.0         H               347.9  0.053867  0.028932  0.000526  2.951079  0.709280  4.160667  1.096420     32.55   10.5678  134.3375   0.13707   6.76055   0.13066   0.00240 231.84979  10.62087     612.4  0.512643  0.001428  0.000157  0.000188  0.184265  7.049916  0.604892     74.17  1.000151  1.000013     2.586    14.949     114.0      94.9     311.0     696.2     10.90      3.57      3.80      6.25      4.48      6.63      3.48      1.57      3.58      4.57      5.46      2.77     -0.30      1.78      3.45     -0.16      2.67      6.87      3.56      2.36
      13.395066     149.791428     155.8      1.81      2.39      70.7         2         2      2449      2329    530.42   -12.754      13.4      37.3   225.595     0.595      88.4   0.08848      16.8         H               347.9  0.053863  0.028390  0.000556  2.818740  0.702420  4.012897  1.094882     34.87   10.0330  123.0471   0.13652   6.66792   0.13661   0.00265 212.49643  10.12804     580.7  0.511486  0.001299  0.000165  0.000185  0.185767  7.063872  0.603019     71.69  1.000159  1.000014     2.545    13.939     117.4      94.5     278.3     634.3     11.08      3.93      4.16      6.29      5.03      6.69      3.26      1.02      2.92      5.24      5.51      2.25     -0.16      1.27      3.02     -0.68      3.20      6.42      2.82      1.40
      13.405569     149.845673     156.4      1.73      2.39      66.1         2         3      2449      3658    521.48   -12.828      13.5      37.7   224.111     0.588      97.8   0.08543      17.0         H               347.9  0.051998  0.026735  0.000588  2.728044  0.710507  3.839576  1.087998     30.84    9.8666  118.6389   0.13211   6.63987   0.13784   0.00272 205.93152   9.97398     567.3  0.507139  0.001452  0.000203  0.000182  0.183951  7.031564  0.594810     73.44  1.000131  1.000011     2.497    13.343     114.0      94.3     266.4     589.3     10.98      4.11      3.49      5.91      4.43      6.40      3.49      0.87      2.69      4.47      5.29      2.25     -0.79      0.75      3.21     -1.38      2.36      7.21      3.54      1.40
      13.437530     149.725967     139.0      1.79      2.39      68.9         3         1      3898      1000    551.53   -12.584      13.4      37.0   225.031     0.594     112.9   0.08853      13.0         H               347.9  0.052995  0.027641  0.000560  2.854780  0.712468  4.006888  1.093990     26.21   10.4349  131.2741   0.13605   6.73854   0.13200   0.00246 226.82748  10.50261     603.3  0.511572  0.001620  0.000235  0.000177  0.183182  7.031271  0.601831     73.44  1.000146  1.000012     2.540    13.873     114.0      94.8     301.9     654.6     10.96      3.90      3.52      5.93      4.61      6.29      3.40      1.45      3.05      4.49      4.95      2.72     -0.64      1.12      2.69     -0.67      2.91      6.54      3.07      1.92
      13.448131     149.780685     147.3      1.85      2.39      67.5         3         2      3898      2329    548.02   -12.612      13.7      37.3   224.432     0.592      93.9   0.08801      14.8         H               347.9  0.053416  0.028076  0.000567  2.690236  0.723440  3.718674  1.091939     44.40   10.3738  129.9048   0.13683   6.72843   0.13294   0.00248 224.26057  10.42832     598.4  0.508890  0.001493  0.000155  0.000190  0.185896  7.048443  0.599987     70.21  1.000121  1.000010     2.520    13.673     110.8      94.8     297.0     638.4     10.95      4.55      3.92      6.36      4.76      6.44      3.48      1.56      3.01      5.09      5.89      2.83     -0.59      0.81      2.78     -0.41      2.31      6.60      3.75      1.23
      13.458630     149.834946     143.2      1.75      2.39      64.0         3         3      3898      3658    526.64   -12.785      13.6      37.7   223.688     0.588     109.4   0.08575      13.8         H               347.9  0.052024  0.026844  0.000585  2.661411  0.705986  3.769781  1.088083     34.01    9.9671  120.7589   0.13313   6.65802   0.13698   0.00267 209.36290  10.05612     573.1  0.506711  0.001743  0.000218  0.000184  0.184733  7.043284  0.595067     70.69  1.000130  1.000010     2.497    13.354     114.0      94.4     272.1     604.4     11.05      4.39      3.94      6.18      4.75      6.59      3.54      1.45      2.73      5.10      5.79      2.34     -0.42      1.06      2.66     -1.16      2.27      6.40      3.45      1.30
