corner points
151.8878937    2.662585497
151.8515167    2.837812185
152.0671539    2.700475931
152.0308075    2.875662088
========== RESULTS WAVE VERSION 16.10.2018 ====================
IMAGE SIZE  X: 4492     Y:4785    col:row     POLARIZATION:VV
COVERAGE    X: 20.30612599km       Y: 19.85174765km 
RESOLUTION dX: 4.520508902m       dY:4.14874559m  
resolution of original product 4.520508902m x 4.14874559m;   raster step x:5998.715313m  
===============================================================
FLAGS: H=HIGH PROBABILITY SEA STATE, I=LAND(ISLAND), O=OUTLIER NO SEA STATE, N=NO WIND AVAILABLE, SEA STATE NOT VISIBLE, M=MEAN PROBABILITY SEA STATE, L= LOW PROBABILITY SEA STATE
Filtering wave length
 integration  Lmin=1m
 integration  Lmax=2200m
  peak        Lmin=100m
               FFT=1024pixels, 4629.001116m 
   mean-Hs (SWH_c)=0.8840860748m
         mean-wind=9.019753456m/s
--------------0--------------1---------2---------3---------4---------5---------6---------7---------8---------9--------10--------11--------12--------13--------14--------15--------16--------17--------18--------19------------------20--------21--------22--------23--------24--------25--------26--------27--------28--------29--------30--------31--------32--------33--------34--------35--------36--------37--------38--------39--------40--------41--------42--------43--------44--------45--------46--------47--------48--------49--------50--------51--------52--------53--------54--------55--------56--------57--------58--------59--------60--------61--------62--------63--------64--------65--------66--------67--------68--------69--------70--------71--------72--------73
            LAT            LON  P-LENGHT     SWH_o     SWH_c     P-DIR      LINE     POINT     ROW-Y     COL-X  M-INTENC        dB      WIND INC-ANGLE  ENERGY-M  ENERGY-N  ENERGY-R ENERGY-NN  FG-DEPTH      FLAG         HEADING-DEG    E30-75   E75-390  E390-600 meanincut   meanout   cut/out  STD-NORM  SPEC-MAX   GL-MEAN    GL-VAR      CORR   ENTROPY   HOMOGEN    ENERGY  CONTRAST  DISSIMIL     STD-O    E 1-30 E600-2000   E2000 >      GODA  LONG-HIG     Tmean  CONVOLUT  MEAN-DIR  relation     Sy/Sx  SKEWNESS  KURTOSIS  cutoff-A >50/10000     INT*V   INT-LOG  S-1_g1f1  S-2_g1f2  S-3_g1f3  S-4_g2f1  S-5_g2f2  S-6_g2f3  S-7_g3f1  S-8_g3f2  S-9_g3f3 S-10_g1f4 S-11_g2f4 S-12_g3f4 S-13_g1f5 S-14_g2f5 S-15_g3f5 S-16_g4f1 S-17_g4f2 S-18_g4f3 S-19_g4f4 S-20_g4f5
--------------1--------------2---------3---------4---------5---------6---------7---------8---------9--------10--------11--------12--------13--------14--------15--------16--------17--------18--------19--------20------------------21--------22--------23--------24--------25--------26--------27--------28--------29--------30--------31--------32--------33--------34--------35--------36--------37--------38--------39--------40--------41--------42--------43--------44--------45--------46--------47--------48--------49--------50--------51--------52--------53--------54--------55--------56--------57--------58--------59--------60--------61--------62--------63--------64--------65--------66--------67--------68--------69--------70--------71--------72--------73--------74
       2.707746     151.920670     116.2      0.86      1.90      72.5         1         1      1000      1000    307.02   -15.128       9.1      36.9   222.112     0.575     116.9   0.07598       8.7         H               348.0  0.046006  0.025243  0.000610  2.547117  0.675584  3.770244  1.076020     19.01    5.6510   43.2243   0.11517   5.61685   0.21030   0.00760  76.49165   5.96211     330.3  0.501414  0.001673  0.000260  0.000148  0.187095  7.124283  0.581652     76.26  1.000189  1.000015     2.466    13.512     107.8      87.9      86.4     366.5     10.73      1.18      4.11      5.92      1.71      6.53      4.48      1.47      4.29      2.17      2.16      1.79      1.57      3.02      2.51     -1.04      0.90      5.11      1.36      3.25
       2.718982     151.973831     147.5      0.89      1.90      67.5         1         2      1000      2327    288.63   -15.397       9.0      37.3   221.298     0.573      83.7   0.07546      14.8         H               348.0  0.045168  0.025825  0.000562  2.605380  0.674388  3.863324  1.073642     19.23    5.2878   38.1373   0.11532   5.49553   0.22005   0.00856  67.47851   5.60226     309.9  0.500002  0.001332  0.000146  0.000147  0.188245  7.149097  0.579471     75.38  1.000169  1.000013     2.417    12.613     102.3      87.0      76.0     308.0     10.64      1.60      4.13      6.40      2.08      6.48      4.32      1.28      4.18      2.67      2.61      1.74      1.43      2.38      2.39     -0.35      1.48      5.11      1.36      1.92
       2.730119     152.026535     152.9      0.94      1.90      73.3         1         3      1000      3654    276.70   -15.580       9.0      37.7   220.840     0.570      85.8   0.07419      16.1         H               348.0  0.044917  0.026550  0.000601  2.655094  0.672450  3.948390  1.071030     24.59    5.0511   34.9482   0.11354   5.41242   0.22760   0.00928  61.96003   5.36639     296.3  0.496568  0.001488  0.000127  0.000147  0.191524  7.177933  0.576887     75.88  1.000186  1.000013     2.409    12.672     105.0      86.3      69.4     307.5     10.98      1.49      4.17      6.23      2.38      6.84      4.05      1.42      3.86      3.08      2.51      1.60      1.59      2.33      1.89     -1.06      1.65      5.23      1.14      2.08
       2.760707     151.909668     151.8      0.87      1.90      79.7         2         1      2446      1000    308.98   -15.101       9.1      36.9   221.800     0.575      87.4   0.07593      15.8         H               348.0  0.046381  0.025280  0.000606  2.542030  0.678495  3.746569  1.076267     18.64    5.6901   43.8194   0.11587   5.62936   0.20890   0.00751  77.48335   6.00073     332.5  0.501879  0.001422  0.000152  0.000145  0.187032  7.128829  0.582473     76.63  1.000197  1.000015     2.455    13.039     107.8      88.0      87.5     331.1     10.75      1.17      3.67      5.85      1.73      6.66      4.51      1.47      4.06      2.52      2.10      1.91      1.32      2.58      2.54     -1.22      1.34      5.97      1.18      2.31
       2.771939     151.962830     168.1      0.91      1.90      78.6         2         2      2446      2327    290.84   -15.363       9.0      37.3   221.261     0.572      81.5   0.07513      20.1         H               348.0  0.044808  0.025776  0.000619  2.609263  0.662446  3.938830  1.073496     20.39    5.3324   38.6760   0.11436   5.51105   0.21940   0.00843  68.50600   5.64106     312.2  0.500083  0.001410  0.000127  0.000147  0.189823  7.156102  0.579461     75.29  1.000177  1.000013     2.429    12.877     105.0      87.2      77.0     320.1     10.81      1.43      4.16      6.23      1.95      6.48      4.23      1.63      3.69      2.75      2.75      1.89      1.20      2.20      1.79     -1.13      1.08      5.34      1.65      2.59
       2.783072     152.015549     157.8      0.87      1.90      81.5         2         3      2446      3654    277.28   -15.571       9.0      37.7   220.617     0.569      75.9   0.07361      17.3         H               348.0  0.044639  0.025548  0.000649  2.535936  0.674330  3.760676  1.069943     27.79    5.0621   34.9782   0.11292   5.41666   0.22712   0.00922  62.05713   5.37745     296.6  0.496592  0.001363  0.000102  0.000145  0.192657  7.154871  0.575379     76.49  1.000173  1.000013     2.401    12.504     102.3      86.4      69.5     296.3     11.00      1.43      4.31      6.15      2.08      6.65      3.98      1.48      3.96      3.02      2.89      1.82      1.46      2.76      2.11     -1.42      1.07      4.56      1.39      2.73
       2.813668     151.898682     153.4      0.88      1.90      83.8         3         1      3892      1000    306.13   -15.141       9.1      36.9   221.404     0.573      69.9   0.07552      16.2         H               348.0  0.045950  0.025511  0.000549  2.588507  0.690923  3.746446  1.074310     27.13    5.6336   42.8613   0.11464   5.61147   0.21016   0.00763  75.89534   5.94634     328.8  0.500462  0.001198  0.000101  0.000153  0.188709  7.132148  0.580401     77.13  1.000191  1.000012     2.448    13.076     102.3      87.8      85.7     336.0     10.50      1.53      4.36      6.65      2.01      6.80      4.82      1.75      4.63      2.93      2.85      2.12      1.47      2.96      2.52      0.16      1.21      5.21      1.66      3.17
       2.824896     151.951843     154.4      0.86      1.90      75.3         3         2      3892      2327    282.07   -15.496       8.8      37.3   221.234     0.573      82.6   0.07532      16.5         H               348.0  0.045616  0.025818  0.000673  2.586874  0.674354  3.836077  1.073633     29.63    5.1571   36.4687   0.11503   5.44984   0.22479   0.00896  64.54746   5.46973     302.8  0.499418  0.001413  0.000127  0.000149  0.190733  7.149103  0.579802     75.42  1.000185  1.000014     2.419    12.530     105.0      86.7      72.4     287.0     11.03      1.34      4.16      5.97      2.28      6.66      4.25      1.57      3.87      3.14      2.57      1.88      1.07      2.45      1.90     -1.92      1.31      4.74      0.92      2.38
       2.836026     152.004562     152.9      0.87      1.90      73.3         3         3      3892      3654    281.15   -15.511       9.1      37.7   220.108     0.568      69.6   0.07322      16.1         H               348.0  0.044688  0.025314  0.000595  2.539754  0.664974  3.819331  1.069002     19.07    5.1392   35.9154   0.11198   5.44435   0.22481   0.00896  63.78722   5.45075     300.5  0.496029  0.001210  0.000093  0.000144  0.188226  7.130819  0.574148     74.86  1.000162  1.000012     2.401    12.464     102.3      86.7      71.6     285.7     10.85      1.43      3.82      5.81      2.46      6.35      4.16      1.62      3.88      3.29      2.59      1.74      0.71      2.13      1.92     -1.25      1.71      5.07      1.36      2.65
