corner points
-43.21202087    24.61950874
-43.24821854    24.44483185
-43.40892029    24.65323448
-43.44482803    24.47858047
========== RESULTS WAVE VERSION 16.10.2018 ====================
IMAGE SIZE  X: 4476     Y:4778    col:row     POLARIZATION:VV
COVERAGE    X: 20.20562513km       Y: 19.71707827km 
RESOLUTION dX: 4.514214731m       dY:4.126638399m  
resolution of original product 4.514214731m x 4.126638399m;   raster step x:5999.391377m  
===============================================================
FLAGS: H=HIGH PROBABILITY SEA STATE, I=LAND(ISLAND), O=OUTLIER NO SEA STATE, N=NO WIND AVAILABLE, SEA STATE NOT VISIBLE, M=MEAN PROBABILITY SEA STATE, L= LOW PROBABILITY SEA STATE
Filtering wave length
 integration  Lmin=1m
 integration  Lmax=2200m
  peak        Lmin=100m
               FFT=1024pixels, 4622.555884m 
   mean-Hs (SWH_c)=2.753354187m
         mean-wind=14.96954823m/s
--------------0--------------1---------2---------3---------4---------5---------6---------7---------8---------9--------10--------11--------12--------13--------14--------15--------16--------17--------18--------19------------------20--------21--------22--------23--------24--------25--------26--------27--------28--------29--------30--------31--------32--------33--------34--------35--------36--------37--------38--------39--------40--------41--------42--------43--------44--------45--------46--------47--------48--------49--------50--------51--------52--------53--------54--------55--------56--------57--------58--------59--------60--------61--------62--------63--------64--------65--------66--------67--------68--------69--------70--------71--------72--------73
            LAT            LON  P-LENGHT     SWH_o     SWH_c     P-DIR      LINE     POINT     ROW-Y     COL-X  M-INTENC        dB      WIND INC-ANGLE  ENERGY-M  ENERGY-N  ENERGY-R ENERGY-NN  FG-DEPTH      FLAG         HEADING-DEG    E30-75   E75-390  E390-600 meanincut   meanout   cut/out  STD-NORM  SPEC-MAX   GL-MEAN    GL-VAR      CORR   ENTROPY   HOMOGEN    ENERGY  CONTRAST  DISSIMIL     STD-O    E 1-30 E600-2000   E2000 >      GODA  LONG-HIG     Tmean  CONVOLUT  MEAN-DIR  relation     Sy/Sx  SKEWNESS  KURTOSIS  cutoff-A >50/10000     INT*V   INT-LOG  S-1_g1f1  S-2_g1f2  S-3_g1f3  S-4_g2f1  S-5_g2f2  S-6_g2f3  S-7_g3f1  S-8_g3f2  S-9_g3f3 S-10_g1f4 S-11_g2f4 S-12_g3f4 S-13_g1f5 S-14_g2f5 S-15_g3f5 S-16_g4f1 S-17_g4f2 S-18_g4f3 S-19_g4f4 S-20_g4f5
--------------1--------------2---------3---------4---------5---------6---------7---------8---------9--------10--------11--------12--------13--------14--------15--------16--------17--------18--------19--------20------------------21--------22--------23--------24--------25--------26--------27--------28--------29--------30--------31--------32--------33--------34--------35--------36--------37--------38--------39--------40--------41--------42--------43--------44--------45--------46--------47--------48--------49--------50--------51--------52--------53--------54--------55--------56--------57--------58--------59--------60--------61--------62--------63--------64--------65--------66--------67--------68--------69--------70--------71--------72--------73--------74
      24.590588     -43.264072     184.3      2.90      3.90      61.3         1         1      1000      1000    684.75   -11.645      15.1      36.9   240.309     0.629     220.6   0.10504      25.4         H               192.4  0.056281  0.038789  0.001865  3.119367  0.735787  4.239495  1.126025     71.70   12.8696  190.4854   0.16097   7.08295   0.11384   0.00171 319.64926  12.63564     771.0  0.528627  0.003211  0.000531  0.000238  0.212677  7.304132  0.638682     65.28  1.000093  1.000008     2.683    15.412     133.1      96.3     492.0     869.0     12.97      7.24      3.91      3.24      5.20      6.77      1.52     -2.12      0.16      7.42      4.78      0.81     -2.27     -0.38      3.65     -7.81      3.16      8.06     -0.03      0.12
      24.600651     -43.322739     193.2      2.88      3.90      56.7         1         2      1000      2329    674.58   -11.710      15.3      37.3   243.905     0.644     647.9   0.11129      28.7         H               192.4  0.057523  0.038740  0.001776  3.226379  0.756712  4.263683  1.142796     61.99   12.6639  188.7971   0.17510   7.04822   0.11757   0.00181 311.47693  12.40066     771.0  0.536198  0.008367  0.002140  0.000219  0.209985  7.258851  0.656349     64.41  1.000058  1.000006     2.786    16.743     137.8      96.1     486.0     881.6     12.93      7.23      3.28      2.80      4.51      5.79      1.13     -1.83      0.26      6.62      4.41      0.24     -3.04     -0.77      3.67     -7.98      1.38      6.54      0.75     -0.38
      24.610605     -43.380913     191.0      3.14      3.90      60.2         1         3      1000      3658    748.51   -11.258      16.4      37.7   241.039     0.632     403.0   0.10733      27.8         H               192.4  0.056456  0.038596  0.001887  3.196519  0.767881  4.162780  1.129675     51.04   13.9923  216.0713   0.16544   7.21324   0.10676   0.00145 360.65079  13.55054     845.5  0.528280  0.006278  0.000972  0.000217  0.210707  7.284829  0.642755     68.85  1.000138  1.000014     2.718    15.771     137.8      97.0     594.8     954.3     13.16      7.36      4.70      2.75      4.02      5.44      1.21     -2.01      0.52      6.57      4.66      0.34     -1.92      0.14      3.83     -8.30      1.15      4.53      1.29     -0.15
      24.537458     -43.275066     156.4      2.24      3.90      66.0         2         1      2453      1000    512.14   -12.906      12.8      36.9   243.197     0.635     258.9   0.10242      17.0         H               192.4  0.057861  0.037322  0.001336  3.314902  0.744944  4.449867  1.132257     41.85    9.6527  120.3033   0.15680   6.58603   0.14413   0.00300 202.87817   9.77366     579.9  0.535134  0.003330  0.000740  0.000219  0.200474  7.202994  0.645341     71.52  1.000166  1.000015     2.814    17.508     142.7      93.7     269.6     692.0     12.30      5.94      4.29      4.18      4.64      7.00      2.48     -0.60      1.56      6.58      5.17      1.86     -0.71      0.68      3.46     -5.10      2.78      7.97      1.32      0.44
      24.547523     -43.333702     186.7      3.41      3.90      58.0         2         2      2453      2329    689.81   -11.613      15.5      37.3   243.386     0.644     256.6   0.11171      26.2         H               192.4  0.058856  0.046334  0.001654  3.470154  0.763261  4.546482  1.139525     65.59   12.9403  194.1316   0.17257   7.08489   0.11500   0.00172 321.25977  12.63901     786.0  0.533364  0.003721  0.000586  0.000259  0.209692  7.340515  0.656448     69.80  1.000104  1.000011     2.766    16.131     142.7      96.4     507.3     869.2     12.72      7.03      4.49      3.95      4.65      7.26      1.47     -1.66      0.81      7.19      5.21      0.81     -1.22      0.48      4.02     -5.56      2.32      8.11      1.38      0.22
      24.557480     -43.391850     184.8      3.45      3.90      66.8         2         3      2453      3658    649.86   -11.872      15.2      37.7   247.143     0.658     325.3   0.11556      25.5         H               192.4  0.059653  0.048157  0.002393  3.378747  0.768150  4.398552  1.151927     85.56   12.2014  179.0742   0.17646   6.98416   0.12138   0.00196 294.94833  12.00955     748.6  0.542207  0.005397  0.000680  0.000283  0.214144  7.388323  0.671693     71.20  1.000127  1.000015     2.876    17.862     153.8      95.8     454.2     862.0     13.05      6.78      5.43      3.38      4.63      7.64      2.24     -0.82      0.56      7.79      5.74      0.61      0.02      1.21      3.30     -8.26      1.29      8.20      1.72      0.52
      24.484329     -43.286053     158.7      3.09      3.90      67.9         3         1      3906      1000    559.30   -12.524      13.5      36.9   247.419     0.659     393.7   0.11402      17.6         H               192.4  0.058970  0.047950  0.001297  3.570896  0.761744  4.687789  1.153426     82.65   10.5285  142.1580   0.17486   6.73140   0.13647   0.00263 234.60127  10.54064     645.0  0.545041  0.004710  0.001175  0.000279  0.210180  7.379169  0.672082     68.69  1.000181  1.000018     2.908    18.227     153.8      94.4     332.2     771.4     12.52      7.34      6.51      5.50      5.33      6.91      1.43     -0.90      1.47      7.82      6.82      0.81     -0.63      0.94      3.10     -3.00      2.28      4.61      3.12      1.08
      24.494396     -43.344666     202.8      0.84      3.90      61.3         3         2      3906      2329    655.10   -11.837      15.1      37.3   255.649     0.691     961.3   0.12880      32.8         H               192.4  0.061095  0.053954  0.001730  3.579262  0.790085  4.530223  1.184307    102.04   12.2480  186.0389   0.19756   6.97258   0.12419   0.00205 298.57162  12.00617     775.8  0.559580  0.011821  0.002789  0.000313  0.217753  7.452435  0.708080     69.62  1.000137  1.000014     3.006    19.090     166.7      95.5     478.2     922.2     12.92      8.25      6.31      4.59      4.80      6.80      0.82     -1.97      1.27      8.54      6.07      0.33     -1.18      1.01      4.07     -4.12      1.88      5.09      2.13      0.86
      24.504356     -43.402786     169.4      3.67      3.90      66.4         3         3      3906      3658    683.45   -11.653      15.7      37.7   242.985     0.643     230.7   0.11125      20.5         H               192.4  0.056578  0.048693  0.001542  3.273124  0.751362  4.356252  1.138460     99.31   12.8301  191.8262   0.17149   7.07141   0.11568   0.00175 317.85934  12.55642     778.0  0.532796  0.003513  0.000488  0.000305  0.217930  7.440847  0.655629     66.57  1.000087  1.000010     2.749    15.957     148.0      96.3     496.8     863.8     13.12      8.51      5.57      4.45      5.11      7.21      0.15     -2.24     -0.18      8.72      6.49     -0.48     -1.90      0.49      3.59     -4.78      1.49      6.91      2.26      0.35
