corner points
-32.7637558    55.07534409
-32.8363533    54.89844513
-33.08226395    55.11720276
-33.15340042    54.94019318
========== RESULTS WAVE VERSION 16.10.2018 ====================
IMAGE SIZE  X: 5643     Y:4914    col:row     POLARIZATION:VV
COVERAGE    X: 20.7432105km       Y: 20.15791353km 
RESOLUTION dX: 3.675918925m       dY:4.102139505m  
resolution of original product 3.675918925m x 4.102139505m;   raster step x:5999.099686m  
===============================================================
FLAGS: H=HIGH PROBABILITY SEA STATE, I=LAND(ISLAND), O=OUTLIER NO SEA STATE, N=NO WIND AVAILABLE, SEA STATE NOT VISIBLE, M=MEAN PROBABILITY SEA STATE, L= LOW PROBABILITY SEA STATE
Filtering wave length
 integration  Lmin=1m
 integration  Lmax=2200m
  peak        Lmin=100m
               FFT=1024pixels, 3764.14098m 
   mean-Hs (SWH_c)=0.411303978m
         mean-wind=7.420987606m/s
--------------0--------------1---------2---------3---------4---------5---------6---------7---------8---------9--------10--------11--------12--------13--------14--------15--------16--------17--------18--------19------------------20--------21--------22--------23--------24--------25--------26--------27--------28--------29--------30--------31--------32--------33--------34--------35--------36--------37--------38--------39--------40--------41--------42--------43--------44--------45--------46--------47--------48--------49--------50--------51--------52--------53--------54--------55--------56--------57--------58--------59--------60--------61--------62--------63--------64--------65--------66--------67--------68--------69--------70--------71--------72--------73
            LAT            LON  P-LENGHT     SWH_o     SWH_c     P-DIR      LINE     POINT     ROW-Y     COL-X  M-INTENC        dB      WIND INC-ANGLE  ENERGY-M  ENERGY-N  ENERGY-R ENERGY-NN  FG-DEPTH      FLAG         HEADING-DEG    E30-75   E75-390  E390-600 meanincut   meanout   cut/out  STD-NORM  SPEC-MAX   GL-MEAN    GL-VAR      CORR   ENTROPY   HOMOGEN    ENERGY  CONTRAST  DISSIMIL     STD-O    E 1-30 E600-2000   E2000 >      GODA  LONG-HIG     Tmean  CONVOLUT  MEAN-DIR  relation     Sy/Sx  SKEWNESS  KURTOSIS  cutoff-A >50/10000     INT*V   INT-LOG  S-1_g1f1  S-2_g1f2  S-3_g1f3  S-4_g2f1  S-5_g2f2  S-6_g2f3  S-7_g3f1  S-8_g3f2  S-9_g3f3 S-10_g1f4 S-11_g2f4 S-12_g3f4 S-13_g1f5 S-14_g2f5 S-15_g3f5 S-16_g4f1 S-17_g4f2 S-18_g4f3 S-19_g4f4 S-20_g4f5
--------------1--------------2---------3---------4---------5---------6---------7---------8---------9--------10--------11--------12--------13--------14--------15--------16--------17--------18--------19--------20------------------21--------22--------23--------24--------25--------26--------27--------28--------29--------30--------31--------32--------33--------34--------35--------36--------37--------38--------39--------40--------41--------42--------43--------44--------45--------46--------47--------48--------49--------50--------51--------52--------53--------54--------55--------56--------57--------58--------59--------60--------61--------62--------63--------64--------65--------66--------67--------68--------69--------70--------71--------72--------73--------74
      55.047012     -32.836418     138.3      0.64      2.45     113.3         1         1      1000      1000   2864.81    -5.429       8.1      23.3   341.532     0.710      72.0   0.16321      12.8         H               196.3  0.077583  0.042094  0.001000  4.023715  0.937179  4.293433  1.194815     35.69    5.2227   45.1279   0.25655   5.42724   0.24597   0.01086  67.10080   5.30534    3422.8  0.589081  0.001075  0.000018  0.000173  0.187365  7.056966  0.735187    108.98  1.000181  1.000018     3.225    22.804      78.1      85.2      85.6     444.5     11.31     -2.95      1.60      4.36     -2.73      4.02      2.26     -0.73      3.08     -2.58     -3.19     -2.09     -1.58     -0.47      1.10     -2.27     -2.11      3.98     -2.21      0.66
      55.059288     -32.929440     132.1      0.45      2.45     114.1         1         2      1000      2632   2422.33    -6.158       7.4      23.8   343.829     0.716      66.2   0.16571      11.6         H               196.3  0.078176  0.040801  0.001029  4.007007  0.926064  4.326921  1.199908     31.12    4.3657   33.0871   0.25679   5.10199   0.27789   0.01504  49.18129   4.50244    2906.6  0.596011  0.000870  0.000026  0.000168  0.185582  7.036866  0.741301    107.49  1.000191  1.000018     3.323    25.697      76.6      82.2      61.6     407.0     11.41     -2.35      2.04      4.08     -2.61      3.51      2.12     -1.26      2.73     -2.06     -2.44     -2.02     -1.39     -0.47      0.94     -2.63     -2.15      3.14     -1.90      0.68
      55.071274     -33.020817     143.3      0.43      2.45     107.9         1         3      1000      4264   2110.88    -6.755       7.0      24.3   341.940     0.711      72.6   0.16400      13.9         H               196.3  0.078735  0.038498  0.001026  3.811341  0.933942  4.080916  1.196027     20.89    3.7412   25.0417   0.25526   4.82795   0.30621   0.01963  37.29839   3.91295    2524.4  0.592526  0.000909  0.000033  0.000161  0.184726  6.997925  0.735226     93.66  1.000202  1.000020     3.266    23.871      79.7      79.3      46.3     329.8     11.83     -2.37      1.92      3.64     -2.33      3.45      1.16     -0.01      1.35     -1.63     -1.99     -0.83     -1.76     -0.36      1.34     -3.69     -1.64      3.64     -1.25      0.51
      54.994366     -32.857964     120.4      0.46      2.45     111.9         2         1      2462      1000   2739.25    -5.624       7.6      23.3   339.479     0.699      90.0   0.15665       9.4         H               196.3  0.074939  0.038614  0.000756  3.814075  0.913538  4.175058  1.185760     19.27    4.9907   40.9954   0.24929   5.34863   0.25205   0.01161  61.55113   5.09164    3247.9  0.584073  0.001207  0.000079  0.000162  0.184080  7.022991  0.722427    100.28  1.000174  1.000014     3.198    22.494      75.2      84.6      77.9     417.6     11.36     -2.49      1.19      4.19     -1.63      3.58      1.45     -0.16      2.98     -1.37     -2.19     -1.37     -1.66     -0.01      1.60     -1.83     -0.92      3.39     -1.79      1.08
      55.006634     -32.950859     138.3      0.51      2.45     107.2         2         2      2462      2632   2429.31    -6.145       7.4      23.8   346.096     0.724      85.0   0.16880      12.8         H               196.3  0.079201  0.042392  0.000947  4.202850  0.930889  4.514876  1.204095     25.57    4.3753   33.4460   0.25980   5.10453   0.27816   0.01506  49.51321   4.51077    2925.0  0.600306  0.001256  0.000036  0.000173  0.186606  7.038233  0.749504    100.93  1.000199  1.000021     3.352    24.811      81.3      82.1      62.3     392.7     11.72     -2.57      2.09      3.90     -2.70      4.06      1.66     -0.63      2.44     -2.43     -2.71     -1.46     -1.54      0.30      1.52     -2.67     -1.86      4.01     -1.79      1.40
      55.018608     -33.042107     136.5      0.45      2.45     115.0         2         3      2462      4264   2205.41    -6.565       7.4      24.3   345.502     0.722      89.4   0.16789      12.4         H               196.3  0.080502  0.040691  0.001243  4.038649  0.937457  4.308092  1.204839     23.16    3.9205   27.5460   0.25814   4.90861   0.29844   0.01824  40.87041   4.08134    2657.1  0.598898  0.001294  0.000059  0.000163  0.184586  7.009698  0.747069     99.64  1.000206  1.000022     3.373    25.661      79.7      80.2      50.9     364.3     11.79     -2.36      1.79      3.22     -2.00      3.14      1.91     -0.35      2.54     -1.47     -2.40     -1.10     -1.73     -0.84      1.72     -4.60     -1.47      2.36     -2.15     -0.52
      54.941719     -32.879467     234.6      0.48      2.45     141.4         3         1      3924      1000   2806.12    -5.519       7.9      23.3   340.538     0.707      79.9   0.16157      52.9         H               196.3  0.077155  0.039169  0.001105  3.784960  0.912710  4.146949  1.191121     18.36    5.1215   43.4154   0.25383   5.39290   0.24844   0.01119  64.79110   5.21321    3342.0  0.588657  0.001053  0.000050  0.000152  0.187334  7.020216  0.731039    100.82  1.000193  1.000017     3.212    22.649      75.2      85.0      82.2     436.7     11.88     -2.14      0.85      2.98     -2.06      3.16      1.24     -0.23      2.22     -1.27     -1.97     -1.38     -1.87     -0.42      1.15     -4.45     -1.76      3.21     -1.52      0.37
      54.953976     -32.972237     126.0      0.43      2.45     103.9         3         2      3924      2632   2351.02    -6.287       7.1      23.8   343.208     0.714      89.9   0.16452      10.4         H               196.3  0.080373  0.037604  0.000839  3.659592  0.962248  3.803167  1.197595     15.92    4.2192   31.0643   0.25473   5.04203   0.28333   0.01586  46.30219   4.36660    2815.4  0.594002  0.001196  0.000064  0.000153  0.182112  6.975105  0.737679     93.85  1.000207  1.000022     3.289    23.738      76.6      81.6      57.7     359.1     11.68     -1.72      0.67      3.34     -1.90      3.27      0.92      0.08      2.13     -1.16     -1.66     -0.67     -1.42     -0.36      1.54     -3.06     -1.68      3.66     -1.36      0.32
      54.965942     -33.063358     148.3      0.42      2.45     115.1         3         3      3924      4264   2092.15    -6.794       6.9      24.3   341.527     0.710      83.1   0.16332      15.0         H               196.3  0.078891  0.038873  0.000927  3.846968  0.922896  4.168365  1.194893     22.10    3.6982   24.5215   0.25559   4.80774   0.30886   0.02002  36.50840   3.86680    2499.8  0.590820  0.001065  0.000039  0.000168  0.183047  6.984087  0.734235     97.60  1.000189  1.000020     3.264    23.392      79.7      79.2      45.3     313.7     11.76     -2.51      1.56      3.73     -2.21      3.57      1.14     -0.49      2.40     -1.54     -2.64     -1.35     -1.24     -0.23      1.22     -3.08     -1.43      3.16     -2.52      0.48
