corner points
-44.61056137    9.243556023
-44.64809418    9.062783241
-44.7937851    9.281214714
-44.83123398    9.100462914
========== RESULTS WAVE VERSION 16.10.2018 ====================
IMAGE SIZE  X: 5643     Y:4929    col:row     POLARIZATION:VV
COVERAGE    X: 20.49410704km       Y: 20.4709697km 
RESOLUTION dX: 3.631775126m       dY:4.153168939m  
resolution of original product 3.631775126m x 4.153168939m;   raster step x:5999.692509m  
===============================================================
FLAGS: H=HIGH PROBABILITY SEA STATE, I=LAND(ISLAND), O=OUTLIER NO SEA STATE, N=NO WIND AVAILABLE, SEA STATE NOT VISIBLE, M=MEAN PROBABILITY SEA STATE, L= LOW PROBABILITY SEA STATE
Filtering wave length
 integration  Lmin=1m
 integration  Lmax=2200m
  peak        Lmin=100m
               FFT=1024pixels, 3718.937729m 
   mean-Hs (SWH_c)=0.2769279861m
         mean-wind=4.702262878m/s
--------------0--------------1---------2---------3---------4---------5---------6---------7---------8---------9--------10--------11--------12--------13--------14--------15--------16--------17--------18--------19------------------20--------21--------22--------23--------24--------25--------26--------27--------28--------29--------30--------31--------32--------33--------34--------35--------36--------37--------38--------39--------40--------41--------42--------43--------44--------45--------46--------47--------48--------49--------50--------51--------52--------53--------54--------55--------56--------57--------58--------59--------60--------61--------62--------63--------64--------65--------66--------67--------68--------69--------70--------71--------72--------73
            LAT            LON  P-LENGHT     SWH_o     SWH_c     P-DIR      LINE     POINT     ROW-Y     COL-X  M-INTENC        dB      WIND INC-ANGLE  ENERGY-M  ENERGY-N  ENERGY-R ENERGY-NN  FG-DEPTH      FLAG         HEADING-DEG    E30-75   E75-390  E390-600 meanincut   meanout   cut/out  STD-NORM  SPEC-MAX   GL-MEAN    GL-VAR      CORR   ENTROPY   HOMOGEN    ENERGY  CONTRAST  DISSIMIL     STD-O    E 1-30 E600-2000   E2000 >      GODA  LONG-HIG     Tmean  CONVOLUT  MEAN-DIR  relation     Sy/Sx  SKEWNESS  KURTOSIS  cutoff-A >50/10000     INT*V   INT-LOG  S-1_g1f1  S-2_g1f2  S-3_g1f3  S-4_g2f1  S-5_g2f2  S-6_g2f3  S-7_g3f1  S-8_g3f2  S-9_g3f3 S-10_g1f4 S-11_g2f4 S-12_g3f4 S-13_g1f5 S-14_g2f5 S-15_g3f5 S-16_g4f1 S-17_g4f2 S-18_g4f3 S-19_g4f4 S-20_g4f5
--------------1--------------2---------3---------4---------5---------6---------7---------8---------9--------10--------11--------12--------13--------14--------15--------16--------17--------18--------19--------20------------------21--------22--------23--------24--------25--------26--------27--------28--------29--------30--------31--------32--------33--------34--------35--------36--------37--------38--------39--------40--------41--------42--------43--------44--------45--------46--------47--------48--------49--------50--------51--------52--------53--------54--------55--------56--------57--------58--------59--------60--------61--------62--------63--------64--------65--------66--------67--------68--------69--------70--------71--------72--------73--------74
       9.213728     -44.651485     134.9      0.30      1.80      52.9         1         1      1000      1000   1719.39    -7.646       4.7      23.7   427.521     0.701      65.2   0.15508      12.1         H               192.0  0.078400  0.045219  0.000640  4.592705  0.865882  5.304075  1.186818     22.75    2.9648   16.4849   0.25355   4.42255   0.35490   0.02957  24.61037   3.16238    2040.6  0.576288  0.000793  0.000032  0.000179  0.173639  7.042823  0.736048     77.53  1.000154  1.000015     3.081    20.009      71.1      74.5      30.4     232.6     10.65     -0.20     -1.75      4.76      2.09      2.57      1.44      3.18      3.49      2.45      1.43      1.26     -2.63     -2.51      0.30     -0.71      2.57      4.34      0.60     -0.82
       9.224876     -44.705692     127.9      0.31      1.80      59.3         1         2      1000      2652   1569.45    -8.043       4.8      24.2   427.289     0.703      72.1   0.15633      10.8         H               192.0  0.079459  0.044129  0.000879  4.377646  0.894228  4.895449  1.189028     24.03    2.6668   13.7547   0.25375   4.24166   0.37746   0.03514  20.52886   2.87446    1865.9  0.578332  0.000949  0.000032  0.000179  0.174410  7.018831  0.738521     80.33  1.000148  1.000014     3.137    21.285      72.4      72.3      25.5     223.1     10.80     -0.18     -1.70      4.16      1.93      3.00      1.91      2.77      3.63      2.82      1.26      1.83     -1.54     -1.97      0.46     -2.06      2.77      5.41     -0.34     -1.02
       9.235818     -44.758930     131.7      0.31      1.80      58.2         1         3      1000      4304   1400.58    -8.537       4.8      24.7   431.099     0.706      67.1   0.15610      11.5         H               192.0  0.078966  0.044708  0.000713  4.490083  0.888620  5.052874  1.192768     24.88    2.3303   10.9541   0.25110   4.01505   0.40658   0.04388  16.40702   2.55333    1670.4  0.581389  0.000812  0.000033  0.000180  0.175748  7.042676  0.740644     81.17  1.000164  1.000017     3.156    21.233      73.8      69.2      20.4     198.7     10.66     -0.01     -1.17      4.70      1.95      2.94      1.70      3.00      3.99      2.70      1.77      1.61     -2.07     -1.64      0.96     -0.71      2.41      4.41      0.78     -0.63
       9.160759     -44.662476     125.2      0.31      1.80      53.9         2         1      2444      1000   1749.72    -7.570       4.8      23.7   431.699     0.710      73.9   0.15876      10.3         H               192.0  0.080056  0.046790  0.000830  4.682345  0.874876  5.352008  1.195100     22.15    3.0218   17.2354   0.25672   4.45283   0.35267   0.02897  25.62154   3.21513    2091.1  0.581878  0.000934  0.000038  0.000180  0.172079  7.035911  0.746221     77.74  1.000141  1.000014     3.163    21.619      69.9      74.8      31.7     261.2     10.73     -0.15     -2.13      4.11      2.46      2.65      1.66      2.91      3.51      2.85      1.17      1.43     -1.93     -2.04      0.08     -1.78      3.24      4.82     -0.42     -0.91
       9.171910     -44.716679     138.1      0.36      1.80      58.7         2         2      2444      2652   1519.44    -8.183       4.7      24.2   432.659     0.712      75.7   0.15975      12.8         H               192.0  0.080232  0.048790  0.000782  4.823749  0.892396  5.405392  1.195249     26.78    2.5724   13.0732   0.25770   4.17811   0.38686   0.03780  19.40855   2.78243    1816.0  0.581769  0.000952  0.000040  0.000182  0.176193  7.058266  0.748498     76.06  1.000143  1.000014     3.199    22.295      71.1      71.3      24.2     221.0     10.62      0.19     -1.85      4.61      2.27      3.16      1.78      3.22      3.76      2.75      1.85      1.91     -2.30     -2.44      0.55     -0.82      2.95      5.57      0.94     -1.19
       9.182852     -44.769909     186.6      0.30      1.80     146.5         2         3      2444      4304   1350.42    -8.695       4.6      24.7   433.429     0.715      67.3   0.16090      26.2         H               192.0  0.081245  0.047129  0.000730  4.757248  0.906452  5.248205  1.199685     26.58    2.2349   10.3086   0.25666   3.94302   0.41777   0.04751  15.32565   2.45597    1620.1  0.585226  0.000770  0.000035  0.000174  0.177077  7.067393  0.751122     80.14  1.000136  1.000013     3.241    23.556      71.1      68.0      19.1     213.6     10.73     -0.32     -1.83      4.65      2.22      2.74      1.35      3.12      3.46      2.56      1.78      1.12     -2.74     -2.45      0.55     -0.92      3.01      5.00      1.16     -0.81
       9.107790     -44.673470     175.3      0.36      1.80     145.5         3         1      3888      1000   1672.99    -7.765       4.6      23.7   432.431     0.714      58.5   0.16064      22.3         H               192.0  0.080402  0.048846  0.000906  4.832219  0.886776  5.449198  1.196938     32.19    2.8737   15.8525   0.25887   4.36594   0.36278   0.03149  23.49755   3.07252    2002.4  0.583233  0.000647  0.000016  0.000176  0.175435  7.069320  0.750458     83.16  1.000125  1.000011     3.168    21.450      68.7      73.7      29.2     261.4     10.77     -0.53     -2.65      4.06      1.77      2.51      1.40      2.99      3.68      2.93      1.49      0.84     -1.99     -2.15      0.17     -2.03      2.49      5.24      0.34     -1.24
       9.118943     -44.727665     175.3      0.34      1.80     145.5         3         2      3888      2652   1555.37    -8.082       4.8      24.2   431.756     0.711      83.9   0.15926      22.3         H               192.0  0.079382  0.047797  0.000845  4.747324  0.878866  5.401646  1.196340     26.88    2.6280   13.5468   0.25681   4.21443   0.38206   0.03650  20.13574   2.83694    1860.6  0.582623  0.001101  0.000055  0.000175  0.176999  7.059027  0.747703     82.40  1.000147  1.000014     3.214    22.926      72.4      71.7      25.0     233.7     10.94     -0.90     -2.09      4.14      1.71      2.67      1.09      3.11      4.05      2.81      1.29      0.55     -1.95     -2.08      0.62     -1.80      2.65      4.28      0.41     -1.29
       9.129887     -44.780888     141.7      0.29      1.80      53.1         3         3      3888      4304   1324.56    -8.779       4.5      24.7   427.006     0.698      64.8   0.15331      13.5         H               192.0  0.077699  0.045298  0.000843  4.454925  0.864141  5.155320  1.184444     22.26    2.1882    9.7252   0.25084   3.91231   0.42057   0.04843  14.57127   2.40999    1568.8  0.573541  0.000770  0.000030  0.000171  0.176454  7.058120  0.732615     78.64  1.000126  1.000012     3.057    19.841      69.9      67.8      18.3     187.5     10.66      0.21     -2.36      4.41      1.98      2.66      1.48      2.56      3.83      2.15      1.46      1.48     -1.78     -2.24     -0.12     -1.49      2.77      5.15      0.40     -1.22
