corner points
-44.24118042    11.0165081
-44.27881622    10.83576393
-44.42539978    11.05397606
-44.46292496    10.87325096
========== RESULTS WAVE VERSION 16.10.2018 ====================
IMAGE SIZE  X: 5643     Y:4929    col:row     POLARIZATION:VV
COVERAGE    X: 20.48701086km       Y: 20.46541744km 
RESOLUTION dX: 3.630517607m       dY:4.152042492m  
resolution of original product 3.630517607m x 4.152042492m;   raster step x:5997.615088m  
===============================================================
FLAGS: H=HIGH PROBABILITY SEA STATE, I=LAND(ISLAND), O=OUTLIER NO SEA STATE, N=NO WIND AVAILABLE, SEA STATE NOT VISIBLE, M=MEAN PROBABILITY SEA STATE, L= LOW PROBABILITY SEA STATE
Filtering wave length
 integration  Lmin=1m
 integration  Lmax=2200m
  peak        Lmin=100m
               FFT=1024pixels, 3717.65003m 
   mean-Hs (SWH_c)=0.2087635612m
         mean-wind=4.641769409m/s
--------------0--------------1---------2---------3---------4---------5---------6---------7---------8---------9--------10--------11--------12--------13--------14--------15--------16--------17--------18--------19------------------20--------21--------22--------23--------24--------25--------26--------27--------28--------29--------30--------31--------32--------33--------34--------35--------36--------37--------38--------39--------40--------41--------42--------43--------44--------45--------46--------47--------48--------49--------50--------51--------52--------53--------54--------55--------56--------57--------58--------59--------60--------61--------62--------63--------64--------65--------66--------67--------68--------69--------70--------71--------72--------73
            LAT            LON  P-LENGHT     SWH_o     SWH_c     P-DIR      LINE     POINT     ROW-Y     COL-X  M-INTENC        dB      WIND INC-ANGLE  ENERGY-M  ENERGY-N  ENERGY-R ENERGY-NN  FG-DEPTH      FLAG         HEADING-DEG    E30-75   E75-390  E390-600 meanincut   meanout   cut/out  STD-NORM  SPEC-MAX   GL-MEAN    GL-VAR      CORR   ENTROPY   HOMOGEN    ENERGY  CONTRAST  DISSIMIL     STD-O    E 1-30 E600-2000   E2000 >      GODA  LONG-HIG     Tmean  CONVOLUT  MEAN-DIR  relation     Sy/Sx  SKEWNESS  KURTOSIS  cutoff-A >50/10000     INT*V   INT-LOG  S-1_g1f1  S-2_g1f2  S-3_g1f3  S-4_g2f1  S-5_g2f2  S-6_g2f3  S-7_g3f1  S-8_g3f2  S-9_g3f3 S-10_g1f4 S-11_g2f4 S-12_g3f4 S-13_g1f5 S-14_g2f5 S-15_g3f5 S-16_g4f1 S-17_g4f2 S-18_g4f3 S-19_g4f4 S-20_g4f5
--------------1--------------2---------3---------4---------5---------6---------7---------8---------9--------10--------11--------12--------13--------14--------15--------16--------17--------18--------19--------20------------------21--------22--------23--------24--------25--------26--------27--------28--------29--------30--------31--------32--------33--------34--------35--------36--------37--------38--------39--------40--------41--------42--------43--------44--------45--------46--------47--------48--------49--------50--------51--------52--------53--------54--------55--------56--------57--------58--------59--------60--------61--------62--------63--------64--------65--------66--------67--------68--------69--------70--------71--------72--------73--------74
      10.986652     -44.282307     118.1      0.30      1.74      67.1         1         1      1000      1000   1685.99    -7.731       4.6      23.8   426.719     0.696      95.1   0.15273       9.1         H               192.0  0.074707  0.045178  0.000786  4.460189  0.885901  5.034636  1.183290     27.39    2.8954   15.6751   0.24967   4.38386   0.35934   0.03055  23.52320   3.09493    1995.0  0.574380  0.001408  0.000059  0.000195  0.175888  7.054175  0.729800     68.96  1.000074  1.000006     3.129    21.969      68.7      74.1      29.1     257.3     10.73      1.44     -2.53      4.07      3.56      3.28      2.14      2.69      3.10      2.47      1.48      2.33     -1.84     -3.65     -0.68     -2.20      3.75      6.09      0.77     -2.84
      10.997746     -44.336803     119.4      0.31      1.74      68.6         1         2      1000      2652   1591.03    -7.983       4.9      24.2   424.994     0.695     105.0   0.15342       9.3         H               192.0  0.075204  0.040681  0.000793  4.027851  0.892752  4.511725  1.181754     23.50    2.7111   13.9722   0.24848   4.27291   0.37182   0.03372  21.00077   2.92059    1880.1  0.577434  0.001627  0.000067  0.000176  0.174187  7.001629  0.728370     73.03  1.000125  1.000012     3.174    23.170      71.1      72.8      26.1     247.4     10.91      1.00     -2.09      3.79      2.27      3.14      1.73      1.88      2.86      2.03      1.26      1.75     -1.98     -2.81      0.14     -2.76      2.61      5.73      0.89     -1.75
      11.008630     -44.390327     119.0      0.31      1.74      59.8         1         3      1000      4304   1402.44    -8.531       4.8      24.7   419.667     0.680      75.5   0.14672       9.2         H               192.0  0.072861  0.039191  0.000798  3.935436  0.879478  4.474741  1.168111     24.16    2.3421   10.6368   0.24223   4.03101   0.40212   0.04211  16.12049   2.55987    1638.1  0.566348  0.001045  0.000043  0.000178  0.173591  7.013536  0.711263     70.91  1.000118  1.000012     3.078    21.681      69.9      69.8      20.1     213.2     10.82      1.22     -1.72      3.95      2.11      3.23      2.10      2.00      2.62      2.02      1.39      2.02     -2.01     -2.98      0.04     -2.65      2.27      5.92      0.62     -2.14
      10.933655     -44.293335     109.7      0.29      1.74      62.3         2         1      2445      1000   1622.46    -7.898       4.5      23.8   427.216     0.698      78.8   0.15355       7.7         H               192.0  0.075663  0.039440  0.000888  3.937275  0.912774  4.313526  1.183153     22.19    2.7796   14.6402   0.24828   4.31498   0.36703   0.03239  22.01074   2.98690    1919.6  0.580976  0.001137  0.000040  0.000175  0.169776  6.975544  0.730914     71.50  1.000113  1.000010     3.156    21.944      66.4      73.4      27.2     239.9     10.58      0.86     -2.07      4.03      2.77      2.52      2.33      1.98      2.48      2.02      1.50      2.11     -2.16     -3.04     -0.28     -2.91      3.65      5.31      0.41     -1.97
      10.944751     -44.347828     115.9      0.30      1.74      69.2         2         2      2445      2652   1513.13    -8.201       4.6      24.2   427.291     0.698      69.6   0.15360       8.7         H               192.0  0.074491  0.043492  0.000713  4.152119  0.891346  4.658256  1.184777     31.74    2.5605   12.6985   0.24782   4.17519   0.38490   0.03733  19.10318   2.77481    1792.6  0.578847  0.000857  0.000036  0.000190  0.176794  7.043059  0.730942     69.99  1.000118  1.000011     3.200    23.535      68.7      71.4      23.8     231.9     10.56      1.10     -1.85      4.54      2.95      3.16      2.14      2.56      3.21      2.59      1.92      2.04     -2.07     -3.32     -0.34     -1.21      3.21      5.31      1.18     -2.20
      10.955636     -44.401340     131.0      0.28      1.74      66.4         2         3      2445      4304   1247.69    -9.039       4.3      24.7   426.995     0.696     104.9   0.15299      11.4         H               192.0  0.074543  0.043964  0.001133  4.249760  0.895710  4.744574  1.184243     30.40    2.0306    8.5573   0.24831   3.79194   0.43615   0.05400  12.86483   2.25828    1477.6  0.575557  0.001495  0.000063  0.000190  0.176749  7.063657  0.729791     71.11  1.000097  1.000009     3.147    21.920      68.7      66.1      16.2     174.3     10.92      0.99     -2.54      3.49      2.85      3.91      2.54      2.53      2.85      2.72      2.09      2.25     -1.15     -2.73      0.04     -4.01      3.50      7.90      1.07     -2.34
      10.880658     -44.304363     125.9      0.31      1.74      61.7         3         1      3890      1000   1733.29    -7.611       4.8      23.8   429.546     0.704      61.2   0.15577      10.4         H               192.0  0.076411  0.043366  0.000829  4.382019  0.897634  4.881746  1.187777     26.30    2.9873   16.7272   0.25153   4.43606   0.35294   0.02908  25.03934   3.18739    2058.6  0.582866  0.000661  0.000030  0.000190  0.172101  7.035604  0.738100     71.24  1.000113  1.000010     3.124    20.957      69.9      74.7      30.9     250.1     10.64      0.76     -1.76      4.50      2.61      2.80      2.08      2.13      2.77      2.20      1.71      1.64     -2.31     -3.37     -0.63     -1.93      3.49      5.03      0.88     -2.37
      10.891754     -44.358845     131.7      0.30      1.74      62.3         3         2      3890      2652   1548.93    -8.100       4.7      24.2   424.445     0.696      81.6   0.15412      11.5         H               192.0  0.075110  0.042404  0.000833  4.220592  0.892114  4.731002  1.182593     25.39    2.6171   13.1817   0.25023   4.21177   0.38047   0.03601  19.76653   2.82698    1831.7  0.576994  0.001071  0.000048  0.000185  0.176667  7.044857  0.729558     72.65  1.000116  1.000010     3.092    20.495      71.1      72.0      24.6     214.9     10.87      0.72     -1.85      4.17      2.39      3.37      1.94      2.24      2.80      2.11      1.42      2.12     -2.21     -3.24      0.25     -2.51      2.94      5.87      0.82     -2.08
      10.902642     -44.412350     110.4      0.29      1.74      67.1         3         3      3890      4304   1320.70    -8.792       4.5      24.7   428.631     0.701      57.9   0.15474       7.8         H               192.0  0.075672  0.042704  0.000932  4.187868  0.878298  4.768164  1.184768     22.98    2.1811    9.7058   0.24766   3.90792   0.42036   0.04836  14.60403   2.40845    1564.6  0.581333  0.000680  0.000017  0.000180  0.175452  7.030359  0.733973     72.68  1.000102  1.000010     3.159    22.336      68.7      67.7      18.3     206.4     10.96      0.80     -2.49      3.62      2.91      3.51      2.02      1.99      2.72      2.37      1.31      1.92     -1.83     -3.01     -0.04     -3.35      3.62      6.76      0.06     -2.37
