corner points
63.96235657    -46.4739151
63.8869133    -46.64914322
63.69442368    -46.41686249
63.61800766    -46.59191132
========== RESULTS WAVE VERSION 16.10.2018 ====================
IMAGE SIZE  X: 5635     Y:4907    col:row     POLARIZATION:VV
COVERAGE    X: 21.44525723km       Y: 20.27680861km 
RESOLUTION dX: 3.805724442m       dY:4.132221034m  
resolution of original product 3.805724442m x 4.132221034m;   raster step x:5997.82172m  
===============================================================
FLAGS: H=HIGH PROBABILITY SEA STATE, I=LAND(ISLAND), O=OUTLIER NO SEA STATE, N=NO WIND AVAILABLE, SEA STATE NOT VISIBLE, M=MEAN PROBABILITY SEA STATE, L= LOW PROBABILITY SEA STATE
Filtering wave length
 integration  Lmin=1m
 integration  Lmax=2200m
  peak        Lmin=100m
               FFT=1024pixels, 3897.061829m 
   mean-Hs (SWH_c)=3.257716675m
         mean-wind=13.44917679m/s
--------------0--------------1---------2---------3---------4---------5---------6---------7---------8---------9--------10--------11--------12--------13--------14--------15--------16--------17--------18--------19------------------20--------21--------22--------23--------24--------25--------26--------27--------28--------29--------30--------31--------32--------33--------34--------35--------36--------37--------38--------39--------40--------41--------42--------43--------44--------45--------46--------47--------48--------49--------50--------51--------52--------53--------54--------55--------56--------57--------58--------59--------60--------61--------62--------63--------64--------65--------66--------67--------68--------69--------70--------71--------72--------73
            LAT            LON  P-LENGHT     SWH_o     SWH_c     P-DIR      LINE     POINT     ROW-Y     COL-X  M-INTENC        dB      WIND INC-ANGLE  ENERGY-M  ENERGY-N  ENERGY-R ENERGY-NN  FG-DEPTH      FLAG         HEADING-DEG    E30-75   E75-390  E390-600 meanincut   meanout   cut/out  STD-NORM  SPEC-MAX   GL-MEAN    GL-VAR      CORR   ENTROPY   HOMOGEN    ENERGY  CONTRAST  DISSIMIL     STD-O    E 1-30 E600-2000   E2000 >      GODA  LONG-HIG     Tmean  CONVOLUT  MEAN-DIR  relation     Sy/Sx  SKEWNESS  KURTOSIS  cutoff-A >50/10000     INT*V   INT-LOG  S-1_g1f1  S-2_g1f2  S-3_g1f3  S-4_g2f1  S-5_g2f2  S-6_g2f3  S-7_g3f1  S-8_g3f2  S-9_g3f3 S-10_g1f4 S-11_g2f4 S-12_g3f4 S-13_g1f5 S-14_g2f5 S-15_g3f5 S-16_g4f1 S-17_g4f2 S-18_g4f3 S-19_g4f4 S-20_g4f5
--------------1--------------2---------3---------4---------5---------6---------7---------8---------9--------10--------11--------12--------13--------14--------15--------16--------17--------18--------19--------20------------------21--------22--------23--------24--------25--------26--------27--------28--------29--------30--------31--------32--------33--------34--------35--------36--------37--------38--------39--------40--------41--------42--------43--------44--------45--------46--------47--------48--------49--------50--------51--------52--------53--------54--------55--------56--------57--------58--------59--------60--------61--------62--------63--------64--------65--------66--------67--------68--------69--------70--------71--------72--------73--------74
     -46.499260      63.898026     175.1      3.21      3.96      70.7         1         1      1000      1000   5006.30    -3.005      13.3      22.6   280.069     0.847     115.3   0.21981      22.3         H               194.6  0.100852  0.092018  0.002174  6.810527  1.022844  6.658422  1.305191    112.72    9.2997  134.0582   0.30249   6.43176   0.17152   0.00432 187.01428   8.97560    6534.1  0.651697  0.001209  0.000016  0.000289  0.209815  7.381270  0.897538     79.29  1.000318  1.000047     3.886    33.617     137.8      91.7     310.7     942.1     12.95      0.08      7.73      5.87      2.02      9.10      1.09      1.65      1.56      2.01      2.43      1.55      1.85      4.49      3.63     -2.42      1.08      6.73      0.52      3.16
     -46.483131      63.822090     175.8      3.09      3.96      82.8         1         2      1000      2576   4762.38    -3.222      13.9      23.1   278.751     0.841     109.4   0.21869      22.5         H               194.6  0.102596  0.088166  0.001900  6.681369  1.033078  6.467440  1.299901    116.08    8.8426  123.6819   0.30009   6.34403   0.17759   0.00473 173.13289   8.59073    6190.1  0.647717  0.001080  0.000017  0.000294  0.208449  7.330124  0.889704     81.52  1.000320  1.000047     3.784    30.497     137.8      91.2     278.1     873.8     13.04      0.40      7.96      5.88      2.22      8.97      0.67      1.34      1.28      2.24      2.75      1.42      2.39      4.80      3.43     -2.17      1.32      6.31      0.83      2.90
     -46.467255      63.747635     168.9      3.14      3.96      85.4         1         3      1000      4152   4526.52    -3.442      14.4      23.5   278.707     0.839     101.0   0.21653      20.4         H               194.6  0.101540  0.087636  0.001550  6.771750  1.007795  6.719373  1.299005    130.14    8.4114  113.5427   0.29763   6.25607   0.18461   0.00520 159.49872   8.20779    5879.8  0.647862  0.000896  0.000016  0.000306  0.207768  7.342433  0.886872     83.50  1.000333  1.000051     3.901    34.076     137.8      90.6     249.6     835.4     12.73      0.55      7.92      6.47      1.85      9.49      1.33      1.84      2.56      2.03      2.86      1.75      2.68      5.41      4.15     -0.77      0.77      6.51      1.76      3.51
     -46.551113      63.875660     155.5      3.06      3.96      85.8         2         1      2452      1000   4919.04    -3.081      13.0      22.6   279.909     0.854     105.7   0.22529      16.7         H               194.6  0.104145  0.090569  0.001838  6.749845  1.027464  6.569424  1.309539    125.24    9.1260  130.9501   0.30524   6.39475   0.17494   0.00453 181.95856   8.81783    6441.0  0.656867  0.000988  0.000016  0.000302  0.206954  7.332857  0.904896     82.69  1.000355  1.000054     3.867    33.173     137.8      91.5     300.6     916.3     12.63      0.14      7.91      6.42      1.66      9.32      1.77      1.57      2.86      1.83      2.47      1.71      2.21      5.60      4.14     -0.96      1.06      6.48      1.18      4.49
     -46.534969      63.799644     167.3      3.24      3.96      80.9         2         2      2452      2576   4635.98    -3.339      13.5      23.1   280.418     0.853     114.5   0.22387      19.9         H               194.6  0.102673  0.093645  0.001830  6.710217  1.030986  6.508543  1.309931    132.66    8.6069  119.3010   0.30468   6.29023   0.18305   0.00509 165.90375   8.36198    6072.5  0.654383  0.001060  0.000020  0.000294  0.211479  7.383862  0.903390     81.41  1.000300  1.000046     3.888    32.971     142.7      90.7     265.5     838.3     12.95      0.06      8.02      6.03      1.61      9.27      0.82      1.71      1.58      1.72      2.02      1.36      2.35      5.14      3.46     -1.69      0.69      6.27      0.93      3.32
     -46.519081      63.725113     174.7      3.57      3.96      80.5         2         3      2452      4152   4399.81    -3.566      13.9      23.5   286.888     0.883     128.8   0.23668      22.1         H               194.6  0.107244  0.102904  0.002191  7.086952  1.045031  6.781574  1.330502    178.62    8.1641  112.0793   0.31513   6.18336   0.19346   0.00588 153.51923   7.95491    5853.7  0.669743  0.001346  0.000016  0.000349  0.213770  7.425321  0.937433     80.67  1.000363  1.000059     3.982    35.209     148.0      89.7     245.0     847.6     13.13      0.88      8.93      6.40      2.21     10.07      1.22      1.33      1.73      3.08      3.09      1.14      3.51      6.16      3.43     -2.05      0.94      6.15      0.79      3.48
     -46.602962      63.853260     168.9      3.51      3.96      85.4         3         1      3904      1000   4861.75    -3.132      12.8      22.6   287.131     0.887     125.9   0.24003      20.4         H               194.6  0.106325  0.104155  0.002223  7.019883  1.064307  6.595732  1.336091    181.76    9.0158  130.8861   0.31414   6.36200   0.17929   0.00480 179.53888   8.70395    6494.8  0.673805  0.001148  0.000018  0.000328  0.215507  7.452590  0.942126     83.19  1.000348  1.000056     4.103    37.429     142.7      91.1     302.0     941.8     12.97      0.34      8.34      6.47      1.64     10.04      1.50      1.31      2.28      1.78      2.19      1.27      2.60      6.02      4.05     -1.82      0.59      6.62      0.59      4.00
     -46.586803      63.777161     167.3      3.26      3.96      80.9         3         2      3904      2576   4529.01    -3.440      13.1      23.0   289.013     0.893     131.8   0.24086      19.9         H               194.6  0.110894  0.099406  0.002185  7.244943  1.072589  6.754633  1.339453    118.43    8.3842  117.4461   0.31506   6.22985   0.18968   0.00558 160.88773   8.16238    6066.3  0.679543  0.001358  0.000033  0.000313  0.207099  7.374188  0.947217     83.40  1.000362  1.000059     4.120    38.609     148.0      90.0     260.9     912.6     12.76      0.21      7.91      5.99      1.59      9.45      1.78      1.28      2.69      1.67      2.07      1.19      2.35      5.72      4.04     -1.67      0.82      7.01      0.96      5.22
     -46.570900      63.702549     161.9      3.23      3.96      85.6         3         3      3904      4152   4151.16    -3.818      13.1      23.5   286.805     0.884     123.3   0.23827      18.4         H               194.6  0.109385  0.098404  0.002384  7.322837  1.050324  6.971981  1.332236    146.55    7.6802  101.4712   0.31408   6.07415   0.20193   0.00652 139.20122   7.52994    5530.1  0.673323  0.001251  0.000019  0.000322  0.209626  7.378071  0.937904     83.22  1.000364  1.000060     4.004    33.986     148.0      89.0     216.5     787.7     12.72      0.43      8.36      6.33      1.39     10.01      2.21      1.27      2.82      2.16      2.00      0.81      3.28      6.24      4.18     -1.94      0.11      6.96      0.44      4.38
