corner points
54.93304062    -56.90488815
54.80429459    -57.06789017
54.61809921    -56.82933044
54.48815918    -56.99201965
========== RESULTS WAVE VERSION 16.10.2018 ====================
IMAGE SIZE  X: 4476     Y:4769    col:row     POLARIZATION:VV
COVERAGE    X: 20.85907063km       Y: 19.68949473km 
RESOLUTION dX: 4.660203448m       dY:4.128642216m  
resolution of original product 4.660203448m x 4.128642216m;   raster step x:5997.681837m  
===============================================================
FLAGS: H=HIGH PROBABILITY SEA STATE, I=LAND(ISLAND), O=OUTLIER NO SEA STATE, N=NO WIND AVAILABLE, SEA STATE NOT VISIBLE, M=MEAN PROBABILITY SEA STATE, L= LOW PROBABILITY SEA STATE
Filtering wave length
 integration  Lmin=1m
 integration  Lmax=2200m
  peak        Lmin=100m
               FFT=1024pixels, 4772.048331m 
   mean-Hs (SWH_c)=3.56358551m
         mean-wind=10.2584362m/s
--------------0--------------1---------2---------3---------4---------5---------6---------7---------8---------9--------10--------11--------12--------13--------14--------15--------16--------17--------18--------19------------------20--------21--------22--------23--------24--------25--------26--------27--------28--------29--------30--------31--------32--------33--------34--------35--------36--------37--------38--------39--------40--------41--------42--------43--------44--------45--------46--------47--------48--------49--------50--------51--------52--------53--------54--------55--------56--------57--------58--------59--------60--------61--------62--------63--------64--------65--------66--------67--------68--------69--------70--------71--------72--------73
            LAT            LON  P-LENGHT     SWH_o     SWH_c     P-DIR      LINE     POINT     ROW-Y     COL-X  M-INTENC        dB      WIND INC-ANGLE  ENERGY-M  ENERGY-N  ENERGY-R ENERGY-NN  FG-DEPTH      FLAG         HEADING-DEG    E30-75   E75-390  E390-600 meanincut   meanout   cut/out  STD-NORM  SPEC-MAX   GL-MEAN    GL-VAR      CORR   ENTROPY   HOMOGEN    ENERGY  CONTRAST  DISSIMIL     STD-O    E 1-30 E600-2000   E2000 >      GODA  LONG-HIG     Tmean  CONVOLUT  MEAN-DIR  relation     Sy/Sx  SKEWNESS  KURTOSIS  cutoff-A >50/10000     INT*V   INT-LOG  S-1_g1f1  S-2_g1f2  S-3_g1f3  S-4_g2f1  S-5_g2f2  S-6_g2f3  S-7_g3f1  S-8_g3f2  S-9_g3f3 S-10_g1f4 S-11_g2f4 S-12_g3f4 S-13_g1f5 S-14_g2f5 S-15_g3f5 S-16_g4f1 S-17_g4f2 S-18_g4f3 S-19_g4f4 S-20_g4f5
--------------1--------------2---------3---------4---------5---------6---------7---------8---------9--------10--------11--------12--------13--------14--------15--------16--------17--------18--------19--------20------------------21--------22--------23--------24--------25--------26--------27--------28--------29--------30--------31--------32--------33--------34--------35--------36--------37--------38--------39--------40--------41--------42--------43--------44--------45--------46--------47--------48--------49--------50--------51--------52--------53--------54--------55--------56--------57--------58--------59--------60--------61--------62--------63--------64--------65--------66--------67--------68--------69--------70--------71--------72--------73--------74
     -56.922047      54.834713     314.6      3.55      4.44      81.4         1         1      1000      1000    420.68   -13.760      10.2      35.6   329.076     0.672     178.6   0.11734     100.0         H               197.6  0.059657  0.065059  0.001829  4.646502  0.790500  5.877927  1.162873    157.45    7.8765   88.0257   0.17932   6.20510   0.17160   0.00458 144.48135   8.07309     489.2  0.543639  0.001679  0.000273  0.000257  0.233791  7.572108  0.688669     86.13  1.000439  1.000049     3.068    20.901     200.3      91.4     184.7     623.8     15.53      3.54     13.99      0.24     -1.30      1.48     -1.39     -2.39     -2.09      5.63     -2.05     -3.85      8.21      0.78     -0.37     -6.80     -2.41     -2.28     -3.87     -1.56
     -56.900238      54.743645     314.6      3.38      4.44      81.4         1         2      1000      2287    373.15   -14.281       9.7      36.0   327.064     0.663     179.1   0.11317     100.0         H               197.6  0.057484  0.062968  0.001954  4.365269  0.782544  5.578308  1.155969    158.90    6.9533   70.4433   0.17477   5.97797   0.18819   0.00575 116.26396   7.19664     431.2  0.539330  0.001623  0.000324  0.000247  0.233936  7.577164  0.679370     87.45  1.000464  1.000051     3.025    20.726     200.3      89.8     142.8     558.7     15.60      3.66     14.25     -0.07     -1.45      1.12     -1.38     -2.10     -2.52      5.45     -1.89     -3.35      8.73      0.43     -0.73     -7.45     -3.22     -2.51     -4.28     -2.04
     -56.878563      54.653503     295.3      3.58      4.44      82.0         1         3      1000      3574    371.64   -14.299      10.0      36.3   331.329     0.679     370.0   0.12038     100.0         H               197.6  0.059409  0.066082  0.002419  4.658116  0.788359  5.908621  1.170318    175.19    6.9168   71.0834   0.18530   5.96322   0.19027   0.00591 115.82240   7.15336     434.9  0.546929  0.003698  0.000840  0.000258  0.236548  7.585800  0.697449     87.11  1.000484  1.000054     3.124    21.378     210.9      89.6     143.8     550.3     16.04      3.89     14.78     -0.96     -1.68      0.01     -1.78     -2.53     -2.88      4.80     -1.68     -4.10      9.03     -0.48     -1.17     -9.01     -3.51     -4.38     -2.91     -3.07
     -56.971706      54.795441     275.3      3.52      4.44      78.7         2         1      2453      1000    431.36   -13.652      10.4      35.6   326.485     0.662     193.8   0.11403     100.0         H               197.6  0.057457  0.062836  0.002077  4.486515  0.777174  5.772858  1.154587    145.35    8.0893   91.6494   0.17692   6.25563   0.16821   0.00435 150.87070   8.26641     498.0  0.537354  0.002217  0.000330  0.000253  0.233542  7.577053  0.677825     81.34  1.000378  1.000042     2.936    18.418     200.3      91.8     193.2     603.0     15.48      4.38     13.67      0.53     -1.13      1.97     -2.05     -2.87     -3.47      6.37     -1.29     -4.61      7.59      1.10     -1.17     -7.26     -2.71     -1.26     -3.09     -0.89
     -56.949871      54.704266     291.8      3.42      4.44      78.0         2         2      2453      2287    395.30   -14.031      10.1      36.0   326.478     0.663     155.7   0.11429     100.0         H               197.6  0.058236  0.062700  0.002025  4.331905  0.774799  5.591008  1.155099    165.85    7.3862   78.1748   0.17664   6.08892   0.17972   0.00513 128.73366   7.60150     456.6  0.538502  0.001463  0.000208  0.000249  0.236878  7.575011  0.678745     87.52  1.000448  1.000050     3.004    19.893     190.7      90.6     160.7     577.2     15.80      3.90     14.06     -0.30     -1.71      1.10     -2.02     -2.55     -3.43      5.44     -2.35     -4.30      8.38      0.27     -1.30     -7.72     -3.72     -1.65     -4.53     -1.94
     -56.928162      54.614025     317.2      3.62      4.44      85.7         2         3      2453      3574    378.14   -14.223      10.1      36.3   327.245     0.665     152.3   0.11429     100.0         H               197.6  0.057368  0.065225  0.003073  4.420118  0.774138  5.709728  1.156557    212.24    7.0500   72.5969   0.17771   6.00181   0.18639   0.00564 119.39201   7.29066     437.3  0.537791  0.001417  0.000129  0.000267  0.241127  7.617666  0.681561     86.79  1.000622  1.000068     2.947    18.407     210.9      90.0     146.7     517.4     16.59      3.19     15.77     -2.21     -1.43     -1.54     -1.53     -1.91     -3.06      4.43     -1.88     -3.28     10.78     -2.08     -1.72    -11.86     -3.40     -7.36     -3.83     -6.63
     -57.021351      54.756069     339.8      3.55      4.44      85.4         3         1      3906      1000    437.09   -13.594      10.5      35.6   324.426     0.659     163.9   0.11269     100.0         H               197.6  0.057009  0.062741  0.002018  4.544924  0.776680  5.851730  1.151871    164.54    8.2025   93.5516   0.17638   6.28170   0.16610   0.00423 154.10196   8.37209     503.4  0.535760  0.001558  0.000241  0.000237  0.235301  7.578387  0.675155     87.48  1.000464  1.000050     2.922    18.520     190.7      91.8     197.8     619.9     15.82      3.44     14.19     -0.72     -1.61     -0.12     -1.56     -2.49     -2.56      4.83     -2.14     -4.07      8.26     -1.17     -0.63     -8.74     -3.23     -4.40     -3.71     -4.31
     -56.999485      54.664787     317.2      3.67      4.44      85.7         3         2      3906      2287    430.51   -13.660      10.8      36.0   327.837     0.666     188.1   0.11567     100.0         H               197.6  0.057904  0.064304  0.002078  4.440969  0.779243  5.699083  1.158522    186.19    8.0723   91.8660   0.17926   6.25020   0.16909   0.00440 150.79504   8.25298     498.7  0.540377  0.001910  0.000297  0.000250  0.236851  7.601776  0.682883     88.64  1.000506  1.000056     2.962    19.129     200.3      91.5     193.1     620.2     16.01      3.09     14.67     -0.75     -1.01      0.10     -1.66     -2.28     -2.81      4.30     -1.25     -3.68      9.03     -0.86     -1.06     -8.80     -2.50     -4.13     -2.87     -4.13
     -56.977753      54.574440     264.6      3.76      4.44      86.4         3         3      3906      3574    392.90   -14.057      10.4      36.3   327.727     0.668     186.2   0.11624     100.0         H               197.6  0.057985  0.066790  0.001954  4.532689  0.778581  5.821732  1.160237    139.97    7.3366   78.0877   0.18160   6.07401   0.18166   0.00529 127.81403   7.55698     455.8  0.539753  0.002119  0.000260  0.000254  0.235346  7.613836  0.686068     87.91  1.000436  1.000049     2.976    19.102     200.3      90.4     159.6     554.7     15.49      3.43     13.78      1.03     -1.19      2.68     -2.08     -2.52     -3.47      4.64     -1.39     -4.10      8.29      1.07     -1.53     -6.36     -2.64     -0.37     -2.75     -1.32
