corner points
48.59782791    -63.37818909
48.40849686    -63.53393936
48.22992706    -63.28715897
48.03911209    -63.4424324
========== RESULTS WAVE VERSION 16.10.2018 ====================
IMAGE SIZE  X: 4476     Y:4769    col:row     POLARIZATION:VV
COVERAGE    X: 20.92022889km       Y: 19.66666209km 
RESOLUTION dX: 4.673867045m       dY:4.123854496m  
resolution of original product 4.673867045m x 4.123854496m;   raster step x:5996.571419m  
===============================================================
FLAGS: H=HIGH PROBABILITY SEA STATE, I=LAND(ISLAND), O=OUTLIER NO SEA STATE, N=NO WIND AVAILABLE, SEA STATE NOT VISIBLE, M=MEAN PROBABILITY SEA STATE, L= LOW PROBABILITY SEA STATE
Filtering wave length
 integration  Lmin=1m
 integration  Lmax=2200m
  peak        Lmin=100m
               FFT=1024pixels, 4786.039854m 
   mean-Hs (SWH_c)=0.3376974106m
         mean-wind=6.562963009m/s
--------------0--------------1---------2---------3---------4---------5---------6---------7---------8---------9--------10--------11--------12--------13--------14--------15--------16--------17--------18--------19------------------20--------21--------22--------23--------24--------25--------26--------27--------28--------29--------30--------31--------32--------33--------34--------35--------36--------37--------38--------39--------40--------41--------42--------43--------44--------45--------46--------47--------48--------49--------50--------51--------52--------53--------54--------55--------56--------57--------58--------59--------60--------61--------62--------63--------64--------65--------66--------67--------68--------69--------70--------71--------72--------73
            LAT            LON  P-LENGHT     SWH_o     SWH_c     P-DIR      LINE     POINT     ROW-Y     COL-X  M-INTENC        dB      WIND INC-ANGLE  ENERGY-M  ENERGY-N  ENERGY-R ENERGY-NN  FG-DEPTH      FLAG         HEADING-DEG    E30-75   E75-390  E390-600 meanincut   meanout   cut/out  STD-NORM  SPEC-MAX   GL-MEAN    GL-VAR      CORR   ENTROPY   HOMOGEN    ENERGY  CONTRAST  DISSIMIL     STD-O    E 1-30 E600-2000   E2000 >      GODA  LONG-HIG     Tmean  CONVOLUT  MEAN-DIR  relation     Sy/Sx  SKEWNESS  KURTOSIS  cutoff-A >50/10000     INT*V   INT-LOG  S-1_g1f1  S-2_g1f2  S-3_g1f3  S-4_g2f1  S-5_g2f2  S-6_g2f3  S-7_g3f1  S-8_g3f2  S-9_g3f3 S-10_g1f4 S-11_g2f4 S-12_g3f4 S-13_g1f5 S-14_g2f5 S-15_g3f5 S-16_g4f1 S-17_g4f2 S-18_g4f3 S-19_g4f4 S-20_g4f5
--------------1--------------2---------3---------4---------5---------6---------7---------8---------9--------10--------11--------12--------13--------14--------15--------16--------17--------18--------19--------20------------------21--------22--------23--------24--------25--------26--------27--------28--------29--------30--------31--------32--------33--------34--------35--------36--------37--------38--------39--------40--------41--------42--------43--------44--------45--------46--------47--------48--------49--------50--------51--------52--------53--------54--------55--------56--------57--------58--------59--------60--------61--------62--------63--------64--------65--------66--------67--------68--------69--------70--------71--------72--------73--------74
     -63.390339      48.474773     143.2      0.39      1.60      63.8         1         1      1000      1000    232.79   -16.330       6.3      35.4   304.670     0.543      41.7   0.06213      13.9         H               201.2  0.039691  0.021830  0.000379  2.166801  0.657080  3.297622  1.045779     19.33    4.1759   23.6041   0.08897   5.07367   0.25590   0.01256  43.00809   4.51477     243.4  0.480793  0.000539  0.000050  0.000116  0.187999  7.143907  0.543868     63.85  1.000086  1.000005     2.262    11.259      79.7      83.7      47.7     231.9     10.58      3.83      2.53      6.55      3.35      3.37      2.62      1.02      2.96      2.09      2.15      1.80     -0.92     -0.54      0.69     -0.02      0.76      1.68      0.69      0.31
     -63.364140      48.368675     155.0      0.39      1.60      54.0         1         2      1000      2283    227.84   -16.424       6.4      35.8   303.628     0.542      45.9   0.06192      16.6         H               201.2  0.039900  0.021066  0.000363  2.091243  0.667169  3.134502  1.044452     17.68    4.0772   22.5429   0.08849   5.03096   0.26003   0.01308  41.09606   4.41358     238.0  0.479984  0.000653  0.000061  0.000114  0.186761  7.111431  0.542549     61.33  1.000070  1.000005     2.246    11.055      79.7      83.4      45.6     222.1     10.56      4.25      2.16      6.35      3.29      2.91      2.44      1.06      2.71      1.77      1.92      1.90     -1.50     -0.70      0.65     -0.17      0.16      1.42      0.57      0.68
     -63.338100      48.263741     151.3      0.40      1.60      62.2         1         3      1000      3566    218.58   -16.604       6.5      36.2   303.423     0.541      48.1   0.06158      15.7         H               201.2  0.039573  0.020977  0.000382  2.090787  0.653872  3.197548  1.043459     15.19    3.8909   20.7296   0.08789   4.94750   0.26777   0.01424  37.81528   4.23419     228.1  0.479524  0.000654  0.000068  0.000111  0.187218  7.107216  0.541702     63.82  1.000084  1.000005     2.239    10.958      81.3      82.3      42.1     208.2     10.60      4.07      2.17      6.24      3.10      3.08      2.35      0.52      2.87      1.94      1.79      1.53     -1.20     -0.63      1.15     -0.40      0.27      1.67      0.38      0.52
     -63.437813      48.417015     150.0      0.40      1.60      57.8         2         1      2454      1000    245.17   -16.105       6.6      35.4   304.000     0.545      54.6   0.06436      15.4         H               201.2  0.040576  0.022181  0.000387  2.222765  0.663166  3.351748  1.048131     12.50    4.4230   26.3056   0.09446   5.17613   0.24647   0.01142  47.64159   4.75111     257.0  0.481660  0.000816  0.000079  0.000110  0.185544  7.123027  0.546851     66.26  1.000092  1.000006     2.264    11.279      78.1      84.5      53.0     256.1     10.39      3.57      2.17      6.55      2.87      3.21      2.71      0.62      3.20      1.56      1.39      1.48     -1.16     -0.27      1.07      0.21      0.37      1.64      0.09      0.95
     -63.411568      48.310787     151.3      0.40      1.60      62.2         2         2      2454      2283    234.18   -16.304       6.6      35.8   305.064     0.546      53.2   0.06384      15.7         H               201.2  0.040409  0.022539  0.000392  2.262683  0.660019  3.428210  1.048382     20.55    4.2031   24.0073   0.09271   5.08464   0.25517   0.01247  43.56305   4.53725     245.5  0.481863  0.000859  0.000069  0.000117  0.187119  7.119142  0.547075     64.44  1.000095  1.000007     2.278    11.396      81.3      83.8      48.4     235.0     10.64      4.01      2.59      6.33      3.03      3.38      2.59      0.49      3.01      2.14      1.88      1.57     -1.25     -0.52      0.96     -0.09      0.36      1.66      0.36      0.74
     -63.385490      48.205723     161.6      0.41      1.60      57.6         2         3      2454      3566    229.22   -16.398       6.7      36.2   304.780     0.547      58.1   0.06449      18.3         H               201.2  0.040392  0.022896  0.000444  2.299805  0.659515  3.487113  1.049272     14.43    4.1032   23.0471   0.09479   5.04125   0.25966   0.01308  41.72497   4.44046     240.5  0.482517  0.000839  0.000084  0.000117  0.188531  7.151064  0.548483     62.71  1.000105  1.000007     2.271    11.269      81.3      83.2      46.4     231.5     10.64      4.28      2.56      6.29      3.05      3.24      2.51      0.77      3.03      1.89      1.99      1.83     -1.38     -0.42      1.23     -0.48     -0.42      1.53      0.59      1.08
     -63.485264      48.359074     164.9      0.40      1.60      59.5         3         1      3908      1000    242.02   -16.162       6.5      35.4   305.021     0.548      45.5   0.06480      19.2         H               201.2  0.040950  0.023466  0.000435  2.350214  0.671554  3.499665  1.050481     13.21    4.3603   25.7562   0.09553   5.15017   0.24913   0.01172  46.59153   4.68929     254.2  0.482637  0.000652  0.000051  0.000117  0.188436  7.145327  0.549476     68.65  1.000120  1.000007     2.287    11.374      84.8      84.3      51.8     228.7     10.62      4.00      2.82      6.46      2.68      3.74      2.76      0.69      3.51      1.72      1.62      1.76     -1.05      0.31      1.81     -0.03     -0.66      2.10      0.22      1.91
     -63.458981      48.252716     154.2      0.45      1.60      75.2         3         2      3908      2283    238.20   -16.231       6.7      35.8   306.170     0.551      59.8   0.06596      16.4         H               201.2  0.041305  0.023965  0.000387  2.424683  0.671387  3.611453  1.053582     15.70    4.2832   25.0801   0.09812   5.11766   0.25281   0.01215  45.23890   4.61510     251.0  0.484754  0.000924  0.000086  0.000120  0.186150  7.148617  0.552964     70.84  1.000111  1.000006     2.298    11.481      81.3      84.0      50.3     240.6     10.51      3.82      2.84      6.61      2.81      3.83      2.76      0.95      3.42      2.19      2.11      1.80     -0.53      0.40      1.56      0.54      0.03      2.34      0.71      1.31
     -63.432858      48.147522     174.4      0.50      1.60      65.6         3         3      3908      3566    237.20   -16.249       6.9      36.2   304.982     0.549      61.4   0.06643      22.0         H               201.2  0.041389  0.024104  0.000351  2.431543  0.663931  3.662342  1.051864     16.92    4.2618   24.7977   0.09889   5.10854   0.25332   0.01226  44.69070   4.59142     249.5  0.482888  0.000892  0.000096  0.000121  0.189213  7.142805  0.551312     67.23  1.000101  1.000006     2.303    11.670      83.0      83.8      49.8     241.3     10.59      3.84      2.94      6.82      3.22      4.15      2.48      0.84      3.17      2.58      2.65      1.60     -1.07      0.01      1.44      0.94      0.60      2.66      1.26      1.34
