corner points
59.42427444    -50.21339798
59.32955551    -50.38050079
59.14998627    -50.14823151
59.05437088    -50.3151207
========== RESULTS WAVE VERSION 16.10.2018 ====================
IMAGE SIZE  X: 4476     Y:4770    col:row     POLARIZATION:VV
COVERAGE    X: 20.78703269km       Y: 19.71872009km 
RESOLUTION dX: 4.644109181m       dY:4.133903583m  
resolution of original product 4.644109181m x 4.133903583m;   raster step x:5995.544952m  
===============================================================
FLAGS: H=HIGH PROBABILITY SEA STATE, I=LAND(ISLAND), O=OUTLIER NO SEA STATE, N=NO WIND AVAILABLE, SEA STATE NOT VISIBLE, M=MEAN PROBABILITY SEA STATE, L= LOW PROBABILITY SEA STATE
Filtering wave length
 integration  Lmin=1m
 integration  Lmax=2200m
  peak        Lmin=100m
               FFT=1024pixels, 4755.567801m 
   mean-Hs (SWH_c)=4.512767944m
         mean-wind=20.91851807m/s
--------------0--------------1---------2---------3---------4---------5---------6---------7---------8---------9--------10--------11--------12--------13--------14--------15--------16--------17--------18--------19------------------20--------21--------22--------23--------24--------25--------26--------27--------28--------29--------30--------31--------32--------33--------34--------35--------36--------37--------38--------39--------40--------41--------42--------43--------44--------45--------46--------47--------48--------49--------50--------51--------52--------53--------54--------55--------56--------57--------58--------59--------60--------61--------62--------63--------64--------65--------66--------67--------68--------69--------70--------71--------72--------73
            LAT            LON  P-LENGHT     SWH_o     SWH_c     P-DIR      LINE     POINT     ROW-Y     COL-X  M-INTENC        dB      WIND INC-ANGLE  ENERGY-M  ENERGY-N  ENERGY-R ENERGY-NN  FG-DEPTH      FLAG         HEADING-DEG    E30-75   E75-390  E390-600 meanincut   meanout   cut/out  STD-NORM  SPEC-MAX   GL-MEAN    GL-VAR      CORR   ENTROPY   HOMOGEN    ENERGY  CONTRAST  DISSIMIL     STD-O    E 1-30 E600-2000   E2000 >      GODA  LONG-HIG     Tmean  CONVOLUT  MEAN-DIR  relation     Sy/Sx  SKEWNESS  KURTOSIS  cutoff-A >50/10000     INT*V   INT-LOG  S-1_g1f1  S-2_g1f2  S-3_g1f3  S-4_g2f1  S-5_g2f2  S-6_g2f3  S-7_g3f1  S-8_g3f2  S-9_g3f3 S-10_g1f4 S-11_g2f4 S-12_g3f4 S-13_g1f5 S-14_g2f5 S-15_g3f5 S-16_g4f1 S-17_g4f2 S-18_g4f3 S-19_g4f4 S-20_g4f5
--------------1--------------2---------3---------4---------5---------6---------7---------8---------9--------10--------11--------12--------13--------14--------15--------16--------17--------18--------19--------20------------------21--------22--------23--------24--------25--------26--------27--------28--------29--------30--------31--------32--------33--------34--------35--------36--------37--------38--------39--------40--------41--------42--------43--------44--------45--------46--------47--------48--------49--------50--------51--------52--------53--------54--------55--------56--------57--------58--------59--------60--------61--------62--------63--------64--------65--------66--------67--------68--------69--------70--------71--------72--------73--------74
     -50.233749      59.342316     178.8      4.46      6.11      77.8         1         1      1000      1000   1483.06    -8.288      21.1      35.7   304.847     0.642     109.8   0.11565      23.5         H               195.5  0.063478  0.044381  0.001718  4.323285  0.795885  5.432048  1.136993     47.35   24.6430  429.7375   0.15194   7.68987   0.08149   0.00122 728.89008  20.79898    1686.1  0.531628  0.001632  0.000112  0.000224  0.202983  7.213211  0.654600     84.04  1.000295  1.000034     2.856    18.001     181.9     100.8    2417.2    1587.3     14.06     -1.02      9.12      2.06      1.56      5.70      0.60      1.31     -1.58     -0.39      2.10      1.17      2.74      5.43      1.11     -8.51      0.93      3.82      1.98      5.58
     -50.214886      59.262779     167.7      4.58      6.11      80.9         1         2      1000      2291   1401.99    -8.533      20.9      36.1   305.558     0.647     125.0   0.11696      20.0         H               195.5  0.063453  0.047157  0.001910  4.277887  0.796252  5.372532  1.140782     57.55   23.6165  414.6609   0.15853   7.68614   0.08185   0.00108 697.85278  20.21623    1599.1  0.532655  0.001800  0.000152  0.000223  0.209800  7.257467  0.659685     83.78  1.000308  1.000035     2.860    19.084     190.7     100.5    2166.7    1535.1     14.02     -0.95      9.26      2.42      1.65      6.57      1.14      1.63     -0.97     -0.00      2.09      1.99      3.40      5.93      1.85     -7.97      1.16      5.25      1.31      5.30
     -50.196136      59.184021     266.7      4.46      6.11     116.2         1         3      1000      3582   1307.85    -8.834      20.5      36.5   304.796     0.645     107.1   0.11601     100.0         H               195.5  0.064184  0.046879  0.001696  4.160633  0.803561  5.177745  1.139259     64.02   22.4337  393.4238   0.16066   7.68454   0.08160   0.00094 660.43140  19.55231    1489.9  0.531284  0.001380  0.000111  0.000230  0.208566  7.243568  0.658522     84.15  1.000300  1.000034     2.802    16.835     190.7     100.2    1883.0    1473.4     14.18     -0.82      9.64      2.15      2.06      5.67      0.37      1.94     -1.25     -0.65      3.31      2.34      2.76      5.68      1.64     -7.36      0.96      3.93      2.72      5.49
     -50.284580      59.313461     181.4      4.67      6.11      82.6         2         1      2451      1000   1477.70    -8.304      21.1      35.7   306.313     0.650     134.3   0.11811      24.3         H               195.5  0.063620  0.047979  0.001933  4.219554  0.790710  5.336412  1.143363     57.14   24.5178  429.2103   0.15762   7.68296   0.08270   0.00124 723.11322  20.66966    1689.5  0.534274  0.002115  0.000148  0.000225  0.210702  7.269870  0.663255     84.89  1.000312  1.000035     2.855    17.785     190.7     100.8    2414.3    1580.7     14.07     -0.88     10.00      2.76      1.32      6.37      0.48      2.18     -1.92     -0.56      2.13      2.61      3.92      5.69      0.80     -7.64     -0.02      4.72      1.19      5.34
     -50.265697      59.233845     266.7      4.35      6.11     116.2         2         2      2451      2291   1368.63    -8.637      20.7      36.1   305.218     0.647     101.6   0.11718     100.0         H               195.5  0.065705  0.045079  0.001972  4.203260  0.814554  5.160199  1.140683     48.30   23.2216  406.8646   0.15646   7.69265   0.08128   0.00101 686.41711  20.02546    1561.1  0.532883  0.001562  0.000073  0.000217  0.204718  7.196115  0.659860     84.90  1.000320  1.000035     2.881    18.513     190.7     100.4    2062.7    1522.5     13.84     -1.35      8.91      2.09      2.06      6.02      1.43      1.37     -0.79     -0.83      2.40      1.89      2.96      5.73      1.52     -8.32      2.38      5.11      2.14      6.38
     -50.246929      59.155010     194.8      4.50      6.11      79.4         2         3      2451      3582   1353.36    -8.686      20.9      36.5   304.220     0.642     109.5   0.11515      29.3         H               195.5  0.063377  0.046017  0.001844  4.153613  0.796284  5.216248  1.136645     54.92   23.0368  403.9708   0.15780   7.69026   0.08130   0.00100 680.44800  19.91782    1538.4  0.529610  0.001645  0.000116  0.000226  0.206975  7.261277  0.655085     83.22  1.000309  1.000035     2.796    16.963     190.7     100.4    2012.8    1504.0     13.88     -0.64      9.52      2.89      2.01      6.55      1.11      1.53     -0.91      0.24      2.67      2.02      3.40      5.90      1.44     -7.72      1.55      4.23      1.84      5.58
     -50.335403      59.284550     154.7      4.49      6.11      77.3         3         1      3902      1000   1511.94    -8.205      21.3      35.7   304.362     0.641     162.9   0.11535      16.5         H               195.5  0.063224  0.044303  0.001931  4.245451  0.786712  5.396451  1.136423     40.81   24.9645  435.6951   0.15409   7.67837   0.08292   0.00132 737.11804  20.92490    1718.1  0.529902  0.002239  0.000286  0.000212  0.204140  7.228478  0.654015     83.48  1.000308  1.000034     2.795    16.744     190.7     100.9    2511.1    1587.7     13.71     -0.31      8.85      2.38      0.96      6.08      1.69      2.23     -0.21     -0.11      1.96      2.29      2.78      6.06      1.64     -8.54     -1.31      3.97      0.63      6.59
     -50.316502      59.204853     178.8      4.47      6.11      77.8         3         2      3902      2291   1381.96    -8.595      20.8      36.1   305.793     0.649     118.9   0.11876      23.5         H               195.5  0.065373  0.046532  0.001997  4.144594  0.804085  5.154423  1.142864     57.17   23.3650  410.3191   0.15980   7.68817   0.08174   0.00105 689.49707  20.07966    1579.3  0.533962  0.001678  0.000129  0.000226  0.209646  7.238731  0.662522     82.64  1.000313  1.000036     2.880    18.425     190.7     100.5    2107.8    1536.0     14.07     -0.17      9.49      2.27      1.87      6.12      0.80      1.06     -1.29      0.98      2.52      1.13      2.93      5.97      1.30     -8.43      0.95      3.97      1.24      6.11
     -50.297714      59.125942     172.4      4.63      6.11      78.2         3         3      3902      3582   1368.41    -8.638      21.0      36.5   306.452     0.651     131.8   0.11944      21.4         H               195.5  0.065158  0.048480  0.001892  4.265602  0.800628  5.327818  1.144877     74.24   23.1776  407.7875   0.16206   7.68275   0.08213   0.00104 683.39777  19.95311    1566.7  0.534187  0.001991  0.000155  0.000237  0.209956  7.280372  0.665206     82.19  1.000308  1.000036     2.847    17.352     200.3     100.5    2073.0    1525.8     14.08     -0.19      9.91      2.71      1.73      6.64      0.92      1.21     -1.00      0.82      2.47      1.11      3.60      6.35      1.54     -7.96      0.48      4.06      1.43      5.49
