corner points
66.6887207    -39.54516602
66.62718964    -39.72220612
66.45004272    -39.49350739
66.38778687    -39.67041779
========== RESULTS WAVE VERSION 16.10.2018 ====================
IMAGE SIZE  X: 5635     Y:4913    col:row     POLARIZATION:VV
COVERAGE    X: 21.22268202km       Y: 20.33500904km 
RESOLUTION dX: 3.766225735m       dY:4.139020769m  
resolution of original product 3.766225735m x 4.139020769m;   raster step x:5999.597596m  
===============================================================
FLAGS: H=HIGH PROBABILITY SEA STATE, I=LAND(ISLAND), O=OUTLIER NO SEA STATE, N=NO WIND AVAILABLE, SEA STATE NOT VISIBLE, M=MEAN PROBABILITY SEA STATE, L= LOW PROBABILITY SEA STATE
Filtering wave length
 integration  Lmin=1m
 integration  Lmax=2200m
  peak        Lmin=100m
               FFT=1024pixels, 3856.615153m 
   mean-Hs (SWH_c)=0.6408860016m
         mean-wind=6.166255474m/s
--------------0--------------1---------2---------3---------4---------5---------6---------7---------8---------9--------10--------11--------12--------13--------14--------15--------16--------17--------18--------19------------------20--------21--------22--------23--------24--------25--------26--------27--------28--------29--------30--------31--------32--------33--------34--------35--------36--------37--------38--------39--------40--------41--------42--------43--------44--------45--------46--------47--------48--------49--------50--------51--------52--------53--------54--------55--------56--------57--------58--------59--------60--------61--------62--------63--------64--------65--------66--------67--------68--------69--------70--------71--------72--------73
            LAT            LON  P-LENGHT     SWH_o     SWH_c     P-DIR      LINE     POINT     ROW-Y     COL-X  M-INTENC        dB      WIND INC-ANGLE  ENERGY-M  ENERGY-N  ENERGY-R ENERGY-NN  FG-DEPTH      FLAG         HEADING-DEG    E30-75   E75-390  E390-600 meanincut   meanout   cut/out  STD-NORM  SPEC-MAX   GL-MEAN    GL-VAR      CORR   ENTROPY   HOMOGEN    ENERGY  CONTRAST  DISSIMIL     STD-O    E 1-30 E600-2000   E2000 >      GODA  LONG-HIG     Tmean  CONVOLUT  MEAN-DIR  relation     Sy/Sx  SKEWNESS  KURTOSIS  cutoff-A >50/10000     INT*V   INT-LOG  S-1_g1f1  S-2_g1f2  S-3_g1f3  S-4_g2f1  S-5_g2f2  S-6_g2f3  S-7_g3f1  S-8_g3f2  S-9_g3f3 S-10_g1f4 S-11_g2f4 S-12_g3f4 S-13_g1f5 S-14_g2f5 S-15_g3f5 S-16_g4f1 S-17_g4f2 S-18_g4f3 S-19_g4f4 S-20_g4f5
--------------1--------------2---------3---------4---------5---------6---------7---------8---------9--------10--------11--------12--------13--------14--------15--------16--------17--------18--------19--------20------------------21--------22--------23--------24--------25--------26--------27--------28--------29--------30--------31--------32--------33--------34--------35--------36--------37--------38--------39--------40--------41--------42--------43--------44--------45--------46--------47--------48--------49--------50--------51--------52--------53--------54--------55--------56--------57--------58--------59--------60--------61--------62--------63--------64--------65--------66--------67--------68--------69--------70--------71--------72--------73--------74
     -39.571819      66.632622     219.8      0.74      2.01     121.2         1         1      1000      1000   2714.74    -5.663       6.5      22.8   304.826     0.766      72.6   0.18573      41.9         H               193.6  0.099850  0.055489  0.000672  5.736795  0.961900  5.964027  1.240932     37.04    4.9346   43.6912   0.27995   5.30563   0.26283   0.01299  62.92052   5.03035    3368.8  0.609980  0.000684  0.000026  0.000236  0.171265  6.951076  0.805602     95.78  1.000179  1.000023     3.431    24.578      92.7      83.5      81.1     427.5     12.32     -6.06      0.47      3.17     -1.14      3.10     -1.33      2.01      1.87     -2.27     -2.82     -0.78     -3.24     -0.85      1.83     -1.69      0.18      3.56     -2.28      0.32
     -39.557056      66.564285     231.0      0.59      2.01     123.0         1         2      1000      2593   2414.72    -6.171       6.4      23.3   310.732     0.785      72.0   0.19243      49.8         H               193.6  0.104316  0.054068  0.000780  5.886727  0.982677  5.990501  1.255861     33.02    4.3395   35.3362   0.28136   5.07076   0.28761   0.01656  50.78814   4.47495    3032.4  0.625974  0.000758  0.000025  0.000248  0.165697  6.923282  0.826403     93.75  1.000196  1.000026     3.753    34.567      94.9      81.1      64.8     470.1     12.07     -5.41      0.32      3.19     -1.22      2.81     -0.64      2.10      2.15     -1.11     -2.47     -1.45     -3.20     -0.97      1.63     -2.13     -0.60      2.84     -1.82     -0.05
     -39.542534      66.497261     231.0      0.51      2.01     123.0         1         3      1000      4186   2092.40    -6.794       6.0      23.8   307.269     0.772      74.1   0.18697      49.8         H               193.6  0.101504  0.053034  0.000758  5.674101  0.977204  5.806464  1.245817     31.28    3.7073   26.5864   0.27945   4.79370   0.31613   0.02148  38.31386   3.87447    2606.5  0.616686  0.000740  0.000034  0.000235  0.165759  6.927953  0.811874     94.34  1.000204  1.000027     3.580    28.043      92.7      78.3      48.1     354.8     11.96     -5.32      0.61      3.26     -1.06      2.56     -0.43      1.78      1.95     -1.50     -2.11     -1.29     -3.19     -0.62      1.78     -2.10     -0.20      2.69     -1.81      0.56
     -39.624039      66.614441     172.4      0.68      2.01     116.6         2         1      2449      1000   2648.51    -5.770       6.3      22.8   305.600     0.765      83.9   0.18358      21.4         H               193.6  0.098530  0.054391  0.000706  5.469264  0.973367  5.618911  1.239675     41.99    4.8043   41.6816   0.27709   5.25733   0.26765   0.01367  60.26381   4.91426    3283.0  0.610945  0.000851  0.000047  0.000235  0.173343  6.969053  0.804171     94.86  1.000185  1.000022     3.403    24.198      92.7      83.0      76.9     409.2     12.36     -7.34      1.30      3.67     -1.93      2.86     -1.37      2.67      1.30     -2.87     -2.96     -0.49     -4.11     -0.98      2.27     -1.84      0.37      2.40     -1.80      0.49
     -39.609268      66.546043     160.0      0.65      2.01     119.4         2         2      2449      2593   2343.13    -6.302       6.1      23.3   309.171     0.781      68.5   0.19214      17.9         H               193.6  0.103971  0.056366  0.000666  5.811336  0.998869  5.817913  1.253772     43.46    4.2012   33.4721   0.28394   5.01153   0.29427   0.01761  47.93542   4.33693    2937.5  0.620643  0.000560  0.000024  0.000237  0.171727  6.941741  0.822470     95.59  1.000183  1.000024     3.563    27.385      94.9      80.5      60.9     403.3     12.29     -6.78      0.99      3.71     -1.84      3.23     -1.23      2.43      1.81     -2.53     -3.09     -0.84     -3.90     -0.82      2.29     -1.59      0.10      2.93     -1.70      0.60
     -39.594730      66.478966     256.1      0.56      2.01     127.2         2         3      2449      4186   2104.04    -6.769       6.1      23.8   307.248     0.775      74.5   0.18895      85.3         H               193.6  0.101963  0.054143  0.000727  5.647785  0.982379  5.749087  1.247644     39.83    3.7273   26.9490   0.28045   4.80147   0.31609   0.02146  38.78230   3.89106    2624.8  0.617796  0.000769  0.000026  0.000236  0.171766  6.948279  0.815017     91.56  1.000195  1.000025     3.566    28.234      94.9      78.3      48.6     368.0     12.35     -5.90      1.10      3.26     -1.34      2.80     -0.99      1.95      1.99     -2.64     -2.40     -0.69     -3.49     -0.46      1.92     -2.02      0.10      2.48     -1.32      1.13
     -39.676254      66.596245     237.8      0.74      2.01     120.3         3         1      3898      1000   2608.66    -5.836       6.1      22.8   309.098     0.781      73.6   0.19098      55.9         H               193.6  0.102190  0.057614  0.000632  5.855521  0.972239  6.022719  1.252062     42.31    4.7246   41.1784   0.28259   5.22264   0.27192   0.01429  59.08217   4.84045    3265.8  0.620740  0.000677  0.000034  0.000250  0.169903  6.971413  0.822739     95.15  1.000181  1.000024     3.501    26.008      94.9      82.6      75.9     436.3     12.06     -6.19      1.16      3.94     -2.12      3.32     -0.76      1.68      1.79     -3.00     -3.22     -0.99     -3.41     -1.34      1.63     -0.93     -0.42      3.43     -2.24      0.01
     -39.661472      66.527786     193.8      0.65      2.01     126.5         3         2      3898      2593   2338.89    -6.310       6.1      23.3   308.420     0.775      64.6   0.18754      28.9         H               193.6  0.100533  0.055541  0.000706  5.574695  0.969940  5.747462  1.247445     44.19    4.1954   33.2182   0.27892   5.01035   0.29385   0.01765  47.90536   4.34275    2917.5  0.618529  0.000591  0.000015  0.000247  0.172191  6.961620  0.815331     94.57  1.000187  1.000023     3.480    26.137      94.9      80.4      60.4     399.2     12.29     -6.53      0.78      3.80     -2.30      2.91     -1.48      2.27      1.55     -1.93     -2.65     -0.87     -4.50     -1.64      2.27     -1.89      0.06      2.69     -1.67      0.35
     -39.646927      66.460640     235.1      0.65      2.01     127.6         3         3      3898      4186   2081.11    -6.817       6.0      23.8   309.111     0.782      77.4   0.19156      53.3         H               193.6  0.101810  0.056828  0.000821  5.941557  0.989641  6.003748  1.253252     40.70    3.6843   26.6646   0.28223   4.77876   0.31883   0.02212  38.27792   3.85748    2608.0  0.622639  0.000744  0.000031  0.000244  0.171770  6.955705  0.823157     90.29  1.000204  1.000026     3.552    26.790      97.3      77.9      47.9     342.5     12.48     -6.32      1.13      3.03     -1.32      3.05     -1.22      2.35      1.67     -2.20     -2.48     -0.89     -3.62     -0.78      2.27     -2.38      0.14      3.09     -1.55      0.59
