corner points
73.17829895    -16.73348999
73.13652802    -16.91368484
72.98795319    -16.69120979
72.94592285    -16.87134361
========== RESULTS WAVE VERSION 16.10.2018 ====================
IMAGE SIZE  X: 5635     Y:4928    col:row     POLARIZATION:VV
COVERAGE    X: 20.76778065km       Y: 20.47797443km 
RESOLUTION dX: 3.685497898m       dY:4.155433124m  
resolution of original product 3.685497898m x 4.155433124m;   raster step x:5999.990577m  
===============================================================
FLAGS: H=HIGH PROBABILITY SEA STATE, I=LAND(ISLAND), O=OUTLIER NO SEA STATE, N=NO WIND AVAILABLE, SEA STATE NOT VISIBLE, M=MEAN PROBABILITY SEA STATE, L= LOW PROBABILITY SEA STATE
Filtering wave length
 integration  Lmin=1m
 integration  Lmax=2200m
  peak        Lmin=100m
               FFT=1024pixels, 3773.949847m 
   mean-Hs (SWH_c)=2.315721588m
         mean-wind=14.15473175m/s
--------------0--------------1---------2---------3---------4---------5---------6---------7---------8---------9--------10--------11--------12--------13--------14--------15--------16--------17--------18--------19------------------20--------21--------22--------23--------24--------25--------26--------27--------28--------29--------30--------31--------32--------33--------34--------35--------36--------37--------38--------39--------40--------41--------42--------43--------44--------45--------46--------47--------48--------49--------50--------51--------52--------53--------54--------55--------56--------57--------58--------59--------60--------61--------62--------63--------64--------65--------66--------67--------68--------69--------70--------71--------72--------73
            LAT            LON  P-LENGHT     SWH_o     SWH_c     P-DIR      LINE     POINT     ROW-Y     COL-X  M-INTENC        dB      WIND INC-ANGLE  ENERGY-M  ENERGY-N  ENERGY-R ENERGY-NN  FG-DEPTH      FLAG         HEADING-DEG    E30-75   E75-390  E390-600 meanincut   meanout   cut/out  STD-NORM  SPEC-MAX   GL-MEAN    GL-VAR      CORR   ENTROPY   HOMOGEN    ENERGY  CONTRAST  DISSIMIL     STD-O    E 1-30 E600-2000   E2000 >      GODA  LONG-HIG     Tmean  CONVOLUT  MEAN-DIR  relation     Sy/Sx  SKEWNESS  KURTOSIS  cutoff-A >50/10000     INT*V   INT-LOG  S-1_g1f1  S-2_g1f2  S-3_g1f3  S-4_g2f1  S-5_g2f2  S-6_g2f3  S-7_g3f1  S-8_g3f2  S-9_g3f3 S-10_g1f4 S-11_g2f4 S-12_g3f4 S-13_g1f5 S-14_g2f5 S-15_g3f5 S-16_g4f1 S-17_g4f2 S-18_g4f3 S-19_g4f4 S-20_g4f5
--------------1--------------2---------3---------4---------5---------6---------7---------8---------9--------10--------11--------12--------13--------14--------15--------16--------17--------18--------19--------20------------------21--------22--------23--------24--------25--------26--------27--------28--------29--------30--------31--------32--------33--------34--------35--------36--------37--------38--------39--------40--------41--------42--------43--------44--------45--------46--------47--------48--------49--------50--------51--------52--------53--------54--------55--------56--------57--------58--------59--------60--------61--------62--------63--------64--------65--------66--------67--------68--------69--------70--------71--------72--------73--------74
     -16.762371      73.135132     137.1      2.32      3.11     101.1         1         1      1000      1000   4250.77    -3.715      13.1      23.4   422.542     0.857     161.0   0.22671      12.6         H               192.2  0.109810  0.074562  0.001363  6.906801  1.040549  6.637651  1.314561     59.57    7.8746  102.3689   0.30105   6.13657   0.19235   0.00580 143.10187   7.72670    5587.4  0.669783  0.002510  0.000094  0.000296  0.176192  7.075588  0.910953     92.38  1.000297  1.000048     4.196    41.055     128.8      89.9     222.4     853.1     10.93     -0.26      4.84      5.73     -0.66      7.91      4.60     -0.68      5.48     -0.83     -1.00     -0.70      1.98      4.62      4.48      0.06     -0.20      8.33     -0.90      5.36
     -16.750025      73.079506     148.6      2.32      3.11     100.1         1         2      1000      2628   4208.51    -3.759      14.2      23.9   418.481     0.835     257.8   0.21496      15.1         H               192.2  0.105939  0.069744  0.001648  6.405045  1.025157  6.247869  1.294491     68.10    7.8008   99.9530   0.29592   6.12396   0.19297   0.00583 140.74957   7.66631    5447.2  0.653986  0.004135  0.000234  0.000297  0.175862  7.089949  0.885647     93.48  1.000260  1.000040     3.898    33.488     128.8      89.9     213.9     826.0     10.82     -0.42      4.97      5.66     -0.79      8.28      5.66     -0.38      6.15     -0.77     -1.14     -0.73      2.83      4.79      5.02     -1.08     -0.42      8.36     -0.75      4.65
     -16.737888      73.024902     149.5      2.17      3.11      98.1         1         3      1000      4256   3753.25    -4.256      13.7      24.3   411.804     0.812     186.9   0.20388      15.3         H               192.2  0.099562  0.066191  0.001538  6.347638  1.008222  6.295871  1.278650     54.60    6.9670   80.6477   0.28687   5.92902   0.20684   0.00697 115.02481   6.91286    4798.7  0.642356  0.002988  0.000133  0.000273  0.178426  7.098179  0.859860     91.78  1.000262  1.000038     4.158    44.300     124.8      88.7     166.4     790.0     11.12     -0.40      4.85      5.39     -0.59      8.15      4.88      0.09      4.92     -0.69     -1.03     -0.27      2.43      4.25      4.08     -1.58     -0.58      8.69     -0.28      4.24
     -16.815142      73.122887     143.8      2.41      3.11      97.8         2         1      2443      1000   4555.43    -3.415      14.1      23.4   412.806     0.826     147.2   0.21285      14.0         H               192.2  0.103055  0.070766  0.001501  6.604537  1.013609  6.515864  1.286641     71.11    8.4716  112.9201   0.29278   6.27834   0.17995   0.00489 159.71609   8.25943    5861.4  0.648794  0.002436  0.000087  0.000293  0.177565  7.109476  0.876417     92.85  1.000279  1.000044     4.017    40.233     128.8      91.1     250.6     916.3     10.90     -0.04      4.81      5.77     -0.75      8.46      5.29     -0.54      5.84     -0.84     -0.93     -0.56      2.03      4.81      4.98     -0.44     -0.69      9.33     -0.38      5.46
     -16.802792      73.067238     143.1      2.37      3.11      99.7         2         2      2443      2628   4070.11    -3.904      13.7      23.9   412.693     0.822     152.9   0.20972      13.8         H               192.2  0.100151  0.070816  0.001432  6.686003  1.013291  6.598304  1.283113     54.49    7.5499   93.6215   0.29170   6.06901   0.19688   0.00612 132.62428   7.43762    5222.3  0.648098  0.002120  0.000133  0.000279  0.179839  7.133438  0.871629     91.90  1.000256  1.000037     3.851    32.541     124.8      89.6     197.6     758.0     11.14      0.04      4.56      5.36     -0.27      8.03      4.45     -0.13      5.26     -0.62     -0.17     -0.23      1.98      4.30      4.45     -0.78     -0.26      8.55      0.39      4.82
     -16.790651      73.012619     133.1      2.34      3.11      99.0         2         3      2443      4256   4128.08    -3.843      15.0      24.3   404.824     0.793     251.2   0.19591      11.8         H               192.2  0.094669  0.063823  0.001471  5.851718  0.975731  5.997268  1.262471     64.81    7.6973   94.5954   0.28373   6.11314   0.19239   0.00578 135.51028   7.57427    5211.5  0.629088  0.004349  0.000201  0.000275  0.182187  7.127837  0.839364     97.60  1.000239  1.000032     3.729    31.157     121.0      90.0     199.7     748.9     11.09     -0.63      4.71      5.60     -1.33      8.65      4.92     -0.74      5.08     -1.58     -1.83     -1.45      2.13      4.65      4.41     -1.19     -1.45      9.50     -1.28      4.75
     -16.867914      73.110634     109.7      2.34      3.11      98.9         3         1      3886      1000   4665.53    -3.311      14.4      23.4   412.332     0.822     108.6   0.21082       7.7         H               192.2  0.104169  0.067929  0.001492  6.652451  1.011420  6.577338  1.284127     43.20    8.6761  116.3161   0.28952   6.32399   0.17607   0.00462 165.27924   8.44149    5990.8  0.647746  0.001466  0.000058  0.000277  0.173971  7.075983  0.871488     91.68  1.000276  1.000042     4.004    36.986     124.8      91.4     262.6     898.4     11.00      0.09      4.20      5.07     -0.04      7.82      4.70     -0.08      4.80      0.36     -0.32     -0.22      1.70      4.13      4.66     -1.34      0.16      9.23     -0.72      4.67
     -16.855556      73.054962     145.2      2.28      3.11     105.8         3         2      3886      2628   4229.24    -3.737      14.2      23.9   411.248     0.818      88.5   0.20866      14.3         H               192.2  0.102132  0.067314  0.001315  6.527147  1.053836  6.193703  1.281257     47.03    7.8495   98.7860   0.28856   6.14384   0.18991   0.00559 140.56241   7.70983    5418.1  0.646331  0.001247  0.000022  0.000275  0.178194  7.100075  0.866692     92.29  1.000267  1.000039     3.929    34.219     124.8      90.2     212.8     772.3     11.11      0.04      4.80      5.63     -0.41      8.12      4.46     -0.58      4.99     -0.67     -0.65     -0.46      1.94      4.46      4.16     -0.67     -0.21      8.49     -0.31      4.93
     -16.843412      73.000320     137.1      2.28      3.11     101.1         3         3      3886      4256   4140.78    -3.829      15.0      24.3   405.333     0.800     107.3   0.20104      12.6         H               192.2  0.098790  0.063857  0.001162  6.124978  0.995005  6.155728  1.264376     56.59    7.7020   94.1520   0.28372   6.11625   0.19154   0.00572 134.87939   7.57388    5235.3  0.635083  0.001442  0.000067  0.000262  0.179117  7.100664  0.847058     95.50  1.000242  1.000034     3.899    36.080     117.4      90.0     200.6     852.3     10.85     -0.33      4.26      5.96     -0.80      8.20      4.67     -0.87      5.29     -0.47     -1.39     -1.35      1.99      3.96      4.02      0.19     -0.96      8.81     -1.71      4.03
