corner points
67.88526154    -36.06216431
67.82871246    -36.23996353
67.65730286    -36.01247025
67.60012054    -36.19015121
========== RESULTS WAVE VERSION 16.10.2018 ====================
IMAGE SIZE  X: 5635     Y:4917    col:row     POLARIZATION:VV
COVERAGE    X: 21.18815886km       Y: 20.36742794km 
RESOLUTION dX: 3.760099177m       dY:4.142246886m  
resolution of original product 3.760099177m x 4.142246886m;   raster step x:5997.358187m  
===============================================================
FLAGS: H=HIGH PROBABILITY SEA STATE, I=LAND(ISLAND), O=OUTLIER NO SEA STATE, N=NO WIND AVAILABLE, SEA STATE NOT VISIBLE, M=MEAN PROBABILITY SEA STATE, L= LOW PROBABILITY SEA STATE
Filtering wave length
 integration  Lmin=1m
 integration  Lmax=2200m
  peak        Lmin=100m
               FFT=1024pixels, 3850.341557m 
   mean-Hs (SWH_c)=0.5580271912m
         mean-wind=4.099176884m/s
--------------0--------------1---------2---------3---------4---------5---------6---------7---------8---------9--------10--------11--------12--------13--------14--------15--------16--------17--------18--------19------------------20--------21--------22--------23--------24--------25--------26--------27--------28--------29--------30--------31--------32--------33--------34--------35--------36--------37--------38--------39--------40--------41--------42--------43--------44--------45--------46--------47--------48--------49--------50--------51--------52--------53--------54--------55--------56--------57--------58--------59--------60--------61--------62--------63--------64--------65--------66--------67--------68--------69--------70--------71--------72--------73
            LAT            LON  P-LENGHT     SWH_o     SWH_c     P-DIR      LINE     POINT     ROW-Y     COL-X  M-INTENC        dB      WIND INC-ANGLE  ENERGY-M  ENERGY-N  ENERGY-R ENERGY-NN  FG-DEPTH      FLAG         HEADING-DEG    E30-75   E75-390  E390-600 meanincut   meanout   cut/out  STD-NORM  SPEC-MAX   GL-MEAN    GL-VAR      CORR   ENTROPY   HOMOGEN    ENERGY  CONTRAST  DISSIMIL     STD-O    E 1-30 E600-2000   E2000 >      GODA  LONG-HIG     Tmean  CONVOLUT  MEAN-DIR  relation     Sy/Sx  SKEWNESS  KURTOSIS  cutoff-A >50/10000     INT*V   INT-LOG  S-1_g1f1  S-2_g1f2  S-3_g1f3  S-4_g2f1  S-5_g2f2  S-6_g2f3  S-7_g3f1  S-8_g3f2  S-9_g3f3 S-10_g1f4 S-11_g2f4 S-12_g3f4 S-13_g1f5 S-14_g2f5 S-15_g3f5 S-16_g4f1 S-17_g4f2 S-18_g4f3 S-19_g4f4 S-20_g4f5
--------------1--------------2---------3---------4---------5---------6---------7---------8---------9--------10--------11--------12--------13--------14--------15--------16--------17--------18--------19--------20------------------21--------22--------23--------24--------25--------26--------27--------28--------29--------30--------31--------32--------33--------34--------35--------36--------37--------38--------39--------40--------41--------42--------43--------44--------45--------46--------47--------48--------49--------50--------51--------52--------53--------54--------55--------56--------57--------58--------59--------60--------61--------62--------63--------64--------65--------66--------67--------68--------69--------70--------71--------72--------73--------74
     -36.089294      67.832146     195.5      0.53      1.78     146.1         1         1      1000      1000   1873.86    -7.273       4.2      22.9   297.520     0.697      82.7   0.15392      29.6         H               193.2  0.079326  0.053429  0.000672  4.647184  0.933559  4.977923  1.182961     52.60    3.2710   19.4701   0.25623   4.59211   0.33614   0.02522  28.96247   3.44225    2216.5  0.563189  0.000987  0.000036  0.000186  0.191027  7.098137  0.731733    118.24  1.000126  1.000011     3.018    19.076      69.9      76.5      36.0     254.7     12.10     -8.09     -2.42      3.27     -2.01      0.69     -2.90      3.76      2.84      1.30     -1.12     -2.34     -4.94     -1.75      1.65     -1.75      0.11      0.95     -0.97     -0.18
     -36.075077      67.766808     188.2      0.57      1.78     147.5         1         2      1000      2595   1595.92    -7.970       4.0      23.4   294.499     0.686      90.2   0.14900      26.8         H               193.2  0.075669  0.054105  0.000632  4.425533  0.893606  4.952445  1.173903     62.85    2.7242   13.9050   0.25118   4.27971   0.37352   0.03412  20.82475   2.91911    1873.4  0.554845  0.001271  0.000029  0.000196  0.194760  7.141732  0.719510    127.92  1.000102  1.000008     2.961    19.283      71.1      72.7      26.0     229.9     12.08     -8.23     -3.82      3.11     -2.13      0.57     -3.46      4.06      3.60      2.68     -0.75     -2.99     -4.05     -2.05      1.51     -1.81      0.20      1.28     -1.07     -0.61
     -36.061092      67.702721     214.4      0.62      1.78     163.8         1         3      1000      4190   1447.84    -8.393       4.0      23.8   296.561     0.686      87.4   0.14654      38.7         H               193.2  0.073731  0.054357  0.000730  4.474873  0.874816  5.115213  1.174709     50.57    2.4307   11.4337   0.24665   4.08902   0.39713   0.04080  17.22706   2.64169    1700.8  0.556436  0.001070  0.000033  0.000197  0.194903  7.167108  0.718700    127.70  1.000101  1.000008     3.013    19.779      71.1      70.2      21.5     201.1     12.17     -7.93     -3.95      2.79     -1.83      0.73     -3.35      3.98      3.92      3.02     -1.01     -3.55     -3.25     -1.69      0.83     -2.11      0.29      1.41     -1.38     -0.11
     -36.141663      67.815468     194.1      0.49      1.78     156.2         2         1      2448      1000   1785.01    -7.484       4.0      22.9   295.885     0.688     111.7   0.14922      29.0         H               193.2  0.075111  0.051904  0.000608  4.695301  0.902133  5.204667  1.175644     47.59    3.0932   17.4188   0.25030   4.49695   0.34711   0.02768  26.11807   3.27560    2098.6  0.559110  0.001410  0.000084  0.000187  0.190766  7.133894  0.720834    119.95  1.000075  1.000006     2.947    18.523      68.7      75.3      32.3     243.6     11.65     -7.58     -2.83      3.77     -2.50      0.71     -2.24      2.70      3.20      1.62     -1.46     -2.60     -3.67     -2.13      0.63     -1.22     -0.05      1.16     -1.55     -0.70
     -36.127434      67.750076     172.2      0.58      1.78     159.0         2         2      2448      2595   1587.93    -7.992       4.0      23.4   295.503     0.686      93.4   0.14840      21.4         H               193.2  0.073115  0.053361  0.000614  4.568532  0.895332  5.102610  1.174639     52.85    2.7090   13.7960   0.24843   4.27063   0.37418   0.03433  20.73731   2.91102    1865.1  0.558652  0.001121  0.000049  0.000189  0.193830  7.188870  0.719164    129.88  1.000052  1.000005     2.928    17.953      68.7      72.6      25.8     209.6     11.83     -7.57     -3.44      3.57     -2.54      0.77     -2.87      3.23      3.33      2.18     -0.66     -3.00     -3.37     -1.86      0.79     -1.40     -0.24      2.12     -1.17     -0.68
     -36.113438      67.685936     197.9      0.51      1.78     158.9         2         3      2448      4190   1461.62    -8.352       4.1      23.8   293.863     0.676      75.9   0.14355      30.6         H               193.2  0.071252  0.051002  0.000654  4.342768  0.906407  4.791191  1.166694     44.01    2.4598   11.5162   0.24215   4.11114   0.39360   0.03970  17.45511   2.67105    1705.2  0.553162  0.000888  0.000018  0.000178  0.194912  7.155130  0.707660    123.26  1.000068  1.000006     2.922    18.317      68.7      70.6      21.8     195.1     12.23     -8.06     -3.51      2.74     -1.40      1.15     -3.06      3.92      3.26      2.39     -1.18     -2.75     -4.06     -1.56      1.28     -2.13      0.43      2.11     -1.47     -0.35
     -36.194023      67.798767     186.2      0.62      1.78     157.2         3         1      3896      1000   1815.65    -7.410       4.1      22.9   299.545     0.703      86.3   0.15576      26.0         H               193.2  0.077451  0.055246  0.000589  5.040587  0.929098  5.425248  1.189083     36.77    3.1578   18.4560   0.25515   4.52938   0.34379   0.02700  27.49422   3.34345    2158.9  0.568995  0.000914  0.000047  0.000184  0.194212  7.145423  0.737083    115.29  1.000104  1.000009     3.050    19.485      71.1      75.7      33.9     240.9     12.06     -7.64     -1.28      3.97     -2.82      1.54     -2.41      3.02      2.38     -0.25     -2.01     -1.70     -4.34     -1.90      1.30     -1.22     -0.59      1.78     -1.53     -0.15
     -36.179787      67.733322     197.9      0.52      1.78     158.9         3         2      3896      2595   1672.36    -7.767       4.2      23.4   294.397     0.683      81.7   0.14747      30.6         H               193.2  0.072650  0.051182  0.000489  4.489573  0.886620  5.063694  1.171528     40.30    2.8726   15.2000   0.24706   4.37220   0.36094   0.03087  22.88939   3.06715    1959.2  0.558165  0.000870  0.000044  0.000181  0.195229  7.162400  0.714715    120.83  1.000094  1.000008     2.944    18.215      69.9      74.0      28.4     219.1     12.10     -7.90     -2.49      3.48     -2.04      1.05     -2.99      3.41      3.05      1.17     -1.37     -2.35     -4.29     -1.71      1.25     -1.06      0.21      1.49     -1.38     -0.01
     -36.165783      67.669128     197.9      0.58      1.78     158.9         3         3      3896      4190   1546.03    -8.108       4.3      23.8   292.841     0.679      70.4   0.14641      30.6         H               193.2  0.069844  0.051051  0.000538  4.383069  0.884195  4.957128  1.167890     45.52    2.6253   12.9184   0.24480   4.22009   0.37974   0.03570  19.51199   2.82985    1805.6  0.556960  0.000697  0.000025  0.000180  0.198413  7.199724  0.709742    128.97  1.000089  1.000008     2.892    17.356      68.7      72.1      24.3     198.7     12.20     -7.96     -2.62      3.35     -2.15      1.20     -3.22      3.82      2.94      1.26     -1.30     -2.38     -3.85     -1.94      1.08     -1.27     -0.21      1.86     -1.14     -0.66
