 key=0  OK | key= 1 nv>nv_max | key=-1 outlier, false | key=-2 SWH<SWH-min | key=-3 SWH>SWH-max | key=-5 wind < min-wind, false | key=-10  land points | POL: VV
-----------------------------------------------------------------------------------------------------------------------------------------------------------------------------------------------------------------------------------------------------------------------------------------------
         LAT         LON         SWH         Tm0         Tm1         Tm2         SW1         SW2         SWW         Tmw         key     wv1/wv2  start date  start time    end date    end time                                                              scene ID rel.orbit des(0)/asc(1)
