corner points
-132.8887024    17.13080406
-132.9241943    17.30577278
-132.7058868    17.16491127
-132.7411957    17.33985138
========== RESULTS WAVE VERSION 16.10.2018 ====================
IMAGE SIZE  X: 4376     Y:4780    col:row     POLARIZATION:VV
COVERAGE    X: 19.74723848km       Y: 19.76968348km 
RESOLUTION dX: 4.512623053m       dY:4.135917047m  
resolution of original product 4.512623053m x 4.135917047m;   raster step x:5997.276038m  
===============================================================
FLAGS: H=HIGH PROBABILITY SEA STATE, I=LAND(ISLAND), O=OUTLIER NO SEA STATE, N=NO WIND AVAILABLE, SEA STATE NOT VISIBLE, M=MEAN PROBABILITY SEA STATE, L= LOW PROBABILITY SEA STATE
Filtering wave length
 integration  Lmin=1m
 integration  Lmax=2200m
  peak        Lmin=100m
               FFT=1024pixels, 4620.926007m 
   mean-Hs (SWH_c)=1.312582397m
         mean-wind=13.93107033m/s
--------------0--------------1---------2---------3---------4---------5---------6---------7---------8---------9--------10--------11--------12--------13--------14--------15--------16--------17--------18--------19------------------20--------21--------22--------23--------24--------25--------26--------27--------28--------29--------30--------31--------32--------33--------34--------35--------36--------37--------38--------39--------40--------41--------42--------43--------44--------45--------46--------47--------48--------49--------50--------51--------52--------53--------54--------55--------56--------57--------58--------59--------60--------61--------62--------63--------64--------65--------66--------67--------68--------69--------70--------71--------72--------73
            LAT            LON  P-LENGHT     SWH_o     SWH_c     P-DIR      LINE     POINT     ROW-Y     COL-X  M-INTENC        dB      WIND INC-ANGLE  ENERGY-M  ENERGY-N  ENERGY-R ENERGY-NN  FG-DEPTH      FLAG         HEADING-DEG    E30-75   E75-390  E390-600 meanincut   meanout   cut/out  STD-NORM  SPEC-MAX   GL-MEAN    GL-VAR      CORR   ENTROPY   HOMOGEN    ENERGY  CONTRAST  DISSIMIL     STD-O    E 1-30 E600-2000   E2000 >      GODA  LONG-HIG     Tmean  CONVOLUT  MEAN-DIR  relation     Sy/Sx  SKEWNESS  KURTOSIS  cutoff-A >50/10000     INT*V   INT-LOG  S-1_g1f1  S-2_g1f2  S-3_g1f3  S-4_g2f1  S-5_g2f2  S-6_g2f3  S-7_g3f1  S-8_g3f2  S-9_g3f3 S-10_g1f4 S-11_g2f4 S-12_g3f4 S-13_g1f5 S-14_g2f5 S-15_g3f5 S-16_g4f1 S-17_g4f2 S-18_g4f3 S-19_g4f4 S-20_g4f5
--------------1--------------2---------3---------4---------5---------6---------7---------8---------9--------10--------11--------12--------13--------14--------15--------16--------17--------18--------19--------20------------------21--------22--------23--------24--------25--------26--------27--------28--------29--------30--------31--------32--------33--------34--------35--------36--------37--------38--------39--------40--------41--------42--------43--------44--------45--------46--------47--------48--------49--------50--------51--------52--------53--------54--------55--------56--------57--------58--------59--------60--------61--------62--------63--------64--------65--------66--------67--------68--------69--------70--------71--------72--------73--------74
      17.175312    -132.853882     371.1      1.51      3.01      28.8         1         1      1000      1000    646.19   -11.896      14.7      37.0   220.691     0.574      73.5   0.08526     100.0         H               347.9  0.052206  0.019646  0.001758  1.725679  0.708242  2.436568  1.074891     42.98   12.2401  166.9559   0.12954   7.02351   0.11482   0.00175 290.65594  12.10602     694.6  0.499711  0.001062  0.000089  0.000153  0.173569  6.838377  0.579056     76.25  1.000130  1.000010     2.441    13.230     102.3      96.3     412.3     762.0     14.02      6.31     -4.34     -5.67     -7.13      5.63      4.43      2.98     -1.98     -4.12      5.65     -2.60     -2.56      2.27      0.16    -23.45    -18.92     14.41     15.07      5.60
      17.185711    -132.798157     326.7      1.36      3.01      39.5         1         2      1000      2329    568.80   -12.450      14.0      37.3   222.481     0.577      94.1   0.08483     100.0         H               347.9  0.051729  0.020112  0.001641  1.790672  0.713611  2.509311  1.077798     36.41   10.7802  135.9101   0.12833   6.80173   0.12756   0.00226 236.93581  10.79815     613.0  0.502267  0.001194  0.000204  0.000148  0.174502  6.856178  0.581382     76.62  1.000127  1.000011     2.445    12.873     107.8      95.3     316.2     628.2     13.91      6.24     -3.90     -5.26     -6.23      5.38      4.19      1.98     -1.92     -3.29      4.40     -1.13     -2.28      1.85      1.38    -22.13    -15.29     14.15     10.38      2.36
      17.196005    -132.742905     371.1      1.48      3.01      28.8         1         3      1000      3658    599.17   -12.224      14.6      37.7   222.923     0.580     130.1   0.08680     100.0         H               347.9  0.052702  0.020264  0.001861  1.807933  0.725446  2.492167  1.080822     41.68   11.3542  148.6566   0.13294   6.89187   0.12265   0.00205 257.78867  11.30475     647.6  0.503208  0.001834  0.000276  0.000157  0.172254  6.839396  0.585010     78.82  1.000115  1.000010     2.471    13.350     107.8      95.7     354.1     708.0     13.97      6.62     -4.33     -5.77     -7.03      5.30      4.55      2.87     -2.12     -3.54      5.06     -1.86     -3.00      2.82      0.31    -24.09    -18.84     14.71     12.84      6.28
      17.228397    -132.864639     365.3      1.46      3.01      18.4         2         1      2450      1000    619.55   -12.079      14.4      37.0   223.179     0.581     138.3   0.08654     100.0         H               347.9  0.052340  0.019972  0.001685  1.786513  0.721132  2.477373  1.081320     39.43   11.7314  156.7694   0.13161   6.94783   0.11898   0.00192 272.27438  11.65289     669.9  0.504707  0.002045  0.000280  0.000151  0.173488  6.850826  0.585780     78.48  1.000137  1.000011     2.477    13.321     107.8      95.9     379.5     716.9     14.09      6.05     -3.90     -5.71     -6.04      4.96      3.88      1.69     -1.91     -2.87      4.05     -1.73     -1.54      1.26      1.26    -22.81    -14.88     12.84     10.06      1.89
      17.238792    -132.808899     371.1      1.31      3.01      28.8         2         2      2450      2329    561.03   -12.510      13.9      37.3   223.787     0.581     123.3   0.08629     100.0         H               347.9  0.053242  0.020065  0.001931  1.762886  0.723904  2.435247  1.082010     39.48   10.6278  133.4667   0.13164   6.77435   0.12941   0.00234 231.79233  10.65290     607.0  0.504604  0.001712  0.000240  0.000157  0.174038  6.839207  0.586514     78.22  1.000135  1.000012     2.470    13.153     107.8      95.1     308.5     646.9     14.13      7.38     -4.64     -6.28     -7.70      5.95      4.84      3.06     -2.14     -3.76      5.31     -2.20     -2.41      2.09      0.32    -24.97    -20.50     15.71     14.09      4.87
      17.249084    -132.753632     385.0      1.23      3.01      24.6         2         3      2450      3658    542.65   -12.655      13.9      37.7   222.458     0.575      93.3   0.08341     100.0         H               347.9  0.051922  0.019114  0.001651  1.783616  0.705619  2.527732  1.076339     32.94   10.2801  124.9519   0.12704   6.71744   0.13251   0.00247 218.15549  10.33226     584.1  0.501361  0.001462  0.000150  0.000154  0.167469  6.814819  0.579882     80.53  1.000130  1.000011     2.456    13.042     105.0      94.8     285.9     600.2     13.66      5.82     -4.05     -4.98     -5.63      5.53      4.45      1.97     -2.43     -3.33      5.09     -2.63     -1.52      0.73      1.29    -22.41    -15.30     15.19     14.04      0.85
      17.281483    -132.875397     337.5      1.28      3.01      17.0         3         1      3900      1000    567.24   -12.462      13.7      37.0   225.626     0.590     374.1   0.08926     100.0         H               347.9  0.053644  0.019981  0.001500  1.820009  0.728182  2.499386  1.091530     29.84   10.7345  137.1479   0.13811   6.78940   0.12926   0.00232 236.41415  10.74778     619.2  0.509569  0.004288  0.001103  0.000156  0.170464  6.828039  0.595831     81.92  1.000162  1.000013     2.540    13.982     121.0      95.1     319.0     673.0     13.84      5.41     -3.15     -4.94     -5.19      4.07      3.57      1.17     -0.87     -2.54      3.25     -1.13     -1.78      1.39      1.26    -20.73    -12.38      9.62      8.31      1.75
      17.291876    -132.819626     365.3      1.11      3.01      18.4         3         2      3900      2329    501.69   -12.996      13.0      37.3   223.684     0.580     168.0   0.08392     100.0         H               347.9  0.051607  0.019630  0.001705  1.780462  0.700667  2.541097  1.080747     37.43    9.4856  109.5857   0.12802   6.57070   0.14192   0.00290 191.11244   9.59861     542.2  0.504086  0.002415  0.000386  0.000148  0.172563  6.852073  0.584540     77.14  1.000113  1.000009     2.503    14.032     110.8      94.1     243.4     616.8     13.96      5.98     -4.44     -5.60     -6.08      5.85      4.39      1.98     -2.07     -3.46      4.88     -1.99     -2.32      1.47      1.13    -23.27    -15.70     15.38     12.56      2.86
      17.302166    -132.764343     373.5      1.06      3.01      14.0         3         3      3900      3658    498.78   -13.021      13.2      37.7   222.136     0.573     104.7   0.08182     100.0         H               347.9  0.051435  0.018612  0.001087  1.749306  0.698646  2.503853  1.074437     21.96    9.4340  107.8208   0.12473   6.56190   0.14174   0.00290 188.74474   9.54950     535.9  0.500713  0.001467  0.000215  0.000147  0.165896  6.817015  0.577504     82.35  1.000128  1.000010     2.439    12.809     105.0      94.1     238.6     550.0     13.03      4.59     -2.95     -2.90     -4.19      4.54      3.36      1.35     -1.55     -1.93      3.11     -1.14     -1.26      0.94      1.04    -16.39    -10.76     11.29      7.78      1.32
