corner points
-133.247345    18.90024567
-133.2829742    19.0753212
-133.0626221    18.93406487
-133.0980377    19.10911179
========== RESULTS WAVE VERSION 16.10.2018 ====================
IMAGE SIZE  X: 4376     Y:4784    col:row     POLARIZATION:VV
COVERAGE    X: 19.74780701km       Y: 19.77661002km 
RESOLUTION dX: 4.512752974m       dY:4.133906776m  
resolution of original product 4.512752974m x 4.133906776m;   raster step x:5997.448702m  
===============================================================
FLAGS: H=HIGH PROBABILITY SEA STATE, I=LAND(ISLAND), O=OUTLIER NO SEA STATE, N=NO WIND AVAILABLE, SEA STATE NOT VISIBLE, M=MEAN PROBABILITY SEA STATE, L= LOW PROBABILITY SEA STATE
Filtering wave length
 integration  Lmin=1m
 integration  Lmax=2200m
  peak        Lmin=100m
               FFT=1024pixels, 4621.059045m 
   mean-Hs (SWH_c)=1.059687881m
         mean-wind=12.8039093m/s
--------------0--------------1---------2---------3---------4---------5---------6---------7---------8---------9--------10--------11--------12--------13--------14--------15--------16--------17--------18--------19------------------20--------21--------22--------23--------24--------25--------26--------27--------28--------29--------30--------31--------32--------33--------34--------35--------36--------37--------38--------39--------40--------41--------42--------43--------44--------45--------46--------47--------48--------49--------50--------51--------52--------53--------54--------55--------56--------57--------58--------59--------60--------61--------62--------63--------64--------65--------66--------67--------68--------69--------70--------71--------72--------73
            LAT            LON  P-LENGHT     SWH_o     SWH_c     P-DIR      LINE     POINT     ROW-Y     COL-X  M-INTENC        dB      WIND INC-ANGLE  ENERGY-M  ENERGY-N  ENERGY-R ENERGY-NN  FG-DEPTH      FLAG         HEADING-DEG    E30-75   E75-390  E390-600 meanincut   meanout   cut/out  STD-NORM  SPEC-MAX   GL-MEAN    GL-VAR      CORR   ENTROPY   HOMOGEN    ENERGY  CONTRAST  DISSIMIL     STD-O    E 1-30 E600-2000   E2000 >      GODA  LONG-HIG     Tmean  CONVOLUT  MEAN-DIR  relation     Sy/Sx  SKEWNESS  KURTOSIS  cutoff-A >50/10000     INT*V   INT-LOG  S-1_g1f1  S-2_g1f2  S-3_g1f3  S-4_g2f1  S-5_g2f2  S-6_g2f3  S-7_g3f1  S-8_g3f2  S-9_g3f3 S-10_g1f4 S-11_g2f4 S-12_g3f4 S-13_g1f5 S-14_g2f5 S-15_g3f5 S-16_g4f1 S-17_g4f2 S-18_g4f3 S-19_g4f4 S-20_g4f5
--------------1--------------2---------3---------4---------5---------6---------7---------8---------9--------10--------11--------12--------13--------14--------15--------16--------17--------18--------19--------20------------------21--------22--------23--------24--------25--------26--------27--------28--------29--------30--------31--------32--------33--------34--------35--------36--------37--------38--------39--------40--------41--------42--------43--------44--------45--------46--------47--------48--------49--------50--------51--------52--------53--------54--------55--------56--------57--------58--------59--------60--------61--------62--------63--------64--------65--------66--------67--------68--------69--------70--------71--------72--------73--------74
      18.944679    -133.212112     384.9      0.95      2.69      24.6         1         1      1000      1000    474.46   -13.238      12.3      37.0   226.249     0.584     216.1   0.08468     100.0         H               347.8  0.051819  0.019304  0.002200  1.785819  0.715431  2.496145  1.084766     32.51    8.9543   99.8104   0.12936   6.46419   0.14879   0.00326 173.79732   9.11510     514.7  0.506664  0.003594  0.000470  0.000138  0.170480  6.830209  0.588945     80.51  1.000148  1.000012     2.513    13.772     110.8      93.4     217.5     559.8     13.59      6.02     -3.32     -5.53     -7.04      4.41      5.71      4.23     -2.08     -3.59      4.91     -3.12     -2.19      1.95     -0.55    -26.92    -22.27     13.15     15.79      6.82
      18.954990    -133.155792     355.3      0.95      2.69      22.6         1         2      1000      2329    464.71   -13.328      12.4      37.3   224.667     0.577     110.2   0.08164     100.0         H               347.8  0.050978  0.019066  0.001531  1.798902  0.694150  2.591517  1.078125     23.11    8.7685   95.3256   0.12357   6.42746   0.15056   0.00336 167.09227   8.94314     501.0  0.503864  0.002020  0.000187  0.000155  0.164377  6.825580  0.581726     81.73  1.000162  1.000012     2.474    13.487     105.0      93.3     206.5     549.3     12.96      4.80     -3.17     -3.62     -4.89      3.71      4.56      2.35     -0.83     -2.32      3.47     -1.25     -1.63      1.66     -0.09    -20.52    -14.52      9.91      9.05      4.90
      18.965197    -133.099960     371.0      1.08      2.69      28.8         1         3      1000      3658    476.33   -13.221      12.9      37.7   224.593     0.576     106.9   0.08125     100.0         H               347.8  0.050174  0.019558  0.001812  1.786996  0.692881  2.579081  1.076600     34.30    8.9961   99.5603   0.12293   6.47463   0.14745   0.00319 174.64211   9.15550     512.8  0.502406  0.001967  0.000161  0.000149  0.170825  6.854634  0.580033     79.70  1.000138  1.000012     2.452    12.973     110.8      93.6     217.1     533.9     13.55      6.06     -3.43     -5.00     -6.64      4.86      4.84      3.47     -2.00     -3.10      4.59     -2.64     -2.88      2.94     -0.42    -23.31    -19.64     13.64     13.47      8.20
      18.997789    -133.222900     383.1      1.15      2.69      35.5         2         1      2451      1000    508.90   -12.934      12.8      37.0   228.445     0.595     357.0   0.08916     100.0         H               347.8  0.052476  0.020543  0.002208  1.946942  0.709773  2.743049  1.095417     29.00    9.6152  114.3792   0.13776   6.59067   0.14140   0.00288 197.24400   9.72309     557.4  0.512837  0.006064  0.000869  0.000151  0.166061  6.844294  0.601188     81.97  1.000209  1.000017     2.576    14.383     121.0      94.0     255.2     618.1     13.48      5.77     -2.19     -5.29     -6.05      2.82      5.77      3.19     -0.70     -2.04      3.18     -1.38     -2.09      2.33     -0.32    -26.03    -18.63      7.74      8.96      6.50
      19.008099    -133.166565     383.1      1.04      2.69      35.5         2         2      2451      2329    497.09   -13.036      12.9      37.3   224.503     0.579     110.4   0.08385     100.0         H               347.8  0.052223  0.019055  0.001763  1.793323  0.709662  2.527009  1.079090     28.35    9.3984  107.6933   0.12724   6.55363   0.14259   0.00294 187.98003   9.52114     536.4  0.503495  0.002150  0.000167  0.000152  0.165425  6.812931  0.582906     80.98  1.000140  1.000011     2.474    13.238     107.8      94.0     238.3     555.0     13.29      5.80     -3.49     -4.52     -6.51      4.50      4.82      3.36     -1.97     -2.90      4.59     -2.60     -2.91      2.44      0.12    -22.94    -19.38     13.09     13.60      6.54
      19.018303    -133.110718     364.7      1.01      2.69      39.2         2         3      2451      3658    468.80   -13.290      12.7      37.7   224.389     0.576      99.6   0.08112     100.0         H               347.8  0.051234  0.019242  0.001520  1.799937  0.692785  2.598116  1.076400     24.87    8.8514   96.8700   0.12378   6.44477   0.14915   0.00329 169.76018   9.02322     504.6  0.501984  0.001808  0.000161  0.000154  0.165935  6.837918  0.579927     81.89  1.000163  1.000013     2.431    12.713     107.8      93.3     210.1     518.6     13.19      5.72     -3.14     -3.99     -6.11      3.48      4.22      2.62     -0.71     -2.73      3.55     -1.76     -3.16      2.53     -0.47    -20.66    -17.33      9.36     10.11      7.56
      19.050900    -133.233688     355.3      1.17      2.69      22.6         3         1      3902      1000    535.66   -12.711      13.2      37.0   226.656     0.587     364.7   0.08799     100.0         H               347.8  0.052867  0.019768  0.001904  1.862712  0.721512  2.581679  1.089133     26.32   10.1361  124.4339   0.13639   6.68745   0.13523   0.00259 214.92375  10.20227     583.3  0.506800  0.005534  0.000929  0.000146  0.168086  6.836913  0.593247     81.82  1.000140  1.000012     2.509    13.504     117.4      94.5     282.0     606.9     13.44      5.25     -2.92     -4.58     -5.72      4.39      4.88      2.59     -1.67     -3.09      4.16     -2.38     -1.56      1.54      0.09    -23.29    -17.11     11.89     12.49      4.71
      19.061205    -133.177338     383.1      1.02      2.69      35.5         3         2      3902      2329    492.05   -13.080      12.9      37.3   224.598     0.578     115.2   0.08318     100.0         H               347.8  0.052134  0.018925  0.001947  1.840483  0.697476  2.638775  1.079038     18.50    9.3027  106.1019   0.12797   6.53509   0.14419   0.00301 185.04688   9.43360     530.9  0.503296  0.002235  0.000188  0.000159  0.164465  6.822494  0.583171     82.26  1.000129  1.000010     2.452    13.131     114.0      93.9     233.4     582.3     13.33      5.29     -3.11     -4.81     -5.44      4.54      5.35      3.43     -2.16     -2.64      4.04     -2.34     -2.15      2.02     -0.46    -24.93    -18.39     13.50     12.78      7.21
      19.071407    -133.121460     371.0      1.16      2.69      28.8         3         3      3902      3658    490.60   -13.093      13.1      37.7   224.021     0.577      96.8   0.08270     100.0         H               347.8  0.050934  0.020259  0.001718  1.860754  0.697231  2.668778  1.077717     36.75    9.2755  105.2580   0.12618   6.53039   0.14429   0.00302 183.95186   9.40454     528.7  0.502480  0.001696  0.000138  0.000160  0.170523  6.846320  0.581520     80.76  1.000161  1.000013     2.451    13.036     107.8      93.9     231.4     565.8     13.70      6.50     -3.17     -4.99     -6.24      4.21      4.31      2.50     -1.23     -2.89      4.19     -2.09     -2.64      2.50     -0.36    -22.41    -18.16     11.01     11.74      7.32
