corner points
-118.4698334    -45.73113251
-118.5431061    -45.55558014
-118.2138748    -45.67650986
-118.2880478    -45.50112152
========== RESULTS WAVE VERSION 16.10.2018 ====================
IMAGE SIZE  X: 5471     Y:4909    col:row     POLARIZATION:VV
COVERAGE    X: 20.73084826km       Y: 20.29105572km 
RESOLUTION dX: 3.789224687m       dY:4.133439748m  
resolution of original product 3.789224687m x 4.133439748m;   raster step x:5998.342679m  
===============================================================
FLAGS: H=HIGH PROBABILITY SEA STATE, I=LAND(ISLAND), O=OUTLIER NO SEA STATE, N=NO WIND AVAILABLE, SEA STATE NOT VISIBLE, M=MEAN PROBABILITY SEA STATE, L= LOW PROBABILITY SEA STATE
Filtering wave length
 integration  Lmin=1m
 integration  Lmax=2200m
  peak        Lmin=100m
               FFT=1024pixels, 3880.166079m 
   mean-Hs (SWH_c)=2.344546967m
         mean-wind=8.612757683m/s
--------------0--------------1---------2---------3---------4---------5---------6---------7---------8---------9--------10--------11--------12--------13--------14--------15--------16--------17--------18--------19------------------20--------21--------22--------23--------24--------25--------26--------27--------28--------29--------30--------31--------32--------33--------34--------35--------36--------37--------38--------39--------40--------41--------42--------43--------44--------45--------46--------47--------48--------49--------50--------51--------52--------53--------54--------55--------56--------57--------58--------59--------60--------61--------62--------63--------64--------65--------66--------67--------68--------69--------70--------71--------72--------73
            LAT            LON  P-LENGHT     SWH_o     SWH_c     P-DIR      LINE     POINT     ROW-Y     COL-X  M-INTENC        dB      WIND INC-ANGLE  ENERGY-M  ENERGY-N  ENERGY-R ENERGY-NN  FG-DEPTH      FLAG         HEADING-DEG    E30-75   E75-390  E390-600 meanincut   meanout   cut/out  STD-NORM  SPEC-MAX   GL-MEAN    GL-VAR      CORR   ENTROPY   HOMOGEN    ENERGY  CONTRAST  DISSIMIL     STD-O    E 1-30 E600-2000   E2000 >      GODA  LONG-HIG     Tmean  CONVOLUT  MEAN-DIR  relation     Sy/Sx  SKEWNESS  KURTOSIS  cutoff-A >50/10000     INT*V   INT-LOG  S-1_g1f1  S-2_g1f2  S-3_g1f3  S-4_g2f1  S-5_g2f2  S-6_g2f3  S-7_g3f1  S-8_g3f2  S-9_g3f3 S-10_g1f4 S-11_g2f4 S-12_g3f4 S-13_g1f5 S-14_g2f5 S-15_g3f5 S-16_g4f1 S-17_g4f2 S-18_g4f3 S-19_g4f4 S-20_g4f5
--------------1--------------2---------3---------4---------5---------6---------7---------8---------9--------10--------11--------12--------13--------14--------15--------16--------17--------18--------19--------20------------------21--------22--------23--------24--------25--------26--------27--------28--------29--------30--------31--------32--------33--------34--------35--------36--------37--------38--------39--------40--------41--------42--------43--------44--------45--------46--------47--------48--------49--------50--------51--------52--------53--------54--------55--------56--------57--------58--------59--------60--------61--------62--------63--------64--------65--------66--------67--------68--------69--------70--------71--------72--------73--------74
     -45.685158    -118.436722     293.9      2.26      3.37     114.6         1         1      1000      1000   3470.28    -4.596       8.7      22.7   283.878     0.791     112.2   0.19718     100.0         H               345.5  0.090277  0.081098  0.002006  6.483090  1.021460  6.346887  1.260481    103.68    6.4180   70.1508   0.29098   5.77769   0.22067   0.00824  99.47583   6.38969    4373.8  0.617224  0.000886  0.000020  0.000225  0.210250  7.355313  0.835088     98.73  1.000310  1.000035     3.594    27.390     110.8      87.4     138.2     575.5     14.07     -6.01      7.83      1.89      0.53      4.34     -0.41      1.92      0.11     -6.63     -0.27      1.75      0.80      3.02      2.29     -5.48      2.59      2.69      2.38      2.95
     -45.669216    -118.361870     302.1      2.37      3.37     110.9         1         2      1000      2583   3141.89    -5.028       8.7      23.2   285.842     0.791     118.3   0.19508     100.0         H               345.5  0.087998  0.083124  0.001986  6.516677  0.997606  6.532316  1.259680     96.05    5.7782   58.7796   0.28857   5.58529   0.23851   0.01004  83.63573   5.80584    3957.5  0.617255  0.000861  0.000022  0.000222  0.214688  7.370591  0.834245     98.57  1.000308  1.000033     3.594    28.332     110.8      85.8     112.4     566.2     14.39     -6.41      7.75      1.43      0.89      4.16     -1.05      2.01     -0.40     -6.40     -0.25      1.93      0.87      2.72      1.88     -6.04      3.62      2.23      2.21      2.44
     -45.653526    -118.288467     293.9      2.57      3.37     114.6         1         3      1000      4166   2862.42    -5.433       8.7      23.6   290.668     0.816     132.5   0.20743     100.0         H               345.5  0.091296  0.089592  0.002607  6.710555  1.021994  6.566138  1.280164    111.57    5.2199   50.4333   0.29804   5.39231   0.25796   0.01243  70.80419   5.28327    3664.3  0.632097  0.001139  0.000018  0.000228  0.219607  7.419637  0.862864    100.81  1.000325  1.000035     3.797    32.337     114.0      83.8      94.6     534.9     14.85     -6.86      8.60      0.79      1.53      3.29     -1.57      2.14     -1.14     -6.75      0.55      2.25      0.63      2.77      1.31     -7.50      5.00      0.62      3.53      2.82
     -45.633270    -118.458458     315.5      2.38      3.37     116.6         2         1      2451      1000   3425.47    -4.653       8.6      22.7   286.988     0.798     118.9   0.19865     100.0         H               345.5  0.089134  0.083952  0.001957  6.711306  1.023828  6.555113  1.267140    114.13    6.3229   68.7078   0.29006   5.74880   0.22383   0.00853  97.55600   6.31076    4340.4  0.622877  0.000858  0.000023  0.000219  0.216960  7.385294  0.842622    101.16  1.000326  1.000035     3.727    31.763     107.8      87.1     135.2     640.9     14.50     -6.52      8.34      1.26      1.42      3.52     -1.34      2.10     -0.76     -6.92      0.53      2.31      0.82      2.97      1.49     -5.83      4.16      1.70      3.17      3.16
     -45.617340    -118.383675     233.1      2.40      3.37     106.0         2         2      2451      2583   3080.00    -5.114       8.5      23.2   289.871     0.812     121.6   0.20573      51.6         H               345.5  0.092015  0.086524  0.002650  6.794497  1.050888  6.465480  1.277645     90.58    5.6532   57.5971   0.29557   5.53959   0.24362   0.01064  81.14486   5.68780    3935.2  0.630897  0.000917  0.000011  0.000225  0.215397  7.391493  0.858215     99.54  1.000347  1.000037     3.747    30.586     110.8      85.3     109.9     550.8     14.53     -6.20      7.58      1.30      0.75      4.46     -1.24      1.81     -1.10     -5.89     -1.23      2.10      0.51      2.94      1.49     -7.18      3.95      2.77      1.26      3.34
     -45.601665    -118.310356     315.5      2.40      3.37     116.6         2         3      2451      4166   2888.42    -5.393       8.8      23.6   287.760     0.805     129.9   0.20275     100.0         H               345.5  0.091498  0.085288  0.002405  6.320928  1.023351  6.176695  1.272228    108.74    5.2728   50.8560   0.29470   5.41386   0.25553   0.01205  71.73662   5.33127    3674.8  0.625678  0.001006  0.000030  0.000223  0.219467  7.393764  0.850856    100.88  1.000376  1.000041     3.712    30.272     114.0      84.2      95.5     531.0     14.76     -6.53      8.91      1.10      1.14      3.38     -1.55      1.66     -1.27     -7.17      0.17      2.11      0.56      3.33      1.43     -7.05      4.45      0.56      3.22      3.53
     -45.581375    -118.480148     274.9      2.20      3.37     112.9         3         1      3902      1000   3377.70    -4.714       8.4      22.7   286.961     0.803     101.9   0.20238     100.0         H               345.5  0.092902  0.081749  0.001793  6.496043  1.052935  6.169466  1.271167     91.02    6.2338   67.7637   0.29338   5.71925   0.22722   0.00887  95.76700   6.22993    4293.4  0.626570  0.000622  0.000010  0.000221  0.210229  7.330349  0.847601     98.99  1.000319  1.000034     3.613    27.793     107.8      86.8     131.9     587.1     13.99     -6.26      7.21      1.97      0.24      4.43     -0.86      2.03     -0.35     -6.47     -1.03      1.94      0.64      2.81      2.00     -5.11      2.54      3.17      1.13      2.89
     -45.565464    -118.405449     285.1      2.37      3.37     118.1         3         2      3902      2583   3099.45    -5.087       8.5      23.2   290.328     0.814     110.1   0.20652     100.0         H               345.5  0.092715  0.085768  0.001973  6.644056  1.045610  6.354242  1.278009     96.24    5.6860   58.3450   0.29594   5.54879   0.24316   0.01060  82.15622   5.72425    3961.1  0.633536  0.000679  0.000009  0.000224  0.213827  7.356878  0.859624    100.09  1.000327  1.000036     3.739    31.819     110.8      85.3     111.4     588.2     14.42     -6.17      7.80      1.49      0.71      3.66     -1.48      1.86     -0.72     -6.88     -0.43      2.14      0.76      2.49      1.53     -5.88      3.40      1.87      2.17      3.04
     -45.549801    -118.332207     293.9      2.17      3.37     114.6         3         3      3902      4166   2822.47    -5.494       8.6      23.6   288.587     0.808     127.7   0.20453     100.0         H               345.5  0.094522  0.082034  0.002037  6.580203  1.034941  6.358048  1.274246     98.24    5.1483   49.0579   0.29530   5.36872   0.26020   0.01270  69.14214   5.22406    3596.1  0.629344  0.001054  0.000039  0.000227  0.213119  7.329254  0.853570    100.83  1.000310  1.000034     3.653    28.286     110.8      83.7      91.5     490.0     14.31     -6.29      7.68      1.83      0.25      4.38     -1.36      2.15     -0.93     -6.88     -1.27      2.33      0.54      2.48      2.03     -5.67      2.47      2.86      1.11      2.19
