corner points
-130.3244171    -3.587657928
-130.3625793    -3.406896353
-130.1480865    -3.549341202
-130.1863098    -3.368616819
========== RESULTS WAVE VERSION 16.10.2018 ====================
IMAGE SIZE  X: 5471     Y:4929    col:row     POLARIZATION:VV
COVERAGE    X: 19.98079486km       Y: 20.49395164km 
RESOLUTION dX: 3.65212847m       dY:4.157831535m  
resolution of original product 3.65212847m x 4.157831535m;   raster step x:5996.794948m  
===============================================================
FLAGS: H=HIGH PROBABILITY SEA STATE, I=LAND(ISLAND), O=OUTLIER NO SEA STATE, N=NO WIND AVAILABLE, SEA STATE NOT VISIBLE, M=MEAN PROBABILITY SEA STATE, L= LOW PROBABILITY SEA STATE
Filtering wave length
 integration  Lmin=1m
 integration  Lmax=2200m
  peak        Lmin=100m
               FFT=1024pixels, 3739.779554m 
   mean-Hs (SWH_c)=1.000108261m
         mean-wind=6.184156418m/s
--------------0--------------1---------2---------3---------4---------5---------6---------7---------8---------9--------10--------11--------12--------13--------14--------15--------16--------17--------18--------19------------------20--------21--------22--------23--------24--------25--------26--------27--------28--------29--------30--------31--------32--------33--------34--------35--------36--------37--------38--------39--------40--------41--------42--------43--------44--------45--------46--------47--------48--------49--------50--------51--------52--------53--------54--------55--------56--------57--------58--------59--------60--------61--------62--------63--------64--------65--------66--------67--------68--------69--------70--------71--------72--------73
            LAT            LON  P-LENGHT     SWH_o     SWH_c     P-DIR      LINE     POINT     ROW-Y     COL-X  M-INTENC        dB      WIND INC-ANGLE  ENERGY-M  ENERGY-N  ENERGY-R ENERGY-NN  FG-DEPTH      FLAG         HEADING-DEG    E30-75   E75-390  E390-600 meanincut   meanout   cut/out  STD-NORM  SPEC-MAX   GL-MEAN    GL-VAR      CORR   ENTROPY   HOMOGEN    ENERGY  CONTRAST  DISSIMIL     STD-O    E 1-30 E600-2000   E2000 >      GODA  LONG-HIG     Tmean  CONVOLUT  MEAN-DIR  relation     Sy/Sx  SKEWNESS  KURTOSIS  cutoff-A >50/10000     INT*V   INT-LOG  S-1_g1f1  S-2_g1f2  S-3_g1f3  S-4_g2f1  S-5_g2f2  S-6_g2f3  S-7_g3f1  S-8_g3f2  S-9_g3f3 S-10_g1f4 S-11_g2f4 S-12_g3f4 S-13_g1f5 S-14_g2f5 S-15_g3f5 S-16_g4f1 S-17_g4f2 S-18_g4f3 S-19_g4f4 S-20_g4f5
--------------1--------------2---------3---------4---------5---------6---------7---------8---------9--------10--------11--------12--------13--------14--------15--------16--------17--------18--------19--------20------------------21--------22--------23--------24--------25--------26--------27--------28--------29--------30--------31--------32--------33--------34--------35--------36--------37--------38--------39--------40--------41--------42--------43--------44--------45--------46--------47--------48--------49--------50--------51--------52--------53--------54--------55--------56--------57--------58--------59--------60--------61--------62--------63--------64--------65--------66--------67--------68--------69--------70--------71--------72--------73--------74
      -3.543800    -130.299118     303.1      0.98      2.23     175.4         1         1      1000      1000   2296.74    -6.389       6.5      23.6   407.152     0.694     108.5   0.15276     100.0         H               348.0  0.068616  0.051674  0.001564  3.243485  0.873434  3.713487  1.179852    129.10    4.0968   28.8327   0.25010   4.99074   0.29091   0.01704  43.24325   4.24115    2709.8  0.571437  0.000962  0.000040  0.000198  0.225966  7.262379  0.729605     96.35  0.999842  0.999986     3.008    20.001      81.3      80.8      53.5     341.6     14.58     -0.47    -10.50     -4.84      2.94      9.14     -0.53      1.52      3.15      1.53      0.01      0.62      3.16     -5.05     -0.85    -13.35      3.00     16.04     -0.67     -7.49
      -3.532189    -130.245667     280.6      1.03      2.23       8.6         1         2      1000      2642   1992.93    -7.005       6.2      24.1   407.366     0.690     100.7   0.14984     100.0         H               348.0  0.067633  0.053498  0.001892  3.271738  0.864669  3.783802  1.177131    111.52    3.5023   21.7443   0.24837   4.71357   0.32159   0.02235  32.68792   3.67294    2345.8  0.566695  0.000784  0.000023  0.000188  0.228323  7.310929  0.725776     43.86  0.999857  0.999987     2.959    18.489      76.6      77.9      40.2     268.7     14.51     -0.11    -10.04     -4.60      3.27      7.91     -0.80      0.58      3.60      0.87      0.16      0.69      2.12     -3.10     -1.45    -13.37      4.08     14.03     -0.48     -3.49
      -3.520785    -130.193192     303.1      1.13      2.23       4.6         1         3      1000      4284   1776.18    -7.505       6.1      24.6   406.908     0.685     114.7   0.14688     100.0         H               348.0  0.065984  0.055238  0.001863  3.221846  0.836686  3.850722  1.173392    166.72    3.0881   17.2958   0.24618   4.49534   0.34719   0.02767  26.07620   3.27650    2084.3  0.561062  0.001113  0.000024  0.000216  0.234107  7.347297  0.720207    133.36  0.999750  0.999977     2.919    17.968      83.0      75.3      32.1     235.8     14.91     -0.32    -11.66     -5.56      2.23      9.74     -0.90      1.02      3.30      1.33      0.13     -0.26      4.71     -5.43     -1.09    -14.62      1.92     17.32      0.37     -8.07
      -3.490872    -130.310303     300.2      0.96      2.23       9.2         2         1      2443      1000   2245.21    -6.487       6.3      23.6   403.486     0.681     110.9   0.14719     100.0         H               348.0  0.066944  0.051191  0.001920  3.312469  0.856008  3.869670  1.170433     96.11    4.0058   27.2783   0.24688   4.95382   0.29412   0.01744  41.08762   4.14564    2627.7  0.560168  0.001205  0.000033  0.000181  0.225556  7.282177  0.715680     50.08  0.999889  0.999991     2.926    17.901      76.6      80.6      50.7     298.3     14.56     -0.20     -9.17     -4.70      2.75      7.63     -0.59      0.99      3.09      1.39     -0.00      0.35      1.34     -2.60     -1.34    -13.79      2.80     13.71     -0.12     -2.53
      -3.479264    -130.256851     283.0      1.02      2.23     175.7         2         2      2443      2642   1964.97    -7.066       6.1      24.1   404.134     0.681     110.7   0.14625     100.0         H               348.0  0.066398  0.053081  0.001959  3.162312  0.843139  3.750641  1.168494    121.27    3.4712   21.1349   0.24662   4.70048   0.32261   0.02243  31.84500   3.63513    2295.9  0.558943  0.001043  0.000024  0.000194  0.230188  7.312495  0.716421    143.67  0.999770  0.999980     2.935    18.346      78.1      77.9      39.3     266.1     14.83     -0.71    -10.88     -5.33      2.73      8.45     -1.15      1.20      3.20      1.71     -0.79     -0.18      3.30     -4.07     -1.38    -14.49      2.08     15.61     -1.02     -5.61
      -3.467863    -130.204376     280.6      1.10      2.23       8.6         2         3      2443      4284   1781.11    -7.493       6.2      24.6   402.022     0.673     119.8   0.14295     100.0         H               348.0  0.064270  0.053936  0.001657  3.126876  0.833786  3.750213  1.163377    134.15    3.0779   16.9079   0.24359   4.49249   0.34676   0.02748  25.57850   3.26047    2072.1  0.552739  0.001132  0.000046  0.000211  0.236944  7.380026  0.707874     25.34  0.999787  0.999981     2.843    16.975      79.7      75.5      31.6     239.2     14.90      0.85    -10.92     -5.21      1.44      8.44     -1.61      0.50      3.81     -0.42      0.68      0.54      3.34     -4.04     -1.57    -13.45      0.66     14.40      0.98     -5.04
      -3.437944    -130.321472     309.1      0.85      2.23     160.7         3         1      3886      1000   2253.96    -6.471       6.4      23.6   400.943     0.675      91.0   0.14361     100.0         H               348.0  0.066410  0.048580  0.001668  3.134771  0.866029  3.619708  1.162580     89.81    4.0198   27.1888   0.24295   4.96248   0.29230   0.01713  41.16644   4.16031    2620.3  0.557421  0.000808  0.000019  0.000175  0.221765  7.245490  0.708602    123.17  0.999878  0.999990     2.886    17.416      75.2      80.9      50.7     286.5     14.49     -0.00     -9.69     -4.49      3.00      7.57     -0.96      0.08      2.96      1.54     -1.16      0.73      1.60     -3.07     -1.07    -13.36      3.67     13.96     -2.86     -3.35
      -3.426339    -130.268036     309.1      0.95      2.23     160.7         3         2      3886      2642   1929.38    -7.146       5.9      24.1   403.943     0.678     113.0   0.14407     100.0         H               348.0  0.065803  0.051994  0.001823  3.178707  0.846532  3.754974  1.166250    104.81    3.3824   20.0865   0.24399   4.65624   0.32674   0.02336  30.37115   3.55664    2250.2  0.557433  0.000982  0.000041  0.000186  0.230784  7.317096  0.712420    106.19  0.999847  0.999988     2.905    18.071      78.1      77.4      37.4     261.5     14.72     -0.82    -10.16     -4.98      2.78      7.97     -1.26      0.64      3.22      1.77     -1.18      0.24      2.28     -3.38     -0.95    -13.52      3.27     14.43     -2.28     -4.45
      -3.414942    -130.215561     303.1      0.97      2.23     175.4         3         3      3886      4284   1719.14    -7.647       5.9      24.6   406.407     0.683     118.3   0.14686     100.0         H               348.0  0.067445  0.053389  0.001581  3.188338  0.856494  3.722545  1.172989    132.12    2.9619   16.0590   0.24678   4.42429   0.35484   0.02950  24.19177   3.15571    2016.6  0.560298  0.001005  0.000048  0.000201  0.230506  7.313516  0.718630    154.79  0.999817  0.999984     2.920    17.629      79.7      74.5      29.9     217.6     15.00     -1.50    -11.15     -5.64      3.47      8.85     -1.25      0.34      3.31      2.52     -1.80      0.01      3.21     -4.26     -1.07    -14.41      4.76     15.42     -3.42     -5.60
