corner points
-125.6486282    -16.47015953
-125.6910629    -16.29581451
-125.4666672    -16.42809486
-125.5092773    -16.25381088
========== RESULTS WAVE VERSION 16.10.2018 ====================
IMAGE SIZE  X: 4376     Y:4782    col:row     POLARIZATION:VV
COVERAGE    X: 19.91468576km       Y: 19.86223673km 
RESOLUTION dX: 4.55088797m       dY:4.153541767m  
resolution of original product 4.55088797m x 4.153541767m;   raster step x:5998.070344m  
===============================================================
FLAGS: H=HIGH PROBABILITY SEA STATE, I=LAND(ISLAND), O=OUTLIER NO SEA STATE, N=NO WIND AVAILABLE, SEA STATE NOT VISIBLE, M=MEAN PROBABILITY SEA STATE, L= LOW PROBABILITY SEA STATE
Filtering wave length
 integration  Lmin=1m
 integration  Lmax=2200m
  peak        Lmin=100m
               FFT=1024pixels, 4660.109281m 
   mean-Hs (SWH_c)=1.442289429m
         mean-wind=12.01090622m/s
--------------0--------------1---------2---------3---------4---------5---------6---------7---------8---------9--------10--------11--------12--------13--------14--------15--------16--------17--------18--------19------------------20--------21--------22--------23--------24--------25--------26--------27--------28--------29--------30--------31--------32--------33--------34--------35--------36--------37--------38--------39--------40--------41--------42--------43--------44--------45--------46--------47--------48--------49--------50--------51--------52--------53--------54--------55--------56--------57--------58--------59--------60--------61--------62--------63--------64--------65--------66--------67--------68--------69--------70--------71--------72--------73
            LAT            LON  P-LENGHT     SWH_o     SWH_c     P-DIR      LINE     POINT     ROW-Y     COL-X  M-INTENC        dB      WIND INC-ANGLE  ENERGY-M  ENERGY-N  ENERGY-R ENERGY-NN  FG-DEPTH      FLAG         HEADING-DEG    E30-75   E75-390  E390-600 meanincut   meanout   cut/out  STD-NORM  SPEC-MAX   GL-MEAN    GL-VAR      CORR   ENTROPY   HOMOGEN    ENERGY  CONTRAST  DISSIMIL     STD-O    E 1-30 E600-2000   E2000 >      GODA  LONG-HIG     Tmean  CONVOLUT  MEAN-DIR  relation     Sy/Sx  SKEWNESS  KURTOSIS  cutoff-A >50/10000     INT*V   INT-LOG  S-1_g1f1  S-2_g1f2  S-3_g1f3  S-4_g2f1  S-5_g2f2  S-6_g2f3  S-7_g3f1  S-8_g3f2  S-9_g3f3 S-10_g1f4 S-11_g2f4 S-12_g3f4 S-13_g1f5 S-14_g2f5 S-15_g3f5 S-16_g4f1 S-17_g4f2 S-18_g4f3 S-19_g4f4 S-20_g4f5
--------------1--------------2---------3---------4---------5---------6---------7---------8---------9--------10--------11--------12--------13--------14--------15--------16--------17--------18--------19--------20------------------21--------22--------23--------24--------25--------26--------27--------28--------29--------30--------31--------32--------33--------34--------35--------36--------37--------38--------39--------40--------41--------42--------43--------44--------45--------46--------47--------48--------49--------50--------51--------52--------53--------54--------55--------56--------57--------58--------59--------60--------61--------62--------63--------64--------65--------66--------67--------68--------69--------70--------71--------72--------73--------74
     -16.423988    -125.615456     297.6      1.41      2.80     140.3         1         1      1000      1000    441.52   -13.550      11.5      36.6   236.664     0.589     121.5   0.08552     100.0         H               347.8  0.052360  0.027792  0.001211  2.631996  0.723260  3.639071  1.088883     35.28    8.3128   88.4379   0.13329   6.32594   0.15864   0.00380 153.30002   8.50871     480.8  0.506048  0.001687  0.000248  0.000158  0.184481  7.019349  0.598399     83.59  1.000074  1.000007     2.492    13.436     110.8      92.5     187.8     507.8     12.99     -4.06     -1.23     -1.18      3.84      5.36      2.11      3.46     -0.27      0.74      0.73      2.29     -2.23      0.44      3.93    -11.46      5.24     12.11      0.94     -1.91
     -16.411282    -125.560463     309.8      1.44      2.80     143.2         1         2      1000      2318    451.45   -13.454      11.9      37.0   236.172     0.587      86.0   0.08428     100.0         H               347.8  0.052381  0.027105  0.000902  2.575352  0.716204  3.595839  1.086844     27.88    8.5070   91.7708   0.13003   6.36907   0.15520   0.00362 159.67793   8.69976     490.6  0.505259  0.001100  0.000156  0.000164  0.184239  7.018572  0.595385     81.24  1.000097  1.000008     2.492    13.344     114.0      92.7     196.2     511.5     13.00     -4.48     -1.18     -0.83      3.69      4.81      1.28      3.95      0.46      0.47      0.84      2.31     -2.84      1.00      3.25     -9.39      5.16      9.72      0.94      0.66
     -16.398672    -125.505951     274.1      1.38      2.80     130.1         1         3      1000      3636    433.99   -13.625      12.0      37.4   235.098     0.583     102.2   0.08361     100.0         H               347.8  0.051279  0.026291  0.001092  2.561095  0.698354  3.667331  1.083811     26.39    8.1658   84.9797   0.13018   6.29407   0.16044   0.00390 147.83435   8.36143     470.3  0.503484  0.001430  0.000177  0.000156  0.184043  7.016124  0.592028     81.21  1.000096  1.000007     2.474    13.247     110.8      92.4     180.0     496.3     12.84     -3.37     -0.66     -0.64      2.83      5.06      2.12      4.25     -0.04     -0.34      2.25      2.49     -2.07      0.26      3.74    -10.37      3.07     11.11      3.26     -1.26
     -16.371336    -125.628288     262.9      1.40      2.80     132.8         2         1      2444      1000    462.64   -13.348      11.8      36.6   235.305     0.588     152.6   0.08597     128.8         H               347.8  0.052709  0.026733  0.000928  2.599668  0.704028  3.692565  1.088162     26.80    8.7246   95.9031   0.13460   6.41513   0.15226   0.00345 165.98920   8.88221     503.4  0.505137  0.002282  0.000321  0.000165  0.182804  7.005333  0.597108     80.28  1.000100  1.000008     2.518    13.754     114.0      93.1     207.1     536.9     12.69     -4.29     -0.03     -0.11      3.95      4.20      1.70      3.67      0.54      0.29      1.09      2.67     -2.92      0.92      3.62     -8.92      5.74      8.25      0.89      0.02
     -16.358635    -125.573311     285.6      1.50      2.80     127.2         2         2      2444      2318    466.70   -13.310      12.2      37.0   236.076     0.589     106.6   0.08669     100.0         H               347.8  0.052458  0.027271  0.000995  2.610074  0.721980  3.615161  1.089406     28.52    8.8037   97.7620   0.13450   6.43111   0.15179   0.00341 169.22641   8.96712     508.4  0.507222  0.001551  0.000177  0.000156  0.184078  7.008636  0.598602     81.45  1.000100  1.000008     2.506    13.486     107.8      93.1     211.1     527.8     12.98     -4.13     -0.62     -0.87      3.78      4.50      1.55      3.85     -0.15      0.15      1.46      2.43     -2.36      0.63      3.47    -10.00      4.72      9.96      1.29     -1.23
     -16.346031    -125.518814     385.3      1.34      2.80       4.7         2         3      2444      3636    427.04   -13.695      11.9      37.4   235.947     0.583      71.5   0.08151     100.0         H               347.8  0.050291  0.025751  0.000968  2.478141  0.709012  3.495202  1.082777     18.22    8.0291   82.3378   0.12513   6.26377   0.16224   0.00400 144.07179   8.25003     462.4  0.504814  0.001114  0.000089  0.000154  0.183260  7.014802  0.590824     79.24  1.000090  1.000008     2.478    13.320     110.8      92.3     173.5     490.3     12.47     -2.80     -0.51      0.02      3.06      5.13      2.53      3.50      0.60      0.16      1.76      2.86     -1.28      0.21      3.39     -9.07      4.15     10.65      1.84     -1.04
     -16.318682    -125.641113     259.6      1.54      2.80     123.3         3         1      3888      1000    491.05   -13.089      12.3      36.6   235.728     0.587      98.6   0.08643      98.8         H               347.8  0.052117  0.027140  0.000933  2.645265  0.707132  3.740839  1.087476     24.73    9.2786  106.8296   0.13367   6.52774   0.14537   0.00306 185.09805   9.40444     534.0  0.506057  0.001495  0.000159  0.000168  0.182694  7.009044  0.596419     79.82  1.000093  1.000008     2.492    13.251     110.8      93.8     234.6     556.3     12.83     -3.67     -0.55     -0.45      3.30      4.55      1.53      3.45      0.03      0.00      1.29      2.78     -2.03      0.13      3.47     -9.40      4.91      9.81      1.00     -1.23
     -16.305988    -125.586151     262.1      1.53      2.80     128.0         3         2      3888      2318    476.65   -13.218      12.4      37.0   234.559     0.584      80.0   0.08466     117.8         H               347.8  0.051591  0.026974  0.000897  2.572528  0.713913  3.603421  1.083980     29.02    8.9996  100.8182   0.13209   6.47291   0.14844   0.00325 175.00345   9.14896     516.7  0.503465  0.001119  0.000115  0.000159  0.185888  7.023985  0.592708     80.46  1.000095  1.000008     2.474    13.205     110.8      93.3     219.2     545.8     12.88     -4.45     -0.35     -0.46      3.94      4.57      1.36      4.10      0.45      0.65      1.27      2.65     -2.73      0.96      3.75     -8.63      5.35      9.41      1.02     -0.32
     -16.293388    -125.531670     108.0      1.45      2.80      76.8         3         3      3888      3636    445.26   -13.514      12.2      37.4   235.422     0.584      94.8   0.08332       7.5         H               347.8  0.051106  0.026565  0.000923  2.595028  0.704526  3.683366  1.084132     21.55    8.3856   88.9897   0.12955   6.34347   0.15701   0.00369 154.92194   8.56945     482.7  0.504244  0.001259  0.000191  0.000169  0.182607  7.026849  0.592646     78.15  1.000096  1.000009     2.500    13.655     110.8      92.8     190.1     524.4     12.31     -3.09     -0.44      0.57      3.34      4.90      2.12      3.68      0.60      0.66      1.49      2.76     -2.08      0.25      3.24     -7.95      4.89     10.17      1.94     -0.70
