corner points
-109.2532349    -60.98552322
-109.397522    -60.81776047
-108.8946762    -60.91023254
-109.0407181    -60.74284744
========== RESULTS WAVE VERSION 16.10.2018 ====================
IMAGE SIZE  X: 5471     Y:4899    col:row     POLARIZATION:VV
COVERAGE    X: 21.04109293km       Y: 20.17780932km 
RESOLUTION dX: 3.84593181m       dY:4.118760832m  
resolution of original product 3.84593181m x 4.118760832m;   raster step x:5999.653624m  
===============================================================
FLAGS: H=HIGH PROBABILITY SEA STATE, I=LAND(ISLAND), O=OUTLIER NO SEA STATE, N=NO WIND AVAILABLE, SEA STATE NOT VISIBLE, M=MEAN PROBABILITY SEA STATE, L= LOW PROBABILITY SEA STATE
Filtering wave length
 integration  Lmin=1m
 integration  Lmax=2200m
  peak        Lmin=100m
               FFT=1024pixels, 3938.234174m 
   mean-Hs (SWH_c)=2.153413239m
         mean-wind=8.906172752m/s
--------------0--------------1---------2---------3---------4---------5---------6---------7---------8---------9--------10--------11--------12--------13--------14--------15--------16--------17--------18--------19------------------20--------21--------22--------23--------24--------25--------26--------27--------28--------29--------30--------31--------32--------33--------34--------35--------36--------37--------38--------39--------40--------41--------42--------43--------44--------45--------46--------47--------48--------49--------50--------51--------52--------53--------54--------55--------56--------57--------58--------59--------60--------61--------62--------63--------64--------65--------66--------67--------68--------69--------70--------71--------72--------73
            LAT            LON  P-LENGHT     SWH_o     SWH_c     P-DIR      LINE     POINT     ROW-Y     COL-X  M-INTENC        dB      WIND INC-ANGLE  ENERGY-M  ENERGY-N  ENERGY-R ENERGY-NN  FG-DEPTH      FLAG         HEADING-DEG    E30-75   E75-390  E390-600 meanincut   meanout   cut/out  STD-NORM  SPEC-MAX   GL-MEAN    GL-VAR      CORR   ENTROPY   HOMOGEN    ENERGY  CONTRAST  DISSIMIL     STD-O    E 1-30 E600-2000   E2000 >      GODA  LONG-HIG     Tmean  CONVOLUT  MEAN-DIR  relation     Sy/Sx  SKEWNESS  KURTOSIS  cutoff-A >50/10000     INT*V   INT-LOG  S-1_g1f1  S-2_g1f2  S-3_g1f3  S-4_g2f1  S-5_g2f2  S-6_g2f3  S-7_g3f1  S-8_g3f2  S-9_g3f3 S-10_g1f4 S-11_g2f4 S-12_g3f4 S-13_g1f5 S-14_g2f5 S-15_g3f5 S-16_g4f1 S-17_g4f2 S-18_g4f3 S-19_g4f4 S-20_g4f5
--------------1--------------2---------3---------4---------5---------6---------7---------8---------9--------10--------11--------12--------13--------14--------15--------16--------17--------18--------19--------20------------------21--------22--------23--------24--------25--------26--------27--------28--------29--------30--------31--------32--------33--------34--------35--------36--------37--------38--------39--------40--------41--------42--------43--------44--------45--------46--------47--------48--------49--------50--------51--------52--------53--------54--------55--------56--------57--------58--------59--------60--------61--------62--------63--------64--------65--------66--------67--------68--------69--------70--------71--------72--------73--------74
     -60.937218    -109.215347     235.0      2.12      3.92      63.5         1         1      1000      1000   3744.12    -4.266       8.6      22.3   228.326     0.844     130.6   0.22215      53.3         H               340.8  0.099790  0.081392  0.002390  6.198771  1.083111  5.723118  1.303422     83.73    6.9315   83.8522   0.30287   5.89989   0.21404   0.00763 116.91220   6.88093    4879.5  0.660052  0.001327  0.000037  0.000217  0.218671  7.357757  0.888841     72.81  1.000225  1.000028     3.791    30.583     110.8      87.9     169.5     694.4     13.91      5.44      7.01      2.91      1.34      5.07     -1.08     -1.46     -1.06      5.69      2.57     -1.45      0.01      1.20      1.49     -4.95     -0.72      4.14      1.14      0.79
     -60.915569    -109.111946     192.9      2.10      3.92      68.5         1         2      1000      2560   3397.67    -4.688       8.7      22.8   226.525     0.829     118.1   0.21550      28.6         H               340.8  0.097132  0.080287  0.001920  5.991731  1.070596  5.596631  1.290846    106.03    6.2637   70.0531   0.29840   5.71812   0.22973   0.00917  98.29832   6.27087    4385.3  0.649199  0.001125  0.000028  0.000222  0.218875  7.366106  0.871409     71.52  1.000243  1.000030     3.716    30.176     114.0      86.4     136.3     623.9     13.99      5.22      8.07      3.34      1.85      4.50     -1.75     -1.62     -1.64      6.23      2.49     -1.47      0.68      0.83      1.21     -4.04     -0.31      2.64     -0.08      0.19
     -60.894260    -109.010674     212.1      2.32      3.92      66.3         1         3      1000      4120   3070.50    -5.128       8.6      23.3   230.180     0.852     126.7   0.22681      37.4         H               340.8  0.100813  0.088016  0.002289  6.344629  1.100525  5.765094  1.308928    102.91    5.6267   59.6509   0.30687   5.51500   0.24945   0.01141  82.69202   5.67632    4019.1  0.660859  0.001121  0.000020  0.000230  0.223008  7.395997  0.897817     73.44  1.000264  1.000034     3.802    30.246     117.4      84.6     112.9     549.1     14.40      5.85      8.44      2.78      1.29      4.54     -2.11     -2.08     -1.79      5.88      2.56     -1.73      0.93      1.29      1.15     -4.72     -1.02      2.47      0.84      1.00
     -60.887375    -109.258408     240.7      2.17      3.92      66.5         2         1      2456      1000   3878.80    -4.113       9.1      22.3   227.579     0.836     116.5   0.21916      58.9         H               340.8  0.098385  0.080361  0.002051  6.048310  1.078801  5.606512  1.295919    105.61    7.1920   88.4418   0.29844   5.96974   0.20779   0.00707 124.09393   7.11947    5026.3  0.654473  0.001115  0.000017  0.000216  0.218660  7.355126  0.878278     71.80  1.000240  1.000029     3.794    32.302     114.0      88.4     180.8     750.3     14.22      5.86      7.62      2.62      0.85      4.11     -2.15     -2.09     -1.31      6.39      2.01     -2.27     -0.26      1.41      1.51     -4.46     -1.40      2.21      0.20      1.56
     -60.865761    -109.155159     266.9      1.97      3.92      71.6         2         2      2456      2560   3409.13    -4.674       8.8      22.8   227.186     0.834     114.6   0.21812     100.0         H               340.8  0.099711  0.077767  0.001959  6.121076  1.081486  5.659875  1.294891     96.85    6.2910   70.5567   0.29798   5.72687   0.22864   0.00905  99.06465   6.29539    4414.0  0.654421  0.001121  0.000026  0.000215  0.214095  7.316569  0.876550     74.14  1.000248  1.000031     3.845    33.281     114.0      86.5     138.3     646.2     13.95      5.11      7.83      2.92      1.11      4.23     -1.37     -1.28     -1.27      5.64      2.27     -1.64      0.95      1.35      0.82     -4.36     -1.06      2.50      1.07      0.92
     -60.844482    -109.054024     198.8      2.04      3.92      73.6         2         3      2456      4120   3075.57    -5.121       8.7      23.3   229.364     0.843     113.0   0.22155      31.0         H               340.8  0.100535  0.080746  0.001950  6.529806  1.089720  5.992189  1.301404    112.24    5.6386   59.2643   0.30147   5.52330   0.24742   0.01119  82.79606   5.69666    4002.6  0.659616  0.001089  0.000023  0.000221  0.213332  7.333901  0.886311     73.82  1.000237  1.000029     3.781    29.787     114.0      84.7     112.4     545.7     13.64      4.87      7.27      3.79      1.80      5.33     -1.14     -1.11     -0.94      5.08      3.20     -0.94      0.77      1.36      0.67     -3.82     -0.64      3.13      0.95      1.36
     -60.837521    -109.301331     198.2      2.15      3.92      65.0         3         1      3912      1000   3996.16    -3.984       9.5      22.3   227.037     0.837     105.5   0.21955      30.8         H               340.8  0.100414  0.079153  0.001888  6.225469  1.059739  5.874528  1.296430     86.56    7.4164   93.2085   0.29986   6.02481   0.20365   0.00669 130.51703   7.31960    5180.1  0.655295  0.000909  0.000013  0.000224  0.212863  7.298721  0.880163     74.06  1.000275  1.000035     3.729    29.466     114.0      88.9     192.8     708.8     13.84      5.20      7.16      3.21      1.69      4.71     -1.55     -1.76     -0.98      5.65      2.78     -1.34      0.40      0.90      1.69     -4.06     -0.21      3.47      0.81      0.86
     -60.815937    -109.198235     176.7      2.28      3.92      70.4         3         2      3912      2560   3535.86    -4.515       9.2      22.8   232.950     0.867     135.2   0.23202      22.8         H               340.8  0.103490  0.085487  0.002760  6.719365  1.122475  5.986206  1.319649     86.62    6.5209   76.5411   0.30497   5.78396   0.22446   0.00867 106.39639   6.50989    4666.0  0.674457  0.001413  0.000044  0.000221  0.215463  7.354983  0.912934     75.43  1.000277  1.000035     4.096    39.014     117.4      86.8     153.1     717.0     13.84      4.61      7.53      3.18      1.64      5.20     -0.64     -1.31     -0.56      4.87      2.81     -1.03      0.59      1.81      1.74     -5.60     -0.54      2.99      1.02      1.57
     -60.794689    -109.097244     212.1      2.23      3.92      66.3         3         3      3912      4120   3177.62    -4.979       9.0      23.3   232.996     0.867     111.5   0.23286      37.4         H               340.8  0.105048  0.085851  0.001901  6.712612  1.134726  5.915621  1.320460    122.04    5.8380   63.9980   0.30878   5.57961   0.24366   0.01071  88.47498   5.87390    4195.6  0.673892  0.000931  0.000016  0.000227  0.214758  7.330843  0.912998     72.64  1.000268  1.000035     3.962    33.862     114.0      85.1     123.0     614.9     13.79      5.22      7.56      3.64      1.73      5.18     -1.54     -1.90     -0.88      5.58      2.93     -1.42      0.87      1.69      1.39     -3.36      0.02      3.20      0.75      1.56
