corner points
-65.25748444    36.93154526
-65.29719543    36.75753403
-65.48334503    36.96414566
-65.5225296    36.79014206
========== RESULTS WAVE VERSION 16.10.2018 ====================
IMAGE SIZE  X: 4500     Y:4775    col:row     POLARIZATION:VV
COVERAGE    X: 20.34974917km       Y: 19.62048876km 
RESOLUTION dX: 4.522166483m       dY:4.109002881m  
resolution of original product 4.522166483m x 4.109002881m;   raster step x:5996.392756m  
===============================================================
FLAGS: H=HIGH PROBABILITY SEA STATE, I=LAND(ISLAND), O=OUTLIER NO SEA STATE, N=NO WIND AVAILABLE, SEA STATE NOT VISIBLE, M=MEAN PROBABILITY SEA STATE, L= LOW PROBABILITY SEA STATE
Filtering wave length
 integration  Lmin=1m
 integration  Lmax=2200m
  peak        Lmin=100m
               FFT=1024pixels, 4630.698478m 
   mean-Hs (SWH_c)=2.02048645m
         mean-wind=9.964404106m/s
--------------0--------------1---------2---------3---------4---------5---------6---------7---------8---------9--------10--------11--------12--------13--------14--------15--------16--------17--------18--------19------------------20--------21--------22--------23--------24--------25--------26--------27--------28--------29--------30--------31--------32--------33--------34--------35--------36--------37--------38--------39--------40--------41--------42--------43--------44--------45--------46--------47--------48--------49--------50--------51--------52--------53--------54--------55--------56--------57--------58--------59--------60--------61--------62--------63--------64--------65--------66--------67--------68--------69--------70--------71--------72--------73
            LAT            LON  P-LENGHT     SWH_o     SWH_c     P-DIR      LINE     POINT     ROW-Y     COL-X  M-INTENC        dB      WIND INC-ANGLE  ENERGY-M  ENERGY-N  ENERGY-R ENERGY-NN  FG-DEPTH      FLAG         HEADING-DEG    E30-75   E75-390  E390-600 meanincut   meanout   cut/out  STD-NORM  SPEC-MAX   GL-MEAN    GL-VAR      CORR   ENTROPY   HOMOGEN    ENERGY  CONTRAST  DISSIMIL     STD-O    E 1-30 E600-2000   E2000 >      GODA  LONG-HIG     Tmean  CONVOLUT  MEAN-DIR  relation     Sy/Sx  SKEWNESS  KURTOSIS  cutoff-A >50/10000     INT*V   INT-LOG  S-1_g1f1  S-2_g1f2  S-3_g1f3  S-4_g2f1  S-5_g2f2  S-6_g2f3  S-7_g3f1  S-8_g3f2  S-9_g3f3 S-10_g1f4 S-11_g2f4 S-12_g3f4 S-13_g1f5 S-14_g2f5 S-15_g3f5 S-16_g4f1 S-17_g4f2 S-18_g4f3 S-19_g4f4 S-20_g4f5
--------------1--------------2---------3---------4---------5---------6---------7---------8---------9--------10--------11--------12--------13--------14--------15--------16--------17--------18--------19--------20------------------21--------22--------23--------24--------25--------26--------27--------28--------29--------30--------31--------32--------33--------34--------35--------36--------37--------38--------39--------40--------41--------42--------43--------44--------45--------46--------47--------48--------49--------50--------51--------52--------53--------54--------55--------56--------57--------58--------59--------60--------61--------62--------63--------64--------65--------66--------67--------68--------69--------70--------71--------72--------73--------74
      36.902462     -65.316544     132.0      2.00      3.82      93.6         1         1      1000      1000    366.49   -14.359      10.3      36.8   259.024     0.639     177.4   0.10244      11.6         H               193.2  0.058321  0.041647  0.001401  3.528442  0.726070  4.859645  1.134754     46.85    6.8216   66.0794   0.15620   5.94959   0.18755   0.00574 111.51475   7.09741     415.8  0.535262  0.002436  0.000401  0.000273  0.181646  7.183724  0.647006     92.88  1.000443  1.000045     2.908    18.805     190.7      89.8     133.8     517.2     10.88     -0.82      5.22      4.16     -0.67      7.29      6.48     -1.50      6.28     -1.30     -1.29     -1.99      3.22      5.12      5.64     -3.41      0.44      7.95     -0.77      5.99
      36.912121     -65.383324     154.3      2.00      3.82      87.9         1         2      1000      2326    324.00   -14.895       9.7      37.2   260.774     0.643     233.8   0.10261      16.4         H               193.2  0.058099  0.043239  0.001757  3.656090  0.722963  5.057089  1.139052     56.33    5.9855   52.5948   0.15649   5.70863   0.20672   0.00730  88.72686   6.28912     369.0  0.536395  0.003354  0.000657  0.000263  0.187408  7.225070  0.651670     89.13  1.000410  1.000040     2.973    19.503     200.3      88.1     104.2     441.0     11.39     -0.13      5.80      4.12     -0.43      8.31      6.32     -0.49      5.67     -0.47     -0.24     -0.81      3.90      5.96      6.11     -5.22     -0.54      8.51      0.01      4.77
      36.921665     -65.449539     128.1      2.42      3.82      84.8         1         3      1000      3652    345.74   -14.613      10.4      37.5   262.284     0.651     111.5   0.10656      10.8         H               193.2  0.059464  0.047993  0.001584  3.596962  0.751063  4.789162  1.144912    102.79    6.4099   59.7557   0.15925   5.83335   0.19679   0.00649 100.47948   6.70699     395.8  0.540484  0.001689  0.000178  0.000359  0.186285  7.264288  0.660011     85.51  1.000432  1.000047     3.067    21.850     210.9      89.0     120.1     525.5     10.41      0.43      6.14      5.23     -0.05      8.74      7.43      0.45      7.70      0.21      0.93      0.60      4.01      7.00      7.38     -1.30     -0.35      9.97      1.69      8.33
      36.849247     -65.328659     137.6      2.71      3.82      78.7         2         1      2460      1000    358.11   -14.460      10.1      36.8   272.880     0.699     151.5   0.12694      12.7         H               193.2  0.069547  0.057340  0.001867  4.396033  0.792844  5.544636  1.186632     82.35    6.6413   66.1764   0.17952   5.88942   0.19433   0.00628 108.59332   6.91898     424.9  0.568392  0.002334  0.000275  0.000323  0.185592  7.246005  0.712945     82.91  1.000397  1.000052     3.798    43.882     210.9      89.2     135.5     719.0     10.87      0.50      6.65      4.93      1.56      8.23      6.98      1.13      7.36      1.25      2.36      1.85      3.65      6.27      6.04     -2.43      1.69      7.44      2.55      7.11
      36.858906     -65.395386     130.7      2.17      3.82      81.1         2         2      2460      2326    304.68   -15.162       9.3      37.2   263.433     0.656     107.9   0.10703      11.3         H               193.2  0.060631  0.047828  0.001597  4.016502  0.740564  5.423574  1.149041     63.63    5.6018   47.2915   0.16123   5.58497   0.21764   0.00833  79.33333   5.91608     350.1  0.544197  0.001695  0.000151  0.000286  0.185661  7.234716  0.665406     86.53  1.000376  1.000041     3.122    22.959     200.3      87.1      92.9     480.0     10.75      0.43      6.37      4.88      0.47      8.19      7.08      0.10      7.39      0.30      1.23      0.34      3.57      6.30      6.29     -2.07      0.55      8.10      1.65      7.08
      36.868450     -65.461555     136.1      2.00      3.82      88.1         2         3      2460      3652    309.01   -15.100       9.6      37.5   259.740     0.645     149.7   0.10450      12.4         H               193.2  0.059810  0.044097  0.001485  3.873036  0.728459  5.316750  1.139610     57.92    5.6871   48.0959   0.15791   5.61419   0.21508   0.00807  81.00337   5.99968     352.1  0.536929  0.002451  0.000277  0.000267  0.186689  7.217587  0.653311     90.34  1.000395  1.000043     2.997    20.542     200.3      87.4      94.6     453.9     10.77     -0.34      6.02      4.86      0.19      7.95      6.77     -0.24      7.03      0.10     -0.27     -0.21      3.45      5.64      6.53     -2.13      0.32      8.12     -0.63      5.88
      36.796028     -65.340759     135.6      1.78      3.82      95.5         3         1      3920      1000    369.51   -14.324      10.3      36.8   257.869     0.634     135.4   0.09985      12.2         H               193.2  0.058892  0.038457  0.001425  3.796985  0.713435  5.322119  1.129696     47.82    6.8827   66.4765   0.15128   5.96805   0.18567   0.00559 112.83974   7.15665     417.4  0.533083  0.002136  0.000260  0.000233  0.180054  7.121342  0.640836     94.10  1.000353  1.000035     2.909    18.921     174.0      90.1     135.6     508.0     10.91     -0.41      5.66      4.29      0.43      6.70      6.29     -0.50      6.26     -0.26      0.16     -0.18      2.78      5.50      5.11     -3.88      1.37      5.74     -0.18      6.66
      36.805691     -65.407448     127.2      1.50      3.82      98.7         3         2      3920      2326    352.06   -14.534      10.3      37.2   256.101     0.626      99.1   0.09730      10.6         H               193.2  0.058669  0.034676  0.001220  3.544603  0.728363  4.866535  1.122976     31.85    6.5437   59.9716   0.14420   5.87744   0.19197   0.00604 102.64745   6.82833     395.3  0.530460  0.001528  0.000163  0.000219  0.177835  7.082603  0.631807     93.46  1.000357  1.000035     2.967    21.929     166.7      89.6     121.7     531.4     11.13     -0.30      5.11      3.83     -0.28      6.25      5.75     -0.60      5.45     -0.54     -0.44     -0.77      2.83      4.80      4.50     -4.29     -0.03      5.76     -0.39      5.49
      36.815235     -65.473564     130.7      1.61      3.82      98.9         3         3      3920      3652    314.28   -15.027       9.7      37.5   257.670     0.633     148.5   0.10045      11.3         H               193.2  0.058448  0.037773  0.001495  3.372120  0.740665  4.552830  1.129490     55.59    5.7903   48.7533   0.15021   5.65027   0.21083   0.00767  82.86079   6.09515     355.0  0.533405  0.002244  0.000312  0.000243  0.185696  7.158080  0.639807     97.77  1.000367  1.000035     3.001    21.578     181.9      87.8      96.9     480.8     11.09     -1.65      5.96      4.19     -0.72      6.92      6.43     -1.65      6.54     -1.97     -1.98     -2.36      3.31      5.41      5.50     -3.91      0.55      5.53     -1.25      5.33
