corner points
-67.90786743    24.57543182
-67.94406128    24.40068054
-68.10572052    24.60933304
-68.14163208    24.43460274
========== RESULTS WAVE VERSION 16.10.2018 ====================
IMAGE SIZE  X: 4500     Y:4780    col:row     POLARIZATION:VV
COVERAGE    X: 20.31104293km       Y: 19.72552863km 
RESOLUTION dX: 4.513565096m       dY:4.126679629m  
resolution of original product 4.513565096m x 4.126679629m;   raster step x:5998.528012m  
===============================================================
FLAGS: H=HIGH PROBABILITY SEA STATE, I=LAND(ISLAND), O=OUTLIER NO SEA STATE, N=NO WIND AVAILABLE, SEA STATE NOT VISIBLE, M=MEAN PROBABILITY SEA STATE, L= LOW PROBABILITY SEA STATE
Filtering wave length
 integration  Lmin=1m
 integration  Lmax=2200m
  peak        Lmin=100m
               FFT=1024pixels, 4621.890658m 
   mean-Hs (SWH_c)=1.255356064m
         mean-wind=12.62201595m/s
--------------0--------------1---------2---------3---------4---------5---------6---------7---------8---------9--------10--------11--------12--------13--------14--------15--------16--------17--------18--------19------------------20--------21--------22--------23--------24--------25--------26--------27--------28--------29--------30--------31--------32--------33--------34--------35--------36--------37--------38--------39--------40--------41--------42--------43--------44--------45--------46--------47--------48--------49--------50--------51--------52--------53--------54--------55--------56--------57--------58--------59--------60--------61--------62--------63--------64--------65--------66--------67--------68--------69--------70--------71--------72--------73
            LAT            LON  P-LENGHT     SWH_o     SWH_c     P-DIR      LINE     POINT     ROW-Y     COL-X  M-INTENC        dB      WIND INC-ANGLE  ENERGY-M  ENERGY-N  ENERGY-R ENERGY-NN  FG-DEPTH      FLAG         HEADING-DEG    E30-75   E75-390  E390-600 meanincut   meanout   cut/out  STD-NORM  SPEC-MAX   GL-MEAN    GL-VAR      CORR   ENTROPY   HOMOGEN    ENERGY  CONTRAST  DISSIMIL     STD-O    E 1-30 E600-2000   E2000 >      GODA  LONG-HIG     Tmean  CONVOLUT  MEAN-DIR  relation     Sy/Sx  SKEWNESS  KURTOSIS  cutoff-A >50/10000     INT*V   INT-LOG  S-1_g1f1  S-2_g1f2  S-3_g1f3  S-4_g2f1  S-5_g2f2  S-6_g2f3  S-7_g3f1  S-8_g3f2  S-9_g3f3 S-10_g1f4 S-11_g2f4 S-12_g3f4 S-13_g1f5 S-14_g2f5 S-15_g3f5 S-16_g4f1 S-17_g4f2 S-18_g4f3 S-19_g4f4 S-20_g4f5
--------------1--------------2---------3---------4---------5---------6---------7---------8---------9--------10--------11--------12--------13--------14--------15--------16--------17--------18--------19--------20------------------21--------22--------23--------24--------25--------26--------27--------28--------29--------30--------31--------32--------33--------34--------35--------36--------37--------38--------39--------40--------41--------42--------43--------44--------45--------46--------47--------48--------49--------50--------51--------52--------53--------54--------55--------56--------57--------58--------59--------60--------61--------62--------63--------64--------65--------66--------67--------68--------69--------70--------71--------72--------73--------74
      24.546509     -67.959900     114.9      1.08      2.61     104.2         1         1      1000      1000    449.44   -13.473      11.8      36.9   227.119     0.561     110.8   0.07345       8.5         H               192.4  0.045956  0.020959  0.000568  2.127525  0.658803  3.229380  1.063338     12.92    8.4745   88.1206   0.11235   6.36839   0.15321   0.00352 156.44138   8.67954     477.9  0.492289  0.001650  0.000238  0.000138  0.172230  6.952946  0.564092     98.67  1.000063  1.000004     2.350    11.889      99.7      92.9     189.1     454.9     11.44     -2.65      1.36      3.19     -1.21      3.05      1.48      1.05      1.27     -1.66     -1.77     -0.43     -1.10      0.72      1.84     -4.41     -0.63      3.38     -0.95      1.36
      24.556572     -68.018539     183.5      1.22      2.61     107.7         1         2      1000      2329    478.21   -13.204      12.6      37.3   227.498     0.563     166.2   0.07451      25.1         H               192.4  0.046495  0.021047  0.000725  2.113866  0.668864  3.160380  1.065233     10.94    9.0395   98.8788   0.11538   6.48698   0.14599   0.00312 174.93842   9.20114     509.4  0.492233  0.002383  0.000416  0.000136  0.174103  6.940336  0.566080     96.17  1.000055  1.000004     2.375    12.316     102.3      93.7     216.3     530.8     11.76     -2.01      1.71      2.73     -1.39      3.31      1.71      1.09      0.82     -2.21     -1.44      0.03     -0.54      1.01      1.60     -6.43     -1.63      3.47      0.25      1.62
      24.566526     -68.076683     185.8      1.19      2.61     105.3         1         3      1000      3658    451.70   -13.452      12.4      37.7   228.162     0.566     151.2   0.07552      25.9         H               192.4  0.047291  0.021572  0.000785  2.153333  0.674868  3.190749  1.068339     13.07    8.5200   89.5397   0.11698   6.37714   0.15316   0.00350 158.12949   8.70980     482.6  0.494363  0.002349  0.000356  0.000138  0.176799  6.953948  0.569822     97.50  1.000080  1.000004     2.391    12.384     102.3      93.1     192.4     489.1     11.93     -2.69      1.45      2.41     -1.42      3.76      1.76      1.09      1.37     -2.00     -2.25     -0.67     -0.02      0.76      2.03     -6.77     -1.32      4.02     -1.01      0.16
      24.493382     -67.970879     187.8      1.05      2.61     110.8         2         1      2453      1000    454.41   -13.425      11.9      36.9   227.596     0.562     113.1   0.07331      26.6         H               192.4  0.046523  0.020456  0.000658  2.047398  0.664018  3.083346  1.063890     12.42    8.5722   89.9624   0.11150   6.38978   0.15209   0.00344 159.86188   8.77585     483.5  0.492641  0.001748  0.000277  0.000136  0.172232  6.920010  0.564708     96.04  1.000049  1.000004     2.362    12.147     102.3      93.1     193.9     498.0     11.45     -2.18      1.67      3.25     -1.66      3.55      2.20      0.95      1.35     -2.23     -1.76     -0.16     -0.47      1.02      1.79     -5.45     -1.54      3.75     -0.53      1.35
      24.503445     -68.029495     166.2      1.36      2.61     110.7         2         2      2453      2329    491.40   -13.086      12.8      37.3   227.342     0.565      98.3   0.07588      19.6         H               192.4  0.047462  0.022552  0.000828  2.284872  0.664538  3.438285  1.066881     14.91    9.2968  104.2120   0.11671   6.53802   0.14300   0.00297 184.09735   9.44396     524.2  0.492700  0.001791  0.000169  0.000145  0.173157  6.954526  0.568588     97.30  1.000049  1.000004     2.372    12.217     105.0      93.9     229.6     535.1     11.75     -2.63      1.18      2.55     -1.27      3.81      2.22      0.75      0.84     -2.51     -2.23      0.04     -1.39      0.55      2.12     -7.26     -0.42      5.46     -0.86      1.13
      24.513401     -68.087616     140.6      1.31      2.61     109.4         2         3      2453      3658    489.30   -13.104      13.0      37.7   228.244     0.565     138.0   0.07523      13.3         H               192.4  0.046855  0.021405  0.000742  2.139318  0.659773  3.242505  1.067101     10.39    9.2552  103.4546   0.11537   6.52998   0.14330   0.00299 183.03767   9.41272     522.1  0.493905  0.002075  0.000312  0.000141  0.173771  6.957274  0.567952     98.64  1.000045  1.000004     2.370    12.131      99.7      93.8     227.1     523.5     11.61     -2.21      0.77      2.56     -1.65      3.27      2.08      1.03      1.41     -1.90     -1.29     -0.71     -0.74      0.25      1.38     -6.32     -2.03      4.20      0.53      0.88
      24.440250     -67.981865     185.8      1.28      2.61     105.3         3         1      3906      1000    507.30   -12.947      12.8      36.9   227.957     0.567     104.3   0.07676      25.9         H               192.4  0.048377  0.021524  0.000625  2.196374  0.667597  3.289972  1.069137     13.36    9.6022  110.6170   0.11724   6.59676   0.13975   0.00280 195.29736   9.73939     542.3  0.495307  0.001755  0.000200  0.000142  0.170606  6.927417  0.570655     97.51  1.000078  1.000005     2.382    12.255     102.3      94.2     246.1     544.0     11.48     -1.91      1.63      3.23     -1.64      3.62      2.04      0.55      1.42     -2.37     -1.99     -0.35     -0.41      1.15      1.72     -4.99     -1.54      3.90     -0.79      1.70
      24.450315     -68.040451     183.5      1.51      2.61     107.7         3         2      3906      2329    527.40   -12.779      13.4      37.3   228.144     0.571     152.1   0.07928      25.1         H               192.4  0.048785  0.023232  0.000682  2.339688  0.671653  3.483476  1.072300     15.39    9.9924  118.9378   0.12476   6.66770   0.13561   0.00260 208.19714  10.07376     565.5  0.495669  0.002316  0.000346  0.000154  0.173223  6.958793  0.575012     97.29  1.000060  1.000005     2.400    12.385     105.0      94.6     268.0     578.0     11.75     -2.89      1.54      3.06     -1.25      3.86      1.73      0.97      1.41     -2.52     -2.13     -0.05     -0.61      0.41      1.65     -5.71     -0.20      3.54     -0.31      0.65
      24.460274     -68.098549     178.8      1.31      2.61     104.7         3         3      3906      3658    472.76   -13.254      12.8      37.7   228.181     0.568     125.0   0.07680      23.5         H               192.4  0.048082  0.022384  0.000825  2.265933  0.676084  3.351557  1.069636     13.41    8.9310   97.4789   0.11931   6.46346   0.14781   0.00321 171.69646   9.09760     505.7  0.494462  0.002262  0.000234  0.000146  0.172458  6.939921  0.571712     94.27  1.000064  1.000006     2.389    12.389     102.3      93.5     212.0     528.5     11.58     -1.77      1.56      2.75     -2.23      3.63      2.51      1.26      1.26     -2.06     -2.04     -0.08     -0.81      0.84      1.50     -6.82     -3.45      4.46     -0.88      1.80
