corner points
-96.40859985    5.820299625
-96.44455719    5.64509201
-96.58740997    5.857228279
-96.62330627    5.682058334
========== RESULTS WAVE VERSION 16.10.2018 ====================
IMAGE SIZE  X: 4460     Y:4784    col:row     POLARIZATION:VV
COVERAGE    X: 20.1562914km       Y: 19.83701815km 
RESOLUTION dX: 4.519347848m       dY:4.146533895m  
resolution of original product 4.519347848m x 4.146533895m;   raster step x:5997.174595m  
===============================================================
FLAGS: H=HIGH PROBABILITY SEA STATE, I=LAND(ISLAND), O=OUTLIER NO SEA STATE, N=NO WIND AVAILABLE, SEA STATE NOT VISIBLE, M=MEAN PROBABILITY SEA STATE, L= LOW PROBABILITY SEA STATE
Filtering wave length
 integration  Lmin=1m
 integration  Lmax=2200m
  peak        Lmin=100m
               FFT=1024pixels, 4627.812197m 
   mean-Hs (SWH_c)=0.2m
         mean-wind=4.929835796m/s
--------------0--------------1---------2---------3---------4---------5---------6---------7---------8---------9--------10--------11--------12--------13--------14--------15--------16--------17--------18--------19------------------20--------21--------22--------23--------24--------25--------26--------27--------28--------29--------30--------31--------32--------33--------34--------35--------36--------37--------38--------39--------40--------41--------42--------43--------44--------45--------46--------47--------48--------49--------50--------51--------52--------53--------54--------55--------56--------57--------58--------59--------60--------61--------62--------63--------64--------65--------66--------67--------68--------69--------70--------71--------72--------73
            LAT            LON  P-LENGHT     SWH_o     SWH_c     P-DIR      LINE     POINT     ROW-Y     COL-X  M-INTENC        dB      WIND INC-ANGLE  ENERGY-M  ENERGY-N  ENERGY-R ENERGY-NN  FG-DEPTH      FLAG         HEADING-DEG    E30-75   E75-390  E390-600 meanincut   meanout   cut/out  STD-NORM  SPEC-MAX   GL-MEAN    GL-VAR      CORR   ENTROPY   HOMOGEN    ENERGY  CONTRAST  DISSIMIL     STD-O    E 1-30 E600-2000   E2000 >      GODA  LONG-HIG     Tmean  CONVOLUT  MEAN-DIR  relation     Sy/Sx  SKEWNESS  KURTOSIS  cutoff-A >50/10000     INT*V   INT-LOG  S-1_g1f1  S-2_g1f2  S-3_g1f3  S-4_g2f1  S-5_g2f2  S-6_g2f3  S-7_g3f1  S-8_g3f2  S-9_g3f3 S-10_g1f4 S-11_g2f4 S-12_g3f4 S-13_g1f5 S-14_g2f5 S-15_g3f5 S-16_g4f1 S-17_g4f2 S-18_g4f3 S-19_g4f4 S-20_g4f5
--------------1--------------2---------3---------4---------5---------6---------7---------8---------9--------10--------11--------12--------13--------14--------15--------16--------17--------18--------19--------20------------------21--------22--------23--------24--------25--------26--------27--------28--------29--------30--------31--------32--------33--------34--------35--------36--------37--------38--------39--------40--------41--------42--------43--------44--------45--------46--------47--------48--------49--------50--------51--------52--------53--------54--------55--------56--------57--------58--------59--------60--------61--------62--------63--------64--------65--------66--------67--------68--------69--------70--------71--------72--------73--------74
       5.792050     -96.456665     299.5      0.30      1.88      65.0         1         1      1000      1000    136.03   -18.664       4.6      36.9   221.117     0.543     440.3   0.05504     100.0         H               192.0  0.035568  0.011670  0.001053  1.018453  0.605091  1.683139  1.048896     14.03    2.2528    8.0572   0.06757   4.00918   0.37455   0.03585  15.02564   2.63402     142.7  0.487241  0.006539  0.001327  0.000094  0.182988  6.836608  0.546753     64.14  0.999927  0.999997     2.281    11.483     181.9      71.3      17.2     129.6     13.44      4.29      1.28     -3.07     -2.89     -2.09      1.78     -1.04     -0.39      3.12     -1.61     -1.66      0.36      0.02      0.35    -17.95     -6.16     -3.22     -2.15     -1.00
       5.803084     -96.510063     361.6      0.31      1.88      59.3         1         2      1000      2327    135.57   -18.678       4.8      37.3   218.970     0.537     221.7   0.05283     100.0         H               192.0  0.035672  0.011981  0.001041  1.058725  0.584832  1.810304  1.040739     22.81    2.2459    7.8681   0.06175   4.00523   0.37424   0.03549  14.76440   2.61991     141.1  0.483739  0.003815  0.000535  0.000097  0.186380  6.854580  0.539533     63.71  1.000160  1.000004     2.242    11.120     133.1      71.6      16.9     127.5     14.05      5.23      2.81     -3.80     -3.61     -3.27      1.25     -0.57     -0.04      4.49     -2.84     -1.15      0.58      0.22      0.43    -18.13     -8.24     -6.63     -5.51     -1.42
       5.814018     -96.563011     282.8      0.26      1.88      66.4         1         3      1000      3654    101.62   -19.930       4.0      37.7   221.229     0.536     397.9   0.05113     100.0         H               192.0  0.032860  0.009564  0.001170  0.840199  0.566686  1.482653  1.040655      8.08    1.5766    4.3846   0.04956   3.43894   0.45007   0.06140   8.33465   1.94320     105.7  0.484311  0.007001  0.001012  0.000092  0.175473  6.787572  0.538612     64.28  0.999963  1.000000     2.254    11.315     404.2      63.2       9.7      91.5     13.07      3.05      0.08     -3.69     -2.32     -0.54      3.93      0.69     -1.46      1.56      0.40     -2.40      1.75     -0.71      0.82    -22.72     -8.15      1.74      3.68     -3.42
       5.739084     -96.467529     325.4      0.38      1.88      57.6         2         1      2446      1000    190.85   -17.193       6.2      36.9   218.767     0.544     397.6   0.05933     100.0         H               192.0  0.037965  0.013349  0.000967  1.179164  0.628043  1.877521  1.049327     19.28    3.3395   15.9617   0.08356   4.67817   0.29649   0.01868  29.25604   3.70551     200.3  0.485809  0.004927  0.001262  0.000097  0.190745  6.879354  0.547767     64.06  1.000072  1.000002     2.272    11.282     133.1      79.5      32.6     187.4     14.06      5.24      2.89     -2.83     -2.94     -2.84     -0.03     -1.20      0.13      4.27     -1.95     -1.53      1.32     -0.65      0.56    -15.19     -6.51     -6.93     -3.84     -3.40
       5.750121     -96.520920     282.8      0.30      1.88      66.4         2         2      2446      2327    132.16   -18.789       4.7      37.3   219.903     0.539     346.9   0.05377     100.0         H               192.0  0.035679  0.011784  0.000874  1.047162  0.587550  1.782253  1.044854     15.23    2.1793    7.5325   0.06573   3.95509   0.38155   0.03755  14.07481   2.55144     138.1  0.485369  0.004957  0.001010  0.000095  0.183637  6.853207  0.542866     68.16  0.999945  0.999999     2.246    11.083     148.0      70.8      16.2     122.4     13.49      4.32      1.97     -2.48     -2.62     -2.77      0.62     -1.12     -0.21      3.56     -1.37     -1.75      0.66      0.23     -0.39    -14.93     -5.81     -5.44     -2.21      0.19
       5.761058     -96.573860     307.0      0.27      1.88      59.6         2         3      2446      3654    108.74   -19.636       4.2      37.7   223.843     0.548     696.2   0.05559     100.0         H               192.0  0.034093  0.010527  0.001101  0.933084  0.577186  1.616609  1.054898     13.57    1.7164    5.1710   0.06549   3.56962   0.43421   0.05510   9.66467   2.08489     114.7  0.491320  0.008992  0.002098  0.000093  0.181316  6.820302  0.552013     63.95  1.000286  1.000006     2.337    11.996     450.0      64.9      11.2     101.6     13.54      3.73      3.57     -3.38     -2.03     -4.39      2.57     -1.10      1.51      2.97     -1.31     -0.78      2.09     -0.72      1.48    -19.51     -4.16    -12.73     -2.97     -5.57
       5.686117     -96.478401     338.6      0.39      1.88      61.4         3         1      3892      1000    192.72   -17.151       6.2      36.9   215.486     0.533     161.2   0.05523     100.0         H               192.0  0.037323  0.012885  0.000633  1.137692  0.606346  1.876307  1.036798     23.92    3.3764   15.8839   0.07258   4.69921   0.29254   0.01796  29.46218   3.74241     199.8  0.479317  0.002291  0.000416  0.000097  0.187817  6.858102  0.535327     63.30  1.000093  1.000003     2.215    10.932      97.3      80.0      32.8     189.3     13.73      5.31      2.63     -2.02     -3.32     -2.81     -0.92     -1.28     -0.30      5.18     -3.13     -1.50      0.19      0.70     -0.19    -11.09     -6.65     -5.52     -6.13      0.88
       5.697158     -96.531784     280.6      0.29      1.88      58.1         3         2      3892      2327    125.02   -19.030       4.5      37.3   217.948     0.530     290.4   0.05039     100.0         H               192.0  0.034192  0.010040  0.000885  0.883188  0.578143  1.527628  1.034864     10.38    2.0388    6.6040   0.05495   3.84740   0.39411   0.04110  12.48220   2.40920     129.4  0.479514  0.004620  0.000749  0.000093  0.175453  6.785308  0.532133     66.96  0.999893  0.999999     2.190    10.580     160.0      69.5      14.5     112.9     13.00      2.88      0.57     -2.45     -1.62     -2.19      1.90     -0.68      0.15      3.05     -1.29     -1.07      1.45     -1.15      1.33    -17.02     -3.93     -4.02     -3.13     -5.32
       5.708099     -96.584717     290.3      0.32      1.88      61.4         3         3      3892      3654    134.93   -18.699       5.0      37.7   219.601     0.540     487.6   0.05459     100.0         H               192.0  0.035231  0.011495  0.000636  1.008185  0.597612  1.687024  1.045991     14.48    2.2326    7.8778   0.06935   3.99448   0.37746   0.03637  14.66297   2.60295     141.2  0.484840  0.006209  0.001628  0.000093  0.181859  6.843081  0.543398     69.18  0.999924  0.999998     2.237    10.888     210.9      71.3      16.8     123.2     13.06      3.41      1.40     -1.43     -2.07     -2.89     -0.16     -1.09      0.19      3.38     -1.53     -1.56      1.15     -0.30      0.10    -11.72     -3.68     -5.83     -2.36     -1.77
