corner points
-105.4303055    -31.18198204
-105.4843826    -31.3545723
-105.638031    -31.1328392
-105.6925049    -31.30533218
========== RESULTS WAVE VERSION 16.10.2018 ====================
IMAGE SIZE  X: 4460     Y:4779    col:row     POLARIZATION:VV
COVERAGE    X: 20.4638864km       Y: 19.82307749km 
RESOLUTION dX: 4.588315335m       dY:4.147955113m  
resolution of original product 4.588315335m x 4.147955113m;   raster step x:5996.928143m  
===============================================================
FLAGS: H=HIGH PROBABILITY SEA STATE, I=LAND(ISLAND), O=OUTLIER NO SEA STATE, N=NO WIND AVAILABLE, SEA STATE NOT VISIBLE, M=MEAN PROBABILITY SEA STATE, L= LOW PROBABILITY SEA STATE
Filtering wave length
 integration  Lmin=1m
 integration  Lmax=2200m
  peak        Lmin=100m
               FFT=1024pixels, 4698.434903m 
   mean-Hs (SWH_c)=0.5715361023m
         mean-wind=12.14711952m/s
--------------0--------------1---------2---------3---------4---------5---------6---------7---------8---------9--------10--------11--------12--------13--------14--------15--------16--------17--------18--------19------------------20--------21--------22--------23--------24--------25--------26--------27--------28--------29--------30--------31--------32--------33--------34--------35--------36--------37--------38--------39--------40--------41--------42--------43--------44--------45--------46--------47--------48--------49--------50--------51--------52--------53--------54--------55--------56--------57--------58--------59--------60--------61--------62--------63--------64--------65--------66--------67--------68--------69--------70--------71--------72--------73
            LAT            LON  P-LENGHT     SWH_o     SWH_c     P-DIR      LINE     POINT     ROW-Y     COL-X  M-INTENC        dB      WIND INC-ANGLE  ENERGY-M  ENERGY-N  ENERGY-R ENERGY-NN  FG-DEPTH      FLAG         HEADING-DEG    E30-75   E75-390  E390-600 meanincut   meanout   cut/out  STD-NORM  SPEC-MAX   GL-MEAN    GL-VAR      CORR   ENTROPY   HOMOGEN    ENERGY  CONTRAST  DISSIMIL     STD-O    E 1-30 E600-2000   E2000 >      GODA  LONG-HIG     Tmean  CONVOLUT  MEAN-DIR  relation     Sy/Sx  SKEWNESS  KURTOSIS  cutoff-A >50/10000     INT*V   INT-LOG  S-1_g1f1  S-2_g1f2  S-3_g1f3  S-4_g2f1  S-5_g2f2  S-6_g2f3  S-7_g3f1  S-8_g3f2  S-9_g3f3 S-10_g1f4 S-11_g2f4 S-12_g3f4 S-13_g1f5 S-14_g2f5 S-15_g3f5 S-16_g4f1 S-17_g4f2 S-18_g4f3 S-19_g4f4 S-20_g4f5
--------------1--------------2---------3---------4---------5---------6---------7---------8---------9--------10--------11--------12--------13--------14--------15--------16--------17--------18--------19--------20------------------21--------22--------23--------24--------25--------26--------27--------28--------29--------30--------31--------32--------33--------34--------35--------36--------37--------38--------39--------40--------41--------42--------43--------44--------45--------46--------47--------48--------49--------50--------51--------52--------53--------54--------55--------56--------57--------58--------59--------60--------61--------62--------63--------64--------65--------66--------67--------68--------69--------70--------71--------72--------73--------74
     -31.206980    -105.488777     391.5      1.00      2.25      56.4         1         1      1000      1000    632.84   -11.987      14.0      36.3   251.844     0.568     185.5   0.08152     100.0         H               192.9  0.054054  0.014248  0.000904  1.323039  0.705622  1.874998  1.070037     15.93   11.9944  160.2571   0.12343   6.99155   0.11587   0.00180 280.95074  11.89462     677.2  0.496151  0.002102  0.000608  0.000171  0.159338  6.639625  0.572931     85.31  1.000123  1.000010     2.427    12.831      99.7      96.3     392.2     711.6     12.55      1.92      0.31     -1.33     -2.14     -0.40      2.82      0.89      0.81      1.38     -1.85      0.49     -0.86      0.66      0.00    -13.95     -5.61     -1.50     -4.56      2.40
     -31.192528    -105.549927     381.6      0.78      2.25      63.3         1         2      1000      2307    535.60   -12.712      13.0      36.7   252.824     0.567     129.2   0.07879     100.0         H               192.9  0.052142  0.014548  0.000819  1.329639  0.704928  1.886206  1.068871     13.70   10.1486  121.0819   0.11712   6.69719   0.13276   0.00249 213.80235  10.24337     572.5  0.498073  0.001581  0.000330  0.000147  0.161113  6.679870  0.571781     84.73  1.000159  1.000012     2.432    13.079      97.3      94.8     275.9     616.4     12.32      1.83     -0.01     -0.97     -2.25     -0.66      2.51      0.92      0.84      1.53     -2.15      0.54     -0.33      0.08      0.71    -12.46     -6.11     -1.76     -5.26      0.09
     -31.178173    -105.610527     391.5      0.65      2.25      56.4         1         3      1000      3614    414.25   -13.827      11.3      37.0   253.184     0.560      70.5   0.07198     100.0         H               192.9  0.049701  0.013753  0.000607  1.288541  0.679160  1.897256  1.062283      6.22    7.7815   75.3688   0.10516   6.21134   0.16313   0.00409 134.88512   8.03246     440.0  0.495533  0.000962  0.000137  0.000141  0.161076  6.692624  0.564261     84.52  1.000160  1.000011     2.389    12.588      99.7      92.2     159.0     457.9     11.83      0.81     -0.33      0.43     -0.84      0.76      2.30      0.66      0.28      1.14     -0.72     -0.12     -0.35      0.20      0.98     -9.39     -2.52      1.59     -1.37     -0.24
     -31.259207    -105.505165     395.7      0.68      2.25      49.3         2         1      2446      1000    489.30   -13.104      12.0      36.3   252.937     0.566     192.8   0.07695     100.0         H               192.9  0.051695  0.013983  0.000742  1.282998  0.697983  1.838151  1.068905     12.16    9.2493  103.1465   0.11524   6.52863   0.14285   0.00298 182.52051   9.41166     523.0  0.497496  0.002230  0.000611  0.000150  0.159261  6.657663  0.571340     84.96  1.000121  1.000009     2.437    13.125     102.3      93.9     227.6     560.1     12.12      1.03     -0.86     -0.48     -1.92      1.10      2.76      1.30      0.35      0.92     -1.04     -0.30     -1.18      1.15     -0.04    -11.73     -5.53      2.40     -1.93      2.51
     -31.244745    -105.566345     391.5      0.71      2.25      56.4         2         2      2446      2307    509.86   -12.925      12.6      36.7   251.326     0.560      61.3   0.07517     100.0         H               192.9  0.051171  0.014083  0.000785  1.295232  0.710161  1.823855  1.061376     13.81    9.6561  110.1419   0.11108   6.60878   0.13749   0.00272 195.81628   9.78461     541.1  0.492920  0.000816  0.000110  0.000147  0.159423  6.674987  0.563577     84.96  1.000143  1.000010     2.371    12.305      92.7      94.4     246.1     562.7     12.13      2.37     -0.41     -0.68     -2.39     -0.07      2.67      1.16      0.75      1.43     -1.50      0.20     -1.26      0.99      0.27    -12.11     -6.90     -0.35     -3.35      2.77
     -31.230383    -105.626976     393.9      0.64      2.25      42.1         2         3      2446      3614    406.13   -13.913      11.2      37.0   251.429     0.558      70.7   0.07177     100.0         H               192.9  0.049961  0.013602  0.000624  1.269882  0.687086  1.848213  1.059759      9.38    7.6219   72.3583   0.10577   6.17296   0.16568   0.00426 129.40846   7.87001     430.4  0.492757  0.000875  0.000163  0.000139  0.158423  6.676123  0.561754     84.77  1.000159  1.000011     2.355    12.122      97.3      91.9     152.1     432.1     11.74      1.34     -0.84      0.37     -1.85      1.38      2.50      1.12      0.59      1.24     -0.87     -0.81     -0.73      1.27      0.19     -9.76     -5.60      2.37     -1.48      3.15
     -31.311430    -105.521568     391.5      0.68      2.25      56.4         3         1      3892      1000    482.97   -13.161      11.9      36.3   254.619     0.571     142.9   0.07787     100.0         H               192.9  0.052024  0.014741  0.000829  1.366600  0.687841  1.986796  1.072741     11.78    9.1250  101.3035   0.11554   6.50265   0.14439   0.00307 179.19868   9.30778     518.1  0.501578  0.001838  0.000363  0.000148  0.162062  6.683027  0.576169     84.88  1.000183  1.000014     2.463    13.450     102.3      93.7     222.5     570.7     12.26      1.20     -0.18     -0.50     -1.24      0.88      2.69      0.88      0.61      1.44     -1.16      0.09     -1.02      0.93      0.61    -12.24     -3.92      1.00     -3.41      2.17
     -31.296961    -105.582787     396.3      0.70      2.25      68.1         3         2      3892      2307    495.33   -13.051      12.4      36.6   251.580     0.562      52.0   0.07571     100.0         H               192.9  0.052332  0.014185  0.000647  1.326355  0.685182  1.935771  1.063943      6.99    9.3718  104.8295   0.11188   6.55418   0.14122   0.00288 186.20319   9.52173     527.0  0.494782  0.000651  0.000092  0.000156  0.158382  6.658842  0.566913     84.90  1.000176  1.000014     2.401    12.818      99.7      94.1     232.4     571.3     11.86      0.58     -0.56      0.43     -0.84      0.90      2.24      0.25      0.63      0.77     -0.97      0.17     -0.65      0.77      0.26     -9.67     -2.05      1.42     -2.31      2.19
     -31.282589    -105.643456     391.5      0.63      2.25      56.4         3         3      3892      3614    396.35   -14.019      11.0      37.0   252.826     0.560      88.4   0.07226     100.0         H               192.9  0.050831  0.013522  0.000763  1.264440  0.692600  1.825642  1.062062     12.75    7.4274   69.2031   0.10531   6.12470   0.16935   0.00447 123.82943   7.68835     420.9  0.493735  0.001104  0.000204  0.000155  0.155806  6.645316  0.563840     84.29  1.000187  1.000013     2.383    12.469     102.3      91.6     144.7     430.3     12.01      1.77      0.20     -0.63     -2.66     -0.72      3.14      1.27      1.15      1.64     -1.85      0.06     -0.94      0.88      0.08    -12.20     -7.17     -2.55     -4.13      2.37
