corner points
-94.58078766    6.36761713
-94.61823273    6.186888695
-94.76157379    6.405348301
-94.79897308    6.224644661
========== RESULTS WAVE VERSION 16.10.2018 ====================
IMAGE SIZE  X: 5601     Y:4927    col:row     POLARIZATION:VV
COVERAGE    X: 20.36909908km       Y: 20.47006931km 
RESOLUTION dX: 3.636689712m       dY:4.154672075m  
resolution of original product 3.636689712m x 4.154672075m;   raster step x:5996.901335m  
===============================================================
FLAGS: H=HIGH PROBABILITY SEA STATE, I=LAND(ISLAND), O=OUTLIER NO SEA STATE, N=NO WIND AVAILABLE, SEA STATE NOT VISIBLE, M=MEAN PROBABILITY SEA STATE, L= LOW PROBABILITY SEA STATE
Filtering wave length
 integration  Lmin=1m
 integration  Lmax=2200m
  peak        Lmin=100m
               FFT=1024pixels, 3723.970265m 
   mean-Hs (SWH_c)=0.2m
         mean-wind=5.4417696m/s
--------------0--------------1---------2---------3---------4---------5---------6---------7---------8---------9--------10--------11--------12--------13--------14--------15--------16--------17--------18--------19------------------20--------21--------22--------23--------24--------25--------26--------27--------28--------29--------30--------31--------32--------33--------34--------35--------36--------37--------38--------39--------40--------41--------42--------43--------44--------45--------46--------47--------48--------49--------50--------51--------52--------53--------54--------55--------56--------57--------58--------59--------60--------61--------62--------63--------64--------65--------66--------67--------68--------69--------70--------71--------72--------73
            LAT            LON  P-LENGHT     SWH_o     SWH_c     P-DIR      LINE     POINT     ROW-Y     COL-X  M-INTENC        dB      WIND INC-ANGLE  ENERGY-M  ENERGY-N  ENERGY-R ENERGY-NN  FG-DEPTH      FLAG         HEADING-DEG    E30-75   E75-390  E390-600 meanincut   meanout   cut/out  STD-NORM  SPEC-MAX   GL-MEAN    GL-VAR      CORR   ENTROPY   HOMOGEN    ENERGY  CONTRAST  DISSIMIL     STD-O    E 1-30 E600-2000   E2000 >      GODA  LONG-HIG     Tmean  CONVOLUT  MEAN-DIR  relation     Sy/Sx  SKEWNESS  KURTOSIS  cutoff-A >50/10000     INT*V   INT-LOG  S-1_g1f1  S-2_g1f2  S-3_g1f3  S-4_g2f1  S-5_g2f2  S-6_g2f3  S-7_g3f1  S-8_g3f2  S-9_g3f3 S-10_g1f4 S-11_g2f4 S-12_g3f4 S-13_g1f5 S-14_g2f5 S-15_g3f5 S-16_g4f1 S-17_g4f2 S-18_g4f3 S-19_g4f4 S-20_g4f5
--------------1--------------2---------3---------4---------5---------6---------7---------8---------9--------10--------11--------12--------13--------14--------15--------16--------17--------18--------19--------20------------------21--------22--------23--------24--------25--------26--------27--------28--------29--------30--------31--------32--------33--------34--------35--------36--------37--------38--------39--------40--------41--------42--------43--------44--------45--------46--------47--------48--------49--------50--------51--------52--------53--------54--------55--------56--------57--------58--------59--------60--------61--------62--------63--------64--------65--------66--------67--------68--------69--------70--------71--------72--------73--------74
       6.337845     -94.621498     292.5      0.37      1.80      51.8         1         1      1000      1000   2110.33    -6.756       6.0      23.7   408.131     0.661     130.5   0.13999     100.0         H               192.0  0.070396  0.027613  0.001039  2.345314  0.855830  2.740396  1.152879     37.38    3.7291   23.2877   0.23497   4.83529   0.30198   0.01877  35.63126   3.89264    2432.7  0.560195  0.001939  0.000133  0.000167  0.185243  6.837530  0.689451     78.26  1.000144  1.000013     2.956    19.320      65.3      79.9      43.9     297.6     13.67      4.75      0.65     -1.34     -2.92     -1.48     -1.95     -1.33      1.11      3.28     -1.53     -1.18     -1.26      0.76      0.16     -9.09     -5.67     -3.56     -3.05      1.17
       6.349075     -94.675285     342.0      0.32      1.80      55.8         1         2      1000      2649   1678.82    -7.750       5.1      24.2   411.898     0.668      81.1   0.14176     100.0         H               192.0  0.072916  0.029120  0.001130  2.566127  0.864384  2.968733  1.160508     33.83    2.8845   14.9919   0.23664   4.38628   0.35414   0.02932  22.88850   3.09018    1948.3  0.564559  0.001056  0.000047  0.000160  0.185853  6.862394  0.698359     77.74  1.000143  1.000014     2.993    19.581      63.2      74.7      28.3     232.9     13.79      4.37      0.70     -1.44     -2.85     -1.47     -1.91     -0.59      0.88      3.30     -1.68     -1.29     -0.69      0.55     -0.99     -9.39     -6.39     -2.85     -3.17      2.31
       6.360098     -94.728104     317.5      0.37      1.80      58.5         1         3      1000      4298   1720.59    -7.643       6.0      24.7   405.480     0.657      96.1   0.13885     100.0         H               192.0  0.069105  0.028429  0.001116  2.439722  0.868805  2.808135  1.148566     38.15    2.9561   15.4081   0.23355   4.43055   0.34858   0.02788  23.61925   3.15432    1976.2  0.557973  0.001223  0.000074  0.000153  0.186208  6.888346  0.685908     75.86  1.000148  1.000012     2.880    17.669      65.3      75.4      29.2     216.1     13.88      5.05      1.27     -1.79     -3.19     -1.66     -1.45     -0.97      0.90      3.63     -1.78     -1.22     -1.50      0.91     -0.22    -10.00     -6.48     -3.79     -3.32      2.16
       6.284867     -94.632469     317.5      0.36      1.80      58.5         2         1      2444      1000   2053.50    -6.875       5.8      23.7   410.026     0.665     125.5   0.14051     100.0         H               192.0  0.070613  0.029755  0.001242  2.410559  0.864990  2.786805  1.157857     49.05    3.6187   22.2009   0.23583   4.78131   0.30848   0.01987  33.93046   3.79111    2377.6  0.562051  0.001630  0.000115  0.000157  0.192549  6.889709  0.694309     72.25  1.000130  1.000011     3.003    20.086      64.2      79.3      41.8     290.1     14.20      5.87      1.06     -2.44     -4.46     -1.82     -1.82     -0.63      0.95      3.77     -2.40     -1.02     -2.10      1.54     -0.54    -10.72     -9.09     -3.57     -4.40      3.78
       6.296100     -94.686249     295.8      0.33      1.80      60.9         2         2      2444      2649   1730.82    -7.617       5.3      24.2   405.308     0.654      72.9   0.13675     100.0         H               192.0  0.068842  0.028695  0.001210  2.343759  0.840232  2.789420  1.146683     55.17    2.9800   15.5331   0.23199   4.44524   0.34636   0.02746  23.85929   3.17961    1984.6  0.554965  0.000865  0.000028  0.000161  0.190118  6.890090  0.682544     72.98  1.000125  1.000010     2.884    18.278      62.2      75.5      29.5     236.0     14.25      5.81      2.03     -2.38     -3.98     -2.65     -2.01     -0.81      0.61      4.59     -2.84     -1.34     -1.62      1.01     -0.28    -10.54     -8.39     -5.11     -5.24      2.65
       6.307125     -94.739067     317.5      0.33      1.80      58.5         2         3      2444      4298   1511.35    -8.206       5.2      24.7   411.804     0.669     134.9   0.14262     100.0         H               192.0  0.072162  0.029084  0.001297  2.508898  0.874359  2.869413  1.160581     39.95    2.5459   12.0917   0.23713   4.17406   0.38104   0.03612  18.44880   2.76347    1753.9  0.565249  0.001764  0.000131  0.000166  0.185929  6.856539  0.698986     75.72  1.000139  1.000012     3.042    20.911      64.2      71.9      23.0     219.8     14.00      4.89      1.19     -2.00     -3.63     -1.53     -1.49     -0.53      0.65      3.24     -1.80     -1.09     -1.20      1.24     -0.77    -10.83     -7.75     -3.00     -3.40      3.60
       6.231890     -94.643448     305.5      0.35      1.80      64.5         3         1      3888      1000   1988.14    -7.016       5.5      23.7   409.177     0.663      87.4   0.14014     100.0         H               192.0  0.071670  0.028395  0.000954  2.406203  0.877908  2.740836  1.154679     37.75    3.5022   20.8802   0.23478   4.72475   0.31395   0.02089  31.95584   3.67979    2295.5  0.561280  0.001051  0.000068  0.000162  0.187213  6.860162  0.691719     76.69  1.000122  1.000011     2.998    19.825      63.2      78.7      39.4     274.6     13.69      3.77      0.67     -1.01     -2.37     -1.51     -2.42     -1.01      0.82      3.57     -2.42     -1.08     -0.87      0.05     -0.24     -8.06     -4.61     -3.19     -4.32      1.03
       6.243125     -94.697220     295.8      0.32      1.80      60.9         3         2      3888      2649   1682.78    -7.740       5.1      24.2   410.753     0.666      92.1   0.14079     100.0         H               192.0  0.071108  0.030093  0.001094  2.508502  0.853728  2.938293  1.155991     40.86    2.8885   14.9812   0.23508   4.38923   0.35389   0.02918  22.91884   3.09231    1945.2  0.562911  0.001164  0.000066  0.000158  0.189479  6.894360  0.695459     76.36  1.000122  1.000011     2.971    19.063      63.2      74.7      28.3     231.1     13.83      4.25      0.66     -1.43     -3.09     -1.60     -2.31     -0.71      0.89      3.31     -1.78     -1.25     -1.08      0.56     -0.24     -8.95     -6.14     -2.94     -3.27      1.52
       6.254152     -94.750031     317.5      0.32      1.80      58.5         3         3      3888      4298   1458.80    -8.360       5.0      24.7   411.528     0.668      93.8   0.14221     100.0         H               192.0  0.071166  0.030920  0.001314  2.519262  0.860249  2.928526  1.158122     45.65    2.4456   11.2622   0.23567   4.10666   0.39023   0.03863  17.21629   2.66618    1689.5  0.563582  0.001273  0.000057  0.000164  0.191058  6.900546  0.697098     74.35  1.000136  1.000012     2.990    19.802      65.3      71.0      21.5     201.8     14.32      4.70      1.83     -2.52     -3.71     -2.33     -1.98     -0.68      0.63      3.98     -2.36     -1.12     -0.99      0.77     -0.41    -10.80     -7.07     -4.18     -4.46      2.11
