corner points
-125.8856735    -68.04142761
-126.1267548    -68.19911194
-126.3360443    -67.94347382
-126.579422    -68.10050201
========== RESULTS WAVE VERSION 16.10.2018 ====================
IMAGE SIZE  X: 5601     Y:4896    col:row     POLARIZATION:VV
COVERAGE    X: 21.65359258km       Y: 20.13755099km 
RESOLUTION dX: 3.8660226m       dY:4.113061885m  
resolution of original product 3.8660226m x 4.113061885m;   raster step x:5996.201052m  
===============================================================
FLAGS: H=HIGH PROBABILITY SEA STATE, I=LAND(ISLAND), O=OUTLIER NO SEA STATE, N=NO WIND AVAILABLE, SEA STATE NOT VISIBLE, M=MEAN PROBABILITY SEA STATE, L= LOW PROBABILITY SEA STATE
Filtering wave length
 integration  Lmin=1m
 integration  Lmax=2200m
  peak        Lmin=100m
               FFT=1024pixels, 3958.807142m 
   mean-Hs (SWH_c)=0.2m
         mean-wind=4.051645756m/s
--------------0--------------1---------2---------3---------4---------5---------6---------7---------8---------9--------10--------11--------12--------13--------14--------15--------16--------17--------18--------19------------------20--------21--------22--------23--------24--------25--------26--------27--------28--------29--------30--------31--------32--------33--------34--------35--------36--------37--------38--------39--------40--------41--------42--------43--------44--------45--------46--------47--------48--------49--------50--------51--------52--------53--------54--------55--------56--------57--------58--------59--------60--------61--------62--------63--------64--------65--------66--------67--------68--------69--------70--------71--------72--------73
            LAT            LON  P-LENGHT     SWH_o     SWH_c     P-DIR      LINE     POINT     ROW-Y     COL-X  M-INTENC        dB      WIND INC-ANGLE  ENERGY-M  ENERGY-N  ENERGY-R ENERGY-NN  FG-DEPTH      FLAG         HEADING-DEG    E30-75   E75-390  E390-600 meanincut   meanout   cut/out  STD-NORM  SPEC-MAX   GL-MEAN    GL-VAR      CORR   ENTROPY   HOMOGEN    ENERGY  CONTRAST  DISSIMIL     STD-O    E 1-30 E600-2000   E2000 >      GODA  LONG-HIG     Tmean  CONVOLUT  MEAN-DIR  relation     Sy/Sx  SKEWNESS  KURTOSIS  cutoff-A >50/10000     INT*V   INT-LOG  S-1_g1f1  S-2_g1f2  S-3_g1f3  S-4_g2f1  S-5_g2f2  S-6_g2f3  S-7_g3f1  S-8_g3f2  S-9_g3f3 S-10_g1f4 S-11_g2f4 S-12_g3f4 S-13_g1f5 S-14_g2f5 S-15_g3f5 S-16_g4f1 S-17_g4f2 S-18_g4f3 S-19_g4f4 S-20_g4f5
--------------1--------------2---------3---------4---------5---------6---------7---------8---------9--------10--------11--------12--------13--------14--------15--------16--------17--------18--------19--------20------------------21--------22--------23--------24--------25--------26--------27--------28--------29--------30--------31--------32--------33--------34--------35--------36--------37--------38--------39--------40--------41--------42--------43--------44--------45--------46--------47--------48--------49--------50--------51--------52--------53--------54--------55--------56--------57--------58--------59--------60--------61--------62--------63--------64--------65--------66--------67--------68--------69--------70--------71--------72--------73--------74
     -68.055733    -126.017815     322.9      0.24      0.29     175.3         1         1      1000      1000   1941.27    -7.119       3.7      22.2   174.311     0.610     147.4   0.11321     100.0         H               204.7  0.061155  0.022750  0.001424  1.766584  1.212850  1.456555  1.106919      7.42    3.3888   18.1437   0.20524   4.68044   0.31610   0.02109  28.83979   3.56977    2148.8  0.521582  0.002957  0.000105  0.000105  0.176573  6.871006  0.628820    128.47  0.999936  0.999996     2.667    16.713      32.6      78.5      35.4     257.2     11.04     -0.78     -2.56      0.57     -0.49     -1.32      2.32     -0.06     -0.05     -0.03      0.47      0.08      0.58     -0.33      0.27    -10.19     -0.03     -0.34      0.75     -1.14
     -68.028290    -126.144417     381.7      0.26      0.29     144.7         1         2      1000      2551   1896.38    -7.221       4.0      22.7   201.291     0.743     148.7   0.16813     100.0         H               204.7  0.085487  0.030478  0.001823  2.704491  1.414699  1.911707  1.231853      9.76    3.3113   17.2009   0.20336   4.64230   0.31878   0.02150  27.40597   3.49381    2336.0  0.622557  0.002665  0.000095  0.000118  0.178229  6.833737  0.770482     85.61  1.000060  1.000002    35.542  6467.710      43.2      78.4      35.8     622.5     11.87     -0.24     -0.32      0.56      0.78      1.03      2.19      0.05     -0.29      0.53      0.57      0.40      0.44      0.66      0.51    -10.64      1.29      2.72      0.48      0.60
     -68.001282    -126.268288     387.5      0.28      0.29      23.1         1         3      1000      4102   1858.67    -7.308       4.4      23.1   172.831     0.601     123.0   0.10933     100.0         H               204.7  0.058604  0.022092  0.001749  1.615687  1.145629  1.410306  1.098339     10.11    3.2314   16.3632   0.19937   4.59994   0.32423   0.02257  26.20174   3.41589    2041.4  0.516284  0.002596  0.000066  0.000105  0.183768  6.902041  0.619227    110.73  0.999919  0.999995     2.938    37.339      32.9      77.8      32.4     314.6     11.66     -0.55     -3.69     -0.67     -0.45     -0.09      2.25      0.37     -0.37     -0.30      0.06      0.10      0.15      0.05      0.65    -13.23     -0.63      3.31      0.32     -0.78
     -68.102676    -126.089607     307.9      0.24      0.29      18.1         2         1      2458      1000   1895.16    -7.224       3.6      22.2   175.566     0.617     157.3   0.11575     100.0         H               204.7  0.063047  0.023180  0.001610  1.842206  1.238812  1.487075  1.113822     10.59    3.3265   17.7423   0.20907   4.64695   0.32023   0.02181  28.06582   3.50819    2110.9  0.526594  0.003036  0.000120  0.000104  0.173921  6.849128  0.637719    106.21  0.999928  0.999995     2.811    19.802      32.6      78.2      34.5     277.4     11.14     -0.01     -2.90      0.08     -0.60     -0.40      2.86     -0.02     -0.67     -0.08      0.64     -0.06     -0.32      0.38      0.06    -11.66     -1.02      2.07      1.16      1.17
     -68.075180    -126.216400     206.0      0.26      0.29     168.0         2         2      2458      2551   1915.49    -7.177       4.1      22.7   173.077     0.603     126.4   0.11056      34.3         H               204.7  0.059349  0.021464  0.001407  1.643468  1.166779  1.408551  1.100814      6.14    3.3536   17.5637   0.20167   4.66398   0.31707   0.02127  28.04318   3.53541    2108.7  0.518596  0.002447  0.000081  0.000105  0.173429  6.849681  0.621236    129.77  0.999956  0.999997     2.787    23.947      31.6      78.4      34.6     294.9     10.82     -0.58     -2.95      0.74     -0.80     -1.32      2.60      0.03     -0.22      0.24      0.44     -0.38      0.04      0.69      0.35    -10.39     -0.85      0.51      1.03      0.55
     -68.048119    -126.340462     375.9      0.29      0.29     169.1         2         3      2458      4102   1886.29    -7.244       4.5      23.1   172.104     0.597     105.6   0.10846     100.0         H               204.7  0.058998  0.020667  0.001302  1.624991  1.148929  1.414353  1.095622      8.75    3.2988   16.9335   0.19909   4.63623   0.31980   0.02173  27.12463   3.48016    2066.6  0.513974  0.002079  0.000072  0.000105  0.173256  6.840995  0.614294    120.31  0.999956  0.999997     2.608    15.987      31.6      78.3      33.4     242.0     10.81     -0.62     -2.95      0.74     -0.14     -0.93      2.66     -0.08     -0.36      0.00      0.19      0.28      0.36     -0.34      0.36     -9.91      0.37      0.90     -0.03     -0.90
     -68.149590    -126.161690     215.9      0.24      0.29     150.6         3         1      3916      1000   1977.93    -7.038       3.7      22.2   176.144     0.616      91.0   0.11466      39.5         H               204.7  0.062578  0.023313  0.001443  1.876837  1.222229  1.535585  1.113564      6.65    3.4763   19.1964   0.20619   4.72408   0.31114   0.02030  30.47665   3.66135    2202.5  0.527434  0.001679  0.000061  0.000105  0.174445  6.860807  0.635886    131.05  0.999946  0.999997     2.712    16.519      30.1      78.9      37.2     252.0     10.81     -1.07     -2.47      1.13     -1.06     -1.36      2.47      0.25      0.19      0.30      0.19      0.01     -0.20      0.24      0.10     -9.51     -1.47     -0.74     -0.08      0.85
     -68.122040    -126.288673     189.0      0.27      0.29     160.5         3         2      3916      2551   1932.08    -7.140       4.1      22.6   175.922     0.615      81.0   0.11480      27.1         H               204.7  0.062604  0.023272  0.001124  1.816354  1.237563  1.467686  1.111687      6.37    3.3809   18.1532   0.20593   4.67605   0.31607   0.02120  28.83003   3.56676    2147.9  0.527254  0.001469  0.000046  0.000105  0.173674  6.856709  0.635029    128.29  0.999952  0.999997     2.922    28.527      29.7      78.4      35.5     320.1     10.64     -0.72     -2.91      1.52     -0.76     -1.15      1.95      0.25      0.02      0.53     -0.45      0.11      0.35      0.11      0.36     -7.47     -1.17      0.22     -1.31     -0.37
     -68.094925    -126.412918     381.7      0.29      0.29     144.7         3         3      3916      4102   1893.16    -7.228       4.5      23.1   180.276     0.648      98.4   0.12981     100.0         H               204.7  0.069138  0.026796  0.001550  2.171729  1.254274  1.731463  1.143878      8.67    3.3044   17.4856   0.20556   4.63561   0.32160   0.02215  27.78249   3.49630    2165.5  0.549018  0.001916  0.000055  0.000102  0.176679  6.881608  0.669759    108.49  1.000018  1.000000     7.462   494.548      34.3      78.0      35.0     525.1     11.11     -0.43     -1.96      1.07     -0.51     -0.63      2.27      0.46     -0.14      0.84     -0.38      0.22      0.35      0.26     -0.10     -9.51     -1.14      0.57     -1.69      0.41
