corner points
-99.18580627    -14.88601303
-99.22686768    -15.06635571
-99.37326813    -14.8444252
-99.41455841    -15.02471161
========== RESULTS WAVE VERSION 16.10.2018 ====================
IMAGE SIZE  X: 5601     Y:4929    col:row     POLARIZATION:VV
COVERAGE    X: 20.62926159km       Y: 20.48630452km 
RESOLUTION dX: 3.683139009m       dY:4.15628008m  
resolution of original product 3.683139009m x 4.15628008m;   raster step x:5999.833446m  
===============================================================
FLAGS: H=HIGH PROBABILITY SEA STATE, I=LAND(ISLAND), O=OUTLIER NO SEA STATE, N=NO WIND AVAILABLE, SEA STATE NOT VISIBLE, M=MEAN PROBABILITY SEA STATE, L= LOW PROBABILITY SEA STATE
Filtering wave length
 integration  Lmin=1m
 integration  Lmax=2200m
  peak        Lmin=100m
               FFT=1024pixels, 3771.534345m 
   mean-Hs (SWH_c)=0.2m
         mean-wind=6.230555534m/s
--------------0--------------1---------2---------3---------4---------5---------6---------7---------8---------9--------10--------11--------12--------13--------14--------15--------16--------17--------18--------19------------------20--------21--------22--------23--------24--------25--------26--------27--------28--------29--------30--------31--------32--------33--------34--------35--------36--------37--------38--------39--------40--------41--------42--------43--------44--------45--------46--------47--------48--------49--------50--------51--------52--------53--------54--------55--------56--------57--------58--------59--------60--------61--------62--------63--------64--------65--------66--------67--------68--------69--------70--------71--------72--------73
            LAT            LON  P-LENGHT     SWH_o     SWH_c     P-DIR      LINE     POINT     ROW-Y     COL-X  M-INTENC        dB      WIND INC-ANGLE  ENERGY-M  ENERGY-N  ENERGY-R ENERGY-NN  FG-DEPTH      FLAG         HEADING-DEG    E30-75   E75-390  E390-600 meanincut   meanout   cut/out  STD-NORM  SPEC-MAX   GL-MEAN    GL-VAR      CORR   ENTROPY   HOMOGEN    ENERGY  CONTRAST  DISSIMIL     STD-O    E 1-30 E600-2000   E2000 >      GODA  LONG-HIG     Tmean  CONVOLUT  MEAN-DIR  relation     Sy/Sx  SKEWNESS  KURTOSIS  cutoff-A >50/10000     INT*V   INT-LOG  S-1_g1f1  S-2_g1f2  S-3_g1f3  S-4_g2f1  S-5_g2f2  S-6_g2f3  S-7_g3f1  S-8_g3f2  S-9_g3f3 S-10_g1f4 S-11_g2f4 S-12_g3f4 S-13_g1f5 S-14_g2f5 S-15_g3f5 S-16_g4f1 S-17_g4f2 S-18_g4f3 S-19_g4f4 S-20_g4f5
--------------1--------------2---------3---------4---------5---------6---------7---------8---------9--------10--------11--------12--------13--------14--------15--------16--------17--------18--------19--------20------------------21--------22--------23--------24--------25--------26--------27--------28--------29--------30--------31--------32--------33--------34--------35--------36--------37--------38--------39--------40--------41--------42--------43--------44--------45--------46--------47--------48--------49--------50--------51--------52--------53--------54--------55--------56--------57--------58--------59--------60--------61--------62--------63--------64--------65--------66--------67--------68--------69--------70--------71--------72--------73--------74
     -14.914996     -99.228500     211.5      0.50      1.54     173.6         1         1      1000      1000   2940.21    -5.316       8.5      23.4   362.721     0.650     108.7   0.13448      37.1         H               192.1  0.072744  0.020878  0.000931  1.678887  0.839813  1.999120  1.142371     14.65    5.3642   43.8048   0.22774   5.49352   0.23452   0.00959  67.65659   5.43932    3358.6  0.554251  0.001787  0.000087  0.000165  0.175481  6.719151  0.677325     90.78  1.000122  1.000010     2.915    18.734      69.9      86.4      84.9     409.2     12.26      1.84     -3.64     -0.19     -2.14     -0.23     -0.43      0.85      2.21      1.45     -0.46     -0.83      0.65      0.18     -1.41     -8.90     -5.36      1.02     -0.87      1.08
     -14.902772     -99.283646     212.5      0.41      1.54       3.2         1         2      1000      2629   2200.69    -6.574       6.6      23.9   368.061     0.667      94.5   0.14189      37.6         H               192.1  0.077496  0.023181  0.000956  1.833360  0.880039  2.083271  1.157455     22.62    3.9112   25.5513   0.23588   4.91918   0.29254   0.01723  39.04841   4.07078    2547.1  0.564319  0.001278  0.000071  0.000187  0.175536  6.709496  0.695869     87.42  1.000105  1.000011     2.999    19.605      69.9      80.9      48.2     307.3     12.28      2.20     -3.96     -0.05     -2.29     -0.16     -0.57      0.83      2.85      1.46     -0.60     -0.66      0.53      0.76     -2.07     -8.30     -5.79      0.75     -1.10      2.91
     -14.890759     -99.337761     211.5      0.36      1.54     173.6         1         3      1000      4258   1778.42    -7.500       5.7      24.4   370.305     0.675      77.2   0.14548      37.1         H               192.1  0.079403  0.023509  0.000974  1.916682  0.867838  2.208570  1.164301     20.96    3.0816   16.9444   0.23732   4.49953   0.34084   0.02620  25.84617   3.28080    2070.7  0.570073  0.001170  0.000048  0.000183  0.173118  6.712829  0.703868     89.67  1.000136  1.000013     3.122    22.628      72.4      76.1      31.9     271.4     12.08      2.30     -3.70      0.31     -2.28      0.18     -0.12      0.99      2.65      1.15     -0.00     -1.11     -0.11      1.17     -2.03     -8.10     -6.23      1.04      0.25      3.97
     -14.967801     -99.240540     223.6      0.52      1.54       3.4         2         1      2443      1000   3037.33    -5.175       8.8      23.4   368.590     0.667     363.2   0.14181      44.3         H               192.1  0.075437  0.022026  0.001092  1.765922  0.878449  2.010273  1.158521     21.37    5.5496   47.7458   0.23838   5.54985   0.23149   0.00925  72.72799   5.60464    3518.7  0.562456  0.005868  0.000495  0.000165  0.176645  6.734885  0.696679     86.31  1.000181  1.000016     2.991    19.154      75.2      86.7      92.2     412.6     12.40      1.85     -2.66     -0.40     -1.73     -1.65     -0.18      0.66      3.57      1.17     -0.84      0.07      2.29     -0.78     -1.54    -10.10     -4.70     -4.44     -2.30     -1.95
     -14.955572     -99.295692     352.8      0.31      1.54      48.5         2         2      2443      2629   1730.92    -7.617       4.9      23.9   370.142     0.672     141.7   0.14307     100.0         H               192.1  0.078427  0.024463  0.001075  1.896845  0.859464  2.207009  1.163546     23.95    2.9861   16.0318   0.23749   4.44444   0.34791   0.02786  24.44896   3.18864    2013.9  0.566067  0.002194  0.000125  0.000185  0.179490  6.733332  0.701972     87.55  1.000112  1.000011     2.991    19.012      71.1      75.3      30.1     225.2     12.55      2.37     -4.28     -0.39     -2.46     -0.64     -1.03      1.29      3.56      1.67     -0.71     -0.75      0.32      0.97     -2.29     -9.20     -6.65     -0.36     -1.64      3.31
     -14.943555     -99.349838     372.6      0.33      1.54      52.2         2         3      2443      4258   1642.23    -7.846       5.2      24.4   373.848     0.683      94.4   0.14820     100.0         H               192.1  0.081267  0.024516  0.000992  2.015867  0.881551  2.286728  1.172886     21.06    2.8050   14.6073   0.24079   4.33521   0.36144   0.03106  22.18028   3.01763    1926.1  0.575792  0.001285  0.000070  0.000176  0.173363  6.723336  0.713978     91.15  1.000131  1.000014     3.104    20.786      72.4      73.9      27.4     223.4     12.19      2.20     -3.09      0.34     -2.03     -0.84     -0.46      0.86      2.81      1.69     -0.85     -0.54      0.08      1.00     -2.13     -7.97     -5.30     -0.82     -1.81      3.72
     -15.020605     -99.252579     212.5      0.49      1.54       3.2         3         1      3886      1000   2843.49    -5.461       8.1      23.4   379.517     0.696     920.8   0.15346      37.6         M               192.1  0.079212  0.024129  0.001463  1.842282  0.911464  2.021234  1.184615     28.00    5.1392   43.4765   0.25446   5.39864   0.24971   0.01129  64.82649   5.21828    3368.1  0.576018  0.013959  0.001412  0.000155  0.181588  6.764258  0.729814     85.93  1.000178  1.000016     3.131    21.732      97.3      84.8      82.3     432.9     12.65      1.73     -2.86     -1.25     -1.65     -1.90      0.12      0.58      4.31      1.18     -0.70     -0.03      3.17     -1.05     -1.17    -12.51     -4.21     -5.26     -1.87     -3.94
     -15.008371     -99.307755     212.5      0.33      1.54       3.2         3         2      3886      2629   1833.21    -7.368       5.3      23.9   370.145     0.668     148.9   0.14186      37.6         H               192.1  0.078757  0.024860  0.001002  1.865903  0.894960  2.084902  1.159682     22.28    3.1847   17.8427   0.23693   4.55660   0.33465   0.02490  27.23045   3.37676    2125.9  0.561967  0.002183  0.000115  0.000170  0.181497  6.757684  0.698145     88.58  1.000094  1.000009     2.970    19.239      65.3      76.7      33.5     253.0     12.21      1.87     -4.95      0.23     -1.81     -0.40     -1.18      0.89      3.53      1.12     -0.25     -0.48      1.02      0.44     -2.11     -7.95     -4.89      0.93     -0.67      1.85
     -14.996349     -99.361916     212.5      0.31      1.54     176.8         3         3      3886      4258   1529.92    -8.153       4.8      24.4   370.406     0.667     142.7   0.14014      37.6         H               192.1  0.077790  0.023419  0.000903  1.887871  0.850280  2.220293  1.158953     20.81    2.5965   12.4973   0.23350   4.20770   0.37689   0.03494  19.15844   2.81586    1773.1  0.563605  0.002073  0.000165  0.000175  0.173109  6.716289  0.696744     90.57  1.000082  1.000009     2.988    19.434      66.4      72.4      23.7     209.7     11.89      1.49     -4.47      0.70     -1.64     -0.55     -0.67      0.96      3.31      1.32     -0.30     -0.77      0.75      0.15     -1.88     -7.47     -4.25      0.35     -0.77      1.16
