corner points
120.0448456    -52.23390579
119.9423752    -52.06761551
120.3235779    -52.16755295
120.2201614    -52.00150299
========== RESULTS WAVE VERSION 16.10.2018 ====================
IMAGE SIZE  X: 4376     Y:4773    col:row     POLARIZATION:VV
COVERAGE    X: 20.33091991km       Y: 19.72484438km 
RESOLUTION dX: 4.646005465m       dY:4.13258839m  
resolution of original product 4.646005465m x 4.13258839m;   raster step x:5997.993055m  
===============================================================
FLAGS: H=HIGH PROBABILITY SEA STATE, I=LAND(ISLAND), O=OUTLIER NO SEA STATE, N=NO WIND AVAILABLE, SEA STATE NOT VISIBLE, M=MEAN PROBABILITY SEA STATE, L= LOW PROBABILITY SEA STATE
Filtering wave length
 integration  Lmin=1m
 integration  Lmax=2200m
  peak        Lmin=100m
               FFT=1024pixels, 4757.509596m 
   mean-Hs (SWH_c)=2.726900635m
         mean-wind=11.71934128m/s
--------------0--------------1---------2---------3---------4---------5---------6---------7---------8---------9--------10--------11--------12--------13--------14--------15--------16--------17--------18--------19------------------20--------21--------22--------23--------24--------25--------26--------27--------28--------29--------30--------31--------32--------33--------34--------35--------36--------37--------38--------39--------40--------41--------42--------43--------44--------45--------46--------47--------48--------49--------50--------51--------52--------53--------54--------55--------56--------57--------58--------59--------60--------61--------62--------63--------64--------65--------66--------67--------68--------69--------70--------71--------72--------73
            LAT            LON  P-LENGHT     SWH_o     SWH_c     P-DIR      LINE     POINT     ROW-Y     COL-X  M-INTENC        dB      WIND INC-ANGLE  ENERGY-M  ENERGY-N  ENERGY-R ENERGY-NN  FG-DEPTH      FLAG         HEADING-DEG    E30-75   E75-390  E390-600 meanincut   meanout   cut/out  STD-NORM  SPEC-MAX   GL-MEAN    GL-VAR      CORR   ENTROPY   HOMOGEN    ENERGY  CONTRAST  DISSIMIL     STD-O    E 1-30 E600-2000   E2000 >      GODA  LONG-HIG     Tmean  CONVOLUT  MEAN-DIR  relation     Sy/Sx  SKEWNESS  KURTOSIS  cutoff-A >50/10000     INT*V   INT-LOG  S-1_g1f1  S-2_g1f2  S-3_g1f3  S-4_g2f1  S-5_g2f2  S-6_g2f3  S-7_g3f1  S-8_g3f2  S-9_g3f3 S-10_g1f4 S-11_g2f4 S-12_g3f4 S-13_g1f5 S-14_g2f5 S-15_g3f5 S-16_g4f1 S-17_g4f2 S-18_g4f3 S-19_g4f4 S-20_g4f5
--------------1--------------2---------3---------4---------5---------6---------7---------8---------9--------10--------11--------12--------13--------14--------15--------16--------17--------18--------19--------20------------------21--------22--------23--------24--------25--------26--------27--------28--------29--------30--------31--------32--------33--------34--------35--------36--------37--------38--------39--------40--------41--------42--------43--------44--------45--------46--------47--------48--------49--------50--------51--------52--------53--------54--------55--------56--------57--------58--------59--------60--------61--------62--------63--------64--------65--------66--------67--------68--------69--------70--------71--------72--------73--------74
     -52.183788     120.087807     297.0      2.81      4.68     110.5         1         1      1000      1000    480.89   -13.180      11.4      35.7   307.014     0.634     119.9   0.10349     100.0         H               344.0  0.055505  0.048514  0.001798  3.828948  0.779449  4.912376  1.129249    100.51    9.0560  107.3212   0.16075   6.47094   0.15112   0.00337 180.13943   9.18387     543.0  0.526772  0.001327  0.000103  0.000184  0.236432  7.456689  0.646184    106.18  1.000239  1.000023     2.831    17.712     166.7      93.2     235.5     641.6     15.90     -4.33     11.65     -0.84      2.52      1.50     -2.56      1.50     -4.02     -5.35      2.64      1.84      2.75      2.71     -0.19     -9.44      4.51     -0.74      5.29      2.77
     -52.164173     120.170326     313.7      2.75      4.68      98.5         1         2      1000      2291    474.01   -13.242      11.6      36.1   306.624     0.627     112.1   0.10049     100.0         H               344.0  0.054513  0.046718  0.001948  3.658664  0.759105  4.819707  1.123799     89.65    8.9250  104.0972   0.15577   6.44582   0.15274   0.00345 175.76547   9.06326     532.7  0.523374  0.001161  0.000107  0.000184  0.234992  7.435141  0.638887    101.06  1.000281  1.000025     2.765    16.354     166.7      93.0     226.9     590.1     15.95     -4.37     12.14     -0.85      1.94      1.57     -2.36      0.95     -4.35     -5.33      1.66      1.51      4.89      1.71     -0.89    -10.00      4.84     -0.52      4.17      0.57
     -52.144680     120.252037     323.5      2.71      4.68     107.8         1         3      1000      3582    458.40   -13.388      11.7      36.5   305.425     0.624     107.5   0.09904     100.0         H               344.0  0.053034  0.045476  0.001979  3.444835  0.752416  4.578366  1.120956    125.44    8.6258   97.7154   0.15403   6.38500   0.15650   0.00365 165.32831   8.78343     513.9  0.523117  0.001058  0.000079  0.000195  0.240433  7.475659  0.635633    105.53  1.000258  1.000024     2.783    17.055     166.7      92.8     210.9     605.9     16.36     -5.47     12.65     -2.06      2.94     -0.15     -2.34      1.14     -3.95     -7.51      3.33      2.12      4.28      1.24     -0.97    -11.53      6.50     -3.66      6.97      0.68
     -52.133247     120.056549     335.9      2.72      4.68     113.4         2         1      2451      1000    493.40   -13.068      11.6      35.7   306.614     0.626     111.1   0.09925     100.0         H               344.0  0.053200  0.045570  0.001854  3.646985  0.757282  4.815886  1.121986     86.23    9.3023  111.4709   0.15279   6.52268   0.14728   0.00317 188.87794   9.43256     553.5  0.524010  0.001158  0.000106  0.000180  0.236136  7.447182  0.636396    108.57  1.000196  1.000017     2.774    17.094     166.7      93.5     246.5     667.5     15.85     -5.46     10.75     -1.13      2.84      1.68     -2.05      1.43     -3.22     -5.95      2.29      2.35      1.43      3.36      0.26    -10.49      6.30     -0.73      4.64      4.16
     -52.113655     120.138985     277.4      2.84      4.68      97.5         2         2      2451      2291    501.74   -12.995      12.0      36.1   304.493     0.623     117.2   0.10016     100.0         H               344.0  0.053401  0.046273  0.001776  3.722691  0.753504  4.940504  1.119841     82.48    9.4645  114.7297   0.15673   6.55373   0.14563   0.00308 193.49533   9.56304     561.9  0.520710  0.001330  0.000110  0.000180  0.236102  7.455395  0.634575    104.43  1.000237  1.000023     2.735    16.573     160.0      93.6     254.5     677.1     15.74     -4.76     11.30     -0.61      1.84      1.94     -2.30      1.43     -3.67     -5.38      1.34      2.14      3.16      2.84     -0.20     -9.23      4.60     -0.15      3.40      3.24
     -52.094181     120.220612     335.9      2.81      4.68     113.4         2         3      2451      3582    477.70   -13.208      12.0      36.5   304.033     0.618     113.7   0.09736     100.0         H               344.0  0.052045  0.045564  0.001696  3.513072  0.754031  4.659054  1.115128     86.75    9.0053  104.8952   0.15275   6.46483   0.15140   0.00338 177.74466   9.13985     532.7  0.517465  0.001298  0.000102  0.000183  0.238887  7.473560  0.628381    105.03  1.000210  1.000020     2.683    15.601     160.0      93.2     228.6     601.8     16.06     -4.86     11.74     -1.05      2.38      0.99     -2.96      1.54     -4.18     -5.92      2.21      2.06      2.92      2.10     -0.48     -9.80      4.98     -2.01      4.80      1.82
     -52.082695     120.025360     274.5      2.70      4.68     101.2         3         1      3902      1000    490.50   -13.094      11.5      35.7   303.647     0.619      99.8   0.09865     100.0         H               344.0  0.053348  0.045519  0.001522  3.702307  0.749366  4.940583  1.116450     69.39    9.2503  109.6081   0.15295   6.51413   0.14814   0.00319 185.68814   9.36441     547.6  0.518335  0.000976  0.000094  0.000176  0.233822  7.442197  0.630156    101.55  1.000261  1.000024     2.737    16.495     160.0      93.5     241.9     642.7     15.55     -3.63     11.50     -0.08      1.71      2.11     -2.32      0.89     -3.60     -4.38      1.43      1.48      3.20      3.00     -0.31     -8.27      3.96     -0.33      3.28      3.10
     -52.063126     120.107719     303.8      2.70      4.68     106.7         3         2      3902      2291    489.55   -13.102      11.9      36.1   304.489     0.619     107.3   0.09732     100.0         H               344.0  0.052408  0.044433  0.001683  3.499481  0.751081  4.659258  1.116579     87.08    9.2319  109.5505   0.15162   6.51021   0.14808   0.00322 185.87971   9.36362     546.6  0.520137  0.001117  0.000096  0.000171  0.237178  7.431621  0.629921    102.81  1.000270  1.000023     2.720    16.402     153.8      93.3     241.0     642.0     16.03     -4.32     11.45     -1.37      2.87      0.90     -2.57      0.76     -3.90     -5.09      2.63      1.63      2.61      2.58     -0.68    -10.30      5.94     -1.89      4.91      2.92
     -52.043674     120.189255     359.0      2.51      4.68     115.1         3         3      3902      3582    463.80   -13.337      11.8      36.5   302.282     0.613     113.6   0.09507     100.0         H               344.0  0.051947  0.042009  0.002096  3.489752  0.745177  4.683120  1.110401     72.06    8.7375   98.6723   0.14884   6.41150   0.15430   0.00354 167.97061   8.88159     515.1  0.515394  0.001499  0.000087  0.000161  0.235140  7.410567  0.622769    105.20  1.000201  1.000018     2.690    15.939     153.8      93.0     213.6     591.9     15.92     -4.26     10.27     -1.87      3.11      1.22     -1.61      0.05     -3.23     -4.47      2.49      0.49      1.30      2.95      0.19    -12.54      7.25     -1.48      5.73      3.72
