corner points
112.180336    -35.08861923
112.1216049    -34.91688919
112.3932419    -35.03815842
112.334053    -34.86653519
========== RESULTS WAVE VERSION 16.10.2018 ====================
IMAGE SIZE  X: 4376     Y:4773    col:row     POLARIZATION:VV
COVERAGE    X: 20.12633755km       Y: 19.78666969km 
RESOLUTION dX: 4.599254468m       dY:4.145541524m  
resolution of original product 4.599254468m x 4.145541524m;   raster step x:5997.427826m  
===============================================================
FLAGS: H=HIGH PROBABILITY SEA STATE, I=LAND(ISLAND), O=OUTLIER NO SEA STATE, N=NO WIND AVAILABLE, SEA STATE NOT VISIBLE, M=MEAN PROBABILITY SEA STATE, L= LOW PROBABILITY SEA STATE
Filtering wave length
 integration  Lmin=1m
 integration  Lmax=2200m
  peak        Lmin=100m
               FFT=1024pixels, 4709.636575m 
   mean-Hs (SWH_c)=1.293015289m
         mean-wind=12.19341564m/s
--------------0--------------1---------2---------3---------4---------5---------6---------7---------8---------9--------10--------11--------12--------13--------14--------15--------16--------17--------18--------19------------------20--------21--------22--------23--------24--------25--------26--------27--------28--------29--------30--------31--------32--------33--------34--------35--------36--------37--------38--------39--------40--------41--------42--------43--------44--------45--------46--------47--------48--------49--------50--------51--------52--------53--------54--------55--------56--------57--------58--------59--------60--------61--------62--------63--------64--------65--------66--------67--------68--------69--------70--------71--------72--------73
            LAT            LON  P-LENGHT     SWH_o     SWH_c     P-DIR      LINE     POINT     ROW-Y     COL-X  M-INTENC        dB      WIND INC-ANGLE  ENERGY-M  ENERGY-N  ENERGY-R ENERGY-NN  FG-DEPTH      FLAG         HEADING-DEG    E30-75   E75-390  E390-600 meanincut   meanout   cut/out  STD-NORM  SPEC-MAX   GL-MEAN    GL-VAR      CORR   ENTROPY   HOMOGEN    ENERGY  CONTRAST  DISSIMIL     STD-O    E 1-30 E600-2000   E2000 >      GODA  LONG-HIG     Tmean  CONVOLUT  MEAN-DIR  relation     Sy/Sx  SKEWNESS  KURTOSIS  cutoff-A >50/10000     INT*V   INT-LOG  S-1_g1f1  S-2_g1f2  S-3_g1f3  S-4_g2f1  S-5_g2f2  S-6_g2f3  S-7_g3f1  S-8_g3f2  S-9_g3f3 S-10_g1f4 S-11_g2f4 S-12_g3f4 S-13_g1f5 S-14_g2f5 S-15_g3f5 S-16_g4f1 S-17_g4f2 S-18_g4f3 S-19_g4f4 S-20_g4f5
--------------1--------------2---------3---------4---------5---------6---------7---------8---------9--------10--------11--------12--------13--------14--------15--------16--------17--------18--------19--------20------------------21--------22--------23--------24--------25--------26--------27--------28--------29--------30--------31--------32--------33--------34--------35--------36--------37--------38--------39--------40--------41--------42--------43--------44--------45--------46--------47--------48--------49--------50--------51--------52--------53--------54--------55--------56--------57--------58--------59--------60--------61--------62--------63--------64--------65--------66--------67--------68--------69--------70--------71--------72--------73--------74
     -35.041008     112.217232     228.8      1.31      3.15     119.0         1         1      1000      1000    507.74   -12.944      12.2      36.2   265.004     0.591      99.1   0.08719      48.1         H               346.8  0.054771  0.024508  0.000856  2.532088  0.732090  3.458712  1.090459     17.88    9.5970  113.2987   0.13285   6.58924   0.14071   0.00287 196.49380   9.72461     553.7  0.509085  0.001566  0.000167  0.000172  0.172318  6.911594  0.598384     82.25  1.000211  1.000017     2.555    14.386     121.0      93.9     252.5     625.0     12.65     -3.29      3.48      1.29      1.49      1.99      1.16      1.70     -0.32     -2.02      0.15      2.02     -1.21      1.49      1.02     -8.24      4.54      1.21      1.12      3.16
     -35.025932     112.280899     245.6      1.33      3.15     117.6         1         2      1000      2304    516.45   -12.870      12.6      36.6   265.029     0.590     129.0   0.08720      64.9         H               346.8  0.055026  0.023940  0.000764  2.452210  0.727748  3.369587  1.089718     20.89    9.7681  116.4499   0.13304   6.62166   0.13869   0.00276 201.91461   9.87565     562.8  0.507893  0.001992  0.000252  0.000173  0.172234  6.892873  0.596916     82.91  1.000188  1.000016     2.549    14.185     117.4      94.3     261.6     612.5     12.85     -3.51      3.25      1.10      1.66      2.29      0.52      1.66     -0.90     -2.13      0.07      2.03     -1.25      2.15      1.00     -7.88      4.26      2.41      0.42      3.64
     -35.010956     112.343979     238.9      1.44      3.15     120.4         1         3      1000      3608    517.22   -12.863      12.9      36.9   265.879     0.595     148.2   0.09023      57.0         H               346.8  0.055478  0.024891  0.001197  2.563690  0.731441  3.504983  1.095234     12.27    9.7749  117.3053   0.13760   6.62063   0.13946   0.00278 202.32782   9.86394     566.5  0.511512  0.002445  0.000300  0.000188  0.172902  6.917749  0.603671     81.45  1.000198  1.000016     2.618    15.277     124.8      94.2     264.0     661.5     13.07     -3.37      3.23     -0.01      2.19      2.04      1.77     -0.07     -0.20     -1.94      0.51      0.98     -1.47      2.21      0.53    -12.40      8.02      1.06      2.44      5.24
     -34.988941     112.199379     245.6      1.37      3.15     117.6         2         1      2447      1000    504.87   -12.968      12.1      36.2   266.179     0.593      83.2   0.08749      64.9         H               346.8  0.055560  0.025662  0.000880  2.686451  0.727111  3.694690  1.092239     16.33    9.5378  111.9766   0.13210   6.57797   0.14136   0.00289 194.36844   9.67260     551.4  0.509587  0.001216  0.000149  0.000181  0.171123  6.914138  0.600429     82.35  1.000216  1.000018     2.601    14.997     124.8      94.0     250.5     627.2     12.65     -3.45      4.19      1.70      1.37      2.02      1.03      1.18     -0.10     -3.00     -0.05      1.66     -0.93      1.82      1.41     -7.99      4.56     -0.08      1.84      2.99
     -34.973877     112.263000     232.0      1.23      3.15     123.1         2         2      2447      2304    469.82   -13.281      11.9      36.6   264.288     0.586      56.5   0.08460      50.6         H               346.8  0.053697  0.024427  0.000805  2.528389  0.711842  3.551899  1.086126     15.23    8.8652   97.9981   0.12853   6.44552   0.14961   0.00331 170.80566   9.03333     510.2  0.506663  0.000919  0.000057  0.000170  0.171477  6.916401  0.593449     80.63  1.000206  1.000016     2.548    14.482     117.4      93.4     213.3     577.9     12.57     -3.07      3.46      1.66      1.76      1.97      1.17      0.53      0.11     -2.11      0.73      0.83     -1.13      1.60      1.24     -7.75      5.46      0.73      2.80      3.31
     -34.958912     112.326042     249.7      1.25      3.15     122.0         2         3      2447      3608    453.01   -13.439      11.9      36.9   264.560     0.584      78.9   0.08293      71.2         H               346.8  0.052074  0.024538  0.000778  2.482512  0.714753  3.473246  1.084424     18.30    8.5351   91.5927   0.12539   6.37649   0.15388   0.00355 160.21687   8.73385     491.3  0.505837  0.001221  0.000116  0.000164  0.177152  6.948712  0.591043     81.21  1.000190  1.000016     2.536    14.170     117.4      92.9     197.1     542.3     13.05     -3.97      3.59      0.79      1.78      1.66      0.12      1.33     -0.62     -2.42     -0.12      1.71     -1.32      1.93      1.30     -8.07      5.02      0.59      0.71      3.43
     -34.936874     112.181549     252.0      1.18      3.15     114.6         3         1      3894      1000    494.51   -13.058      12.0      36.2   264.829     0.587      69.8   0.08474      75.4         H               346.8  0.054007  0.023116  0.000765  2.391272  0.731571  3.268682  1.086896     18.85    9.3389  107.1135   0.12624   6.54104   0.14295   0.00298 187.18152   9.48706     537.5  0.508303  0.001086  0.000098  0.000147  0.174757  6.908473  0.593718     82.75  1.000207  1.000017     2.591    14.962     117.4      93.9     237.9     617.3     12.76     -3.43      3.98      1.38      1.70      1.84      0.67      1.40      0.01     -2.34      0.76      1.36     -0.53      1.42      1.43     -7.36      5.06      0.22      3.33      2.17
     -34.921818     112.245132     234.7      1.32      3.15     116.2         3         2      3894      2304    497.72   -13.030      12.3      36.6   264.054     0.586      68.2   0.08541      52.9         H               346.8  0.053821  0.024332  0.000879  2.518275  0.721720  3.489270  1.086140     18.46    9.4072  108.5150   0.12889   6.55442   0.14287   0.00294 189.05727   9.53685     540.6  0.506219  0.001145  0.000079  0.000158  0.175646  6.935485  0.593234     81.61  1.000211  1.000018     2.561    14.591     117.4      94.0     241.1     610.9     12.97     -3.50      4.07      1.04      1.07      1.77      0.43      1.17     -0.85     -3.35      0.53      1.46     -0.62      1.61      1.12     -8.72      4.32      0.58      3.19      2.96
     -34.906868     112.308128     100.1      1.20      3.15      77.8         3         3      3894      3608    443.92   -13.527      11.8      36.9   265.819     0.588      79.2   0.08413       6.4         H               346.8  0.053402  0.024492  0.000825  2.529075  0.710976  3.557186  1.088433     16.24    8.3555   88.7372   0.12624   6.33617   0.15654   0.00371 155.07008   8.57676     483.2  0.508820  0.001035  0.000136  0.000167  0.172825  6.931609  0.595354     80.03  1.000216  1.000017     2.564    14.475     124.8      92.6     189.8     539.1     12.87     -3.18      4.12      0.97      1.08      0.95      0.79      0.97      0.08     -2.37      0.13      1.13     -0.59      1.12      1.37     -8.60      4.07     -1.93      2.20      1.57
