corner points
124.9847717    -58.87302017
124.8427582    -58.7115593
125.3067703    -58.79527664
125.1635056    -58.63415909
========== RESULTS WAVE VERSION 16.10.2018 ====================
IMAGE SIZE  X: 4376     Y:4770    col:row     POLARIZATION:VV
COVERAGE    X: 20.39930004km       Y: 19.68754729km 
RESOLUTION dX: 4.661631636m       dY:4.127368404m  
resolution of original product 4.661631636m x 4.127368404m;   raster step x:5999.519916m  
===============================================================
FLAGS: H=HIGH PROBABILITY SEA STATE, I=LAND(ISLAND), O=OUTLIER NO SEA STATE, N=NO WIND AVAILABLE, SEA STATE NOT VISIBLE, M=MEAN PROBABILITY SEA STATE, L= LOW PROBABILITY SEA STATE
Filtering wave length
 integration  Lmin=1m
 integration  Lmax=2200m
  peak        Lmin=100m
               FFT=1024pixels, 4773.510796m 
   mean-Hs (SWH_c)=3.231592407m
         mean-wind=12.38374424m/s
--------------0--------------1---------2---------3---------4---------5---------6---------7---------8---------9--------10--------11--------12--------13--------14--------15--------16--------17--------18--------19------------------20--------21--------22--------23--------24--------25--------26--------27--------28--------29--------30--------31--------32--------33--------34--------35--------36--------37--------38--------39--------40--------41--------42--------43--------44--------45--------46--------47--------48--------49--------50--------51--------52--------53--------54--------55--------56--------57--------58--------59--------60--------61--------62--------63--------64--------65--------66--------67--------68--------69--------70--------71--------72--------73
            LAT            LON  P-LENGHT     SWH_o     SWH_c     P-DIR      LINE     POINT     ROW-Y     COL-X  M-INTENC        dB      WIND INC-ANGLE  ENERGY-M  ENERGY-N  ENERGY-R ENERGY-NN  FG-DEPTH      FLAG         HEADING-DEG    E30-75   E75-390  E390-600 meanincut   meanout   cut/out  STD-NORM  SPEC-MAX   GL-MEAN    GL-VAR      CORR   ENTROPY   HOMOGEN    ENERGY  CONTRAST  DISSIMIL     STD-O    E 1-30 E600-2000   E2000 >      GODA  LONG-HIG     Tmean  CONVOLUT  MEAN-DIR  relation     Sy/Sx  SKEWNESS  KURTOSIS  cutoff-A >50/10000     INT*V   INT-LOG  S-1_g1f1  S-2_g1f2  S-3_g1f3  S-4_g2f1  S-5_g2f2  S-6_g2f3  S-7_g3f1  S-8_g3f2  S-9_g3f3 S-10_g1f4 S-11_g2f4 S-12_g3f4 S-13_g1f5 S-14_g2f5 S-15_g3f5 S-16_g4f1 S-17_g4f2 S-18_g4f3 S-19_g4f4 S-20_g4f5
--------------1--------------2---------3---------4---------5---------6---------7---------8---------9--------10--------11--------12--------13--------14--------15--------16--------17--------18--------19--------20------------------21--------22--------23--------24--------25--------26--------27--------28--------29--------30--------31--------32--------33--------34--------35--------36--------37--------38--------39--------40--------41--------42--------43--------44--------45--------46--------47--------48--------49--------50--------51--------52--------53--------54--------55--------56--------57--------58--------59--------60--------61--------62--------63--------64--------65--------66--------67--------68--------69--------70--------71--------72--------73--------74
     -58.821281     125.029434     290.0      3.10      6.41      65.7         1         1      1000      1000    561.06   -12.510      12.4      35.6   325.921     0.664     137.5   0.11886     100.0         H               341.6  0.062172  0.052337  0.002466  4.093344  0.809859  5.054392  1.156202    125.47   10.5544  140.6020   0.17291   6.73907   0.13476   0.00255 232.58083  10.53623     648.6  0.545904  0.001780  0.000127  0.000197  0.228520  7.397312  0.677904     73.81  1.000327  1.000033     3.261    27.901     174.0      94.6     334.9     927.8     15.69      5.75     11.24     -1.22     -1.47      1.86     -0.74     -2.20     -2.83      7.36     -1.22     -2.82      3.62      3.01      0.06    -11.90     -3.07     -0.68     -3.36      2.70
     -58.798374     125.124489     290.0      3.13      6.41      65.7         1         2      1000      2287    528.49   -12.770      12.3      36.0   322.963     0.656     105.0   0.11566     100.0         H               341.6  0.060261  0.052543  0.002522  4.020383  0.805288  4.992480  1.148513    112.90    9.9517  127.5145   0.17097   6.63590   0.14179   0.00286 211.42770   9.99024     606.9  0.539488  0.001348  0.000034  0.000206  0.230591  7.426978  0.668789     72.75  1.000321  1.000032     3.123    26.461     181.9      94.0     293.1     813.3     15.57      5.85     10.89     -0.61     -1.51      3.44     -0.73     -2.44     -3.13      7.35     -0.85     -3.72      3.37      4.02      0.43    -11.37     -3.44      1.95     -2.02      3.65
     -58.775608     125.218559     290.0      3.20      6.41      65.7         1         3      1000      3574    522.23   -12.821      12.5      36.3   324.482     0.659     120.4   0.11661     100.0         H               341.6  0.060872  0.053372  0.002504  3.990871  0.813735  4.904387  1.151494    117.50    9.8267  125.1549   0.17193   6.61223   0.14292   0.00293 207.27498   9.87569     601.3  0.541207  0.001578  0.000061  0.000197  0.233435  7.430346  0.672401     72.84  1.000335  1.000034     3.121    23.852     181.9      93.9     286.8     826.7     15.93      5.89     11.04     -1.25     -1.98      2.74     -1.53     -2.35     -3.83      6.80     -1.44     -3.14      3.32      3.61      0.24    -11.76     -3.99      1.27     -2.97      2.59
     -58.772118     124.986023     304.7      3.00      6.41      73.2         2         1      2453      1000    572.04   -12.426      12.6      35.6   323.524     0.654     108.7   0.11446     100.0         H               341.6  0.060540  0.049491  0.002544  4.097739  0.815895  5.022385  1.146644     87.99   10.7672  144.2010   0.16704   6.77634   0.13226   0.00242 240.22626  10.72994     655.9  0.539899  0.001458  0.000050  0.000187  0.227167  7.383383  0.665621     77.86  1.000342  1.000036     3.090    24.073     174.0      94.9     345.1     863.7     15.44      5.15     10.47     -0.96     -1.51      2.94     -0.30     -1.77     -2.63      5.89     -0.93     -2.37      3.71      3.07      0.98    -11.92     -4.07      1.72     -3.16      2.09
     -58.749241     125.080963     254.6      3.06      6.41      65.1         2         2      2453      2287    536.17   -12.707      12.4      36.0   323.884     0.657     132.6   0.11539      81.3         H               341.6  0.060826  0.051388  0.002753  4.066447  0.811676  5.009937  1.149614     88.10   10.0930  130.3806   0.17039   6.66106   0.13969   0.00277 216.33290  10.11830     616.3  0.540328  0.001931  0.000101  0.000192  0.226675  7.400906  0.670226     76.45  1.000355  1.000037     3.084    22.246     181.9      94.2     302.4     799.8     15.53      4.55     10.99     -0.76     -1.02      3.04     -0.55     -2.17     -3.10      5.70     -0.71     -2.94      3.31      4.35     -0.03    -12.31     -2.46      0.86     -1.99      4.63
     -58.726505     125.174919     297.8      3.16      6.41      69.4         2         3      2453      3574    507.41   -12.946      12.3      36.3   323.220     0.655     127.7   0.11401     100.0         H               341.6  0.059224  0.052785  0.003123  3.926338  0.787248  4.987421  1.147614    138.51    9.5495  119.0075   0.16981   6.56229   0.14624   0.00309 197.59970   9.62741     582.3  0.538248  0.001702  0.000065  0.000210  0.236947  7.455562  0.668291     71.47  1.000329  1.000033     3.067    22.269     190.7      93.6     269.1     765.6     16.12      6.77     11.40     -2.22     -2.52      1.71     -0.64     -2.21     -2.99      7.99     -1.99     -3.09      3.01      3.46      0.46    -14.04     -5.74     -0.26     -4.55      3.70
     -58.722942     124.942734     266.5      3.46      6.41      71.6         3         1      3906      1000    557.26   -12.539      12.4      35.6   327.853     0.671     129.6   0.12189     100.0         H               341.6  0.062087  0.058010  0.002765  4.239060  0.815764  5.196426  1.162001     95.61   10.4745  139.4738   0.17735   6.72343   0.13609   0.00260 229.47726  10.44889     647.4  0.547001  0.001680  0.000075  0.000209  0.232825  7.475449  0.685984     79.23  1.000352  1.000040     3.239    25.247     190.7      94.5     332.4     889.2     15.79      4.57     12.32     -0.34     -1.75      3.02     -1.12     -1.64     -3.34      4.98     -1.11     -2.42      4.92      4.02     -0.68    -11.27     -4.04     -0.42     -2.56      3.55
     -58.700096     125.037560     281.3      3.58      6.41      70.6         3         2      3906      2287    526.82   -12.783      12.3      36.0   330.735     0.683     137.5   0.12654     100.0         H               341.6  0.063826  0.061168  0.002901  4.237362  0.832884  5.087581  1.171780    128.78    9.8995  128.3807   0.17989   6.62067   0.14328   0.00293 210.57422   9.93324     617.3  0.553313  0.001835  0.000059  0.000217  0.238189  7.493756  0.698578     76.80  1.000375  1.000044     3.454    32.360     200.3      93.9     298.5     905.3     16.29      4.85     12.76     -1.44     -2.10      2.25     -1.73     -1.77     -4.35      5.71     -1.98     -2.52      5.30      3.23     -0.65    -12.10     -4.19      0.11     -3.44      1.85
     -58.677391     125.131409     297.8      3.39      6.41      69.4         3         3      3906      3574    498.86   -13.020      12.2      36.3   327.318     0.668     119.8   0.11884     100.0         H               341.6  0.060894  0.057304  0.002751  4.272085  0.797416  5.357408  1.158999    122.53    9.3758  116.5824   0.17498   6.52543   0.14878   0.00324 192.36465   9.46548     578.1  0.545704  0.001421  0.000050  0.000218  0.237418  7.509434  0.682292     75.31  1.000347  1.000037     3.173    23.734     200.3      93.3     262.7     774.5     15.99      5.44     12.48     -1.15     -2.30      2.20     -1.15     -2.21     -3.24      6.38     -2.06     -2.86      4.38      3.77     -0.06    -11.48     -4.08     -0.44     -3.75      3.37
