corner points
165.3043976    44.36870193
165.2509766    44.54726791
165.5459595    44.40472412
165.4933472    44.58333206
========== RESULTS WAVE VERSION 16.10.2018 ====================
IMAGE SIZE  X: 5345     Y:4921    col:row     POLARIZATION:VV
COVERAGE    X: 19.56813493km       Y: 20.25323265km 
RESOLUTION dX: 3.661016825m       dY:4.115674183m  
resolution of original product 3.661016825m x 4.115674183m;   raster step x:5996.745559m  
===============================================================
FLAGS: H=HIGH PROBABILITY SEA STATE, I=LAND(ISLAND), O=OUTLIER NO SEA STATE, N=NO WIND AVAILABLE, SEA STATE NOT VISIBLE, M=MEAN PROBABILITY SEA STATE, L= LOW PROBABILITY SEA STATE
Filtering wave length
 integration  Lmin=1m
 integration  Lmax=2200m
  peak        Lmin=100m
               FFT=1024pixels, 3748.881229m 
   mean-Hs (SWH_c)=7.450889893m
         mean-wind=24.84958649m/s
--------------0--------------1---------2---------3---------4---------5---------6---------7---------8---------9--------10--------11--------12--------13--------14--------15--------16--------17--------18--------19------------------20--------21--------22--------23--------24--------25--------26--------27--------28--------29--------30--------31--------32--------33--------34--------35--------36--------37--------38--------39--------40--------41--------42--------43--------44--------45--------46--------47--------48--------49--------50--------51--------52--------53--------54--------55--------56--------57--------58--------59--------60--------61--------62--------63--------64--------65--------66--------67--------68--------69--------70--------71--------72--------73
            LAT            LON  P-LENGHT     SWH_o     SWH_c     P-DIR      LINE     POINT     ROW-Y     COL-X  M-INTENC        dB      WIND INC-ANGLE  ENERGY-M  ENERGY-N  ENERGY-R ENERGY-NN  FG-DEPTH      FLAG         HEADING-DEG    E30-75   E75-390  E390-600 meanincut   meanout   cut/out  STD-NORM  SPEC-MAX   GL-MEAN    GL-VAR      CORR   ENTROPY   HOMOGEN    ENERGY  CONTRAST  DISSIMIL     STD-O    E 1-30 E600-2000   E2000 >      GODA  LONG-HIG     Tmean  CONVOLUT  MEAN-DIR  relation     Sy/Sx  SKEWNESS  KURTOSIS  cutoff-A >50/10000     INT*V   INT-LOG  S-1_g1f1  S-2_g1f2  S-3_g1f3  S-4_g2f1  S-5_g2f2  S-6_g2f3  S-7_g3f1  S-8_g3f2  S-9_g3f3 S-10_g1f4 S-11_g2f4 S-12_g3f4 S-13_g1f5 S-14_g2f5 S-15_g3f5 S-16_g4f1 S-17_g4f2 S-18_g4f3 S-19_g4f4 S-20_g4f5
--------------1--------------2---------3---------4---------5---------6---------7---------8---------9--------10--------11--------12--------13--------14--------15--------16--------17--------18--------19--------20------------------21--------22--------23--------24--------25--------26--------27--------28--------29--------30--------31--------32--------33--------34--------35--------36--------37--------38--------39--------40--------41--------42--------43--------44--------45--------46--------47--------48--------49--------50--------51--------52--------53--------54--------55--------56--------57--------58--------59--------60--------61--------62--------63--------64--------65--------66--------67--------68--------69--------70--------71--------72--------73--------74
      44.411945     165.339874     249.5      7.59      7.49      93.4         1         1      1000      1000   8971.04    -0.472      25.5      23.5   480.517     1.089     337.2   0.33144      70.8         H               345.9  0.127952  0.177833  0.006500  6.903544  1.187023  5.815845  1.476938    545.75   15.3779  297.3765   0.35485   7.12712   0.13309   0.00205 383.70840  13.47777   13248.4  0.773582  0.004085  0.000057  0.000517  0.246219  7.709394  1.170076     94.30  1.000668  1.000129     5.328    91.946     222.8      95.8    1186.7    1511.5     16.75     -2.66     16.47      0.15      0.35      3.26     -4.18      0.80     -7.06     -3.66     -0.43      1.68     10.56      3.99     -4.79     -8.47      1.70      0.25      0.32      3.21
      44.423119     165.414642     282.5      6.97      7.49     101.6         1         2      1000      2638   8159.23    -0.884      24.9      24.0   460.563     1.019     310.8   0.29938     100.0         H               345.9  0.119697  0.156655  0.006698  6.540681  1.125044  5.813712  1.425957    413.28   14.3099  269.5360   0.34770   7.04809   0.13899   0.00230 351.63684  12.77220   11634.7  0.732521  0.003608  0.000052  0.000455  0.246679  7.662671  1.091236     98.48  1.000555  1.000099     4.379    40.218     210.9      95.1     951.0    1420.4     16.89     -3.42     15.95     -1.17      0.76      1.84     -3.37      1.45     -6.04     -4.98      0.68      2.22      9.23      2.48     -2.90    -10.23      1.84     -0.69      2.12      0.83
      44.434040     165.488068     267.2      7.05      7.49      93.6         1         3      1000      4276   7281.74    -1.378      24.0      24.4   475.005     1.071     341.5   0.32479     100.0         H               345.9  0.127885  0.168082  0.006829  6.696562  1.174700  5.700656  1.466095    411.07   12.8999  236.5636   0.35568   6.89210   0.14988   0.00282 304.84860  11.68702   10674.2  0.763990  0.004265  0.000070  0.000457  0.242262  7.656690  1.148975     95.96  1.000564  1.000103     5.344    83.507     210.9      94.0     772.4    1386.2     16.67     -2.81     15.73     -0.92      0.44      2.30     -2.86      0.81     -5.47     -3.50     -0.48      1.61      9.38      3.06     -2.70    -10.00      1.83     -0.15      0.07      1.69
      44.464828     165.324112     248.2      7.30      7.49      96.8         2         1      2457      1000   9061.62    -0.428      25.7      23.5   472.409     1.058     309.1   0.31827      68.7         H               345.9  0.126436  0.167633  0.006015  6.579650  1.148265  5.730080  1.459004    484.28   15.5548  299.8071   0.34791   7.15327   0.13084   0.00197 391.00076  13.65890   13220.1  0.754830  0.003536  0.000046  0.000498  0.245720  7.681620  1.133953     96.28  1.000610  1.000119     4.831    52.674     222.8      95.9    1192.4    1514.7     16.79     -2.29     16.66     -0.02      0.03      2.71     -4.18      1.02     -6.85     -3.88     -0.02      1.68     10.65      2.97     -4.28     -8.09      0.26     -0.11      0.44      1.72
      44.476006     165.398956     285.7      7.60      7.49      97.8         2         2      2457      2638   8095.45    -0.918      24.8      24.0   494.973     1.126     434.8   0.34629     100.0         H               345.9  0.132766  0.183956  0.008224  7.456884  1.202764  6.199789  1.496120    514.63   14.0781  268.4256   0.35928   7.00274   0.14413   0.00250 343.97308  12.54274   12111.3  0.795024  0.006301  0.000132  0.000466  0.248548  7.718639  1.211261     98.21  1.000555  1.000102     6.357   146.843     210.9      94.6     973.4    1471.7     16.93     -2.69     16.08     -1.78      0.36      1.06     -2.93      1.12     -5.38     -4.22      0.29      1.61      8.99      2.49     -2.84    -10.99      0.50     -1.78      0.68      1.78
      44.486927     165.472458     263.0      7.58      7.49     100.8         2         3      2457      4276   7522.71    -1.236      24.5      24.4   481.219     1.076     376.2   0.32328     132.2         H               345.9  0.122955  0.176824  0.007350  6.861233  1.164577  5.891610  1.468156    518.36   13.2855  247.8423   0.35597   6.92782   0.14820   0.00273 319.23755  11.99661   11043.4  0.764710  0.004662  0.000076  0.000514  0.253560  7.782756  1.155759     97.48  1.000595  1.000108     5.279    82.467     222.8      94.2     830.9    1395.4     17.42     -3.70     17.12     -1.67      0.60      0.98     -4.51      1.57     -7.48     -5.33      0.21      2.49     10.03      2.41     -4.70    -10.63      1.73     -2.12      1.53      1.50
      44.517712     165.308334     265.6      8.14      7.49      97.2         3         1      3914      1000   8935.85    -0.489      25.4      23.5   492.594     1.119     417.6   0.34479     100.0         H               345.9  0.126869  0.193064  0.008057  6.985564  1.173720  5.951643  1.502723    704.82   15.3120  298.9839   0.36351   7.10567   0.13692   0.00216 380.60266  13.35784   13426.0  0.786605  0.005232  0.000092  0.000588  0.256174  7.827693  1.204666     97.10  1.000628  1.000123     5.241    65.665     222.8      95.5    1208.9    1530.3     17.41     -2.93     17.57     -1.61      0.41      1.10     -4.52      1.51     -7.88     -4.61      0.20      2.61     11.21      2.10     -4.99     -9.78      0.98     -0.54      0.65      1.53
      44.528889     165.383240     278.1      7.33      7.49     105.3         3         2      3914      2638   8043.42    -0.946      24.7      24.0   474.545     1.063     342.8   0.31966     100.0         H               345.9  0.124484  0.170959  0.007611  6.953744  1.186562  5.860412  1.457347    473.43   14.1337  266.4997   0.35227   7.02442   0.14135   0.00238 345.23993  12.61849   11721.0  0.756115  0.004115  0.000062  0.000477  0.248300  7.713601  1.140874     98.68  1.000573  1.000105     5.795   140.006     210.9      94.9     941.1    1435.9     16.92     -3.96     15.93     -1.21      0.82      1.79     -3.85      1.67     -6.92     -5.61      0.66      2.55      9.21      2.26     -3.36    -10.16      2.19      0.25      2.05      1.42
      44.539818     165.456833     265.6      7.49      7.49      97.2         3         3      3914      4276   7297.97    -1.368      24.0      24.4   469.354     1.044     362.7   0.31079     100.0         H               345.9  0.115453  0.170939  0.006513  6.306103  1.135647  5.552871  1.450245    516.19   12.9756  237.7863   0.35179   6.90425   0.14953   0.00282 308.27069  11.77216   10582.0  0.746563  0.004817  0.000092  0.000515  0.251718  7.796216  1.118829     98.38  1.000545  1.000102     4.843    56.691     222.8      93.9     770.0    1371.9     16.94     -3.93     16.50     -1.13      1.13      1.77     -3.54      1.54     -6.29     -5.82      1.20      2.19      9.93      2.58     -3.20     -9.49      2.16     -0.20      2.82      1.52
