corner points
-164.5126038    -54.33501816
-164.6252289    -54.16997147
-164.2255859    -54.26649857
-164.3392334    -54.10171509
========== RESULTS WAVE VERSION 16.10.2018 ====================
IMAGE SIZE  X: 4316     Y:4772    col:row     POLARIZATION:VV
COVERAGE    X: 20.07470597km       Y: 19.71382415km 
RESOLUTION dX: 4.651229371m       dY:4.131145045m  
resolution of original product 4.651229371m x 4.131145045m;   raster step x:5995.434659m  
===============================================================
FLAGS: H=HIGH PROBABILITY SEA STATE, I=LAND(ISLAND), O=OUTLIER NO SEA STATE, N=NO WIND AVAILABLE, SEA STATE NOT VISIBLE, M=MEAN PROBABILITY SEA STATE, L= LOW PROBABILITY SEA STATE
Filtering wave length
 integration  Lmin=1m
 integration  Lmax=2200m
  peak        Lmin=100m
               FFT=1024pixels, 4762.858876m 
   mean-Hs (SWH_c)=0.4214774704m
         mean-wind=6.282921791m/s
--------------0--------------1---------2---------3---------4---------5---------6---------7---------8---------9--------10--------11--------12--------13--------14--------15--------16--------17--------18--------19------------------20--------21--------22--------23--------24--------25--------26--------27--------28--------29--------30--------31--------32--------33--------34--------35--------36--------37--------38--------39--------40--------41--------42--------43--------44--------45--------46--------47--------48--------49--------50--------51--------52--------53--------54--------55--------56--------57--------58--------59--------60--------61--------62--------63--------64--------65--------66--------67--------68--------69--------70--------71--------72--------73
            LAT            LON  P-LENGHT     SWH_o     SWH_c     P-DIR      LINE     POINT     ROW-Y     COL-X  M-INTENC        dB      WIND INC-ANGLE  ENERGY-M  ENERGY-N  ENERGY-R ENERGY-NN  FG-DEPTH      FLAG         HEADING-DEG    E30-75   E75-390  E390-600 meanincut   meanout   cut/out  STD-NORM  SPEC-MAX   GL-MEAN    GL-VAR      CORR   ENTROPY   HOMOGEN    ENERGY  CONTRAST  DISSIMIL     STD-O    E 1-30 E600-2000   E2000 >      GODA  LONG-HIG     Tmean  CONVOLUT  MEAN-DIR  relation     Sy/Sx  SKEWNESS  KURTOSIS  cutoff-A >50/10000     INT*V   INT-LOG  S-1_g1f1  S-2_g1f2  S-3_g1f3  S-4_g2f1  S-5_g2f2  S-6_g2f3  S-7_g3f1  S-8_g3f2  S-9_g3f3 S-10_g1f4 S-11_g2f4 S-12_g3f4 S-13_g1f5 S-14_g2f5 S-15_g3f5 S-16_g4f1 S-17_g4f2 S-18_g4f3 S-19_g4f4 S-20_g4f5
--------------1--------------2---------3---------4---------5---------6---------7---------8---------9--------10--------11--------12--------13--------14--------15--------16--------17--------18--------19--------20------------------21--------22--------23--------24--------25--------26--------27--------28--------29--------30--------31--------32--------33--------34--------35--------36--------37--------38--------39--------40--------41--------42--------43--------44--------45--------46--------47--------48--------49--------50--------51--------52--------53--------54--------55--------56--------57--------58--------59--------60--------61--------62--------63--------64--------65--------66--------67--------68--------69--------70--------71--------72--------73--------74
     -54.284439    -164.468964     110.2      0.50      2.28     103.6         1         1      1000      1000    232.75   -16.331       6.4      35.7   299.770     0.577      30.4   0.07528       7.8         H               343.4  0.050739  0.027783  0.000322  2.894133  0.675244  4.286056  1.077811     12.48    4.1761   25.0357   0.11454   5.06814   0.26030   0.01310  44.33633   4.51375     250.9  0.498460  0.000218  0.000016  0.000138  0.175364  7.017218  0.582415     89.17  1.000119  1.000008     2.464    13.225     110.8      83.3      49.4     255.6     11.11     -0.29      2.85      5.42      1.03      4.71      1.57      0.45      2.40      0.01      0.04      0.80     -0.03      1.43      1.62      0.27      1.61      4.23     -0.27      2.09
     -54.263943    -164.382950     123.2      0.44      2.28      73.1         1         2      1000      2289    221.97   -16.537       6.5      36.1   299.406     0.578      36.4   0.07593       9.9         H               343.4  0.051511  0.027256  0.000329  2.867521  0.692333  4.141820  1.079171     14.42    3.9613   22.8178   0.11546   4.97353   0.26930   0.01441  40.36661   4.30555     239.5  0.499201  0.000322  0.000034  0.000140  0.175115  6.996706  0.583585     85.77  1.000119  1.000009     2.480    13.456     110.8      82.2      45.1     251.3     11.07      0.09      2.96      5.46      0.65      4.70      1.38      0.40      1.92      0.42      0.47      0.59      0.03      0.92      1.60      0.26      0.58      4.30      0.06      1.50
     -54.243565    -164.297791     175.3      0.38      2.28      73.1         1         3      1000      3578    200.61   -16.976       6.2      36.4   299.247     0.574      34.5   0.07175      22.3         H               343.4  0.049911  0.025190  0.000353  2.638113  0.676730  3.898323  1.075425     10.91    3.5372   18.5032   0.10783   4.77448   0.28893   0.01739  33.01609   3.89442     215.7  0.498644  0.000312  0.000032  0.000136  0.173170  6.987222  0.579051     83.97  1.000154  1.000010     2.461    13.214     110.8      80.3      36.9     220.7     11.15      0.08      2.98      5.21      0.81      4.63      1.77      0.25      2.26      0.34      0.41      0.44      0.75      1.28      1.83     -0.53      0.69      3.81      0.01      0.98
     -54.234234    -164.503342     165.4      0.47      2.28      64.5         2         1      2452      1000    227.72   -16.426       6.3      35.7   300.197     0.578      37.9   0.07469      19.4         H               343.4  0.050259  0.027505  0.000363  2.843308  0.673394  4.222355  1.078869     14.26    4.0756   23.9882   0.11288   5.02476   0.26414   0.01364  42.56084   4.41889     245.7  0.499968  0.000353  0.000036  0.000136  0.178216  7.025449  0.583339     82.46  1.000136  1.000008     2.511    13.958     110.8      82.9      47.4     255.7     11.33     -0.23      3.09      5.22      1.22      4.83      1.37      0.40      1.72      0.81      0.42      0.72      0.14      0.82      1.44     -0.54      1.62      4.31     -0.26      1.14
     -54.213757    -164.417419     183.9      0.46      2.28      74.9         2         2      2452      2289    216.73   -16.641       6.3      36.1   300.892     0.579      42.9   0.07560      25.2         H               343.4  0.051086  0.027728  0.000431  2.886442  0.688839  4.190300  1.080195     16.66    3.8567   21.7927   0.11423   4.92595   0.27387   0.01511  38.60641   4.20764     234.1  0.500060  0.000400  0.000053  0.000140  0.179218  7.020800  0.584766     82.94  1.000141  1.000011     2.511    13.980     114.0      81.7      43.1     250.0     11.49      0.17      3.93      5.41      1.04      5.26      1.39      0.55      1.55      0.82      0.75      0.68      0.81      1.43      1.50     -1.01      0.90      4.10     -0.20      1.36
     -54.193405    -164.332367     196.6      0.43      2.28      65.3         2         3      2452      3578    202.35   -16.939       6.2      36.4   299.599     0.576      54.5   0.07341      30.1         H               343.4  0.049750  0.027247  0.000339  2.848924  0.680320  4.187624  1.077284     17.74    3.5718   18.8973   0.11092   4.79111   0.28840   0.01716  33.60231   3.91989     218.0  0.498381  0.000546  0.000097  0.000139  0.178361  7.027794  0.581309     81.99  1.000142  1.000009     2.495    13.794     114.0      80.6      37.6     230.3     11.37      0.33      3.68      5.50      1.25      5.02      1.18      0.03      1.65      1.19      0.54      0.12      0.17      1.17      1.87     -0.16      1.29      4.00     -0.10      1.47
     -54.184017    -164.537643     121.2      0.47      2.28      66.4         3         1      3904      1000    226.68   -16.446       6.3      35.7   298.436     0.574      42.1   0.07409       9.6         H               343.4  0.049582  0.027377  0.000334  2.808654  0.683321  4.110296  1.075153     13.81    4.0556   23.6459   0.11279   5.01628   0.26462   0.01374  41.95745   4.39660     243.7  0.496902  0.000420  0.000049  0.000135  0.179601  7.042691  0.579610     80.78  1.000133  1.000009     2.451    12.980     110.8      82.9      46.8     239.1     11.24      0.49      2.99      5.28      1.31      4.76      1.24      0.61      2.12      1.47      0.89      0.65      0.23      1.24      1.45      0.08      1.17      3.95      0.30      1.48
     -54.163567    -164.451828     189.5      0.40      2.28      66.2         3         2      3904      2289    207.21   -16.836       6.1      36.1   301.285     0.580      48.0   0.07463      27.3         H               343.4  0.050306  0.027226  0.000434  2.840108  0.680753  4.172010  1.080871     21.02    3.6674   19.9354   0.11185   4.83708   0.28285   0.01646  35.41113   4.02413     223.9  0.501834  0.000558  0.000057  0.000136  0.179541  7.031671  0.585377     81.37  1.000167  1.000013     2.530    14.257     117.4      80.8      39.4     240.7     11.62      1.24      3.90      5.02      1.29      5.14      1.20     -0.14      1.40      1.41      0.96      0.27      0.54      1.27      1.52     -1.31      1.11      4.15      0.18      1.16
     -54.143238    -164.366852     203.8      0.39      2.28      70.3         3         3      3904      3578    205.37   -16.875       6.3      36.4   298.347     0.572      43.5   0.07207      33.3         H               343.4  0.048730  0.025864  0.000370  2.689336  0.665328  4.042120  1.073123     13.99    3.6312   19.3098   0.10698   4.82099   0.28426   0.01661  34.48803   3.98512     220.4  0.496505  0.000466  0.000051  0.000134  0.178138  7.015644  0.576100     81.37  1.000171  1.000010     2.453    13.309     114.0      80.9      38.5     224.7     11.44      0.78      3.49      5.11      1.18      4.76      1.03      0.19      1.57      1.39      0.76      0.48      0.57      1.50      1.73     -0.62      0.88      3.93     -0.02      1.69
