corner points
169.4898071    36.7707634
169.450058    36.94481277
169.7060394    36.80207062
169.6668091    36.97611618
========== RESULTS WAVE VERSION 16.10.2018 ====================
IMAGE SIZE  X: 4316     Y:4776    col:row     POLARIZATION:VV
COVERAGE    X: 19.52560017km       Y: 19.6254226km 
RESOLUTION dX: 4.524003747m       dY:4.109175586m  
resolution of original product 4.524003747m x 4.109175586m;   raster step x:5998.828969m  
===============================================================
FLAGS: H=HIGH PROBABILITY SEA STATE, I=LAND(ISLAND), O=OUTLIER NO SEA STATE, N=NO WIND AVAILABLE, SEA STATE NOT VISIBLE, M=MEAN PROBABILITY SEA STATE, L= LOW PROBABILITY SEA STATE
Filtering wave length
 integration  Lmin=1m
 integration  Lmax=2200m
  peak        Lmin=100m
               FFT=1024pixels, 4632.579837m 
   mean-Hs (SWH_c)=4.487423401m
         mean-wind=19.74403381m/s
--------------0--------------1---------2---------3---------4---------5---------6---------7---------8---------9--------10--------11--------12--------13--------14--------15--------16--------17--------18--------19------------------20--------21--------22--------23--------24--------25--------26--------27--------28--------29--------30--------31--------32--------33--------34--------35--------36--------37--------38--------39--------40--------41--------42--------43--------44--------45--------46--------47--------48--------49--------50--------51--------52--------53--------54--------55--------56--------57--------58--------59--------60--------61--------62--------63--------64--------65--------66--------67--------68--------69--------70--------71--------72--------73
            LAT            LON  P-LENGHT     SWH_o     SWH_c     P-DIR      LINE     POINT     ROW-Y     COL-X  M-INTENC        dB      WIND INC-ANGLE  ENERGY-M  ENERGY-N  ENERGY-R ENERGY-NN  FG-DEPTH      FLAG         HEADING-DEG    E30-75   E75-390  E390-600 meanincut   meanout   cut/out  STD-NORM  SPEC-MAX   GL-MEAN    GL-VAR      CORR   ENTROPY   HOMOGEN    ENERGY  CONTRAST  DISSIMIL     STD-O    E 1-30 E600-2000   E2000 >      GODA  LONG-HIG     Tmean  CONVOLUT  MEAN-DIR  relation     Sy/Sx  SKEWNESS  KURTOSIS  cutoff-A >50/10000     INT*V   INT-LOG  S-1_g1f1  S-2_g1f2  S-3_g1f3  S-4_g2f1  S-5_g2f2  S-6_g2f3  S-7_g3f1  S-8_g3f2  S-9_g3f3 S-10_g1f4 S-11_g2f4 S-12_g3f4 S-13_g1f5 S-14_g2f5 S-15_g3f5 S-16_g4f1 S-17_g4f2 S-18_g4f3 S-19_g4f4 S-20_g4f5
--------------1--------------2---------3---------4---------5---------6---------7---------8---------9--------10--------11--------12--------13--------14--------15--------16--------17--------18--------19--------20------------------21--------22--------23--------24--------25--------26--------27--------28--------29--------30--------31--------32--------33--------34--------35--------36--------37--------38--------39--------40--------41--------42--------43--------44--------45--------46--------47--------48--------49--------50--------51--------52--------53--------54--------55--------56--------57--------58--------59--------60--------61--------62--------63--------64--------65--------66--------67--------68--------69--------70--------71--------72--------73--------74
      36.814583     169.532150     197.8      4.50      5.87     100.8         1         1      1000      1000   1198.84    -9.212      19.9      36.8   254.900     0.630     139.3   0.10855      30.6         H               346.8  0.056822  0.046441  0.001711  3.598497  0.754997  4.766242  1.125996     68.51   21.0484  367.1316   0.15801   7.66614   0.08145   0.00085 618.24133  18.77396    1350.0  0.523015  0.001940  0.000195  0.000229  0.225008  7.372427  0.638208     99.03  1.000271  1.000029     2.680    15.179     166.7      99.9    1558.8    1352.5     15.22     -2.24     10.90      1.38     -0.54      5.09     -2.20      0.06     -4.55     -2.98     -1.93      0.74      5.14      3.79     -0.83     -8.14      1.72      3.60     -0.42      2.25
      36.824245     169.598831     230.3      4.27      5.87     109.2         1         2      1000      2326   1054.01    -9.772      19.1      37.2   255.420     0.633     326.9   0.10952      49.2         H               346.8  0.056802  0.046115  0.001690  3.760091  0.747278  5.031719  1.129886     87.00   18.9393  324.7050   0.16484   7.59113   0.08594   0.00087 542.36414  17.32299    1190.8  0.523257  0.004306  0.000842  0.000245  0.222519  7.362895  0.642021    101.37  1.000217  1.000023     2.712    15.572     181.9      99.2    1203.0    1256.7     14.99     -2.71     11.49      1.97     -0.95      4.76     -2.23      0.89     -4.35     -4.07     -1.83      1.75      5.18      3.45     -0.62     -7.03      0.34      2.77     -0.70      2.24
      36.833790     169.664963     219.9      4.10      5.87     108.3         1         3      1000      3652    955.48   -10.198      18.4      37.6   255.080     0.630     187.7   0.10663      42.0         H               346.8  0.056912  0.045754  0.001721  3.809906  0.740351  5.146077  1.126714     62.75   17.4449  292.5001   0.16269   7.51062   0.09011   0.00096 489.82544  16.27480    1076.6  0.523068  0.002859  0.000297  0.000232  0.222770  7.354640  0.639725    100.28  1.000258  1.000026     2.694    15.349     166.7      98.7     981.2    1119.6     14.99     -2.62     10.99      1.64     -1.26      4.71     -1.94      0.79     -4.06     -4.07     -2.07      1.36      4.85      3.22     -0.54     -7.56     -0.11      3.19     -0.98      1.84
      36.867798     169.520035     208.2      4.46      5.87      98.5         2         1      2460      1000   1255.16    -9.013      20.4      36.8   253.484     0.627     116.5   0.10883      35.4         H               346.8  0.058469  0.045096  0.001644  3.874428  0.777282  4.984583  1.123572     59.31   21.8331  380.7403   0.15573   7.68620   0.08109   0.00087 642.89624  19.24884    1410.3  0.520927  0.001477  0.000148  0.000223  0.218304  7.325566  0.635720     97.79  1.000282  1.000032     2.698    15.687     160.0     100.1    1707.3    1411.5     14.53     -1.18     10.04      2.43     -1.35      5.98     -1.12     -0.38     -3.40     -1.84     -2.42     -0.40      4.91      3.69     -0.06     -7.05      0.09      4.80     -1.06      1.83
      36.877464     169.586777     228.5      4.54      5.87      99.4         2         2      2460      2326   1104.09    -9.570      19.5      37.2   255.644     0.633     132.9   0.11009      47.9         H               346.8  0.057121  0.048692  0.001664  3.622649  0.758368  4.776899  1.129249     89.52   19.6881  340.1406   0.16182   7.62345   0.08384   0.00084 570.19379  17.86054    1246.7  0.524334  0.001908  0.000154  0.000254  0.224761  7.390519  0.642489     98.00  1.000338  1.000037     2.724    15.863     174.0      99.5    1322.4    1291.8     14.82     -2.28     11.80      2.63     -1.24      5.85     -1.49      0.54     -3.82     -4.09     -1.95      0.87      6.77      4.23     -0.86     -6.61     -0.21      3.81     -0.03      2.00
      36.887005     169.652954     240.2      4.51      5.87      99.9         2         3      2460      3652   1083.49    -9.652      19.5      37.6   255.366     0.633     143.9   0.11001      58.4         H               346.8  0.057258  0.048220  0.001571  3.777078  0.749929  5.036577  1.128367     81.16   19.3868  334.1938   0.16361   7.61198   0.08474   0.00085 559.02948  17.64423    1222.6  0.523935  0.001851  0.000203  0.000249  0.223860  7.402105  0.641734     98.99  1.000301  1.000034     2.691    15.274     166.7      99.3    1272.5    1254.3     15.11     -2.97     11.72      1.75     -0.87      4.66     -2.29      0.84     -4.26     -4.41     -1.75      1.42      5.95      3.68     -1.47     -6.62      0.34      2.78     -0.62      2.96
      36.921017     169.507919     226.2      4.92      5.87     102.4         3         1      3920      1000   1335.73    -8.743      20.9      36.8   258.001     0.646     249.7   0.11669      46.2         H               346.8  0.059612  0.050806  0.001954  4.071568  0.774174  5.259243  1.141157     88.55   22.7648  400.8791   0.16506   7.68042   0.08226   0.00100 669.42419  19.70000    1524.2  0.530309  0.003469  0.000509  0.000253  0.222063  7.381083  0.656752     98.09  1.000323  1.000038     2.779    16.500     190.7     100.3    1969.3    1488.4     15.18     -1.29     11.52      1.66     -0.98      5.24     -2.11     -0.08     -4.84     -2.11     -2.14      0.90      5.71      4.14     -1.32     -8.00      0.58      3.90     -1.55      3.18
      36.930679     169.574707     197.8      4.62      5.87     100.8         3         2      3920      2326   1187.42    -9.254      20.1      37.2   255.474     0.638     235.5   0.11330      30.6         H               346.8  0.059284  0.048853  0.001725  3.977891  0.763268  5.211655  1.133799     92.28   20.8435  364.7899   0.16628   7.65531   0.08313   0.00086 608.26428  18.56615    1346.2  0.525033  0.002714  0.000588  0.000263  0.220044  7.363045  0.647816     98.23  1.000304  1.000035     2.709    15.477     181.9      99.8    1541.6    1352.4     14.69     -1.67     11.19      3.04     -1.73      6.53     -1.47      0.31     -3.90     -2.82     -2.73      0.66      5.56      4.92     -0.69     -6.95     -0.67      4.07     -1.61      2.64
      36.940224     169.640930     250.0      4.46      5.87     103.7         3         3      3920      3652   1122.24    -9.499      19.9      37.6   256.445     0.637     279.1   0.11265      71.7         H               346.8  0.058224  0.047051  0.001784  3.974674  0.751242  5.290806  1.133350     60.89   19.9283  345.0150   0.16484   7.63092   0.08392   0.00085 576.28601  17.98083    1271.8  0.526273  0.003380  0.000656  0.000233  0.218880  7.340556  0.646065     97.65  1.000262  1.000029     2.758    16.197     174.0      99.6    1373.1    1320.7     14.90     -1.04     10.80      1.59     -1.26      4.84     -1.54      0.05     -3.67     -1.81     -2.01      0.34      5.21      3.19     -0.38     -7.53     -0.80      3.69     -1.87      1.73
