corner points
179.3278961    -17.53487206
179.2860413    -17.35554123
179.5093842    -17.49453735
179.4672699    -17.31526566
========== RESULTS WAVE VERSION 16.10.2018 ====================
IMAGE SIZE  X: 5345     Y:4905    col:row     POLARIZATION:VV
COVERAGE    X: 19.71155109km       Y: 20.38321346km 
RESOLUTION dX: 3.68784866m       dY:4.155599075m  
resolution of original product 3.68784866m x 4.155599075m;   raster step x:5996.441922m  
===============================================================
FLAGS: H=HIGH PROBABILITY SEA STATE, I=LAND(ISLAND), O=OUTLIER NO SEA STATE, N=NO WIND AVAILABLE, SEA STATE NOT VISIBLE, M=MEAN PROBABILITY SEA STATE, L= LOW PROBABILITY SEA STATE
Filtering wave length
 integration  Lmin=1m
 integration  Lmax=2200m
  peak        Lmin=100m
               FFT=1024pixels, 3776.357028m 
   mean-Hs (SWH_c)=0.08571428299m
         mean-wind=2.377777576m/s
--------------0--------------1---------2---------3---------4---------5---------6---------7---------8---------9--------10--------11--------12--------13--------14--------15--------16--------17--------18--------19------------------20--------21--------22--------23--------24--------25--------26--------27--------28--------29--------30--------31--------32--------33--------34--------35--------36--------37--------38--------39--------40--------41--------42--------43--------44--------45--------46--------47--------48--------49--------50--------51--------52--------53--------54--------55--------56--------57--------58--------59--------60--------61--------62--------63--------64--------65--------66--------67--------68--------69--------70--------71--------72--------73
            LAT            LON  P-LENGHT     SWH_o     SWH_c     P-DIR      LINE     POINT     ROW-Y     COL-X  M-INTENC        dB      WIND INC-ANGLE  ENERGY-M  ENERGY-N  ENERGY-R ENERGY-NN  FG-DEPTH      FLAG         HEADING-DEG    E30-75   E75-390  E390-600 meanincut   meanout   cut/out  STD-NORM  SPEC-MAX   GL-MEAN    GL-VAR      CORR   ENTROPY   HOMOGEN    ENERGY  CONTRAST  DISSIMIL     STD-O    E 1-30 E600-2000   E2000 >      GODA  LONG-HIG     Tmean  CONVOLUT  MEAN-DIR  relation     Sy/Sx  SKEWNESS  KURTOSIS  cutoff-A >50/10000     INT*V   INT-LOG  S-1_g1f1  S-2_g1f2  S-3_g1f3  S-4_g2f1  S-5_g2f2  S-6_g2f3  S-7_g3f1  S-8_g3f2  S-9_g3f3 S-10_g1f4 S-11_g2f4 S-12_g3f4 S-13_g1f5 S-14_g2f5 S-15_g3f5 S-16_g4f1 S-17_g4f2 S-18_g4f3 S-19_g4f4 S-20_g4f5
--------------1--------------2---------3---------4---------5---------6---------7---------8---------9--------10--------11--------12--------13--------14--------15--------16--------17--------18--------19--------20------------------21--------22--------23--------24--------25--------26--------27--------28--------29--------30--------31--------32--------33--------34--------35--------36--------37--------38--------39--------40--------41--------42--------43--------44--------45--------46--------47--------48--------49--------50--------51--------52--------53--------54--------55--------56--------57--------58--------59--------60--------61--------62--------63--------64--------65--------66--------67--------68--------69--------70--------71--------72--------73--------74
     -17.490583     179.354172     131.0      0.20      0.92      10.0         1         1      1000      1000    893.10   -10.491       2.4      23.4   339.672     0.592     772.8   0.10936      11.3         H               347.8  0.050205  0.025644  0.001671  1.698402  1.149073  1.478063  1.090087     14.80    1.3276    3.7171   0.20920   3.14658   0.53681   0.09231   5.87895   1.52101     973.6  0.500918  0.012869  0.000874  0.000194  0.162318  6.951059  0.617876     23.80  0.999968  0.999998     2.557    13.727      84.8      58.2       7.8      87.9      9.73      1.31     -2.20      1.27      2.07     -3.34      4.06      0.90     -1.38     -2.49     -2.47     -1.79      3.05     -0.50      0.58     -9.80      2.48     -2.76     -1.80     -5.31
     -17.478207     179.409897     371.8      0.14      0.92     100.1         1         2      1000      2626    479.86   -13.189       1.9      23.9   359.630     0.701    3213.6   0.17653     100.0         H               347.8  0.056462  0.046009  0.007248  2.958014  1.235198  2.394770  1.195588     44.92    0.4635    1.3205   0.33591   1.66146   0.79609   0.43572   1.75392   0.58200     573.6  0.523691  0.064709  0.003198  0.000158  0.192621  7.231415  0.753250     23.37  1.000257  1.000016     4.105    31.049     450.0      24.4       2.3      64.0     12.44     -1.49     -0.59     -4.26      2.21     -3.84      5.90     -1.17      0.98     -2.49      0.47     -1.91      3.77     -1.67      1.43    -27.29      7.49     -7.28      5.36     -9.31
     -17.466040     179.464600     193.2      0.15      0.92     177.1         1         3      1000      4252    609.93   -12.147       2.1      24.4   321.757     0.568     891.9   0.11041      28.7         H               347.8  0.047450  0.031524  0.001833  1.982425  1.037346  1.911056  1.072758     17.66    0.8434    1.6305   0.21241   2.44512   0.67570   0.16114   2.56842   0.90768     654.3  0.472003  0.014549  0.001292  0.000165  0.174395  7.095987  0.595605     28.13  0.999907  0.999993     2.871    16.590     102.3      51.8       3.7      60.0      9.98      1.18     -2.38      1.70      0.70     -4.73      2.68      0.49      0.48     -0.97     -0.99     -1.20      3.17      0.88     -0.10     -8.55      0.20     -6.79     -0.26     -1.69
     -17.437819     179.341827     112.5      0.22      0.92      12.0         2         1      2443      1000   1256.01    -9.010       3.2      23.4   329.885     0.556     187.6   0.09473       8.2         H               347.8  0.046036  0.018088  0.000368  1.358287  0.881628  1.540658  1.058137      9.98    2.0379    6.9226   0.17993   3.83092   0.41530   0.04545  11.35403   2.25985    1329.0  0.488945  0.002709  0.000271  0.000134  0.158691  6.865325  0.574365     20.68  1.000045  1.000003     2.325    11.673      41.9      68.9      14.7     115.3      9.07      1.03     -3.42      3.93      1.16     -3.75      1.65      0.74      0.10     -2.16     -1.96     -0.49      1.30      0.07      0.04     -1.65      0.58     -3.54     -1.61     -1.83
     -17.425447     179.397537     163.1      0.17      0.92       5.0         2         2      2443      2626    833.44   -10.791       2.5      23.9   359.558     0.638     992.1   0.12597      18.7         H               347.8  0.057603  0.032676  0.001758  2.017516  1.385172  1.456509  1.135743     21.42    1.2140    3.4462   0.22681   3.00935   0.55405   0.11072   5.32904   1.42817     946.5  0.529980  0.015413  0.001429  0.000198  0.162288  6.972329  0.669471     25.69  1.000057  1.000003     2.699    15.170     102.3      54.0       7.0      95.3      9.44      1.42     -2.93      1.94      1.97     -4.74      3.18      1.03      0.41     -2.17     -2.61     -1.24      2.83     -0.24      0.13     -7.64      2.23     -7.07     -2.69     -4.20
     -17.413286     179.452209     184.8      0.20      0.92     177.2         2         3      2443      4252    676.08   -11.700       2.4      24.4   375.527     0.684     330.6   0.14410      25.5         H               347.8  0.072428  0.051174  0.002474  2.907804  1.872099  1.553232  1.172410     30.93    0.9293    2.4074   0.23954   2.62544   0.61572   0.16251   3.66148   1.13781     792.7  0.551675  0.006047  0.000279  0.000208  0.164128  7.042697  0.721893     20.46  0.999742  0.999977     2.846    16.793      44.2      46.1       4.8      77.6      9.03      2.34     -4.08      2.48      0.27     -4.36      2.96      1.44     -1.31     -1.12     -1.92     -1.48      1.94      1.59     -0.18     -5.80     -2.27     -3.14     -1.89      1.06
     -17.385054     179.329498     379.0      0.15      0.92      11.6         3         1      3886      1000    687.48   -11.627       2.1      23.4   343.252     0.648    3159.6   0.15263     100.0         H               347.8  0.048996  0.038601  0.005399  2.352529  1.053065  2.233983  1.139210     55.67    0.9820    2.2947   0.27421   2.53497   0.69083   0.16075   3.33107   0.94832     783.3  0.499807  0.052789  0.002911  0.000164  0.202701  7.255402  0.692085     26.77  0.999456  0.999949     3.407    21.857     366.8      57.5       4.9      81.9     12.77      1.21     -5.97     -4.45     -0.14      3.32      4.70      0.95     -3.94     -0.94     -1.21     -0.59      6.03     -4.47      1.91    -25.36     -1.84     17.17     -0.85    -17.01
     -17.372686     179.385178       0.0      0.00      0.92       0.0         3         2      3886      2626      0.00     0.000       0.0      23.9     0.000     0.000       0.0   0.00000       0.0         I               347.8  0.000000  0.000000  0.000000  0.000000  0.000000  0.000000  0.000000      0.00    0.0000    0.0000   0.00000   0.00000   0.00000   0.00000   0.00000   0.00000       0.0  0.000000  0.000000  0.000000  0.000000  0.000000  0.000000  0.000000      0.00  0.000000  0.000000     0.000     0.000       0.0       0.0       0.0       0.0      0.00      0.00      0.00      0.00      0.00      0.00      0.00      0.00      0.00      0.00      0.00      0.00      0.00      0.00      0.00      0.00      0.00      0.00      0.00      0.00
     -17.360533     179.439850       0.0      0.00      0.00       0.0         3         3      3886      4252      0.72     0.000       0.0      24.4     0.000     0.000       0.0   0.00000       0.0         O               347.8  0.000000  0.000000  0.000000  0.000000  0.000000  0.000000  0.000000      0.00    0.0000    0.0000   0.00000   0.00000   0.00000   0.00000   0.00000   0.00000       0.0  0.000000  0.000000  0.000000  0.000000  0.000000  0.000000  0.000000      0.00  0.000000  0.000000     0.000     0.000       0.0       0.0       0.0       0.0      0.00      0.00      0.00      0.00      0.00      0.00      0.00      0.00      0.00      0.00      0.00      0.00      0.00      0.00      0.00      0.00      0.00      0.00      0.00      0.00
