corner points
165.9377289    50.83688354
165.8868561    51.00963593
166.2128754    50.86847305
166.1630554    51.04124832
========== RESULTS WAVE VERSION 16.10.2018 ====================
IMAGE SIZE  X: 4316     Y:4767    col:row     POLARIZATION:VV
COVERAGE    X: 19.58915516km       Y: 19.48804104km 
RESOLUTION dX: 4.538729185m       dY:4.088114336m  
resolution of original product 4.538729185m x 4.088114336m;   raster step x:5995.661253m  
===============================================================
FLAGS: H=HIGH PROBABILITY SEA STATE, I=LAND(ISLAND), O=OUTLIER NO SEA STATE, N=NO WIND AVAILABLE, SEA STATE NOT VISIBLE, M=MEAN PROBABILITY SEA STATE, L= LOW PROBABILITY SEA STATE
Filtering wave length
 integration  Lmin=1m
 integration  Lmax=2200m
  peak        Lmin=100m
               FFT=1024pixels, 4647.658685m 
   mean-Hs (SWH_c)=2.423106232m
         mean-wind=14.31954765m/s
--------------0--------------1---------2---------3---------4---------5---------6---------7---------8---------9--------10--------11--------12--------13--------14--------15--------16--------17--------18--------19------------------20--------21--------22--------23--------24--------25--------26--------27--------28--------29--------30--------31--------32--------33--------34--------35--------36--------37--------38--------39--------40--------41--------42--------43--------44--------45--------46--------47--------48--------49--------50--------51--------52--------53--------54--------55--------56--------57--------58--------59--------60--------61--------62--------63--------64--------65--------66--------67--------68--------69--------70--------71--------72--------73
            LAT            LON  P-LENGHT     SWH_o     SWH_c     P-DIR      LINE     POINT     ROW-Y     COL-X  M-INTENC        dB      WIND INC-ANGLE  ENERGY-M  ENERGY-N  ENERGY-R ENERGY-NN  FG-DEPTH      FLAG         HEADING-DEG    E30-75   E75-390  E390-600 meanincut   meanout   cut/out  STD-NORM  SPEC-MAX   GL-MEAN    GL-VAR      CORR   ENTROPY   HOMOGEN    ENERGY  CONTRAST  DISSIMIL     STD-O    E 1-30 E600-2000   E2000 >      GODA  LONG-HIG     Tmean  CONVOLUT  MEAN-DIR  relation     Sy/Sx  SKEWNESS  KURTOSIS  cutoff-A >50/10000     INT*V   INT-LOG  S-1_g1f1  S-2_g1f2  S-3_g1f3  S-4_g2f1  S-5_g2f2  S-6_g2f3  S-7_g3f1  S-8_g3f2  S-9_g3f3 S-10_g1f4 S-11_g2f4 S-12_g3f4 S-13_g1f5 S-14_g2f5 S-15_g3f5 S-16_g4f1 S-17_g4f2 S-18_g4f3 S-19_g4f4 S-20_g4f5
--------------1--------------2---------3---------4---------5---------6---------7---------8---------9--------10--------11--------12--------13--------14--------15--------16--------17--------18--------19--------20------------------21--------22--------23--------24--------25--------26--------27--------28--------29--------30--------31--------32--------33--------34--------35--------36--------37--------38--------39--------40--------41--------42--------43--------44--------45--------46--------47--------48--------49--------50--------51--------52--------53--------54--------55--------56--------57--------58--------59--------60--------61--------62--------63--------64--------65--------66--------67--------68--------69--------70--------71--------72--------73--------74
      50.880592     165.991547     242.3      2.33      6.52     117.6         1         1      1000      1000    595.50   -12.251      13.8      36.6   276.136     0.630     152.1   0.10390      60.8         H               344.8  0.056841  0.034948  0.002984  3.399815  0.761545  4.464364  1.126177     31.46   11.2275  151.7880   0.15201   6.85718   0.12612   0.00218 257.42941  11.20093     670.7  0.533030  0.002673  0.000210  0.000150  0.211211  7.165215  0.633262     97.61  1.000298  1.000026     2.857    18.210     148.0      95.4     367.7     792.6     15.18     -3.02      6.21     -2.80      1.08      3.69      1.63      1.26     -2.22     -2.24     -0.60      1.77      0.59      3.50      1.28    -18.24      2.26      4.31     -1.11      3.42
      50.890316     166.076111     306.9      2.33      6.52     120.9         1         2      1000      2321    594.55   -12.258      14.1      37.0   276.754     0.632     144.2   0.10532     100.0         H               344.8  0.057171  0.034447  0.003578  3.272928  0.757223  4.322278  1.128109     33.14   11.2153  150.5313   0.15201   6.85802   0.12596   0.00218 255.29787  11.17190     670.7  0.534878  0.002399  0.000183  0.000145  0.208081  7.145973  0.634700     98.20  1.000297  1.000025     4.100   146.699     142.7      95.3     364.5     907.4     15.19     -3.10      5.88     -3.87      0.99      2.54      2.99      0.42     -1.16     -2.81     -0.23      0.48      0.87      2.30      1.69    -21.63      3.17      1.10      1.42      0.88
      50.899899     166.159973     347.5      2.32      6.52     131.6         1         3      1000      3642    580.69   -12.361      14.2      37.4   274.541     0.625     152.4   0.10262     100.0         H               344.8  0.055918  0.033867  0.003540  3.264180  0.737266  4.427409  1.121148     35.07   10.9556  144.9770   0.15169   6.81673   0.12832   0.00228 245.97261  10.93826     651.1  0.528699  0.002727  0.000169  0.000150  0.210832  7.148831  0.627199     97.94  1.000335  1.000030     2.886    20.215     148.0      95.2     346.8     855.2     15.45     -4.23      6.35     -4.07      3.02      2.63      2.43     -0.24     -1.82     -1.78     -0.66      1.20      0.54      3.32      0.61    -21.78      7.91      1.37     -0.94      3.79
      50.933769     165.975983     220.5      2.41      6.52     108.4         2         1      2467      1000    607.14   -12.167      13.9      36.6   275.550     0.631     144.5   0.10536      42.3         H               344.8  0.057303  0.035846  0.003889  3.370387  0.766793  4.395434  1.126684     33.74   11.4439  156.6144   0.15445   6.88994   0.12452   0.00210 264.84964  11.37537     684.0  0.531728  0.002514  0.000138  0.000149  0.214513  7.183087  0.634458    100.63  1.000314  1.000027     2.851    18.013     153.8      95.5     383.0     812.7     15.49     -3.78      6.12     -4.06      1.76      3.10      2.46      0.55     -2.24     -2.63     -0.47      1.73      0.74      2.93      1.38    -21.97      5.33      3.12     -0.44      2.23
      50.943493     166.060638     280.3      2.55      6.52     122.4         2         2      2467      2321    649.04   -11.877      14.8      37.0   272.115     0.620     190.2   0.10290     100.0         H               344.8  0.054480  0.034475  0.003605  3.263013  0.751931  4.339510  1.116911     33.49   12.2308  172.6118   0.15345   7.00655   0.11750   0.00184 292.25031  12.05333     724.9  0.523563  0.003520  0.000253  0.000149  0.213371  7.196151  0.622277    100.90  1.000265  1.000023     2.806    18.503     142.7      96.0     435.2     865.6     15.35     -4.73      5.53     -3.63      2.88      4.29      2.51      0.28     -2.41     -2.32     -0.35      1.22      0.63      3.35      1.66    -21.44      7.86      5.62     -0.04      2.34
      50.953079     166.144592     339.6      2.38      6.52     144.2         2         3      2467      3642    611.87   -12.133      14.6      37.4   273.348     0.620     165.8   0.10187     100.0         H               344.8  0.055467  0.033323  0.003104  3.212059  0.748442  4.291658  1.117216     31.14   11.5419  157.3324   0.15128   6.90781   0.12305   0.00205 267.06143  11.46056     683.6  0.525599  0.002853  0.000237  0.000146  0.210815  7.158846  0.622407     98.16  1.000272  1.000022     2.813    18.638     142.7      95.7     385.0     855.9     15.20     -3.59      6.06     -3.29      1.86      3.21      2.13      0.43     -1.91     -2.35      0.14      0.19      0.66      2.87      1.28    -19.87      5.14      2.95      2.72      2.33
      50.986942     165.960388     261.3      2.46      6.52     115.9         3         1      3934      1000    622.92   -12.056      14.2      36.6   274.320     0.626     171.0   0.10397     109.6         H               344.8  0.055910  0.035523  0.003424  3.210737  0.754778  4.253883  1.122882     38.51   11.7406  162.6145   0.15429   6.93552   0.12171   0.00199 275.04608  11.63571     699.5  0.529074  0.002689  0.000243  0.000150  0.217263  7.199286  0.629490    103.10  1.000309  1.000028     2.833    18.159     148.0      95.8     402.4     841.5     15.57     -3.40      6.40     -3.62      1.30      3.25      1.41      1.28     -2.54     -3.03      0.58      1.37      0.48      3.05      1.89    -19.82      3.01      3.62      1.89      1.85
      50.996674     166.045135     254.0      2.53      6.52     119.0         3         2      3934      2321    646.61   -11.894      14.8      37.0   273.129     0.621     132.3   0.10277      79.8         H               344.8  0.055038  0.034454  0.003494  3.346979  0.731851  4.573308  1.118103     32.13   12.1851  171.9570   0.15178   6.99992   0.11765   0.00185 291.71521  12.03889     723.0  0.526350  0.002344  0.000123  0.000149  0.214278  7.191144  0.623770     97.16  1.000327  1.000029     2.788    17.790     148.0      96.0     432.7     895.1     15.40     -3.31      6.69     -3.30      1.72      3.39      2.04     -0.10     -2.22     -1.65     -1.01      1.09      1.11      3.13      1.24    -20.66      5.23      2.44     -1.79      1.36
      51.006260     166.129196     363.1      2.51      6.52     141.3         3         3      3934      3642    607.94   -12.161      14.6      37.4   276.607     0.635     203.3   0.10766     100.0         H               344.8  0.057142  0.035924  0.004364  3.347648  0.781462  4.283829  1.130603     43.79   11.4538  156.9436   0.15682   6.89100   0.12427   0.00211 264.66278  11.37816     687.3  0.534116  0.003579  0.000291  0.000149  0.214161  7.184335  0.638877    102.32  1.000323  1.000027     2.974    21.281     153.8      95.6     385.7     902.5     15.51     -4.03      5.78     -4.83      2.75      3.29      3.44     -0.32     -2.08     -1.50     -0.88      1.13     -0.56      4.33      0.82    -24.26      7.68      4.20     -1.44      6.40
