corner points
-175.3073883    -36.85479355
-175.3647766    -36.67704773
-175.0887451    -36.8072052
-175.146759    -36.62957001
========== RESULTS WAVE VERSION 16.10.2018 ====================
IMAGE SIZE  X: 5345     Y:4918    col:row     POLARIZATION:VV
COVERAGE    X: 20.11427762km       Y: 20.37063336km 
RESOLUTION dX: 3.763195064m       dY:4.142056397m  
resolution of original product 3.763195064m x 4.142056397m;   raster step x:5998.532932m  
===============================================================
FLAGS: H=HIGH PROBABILITY SEA STATE, I=LAND(ISLAND), O=OUTLIER NO SEA STATE, N=NO WIND AVAILABLE, SEA STATE NOT VISIBLE, M=MEAN PROBABILITY SEA STATE, L= LOW PROBABILITY SEA STATE
Filtering wave length
 integration  Lmin=1m
 integration  Lmax=2200m
  peak        Lmin=100m
               FFT=1024pixels, 3853.511745m 
   mean-Hs (SWH_c)=0.2m
         mean-wind=3.081892967m/s
--------------0--------------1---------2---------3---------4---------5---------6---------7---------8---------9--------10--------11--------12--------13--------14--------15--------16--------17--------18--------19------------------20--------21--------22--------23--------24--------25--------26--------27--------28--------29--------30--------31--------32--------33--------34--------35--------36--------37--------38--------39--------40--------41--------42--------43--------44--------45--------46--------47--------48--------49--------50--------51--------52--------53--------54--------55--------56--------57--------58--------59--------60--------61--------62--------63--------64--------65--------66--------67--------68--------69--------70--------71--------72--------73
            LAT            LON  P-LENGHT     SWH_o     SWH_c     P-DIR      LINE     POINT     ROW-Y     COL-X  M-INTENC        dB      WIND INC-ANGLE  ENERGY-M  ENERGY-N  ENERGY-R ENERGY-NN  FG-DEPTH      FLAG         HEADING-DEG    E30-75   E75-390  E390-600 meanincut   meanout   cut/out  STD-NORM  SPEC-MAX   GL-MEAN    GL-VAR      CORR   ENTROPY   HOMOGEN    ENERGY  CONTRAST  DISSIMIL     STD-O    E 1-30 E600-2000   E2000 >      GODA  LONG-HIG     Tmean  CONVOLUT  MEAN-DIR  relation     Sy/Sx  SKEWNESS  KURTOSIS  cutoff-A >50/10000     INT*V   INT-LOG  S-1_g1f1  S-2_g1f2  S-3_g1f3  S-4_g2f1  S-5_g2f2  S-6_g2f3  S-7_g3f1  S-8_g3f2  S-9_g3f3 S-10_g1f4 S-11_g2f4 S-12_g3f4 S-13_g1f5 S-14_g2f5 S-15_g3f5 S-16_g4f1 S-17_g4f2 S-18_g4f3 S-19_g4f4 S-20_g4f5
--------------1--------------2---------3---------4---------5---------6---------7---------8---------9--------10--------11--------12--------13--------14--------15--------16--------17--------18--------19--------20------------------21--------22--------23--------24--------25--------26--------27--------28--------29--------30--------31--------32--------33--------34--------35--------36--------37--------38--------39--------40--------41--------42--------43--------44--------45--------46--------47--------48--------49--------50--------51--------52--------53--------54--------55--------56--------57--------58--------59--------60--------61--------62--------63--------64--------65--------66--------67--------68--------69--------70--------71--------72--------73--------74
     -36.809544    -175.277100     184.5      0.20      1.42     134.1         1         1      1000      1000   1300.59    -8.859       3.0      22.9   275.143     0.615     131.2   0.11808      25.4         H               346.7  0.057440  0.034940  0.001136  2.797037  0.844308  3.312814  1.112457     25.94    2.1365    8.2662   0.21417   3.89469   0.41500   0.04578  12.99167   2.35522    1446.9  0.519426  0.002714  0.000073  0.000139  0.196649  7.206391  0.639567     57.86  1.000012  1.000001     2.622    14.739      51.0      68.7      16.5     150.7     11.06     -2.29     -4.06      2.52      1.66     -1.55     -0.15      2.84      2.07     -0.62     -2.04     -0.67     -2.50     -1.01      0.31     -5.40      1.49     -0.57     -0.89     -0.36
     -36.795235    -175.211258     195.9      0.21      1.42     130.3         1         2      1000      2594   1176.15    -9.295       3.1      23.4   274.279     0.612     151.7   0.11716      29.8         H               346.7  0.057414  0.033970  0.001066  2.741947  0.846930  3.237513  1.110009     21.01    1.8901    6.7026   0.21289   3.69674   0.44197   0.05526  10.55131   2.11386    1305.4  0.517501  0.002886  0.000119  0.000133  0.195569  7.195249  0.636379     59.73  1.000028  1.000001     2.612    14.616      50.4      65.8      13.6     135.6     11.06     -1.69     -4.11      2.64      1.81     -1.25     -0.20      2.43      2.09     -0.80     -1.70     -0.51     -1.80     -1.64     -0.18     -5.07      2.20     -0.25     -0.12     -1.22
     -36.781158    -175.146683     285.0      0.21      1.42     143.7         1         3      1000      4188   1061.87    -9.739       3.1      23.8   273.090     0.609     155.0   0.11561     100.0         H               346.7  0.056891  0.033465  0.001378  2.569526  0.822409  3.124391  1.106930     22.10    1.6689    5.4270   0.21153   3.50031   0.46974   0.06664   8.55809   1.89637    1175.4  0.514571  0.002911  0.000137  0.000133  0.199314  7.191896  0.632827     42.81  1.000017  1.000001     2.564    13.808      51.0      62.8      11.2     104.9     11.43     -1.64     -4.54      1.52      2.50     -1.53     -0.09      1.92      2.65     -0.40     -2.03     -0.47     -1.47     -0.62     -0.18     -7.54      2.84     -1.18     -0.62     -0.08
     -36.757206    -175.294037     178.3      0.20      1.42     132.3         2         1      2448      1000   1266.27    -8.975       2.9      22.9   274.955     0.618     163.1   0.11975      23.3         H               346.7  0.058067  0.035705  0.001496  2.886072  0.870655  3.314829  1.115241     20.39    2.0711    7.8762   0.21781   3.84295   0.42236   0.04829  12.32127   2.29054    1412.2  0.519699  0.003388  0.000096  0.000136  0.197369  7.210630  0.643152     49.27  1.000026  1.000001     2.608    14.179      51.7      67.9      15.8     133.5     11.18     -1.00     -3.43      2.22      1.01     -1.99      0.21      3.25      2.13     -0.88     -2.38      0.26     -2.18     -1.41     -0.13     -6.80     -1.03     -1.75     -2.60     -0.89
     -36.742905    -175.228256     190.1      0.21      1.42     132.3         2         2      2448      2594   1192.71    -9.235       3.1      23.4   273.331     0.611     140.4   0.11731      27.5         H               346.7  0.057384  0.032102  0.001381  2.594886  0.832328  3.117626  1.107870     23.96    1.9237    6.8805   0.21346   3.72541   0.43775   0.05360  10.82351   2.14529    1321.4  0.516937  0.003211  0.000082  0.000130  0.197165  7.169367  0.634421     69.64  1.000049  1.000003     2.602    14.453      51.0      66.3      14.0     126.7     11.31     -1.69     -3.69      2.03      1.28     -1.71      0.06      2.72      2.83     -0.81     -1.98      0.25     -1.60     -1.33      0.22     -7.43      0.41     -2.30     -2.18     -1.38
     -36.728840    -175.163727     238.8      0.22      1.42     137.0         2         3      2448      4188   1145.34    -9.411       3.3      23.8   272.052     0.607     159.0   0.11619      56.9         H               346.7  0.056391  0.032502  0.000942  2.559946  0.820305  3.120725  1.105605     20.97    1.8295    6.2911   0.21233   3.64569   0.44849   0.05773   9.91059   2.05327    1266.3  0.514456  0.003105  0.000124  0.000132  0.196803  7.163455  0.630511     48.54  1.000000  1.000001     2.553    13.698      50.4      65.1      12.8     120.0     11.09     -1.26     -4.80      2.46      1.78     -1.19     -0.50      2.46      2.36     -0.08     -2.18     -0.45     -1.59     -1.37     -0.00     -5.02      0.74      0.23     -1.82     -1.03
     -36.704868    -175.310974     197.6      0.21      1.42     138.2         3         1      3896      1000   1374.10    -8.620       3.2      22.9   273.370     0.610     182.3   0.11638      30.5         H               346.7  0.055036  0.033704  0.001250  2.713533  0.823171  3.296439  1.108232     22.04    2.2834    9.1762   0.21308   4.00520   0.39913   0.04083  14.44198   2.49508    1522.7  0.516856  0.003674  0.000112  0.000136  0.200148  7.219006  0.633983     56.10  1.000028  1.000002     2.609    14.726      51.7      70.3      18.3     161.3     11.34     -2.02     -3.82      2.21      1.49     -1.45     -0.42      2.14      2.14     -0.90     -2.13     -0.47     -2.50     -1.09      0.29     -6.33      2.41     -0.93     -1.04     -0.02
     -36.690575    -175.245239     190.9      0.20      1.42     136.1         3         2      3896      2594   1130.68    -9.467       2.9      23.4   274.244     0.614     153.4   0.11865      27.8         H               346.7  0.056914  0.035192  0.001819  2.677063  0.829217  3.228422  1.111776     33.10    1.8013    6.2050   0.21541   3.61929   0.45302   0.05972   9.73667   2.02662    1257.0  0.517179  0.003685  0.000053  0.000142  0.201506  7.212664  0.639069     87.91  1.000047  1.000003     2.605    14.441      53.1      64.6      12.6     123.1     11.56     -2.05     -3.61      1.38      1.45     -1.81      0.21      3.02      2.77     -0.28     -2.17     -0.72     -2.28     -1.20      0.32     -8.98      1.20     -2.75     -1.16     -0.23
     -36.676517    -175.180771     211.9      0.21      1.42     134.4         3         3      3896      4188   1107.17    -9.558       3.2      23.8   274.148     0.613     185.5   0.11697      37.3         H               346.7  0.057391  0.031804  0.001450  2.573644  0.848032  3.034843  1.110877     24.74    1.7544    5.9354   0.21188   3.57834   0.45856   0.06193   9.35557   1.98374    1229.9  0.518740  0.003872  0.000112  0.000131  0.197834  7.150882  0.636704     62.17  1.000027  1.000001     2.611    14.609      51.0      63.9      12.1     124.1     11.44     -2.13     -4.09      1.73      1.64     -1.16     -0.14      1.97      1.76     -0.59     -2.42      0.18     -2.49     -0.66      0.70     -7.83      2.34      1.02     -2.82      0.43
