corner points
172.4289246    14.34916592
172.3909302    14.52987862
172.605835    14.38438892
172.5679932    14.56508732
========== RESULTS WAVE VERSION 16.10.2018 ====================
IMAGE SIZE  X: 5345     Y:4930    col:row     POLARIZATION:VV
COVERAGE    X: 19.41146858km       Y: 20.45828142km 
RESOLUTION dX: 3.631706001m       dY:4.149752823m  
resolution of original product 3.631706001m x 4.149752823m;   raster step x:5999.578314m  
===============================================================
FLAGS: H=HIGH PROBABILITY SEA STATE, I=LAND(ISLAND), O=OUTLIER NO SEA STATE, N=NO WIND AVAILABLE, SEA STATE NOT VISIBLE, M=MEAN PROBABILITY SEA STATE, L= LOW PROBABILITY SEA STATE
Filtering wave length
 integration  Lmin=1m
 integration  Lmax=2200m
  peak        Lmin=100m
               FFT=1024pixels, 3718.866945m 
   mean-Hs (SWH_c)=1.526468811m
         mean-wind=11.67798328m/s
--------------0--------------1---------2---------3---------4---------5---------6---------7---------8---------9--------10--------11--------12--------13--------14--------15--------16--------17--------18--------19------------------20--------21--------22--------23--------24--------25--------26--------27--------28--------29--------30--------31--------32--------33--------34--------35--------36--------37--------38--------39--------40--------41--------42--------43--------44--------45--------46--------47--------48--------49--------50--------51--------52--------53--------54--------55--------56--------57--------58--------59--------60--------61--------62--------63--------64--------65--------66--------67--------68--------69--------70--------71--------72--------73
            LAT            LON  P-LENGHT     SWH_o     SWH_c     P-DIR      LINE     POINT     ROW-Y     COL-X  M-INTENC        dB      WIND INC-ANGLE  ENERGY-M  ENERGY-N  ENERGY-R ENERGY-NN  FG-DEPTH      FLAG         HEADING-DEG    E30-75   E75-390  E390-600 meanincut   meanout   cut/out  STD-NORM  SPEC-MAX   GL-MEAN    GL-VAR      CORR   ENTROPY   HOMOGEN    ENERGY  CONTRAST  DISSIMIL     STD-O    E 1-30 E600-2000   E2000 >      GODA  LONG-HIG     Tmean  CONVOLUT  MEAN-DIR  relation     Sy/Sx  SKEWNESS  KURTOSIS  cutoff-A >50/10000     INT*V   INT-LOG  S-1_g1f1  S-2_g1f2  S-3_g1f3  S-4_g2f1  S-5_g2f2  S-6_g2f3  S-7_g3f1  S-8_g3f2  S-9_g3f3 S-10_g1f4 S-11_g2f4 S-12_g3f4 S-13_g1f5 S-14_g2f5 S-15_g3f5 S-16_g4f1 S-17_g4f2 S-18_g4f3 S-19_g4f4 S-20_g4f5
--------------1--------------2---------3---------4---------5---------6---------7---------8---------9--------10--------11--------12--------13--------14--------15--------16--------17--------18--------19--------20------------------21--------22--------23--------24--------25--------26--------27--------28--------29--------30--------31--------32--------33--------34--------35--------36--------37--------38--------39--------40--------41--------42--------43--------44--------45--------46--------47--------48--------49--------50--------51--------52--------53--------54--------55--------56--------57--------58--------59--------60--------61--------62--------63--------64--------65--------66--------67--------68--------69--------70--------71--------72--------73--------74
      14.392591     172.455124     294.8      1.62      2.98     166.2         1         1      1000      1000   3583.70    -4.457      11.7      23.8   454.445     0.798     107.6   0.19982     100.0         H               347.9  0.099184  0.058846  0.001366  5.753410  0.953778  6.032233  1.266438     34.66    6.6259   74.3729   0.28681   5.83571   0.21638   0.00779 106.08453   6.60291    4538.4  0.638245  0.001288  0.000064  0.000260  0.177307  7.022199  0.844148     85.34  1.000244  1.000035     3.733    31.418     114.0      87.8     148.3     648.7     12.28     -0.08     -0.47      1.84      1.49      7.61      2.79      0.58      3.69      1.82      0.08      1.01      1.60      0.84      2.32     -5.64      2.10     10.43     -0.41      0.34
      14.403583     172.510330     282.5      1.41      2.98     175.6         1         2      1000      2652   3048.52    -5.159      10.8      24.3   450.799     0.787     101.3   0.19379     100.0         H               347.9  0.096912  0.057113  0.001420  5.641781  0.941960  5.989404  1.260161     37.89    5.6005   55.4312   0.28332   5.53042   0.24274   0.01056  79.45316   5.65979    3841.6  0.630748  0.001216  0.000045  0.000250  0.178808  7.031103  0.831144     85.34  1.000227  1.000031     3.629    29.498     110.8      85.4     105.3     556.5     12.35      0.09     -0.66      1.93      1.32      8.19      2.75      0.49      3.56      1.56      0.46      0.71      1.98      0.90      2.28     -6.10      1.56     11.20     -0.10      0.46
      14.414364     172.564529     114.1      1.57      2.98      79.2         1         3      1000      4304   2841.99    -5.464      11.1      24.7   456.033     0.795     131.1   0.19651       8.4         H               347.9  0.095226  0.060066  0.001740  5.677145  0.942560  6.023115  1.264628     47.23    5.1613   48.4525   0.28277   5.38036   0.25718   0.01231  69.50291   5.25627    3593.8  0.636977  0.001774  0.000078  0.000253  0.181834  7.088624  0.839557     83.52  1.000237  1.000033     3.663    28.825     110.8      83.9      90.9     486.3     12.33      0.37      0.12      1.89      2.72      7.68      3.21      0.78      3.58      2.79      1.34      1.36      1.33      0.85      2.48     -6.63      3.28     10.71      0.40      0.34
      14.445567     172.444000     294.8      1.62      2.98     166.2         2         1      2445      1000   3757.60    -4.251      12.4      23.8   451.165     0.784     109.7   0.19205     100.0         H               347.9  0.095802  0.055667  0.001588  5.350995  0.934477  5.726194  1.254777     41.59    6.9637   79.9463   0.27940   5.93072   0.20745   0.00703 115.21999   6.92648    4714.6  0.629961  0.001430  0.000056  0.000247  0.180700  7.016689  0.826615     85.53  1.000237  1.000032     3.567    27.949     110.8      88.6     161.6     669.1     12.51      0.27     -0.70      1.46      2.17      8.03      3.01      0.89      3.87      2.17      1.02      1.15      1.96      0.99      2.62     -6.97      2.21     10.79      0.34      0.36
      14.456559     172.499207     107.6      1.40      2.98      79.8         2         2      2445      2652   3166.81    -4.994      11.3      24.3   452.395     0.787     106.2   0.19278       7.4         H               347.9  0.096854  0.055245  0.001455  5.454108  0.944813  5.772684  1.258333     30.19    5.8152   58.8885   0.28047   5.60083   0.23612   0.00979  84.74364   5.86300    3984.5  0.631996  0.001503  0.000051  0.000252  0.179052  7.020483  0.829638     84.16  1.000228  1.000032     3.710    31.914     107.8      85.9     113.2     586.9     12.20      0.60     -0.32      2.25      1.24      7.62      2.85      0.76      3.47      1.27      1.31      0.80      1.68      0.54      2.36     -5.87      0.97     10.52      1.74     -0.39
      14.467339     172.553421     101.8      1.36      2.98      80.3         2         3      2445      4304   2911.55    -5.359      11.4      24.7   451.790     0.783      83.0   0.19066       6.6         H               347.9  0.096828  0.054319  0.001314  5.441998  0.943856  5.765709  1.255440     32.93    5.3384   50.7686   0.27890   5.44508   0.25053   0.01148  73.21892   5.42548    3655.3  0.629786  0.001058  0.000025  0.000249  0.176687  7.006874  0.825429     84.35  1.000244  1.000033     3.611    29.056     110.8      84.5      95.8     514.8     12.25      0.51      0.65      2.31      2.00      7.24      2.74      0.85      3.12      2.31      0.76      1.00      0.90      1.26      2.88     -5.64      1.88      9.47      0.11      0.58
      14.498545     172.432861     302.5      1.58      2.98     175.3         3         1      3890      1000   3533.73    -4.518      11.6      23.8   457.738     0.807     107.5   0.20392     100.0         H               347.9  0.101671  0.059263  0.001553  5.751727  0.963637  5.968770  1.274135     35.91    6.5334   73.1253   0.28880   5.80699   0.21904   0.00807 104.01330   6.51714    4502.5  0.643530  0.001316  0.000051  0.000250  0.181154  7.053762  0.852652     85.33  1.000222  1.000031     3.760    31.978     114.0      87.5     145.4     659.3     12.36      0.20     -0.07      1.95      2.13      7.97      3.04      0.58      4.15      2.29      0.92      0.75      1.38      1.70      2.65     -5.99      2.35     10.27      0.22      1.42
      14.509535     172.488098     135.2      1.61      2.98      79.0         3         2      3890      2652   3465.70    -4.602      12.4      24.3   453.103     0.790      85.8   0.19544      12.2         H               347.9  0.098893  0.056709  0.001365  5.519291  0.962021  5.737187  1.260030     35.62    6.4211   69.9515   0.28291   5.78086   0.22019   0.00819 100.32436   6.42255    4366.6  0.632343  0.000974  0.000030  0.000247  0.180644  7.031292  0.833559     84.36  1.000222  1.000030     3.708    32.278     114.0      87.4     138.2     653.5     12.08      0.53      0.65      2.85      1.97      8.28      3.32      0.93      4.01      1.92      1.40      1.17      2.29      1.26      2.86     -4.57      1.86     10.73      1.08      0.44
      14.520313     172.542328     118.8      1.57      2.98      82.0         3         3      3890      4304   3132.37    -5.041      12.3      24.7   446.881     0.770      92.5   0.18617       9.2         H               347.9  0.091732  0.054828  0.001389  5.340035  0.888654  6.009130  1.241337     30.92    5.7631   57.4722   0.27667   5.58716   0.23642   0.00989  83.14212   5.82009    3888.2  0.621290  0.001159  0.000035  0.000244  0.182339  7.044379  0.811223     84.86  1.000223  1.000029     3.406    24.093     110.8      85.9     109.6     486.9     12.36      0.21     -0.29      1.88      1.98      8.12      2.95      1.06      3.73      1.75      1.67      1.32      1.83      1.05      2.62     -6.05      2.13     10.94      1.29      0.20
