corner points
-166.6555023    -50.97444534
-166.752594    -50.80765533
-166.3873901    -50.91068268
-166.4853821    -50.74411011
========== RESULTS WAVE VERSION 16.10.2018 ====================
IMAGE SIZE  X: 4316     Y:4769    col:row     POLARIZATION:VV
COVERAGE    X: 20.03113339km       Y: 19.71405426km 
RESOLUTION dX: 4.641133779m       dY:4.133792044m  
resolution of original product 4.641133779m x 4.133792044m;   raster step x:5996.344843m  
===============================================================
FLAGS: H=HIGH PROBABILITY SEA STATE, I=LAND(ISLAND), O=OUTLIER NO SEA STATE, N=NO WIND AVAILABLE, SEA STATE NOT VISIBLE, M=MEAN PROBABILITY SEA STATE, L= LOW PROBABILITY SEA STATE
Filtering wave length
 integration  Lmin=1m
 integration  Lmax=2200m
  peak        Lmin=100m
               FFT=1024pixels, 4752.52099m 
   mean-Hs (SWH_c)=0.2139658165m
         mean-wind=6.140534878m/s
--------------0--------------1---------2---------3---------4---------5---------6---------7---------8---------9--------10--------11--------12--------13--------14--------15--------16--------17--------18--------19------------------20--------21--------22--------23--------24--------25--------26--------27--------28--------29--------30--------31--------32--------33--------34--------35--------36--------37--------38--------39--------40--------41--------42--------43--------44--------45--------46--------47--------48--------49--------50--------51--------52--------53--------54--------55--------56--------57--------58--------59--------60--------61--------62--------63--------64--------65--------66--------67--------68--------69--------70--------71--------72--------73
            LAT            LON  P-LENGHT     SWH_o     SWH_c     P-DIR      LINE     POINT     ROW-Y     COL-X  M-INTENC        dB      WIND INC-ANGLE  ENERGY-M  ENERGY-N  ENERGY-R ENERGY-NN  FG-DEPTH      FLAG         HEADING-DEG    E30-75   E75-390  E390-600 meanincut   meanout   cut/out  STD-NORM  SPEC-MAX   GL-MEAN    GL-VAR      CORR   ENTROPY   HOMOGEN    ENERGY  CONTRAST  DISSIMIL     STD-O    E 1-30 E600-2000   E2000 >      GODA  LONG-HIG     Tmean  CONVOLUT  MEAN-DIR  relation     Sy/Sx  SKEWNESS  KURTOSIS  cutoff-A >50/10000     INT*V   INT-LOG  S-1_g1f1  S-2_g1f2  S-3_g1f3  S-4_g2f1  S-5_g2f2  S-6_g2f3  S-7_g3f1  S-8_g3f2  S-9_g3f3 S-10_g1f4 S-11_g2f4 S-12_g3f4 S-13_g1f5 S-14_g2f5 S-15_g3f5 S-16_g4f1 S-17_g4f2 S-18_g4f3 S-19_g4f4 S-20_g4f5
--------------1--------------2---------3---------4---------5---------6---------7---------8---------9--------10--------11--------12--------13--------14--------15--------16--------17--------18--------19--------20------------------21--------22--------23--------24--------25--------26--------27--------28--------29--------30--------31--------32--------33--------34--------35--------36--------37--------38--------39--------40--------41--------42--------43--------44--------45--------46--------47--------48--------49--------50--------51--------52--------53--------54--------55--------56--------57--------58--------59--------60--------61--------62--------63--------64--------65--------66--------67--------68--------69--------70--------71--------72--------73--------74
     -50.924587    -166.613037     203.9      0.37      1.91     115.7         1         1      1000      1000    212.53   -16.726       6.0      35.8   292.692     0.570     372.0   0.07062      33.3         H               344.3  0.042870  0.023688  0.000868  2.355667  0.677002  3.479558  1.073253     19.69    3.7729   20.7023   0.10732   4.88850   0.27778   0.01558  36.96087   4.12366     228.1  0.496750  0.004865  0.001005  0.000106  0.191893  7.089979  0.574677    111.11  1.000107  1.000006     2.441    13.021     107.8      81.5      41.1     232.3     12.20     -2.23      3.90      3.55     -1.59      2.87      1.12      0.64      0.42     -2.28     -2.06      0.72      1.05     -0.01      0.08     -6.29     -1.05     -0.12     -1.56     -1.12
     -50.905464    -166.532516     207.2      0.40      1.91     119.3         1         2      1000      2292    218.48   -16.606       6.4      36.2   286.884     0.553      76.5   0.06503      34.9         H               344.3  0.041582  0.021900  0.000773  2.159647  0.663305  3.255891  1.055153     16.11    3.8905   21.1625   0.09397   4.94593   0.26916   0.01442  38.34795   4.24063     230.5  0.487482  0.001335  0.000104  0.000101  0.192450  7.086392  0.555866    108.16  1.000147  1.000008     2.321    11.806      88.6      82.2      42.5     220.3     12.39     -2.32      3.75      3.11     -0.79      3.22      0.87      0.83      0.31     -2.26     -1.46      0.78      1.29      0.65      0.41     -6.21      0.02      0.87     -0.77      0.08
     -50.886459    -166.452774     206.6      0.40      1.91     107.0         1         3      1000      3584    211.55   -16.746       6.5      36.5   287.487     0.553     101.9   0.06399      34.6         H               344.3  0.041515  0.021260  0.000786  2.081179  0.661247  3.147356  1.056236     17.06    3.7559   19.8600   0.09247   4.88380   0.27575   0.01530  36.04699   4.10697     223.4  0.488194  0.001606  0.000206  0.000100  0.191445  7.063877  0.556374    107.86  1.000116  1.000005     2.316    11.635      86.6      81.8      40.0     207.9     12.39     -1.79      3.60      2.95     -0.90      2.56      0.67      1.32     -0.01     -2.49     -1.18      0.85      1.18      0.81     -0.32     -6.70     -1.20     -0.01      0.33      0.44
     -50.873848    -166.642685     216.8      0.34      1.91     114.2         2         1      2451      1000    190.05   -17.211       5.4      35.8   289.282     0.558     172.6   0.06419      40.0         H               344.3  0.040589  0.022179  0.001080  2.181091  0.648147  3.365117  1.060087     22.67    3.3258   16.1350   0.09275   4.66946   0.29895   0.01903  29.27709   3.68764     201.5  0.490622  0.003021  0.000349  0.000105  0.190906  7.094463  0.561741    113.32  1.000160  1.000006     2.343    11.963      90.6      79.4      32.7     190.6     12.25     -2.74      3.10      2.30     -1.51      1.81      1.74      0.75      0.45     -2.50     -2.32      0.79      0.05     -0.41      0.28     -8.79     -1.08     -0.96     -2.01     -1.08
     -50.854748    -166.562241     195.1      0.38      1.91     120.5         2         2      2451      2292    207.55   -16.829       6.2      36.2   287.597     0.552      88.0   0.06357      29.5         H               344.3  0.040926  0.021998  0.000637  2.169520  0.655151  3.311479  1.054500     20.55    3.6726   19.0752   0.09085   4.84417   0.27976   0.01593  34.68431   4.02812     218.8  0.487201  0.001455  0.000151  0.000107  0.192413  7.103888  0.555057    114.66  1.000123  1.000006     2.316    11.690      84.8      81.2      38.5     205.1     12.02     -2.65      2.82      3.65     -1.56      2.92      0.57      0.74      0.07     -2.85     -2.27      1.05     -0.14     -0.55      0.12     -4.57     -0.89      1.31     -1.62     -0.47
     -50.835758    -166.482590     192.4      0.41      1.91     117.0         2         3      2451      3584    215.70   -16.661       6.6      36.5   285.820     0.548      85.3   0.06282      28.4         H               344.3  0.040444  0.020742  0.000691  2.023061  0.659112  3.069373  1.050933     18.04    3.8386   20.4292   0.09026   4.92309   0.27138   0.01462  37.17039   4.18269     226.7  0.484783  0.001433  0.000136  0.000099  0.190922  7.066066  0.550548    113.03  1.000095  1.000005     2.296    11.684      81.3      82.3      41.3     224.2     12.17     -2.47      2.53      3.13     -0.87      2.55      0.63      1.56      0.32     -2.27     -1.42      1.04     -0.06     -0.35      0.53     -5.97     -0.52      0.48      0.07     -0.43
     -50.823101    -166.672256     199.6      0.35      1.91     118.1         3         1      3902      1000    196.88   -17.058       5.6      35.8   288.728     0.553     116.9   0.06247      31.4         H               344.3  0.040349  0.021912  0.000805  2.123091  0.666103  3.187331  1.055563     16.18    3.4611   17.1775   0.08836   4.74002   0.29039   0.01763  31.31938   3.82599     207.8  0.488104  0.001754  0.000236  0.000102  0.190467  7.092185  0.555976    114.67  1.000083  1.000004     2.318    11.756      83.0      80.2      34.8     195.5     11.93     -2.88      1.94      3.16     -1.17      2.49      1.44      0.98      1.13     -2.38     -1.72      0.29     -0.15     -0.62      0.79     -6.41     -0.65      0.35     -0.37     -1.32
     -50.804016    -166.591904     212.1      0.37      1.91     116.8         3         2      3902      2292    196.59   -17.064       5.9      36.2   287.748     0.551      93.3   0.06238      37.4         H               344.3  0.040138  0.020969  0.000776  2.067068  0.677121  3.052732  1.053386     20.98    3.4546   17.0682   0.08769   4.73676   0.29050   0.01771  31.14325   3.82146     207.1  0.487498  0.001575  0.000156  0.000102  0.191040  7.082156  0.553506    114.20  1.000082  1.000004     2.290    11.419      81.3      80.1      34.6     194.2     12.06     -2.82      2.88      3.31     -1.47      2.28      0.93      1.02      0.09     -2.88     -1.90      1.02     -0.15     -0.89      0.27     -6.21     -1.23      0.27     -1.11     -1.41
     -50.785053    -166.512329     202.2      0.41      1.91     121.7         3         3      3902      3584    217.54   -16.625       6.7      36.5   285.657     0.547      63.4   0.06235      32.5         H               344.3  0.039860  0.020878  0.000593  2.045966  0.656478  3.116580  1.050348     16.69    3.8757   20.7713   0.08846   4.94024   0.26949   0.01440  37.86752   4.22357     228.5  0.485280  0.001075  0.000078  0.000100  0.193197  7.093928  0.549889    113.77  1.000103  1.000005     2.275    11.313      81.3      82.4      42.0     209.9     12.03     -2.69      2.70      3.63     -0.90      2.70      0.35      0.90      0.19     -1.90     -1.67      0.63     -0.88     -0.20      0.88     -4.42     -0.08      0.84     -0.90      0.07
