corner points
173.2218628    19.10687828
173.1862183    19.28194427
173.4043427    19.14021873
173.3689117    19.31525803
========== RESULTS WAVE VERSION 16.10.2018 ====================
IMAGE SIZE  X: 4316     Y:4784    col:row     POLARIZATION:VV
COVERAGE    X: 19.48327813km       Y: 19.77510061km 
RESOLUTION dX: 4.514197899m       dY:4.133591266m  
resolution of original product 4.514197899m x 4.133591266m;   raster step x:5999.369007m  
===============================================================
FLAGS: H=HIGH PROBABILITY SEA STATE, I=LAND(ISLAND), O=OUTLIER NO SEA STATE, N=NO WIND AVAILABLE, SEA STATE NOT VISIBLE, M=MEAN PROBABILITY SEA STATE, L= LOW PROBABILITY SEA STATE
Filtering wave length
 integration  Lmin=1m
 integration  Lmax=2200m
  peak        Lmin=100m
               FFT=1024pixels, 4622.538648m 
   mean-Hs (SWH_c)=1.833869324m
         mean-wind=14.01543331m/s
--------------0--------------1---------2---------3---------4---------5---------6---------7---------8---------9--------10--------11--------12--------13--------14--------15--------16--------17--------18--------19------------------20--------21--------22--------23--------24--------25--------26--------27--------28--------29--------30--------31--------32--------33--------34--------35--------36--------37--------38--------39--------40--------41--------42--------43--------44--------45--------46--------47--------48--------49--------50--------51--------52--------53--------54--------55--------56--------57--------58--------59--------60--------61--------62--------63--------64--------65--------66--------67--------68--------69--------70--------71--------72--------73
            LAT            LON  P-LENGHT     SWH_o     SWH_c     P-DIR      LINE     POINT     ROW-Y     COL-X  M-INTENC        dB      WIND INC-ANGLE  ENERGY-M  ENERGY-N  ENERGY-R ENERGY-NN  FG-DEPTH      FLAG         HEADING-DEG    E30-75   E75-390  E390-600 meanincut   meanout   cut/out  STD-NORM  SPEC-MAX   GL-MEAN    GL-VAR      CORR   ENTROPY   HOMOGEN    ENERGY  CONTRAST  DISSIMIL     STD-O    E 1-30 E600-2000   E2000 >      GODA  LONG-HIG     Tmean  CONVOLUT  MEAN-DIR  relation     Sy/Sx  SKEWNESS  KURTOSIS  cutoff-A >50/10000     INT*V   INT-LOG  S-1_g1f1  S-2_g1f2  S-3_g1f3  S-4_g2f1  S-5_g2f2  S-6_g2f3  S-7_g3f1  S-8_g3f2  S-9_g3f3 S-10_g1f4 S-11_g2f4 S-12_g3f4 S-13_g1f5 S-14_g2f5 S-15_g3f5 S-16_g4f1 S-17_g4f2 S-18_g4f3 S-19_g4f4 S-20_g4f5
--------------1--------------2---------3---------4---------5---------6---------7---------8---------9--------10--------11--------12--------13--------14--------15--------16--------17--------18--------19--------20------------------21--------22--------23--------24--------25--------26--------27--------28--------29--------30--------31--------32--------33--------34--------35--------36--------37--------38--------39--------40--------41--------42--------43--------44--------45--------46--------47--------48--------49--------50--------51--------52--------53--------54--------55--------56--------57--------58--------59--------60--------61--------62--------63--------64--------65--------66--------67--------68--------69--------70--------71--------72--------73--------74
      19.151304     173.257156     154.1      1.94      2.90      75.2         1         1      1000      1000    602.38   -12.201      14.1      37.0   226.938     0.584      65.4   0.08549      16.4         H               347.8  0.050322  0.026823  0.000808  2.609881  0.696492  3.747179  1.083848     18.16   11.4091  150.2848   0.13073   6.90033   0.12180   0.00203 261.27466  11.38317     652.9  0.505298  0.000873  0.000097  0.000157  0.181774  7.054803  0.589455     79.91  1.000122  1.000010     2.503    13.762     105.0      95.7     359.1     717.1     11.53      1.68      0.27      3.06      2.11      6.62      3.41      1.14      2.88      2.38      2.55      1.49      0.85      0.74      2.96     -5.11      1.00      9.41      1.81     -0.76
      19.161610     173.313553     131.7      1.85      2.90      75.6         1         2      1000      2329    569.22   -12.447      14.0      37.3   226.233     0.581      61.1   0.08420      11.5         H               347.8  0.049641  0.026106  0.000631  2.548063  0.705254  3.612974  1.081516     20.92   10.7858  136.8278   0.12907   6.80164   0.12806   0.00227 238.33612  10.81993     615.6  0.504043  0.000956  0.000069  0.000161  0.182262  7.051094  0.586250     79.08  1.000128  1.000011     2.458    13.029     107.8      95.2     317.9     645.4     11.42      1.40      0.81      3.41      2.32      6.67      3.36      1.19      3.46      2.58      2.50      1.30      0.69      1.50      2.56     -3.51      1.62      8.49      2.02      1.51
      19.171810     173.369461     149.3      1.78      2.90      75.7         1         3      1000      3658    544.69   -12.638      13.9      37.7   225.922     0.580      86.4   0.08267      15.2         H               347.8  0.048921  0.025611  0.000679  2.493937  0.688343  3.623103  1.080242     16.85   10.3196  126.7485   0.12702   6.72370   0.13222   0.00246 221.29913  10.39198     588.4  0.503307  0.001180  0.000165  0.000151  0.182135  7.048417  0.584748     78.35  1.000119  1.000009     2.461    13.097     107.8      94.8     289.7     616.1     11.45      1.64      0.69      3.43      2.22      6.36      3.13      1.02      2.87      2.84      2.17      1.11      0.63      0.95      2.63     -4.23      1.15      8.42      1.28      0.40
      19.204412     173.246368     124.9      1.97      2.90      71.1         2         1      2451      1000    624.73   -12.043      14.4      37.0   225.124     0.579      60.3   0.08460      10.2         H               347.8  0.049869  0.026230  0.000682  2.527753  0.706862  3.576019  1.079900     14.85   11.8335  158.9827   0.12994   6.96478   0.11806   0.00189 276.64850  11.76061     674.7  0.502183  0.000772  0.000085  0.000153  0.183624  7.053135  0.584945     78.72  1.000111  1.000010     2.452    12.996     105.0      96.0     386.1     707.4     11.74      1.29      0.44      2.96      1.98      5.94      2.33      0.76      2.51      2.31      1.95      1.17      0.19      1.01      2.80     -4.51      1.59      8.19      1.15      0.30
      19.214714     173.302765     154.1      1.77      2.90      75.2         2         2      2451      2329    559.44   -12.522      13.8      37.3   227.044     0.581      80.7   0.08309      16.4         H               347.8  0.049668  0.025551  0.000722  2.495142  0.702310  3.552764  1.081544     20.89   10.5977  132.5305   0.12619   6.77123   0.12944   0.00233 231.61450  10.65152     605.0  0.504270  0.001096  0.000143  0.000156  0.180971  7.040989  0.586166     77.66  1.000119  1.000010     2.491    13.566     105.0      95.2     307.0     658.2     11.49      1.79      0.92      3.43      2.01      6.56      3.29      1.61      2.88      2.52      3.36      1.51      1.02      1.56      2.50     -4.48      0.44      8.36      3.11      0.99
      19.224913     173.358704     154.1      1.76      2.90      75.2         2         3      2451      3658    539.73   -12.678      13.8      37.7   227.114     0.581      77.8   0.08274      16.4         H               347.8  0.049277  0.025687  0.000746  2.486822  0.687454  3.617440  1.081601     17.23   10.2223  124.9664   0.12654   6.70612   0.13310   0.00251 218.30656  10.31379     583.8  0.504671  0.001007  0.000139  0.000153  0.183366  7.040418  0.586334     77.86  1.000122  1.000010     2.456    12.869     107.8      94.7     284.7     591.1     11.73      1.19      0.95      2.96      1.94      6.34      2.99      0.92      2.76      2.28      2.47      0.94      0.69      1.71      2.37     -5.02      1.51      8.00      2.01      1.26
      19.257519     173.235565     149.5      2.05      2.90      64.9         3         1      3902      1000    637.18   -11.957      14.6      37.0   226.421     0.583      71.5   0.08595      15.3         H               347.8  0.049991  0.026759  0.000734  2.571857  0.708620  3.629390  1.083435     19.02   12.0601  164.8210   0.13119   6.99509   0.11655   0.00183 286.39923  11.97635     690.3  0.505017  0.001016  0.000112  0.000154  0.184402  7.063907  0.588694     77.69  1.000097  1.000009     2.453    12.831     105.0      96.1     403.7     714.0     11.82      1.56      0.15      2.67      2.39      6.21      2.50      0.86      2.63      2.92      2.27      1.46      0.50      0.45      2.43     -5.12      1.73      8.01      0.57     -0.31
      19.267818     173.291992     152.6      1.75      2.90      73.2         3         2      3902      2329    561.29   -12.508      13.9      37.3   225.204     0.575      87.5   0.08156      16.0         H               347.8  0.048370  0.024773  0.000655  2.398887  0.696778  3.442829  1.076246     19.55   10.6390  132.9397   0.12514   6.77884   0.12873   0.00231 232.60809  10.68856     604.1  0.500534  0.001113  0.000174  0.000145  0.182699  7.037318  0.579968     77.42  1.000106  1.000010     2.422    12.572     105.0      95.2     307.0     621.2     11.52      1.46      0.62      3.42      2.16      6.35      3.07      1.13      2.93      2.74      2.23      1.45      0.78      0.88      2.52     -4.08      1.43      8.39      0.94     -0.11
      19.278013     173.347931     155.8      1.63      2.90      70.7         3         3      3902      3658    522.46   -12.819      13.6      37.7   226.309     0.578      70.1   0.08168      16.8         H               347.8  0.049470  0.024694  0.000596  2.386043  0.704634  3.386217  1.079081     14.86    9.8922  117.8647   0.12480   6.64769   0.13652   0.00267 206.31004  10.00921     563.7  0.502809  0.001026  0.000103  0.000146  0.182928  7.023648  0.583273     77.74  1.000112  1.000009     2.444    12.843     105.0      94.4     264.7     584.2     11.75      1.78      0.15      2.93      1.76      5.84      2.24      0.92      2.87      1.58      2.69      1.44      0.05      1.30      2.30     -4.27      0.66      7.42      2.24      1.25
