corner points
168.6779938    40.29444122
168.6364594    40.4681778
168.9052582    40.3255806
168.8643341    40.49931335
========== RESULTS WAVE VERSION 16.10.2018 ====================
IMAGE SIZE  X: 4316     Y:4773    col:row     POLARIZATION:VV
COVERAGE    X: 19.53601005km       Y: 19.5874963km 
RESOLUTION dX: 4.526415674m       dY:4.103812341m  
resolution of original product 4.526415674m x 4.103812341m;   raster step x:5997.500768m  
===============================================================
FLAGS: H=HIGH PROBABILITY SEA STATE, I=LAND(ISLAND), O=OUTLIER NO SEA STATE, N=NO WIND AVAILABLE, SEA STATE NOT VISIBLE, M=MEAN PROBABILITY SEA STATE, L= LOW PROBABILITY SEA STATE
Filtering wave length
 integration  Lmin=1m
 integration  Lmax=2200m
  peak        Lmin=100m
               FFT=1024pixels, 4635.04965m 
   mean-Hs (SWH_c)=5.243648071m
         mean-wind=20.21790314m/s
--------------0--------------1---------2---------3---------4---------5---------6---------7---------8---------9--------10--------11--------12--------13--------14--------15--------16--------17--------18--------19------------------20--------21--------22--------23--------24--------25--------26--------27--------28--------29--------30--------31--------32--------33--------34--------35--------36--------37--------38--------39--------40--------41--------42--------43--------44--------45--------46--------47--------48--------49--------50--------51--------52--------53--------54--------55--------56--------57--------58--------59--------60--------61--------62--------63--------64--------65--------66--------67--------68--------69--------70--------71--------72--------73
            LAT            LON  P-LENGHT     SWH_o     SWH_c     P-DIR      LINE     POINT     ROW-Y     COL-X  M-INTENC        dB      WIND INC-ANGLE  ENERGY-M  ENERGY-N  ENERGY-R ENERGY-NN  FG-DEPTH      FLAG         HEADING-DEG    E30-75   E75-390  E390-600 meanincut   meanout   cut/out  STD-NORM  SPEC-MAX   GL-MEAN    GL-VAR      CORR   ENTROPY   HOMOGEN    ENERGY  CONTRAST  DISSIMIL     STD-O    E 1-30 E600-2000   E2000 >      GODA  LONG-HIG     Tmean  CONVOLUT  MEAN-DIR  relation     Sy/Sx  SKEWNESS  KURTOSIS  cutoff-A >50/10000     INT*V   INT-LOG  S-1_g1f1  S-2_g1f2  S-3_g1f3  S-4_g2f1  S-5_g2f2  S-6_g2f3  S-7_g3f1  S-8_g3f2  S-9_g3f3 S-10_g1f4 S-11_g2f4 S-12_g3f4 S-13_g1f5 S-14_g2f5 S-15_g3f5 S-16_g4f1 S-17_g4f2 S-18_g4f3 S-19_g4f4 S-20_g4f5
--------------1--------------2---------3---------4---------5---------6---------7---------8---------9--------10--------11--------12--------13--------14--------15--------16--------17--------18--------19--------20------------------21--------22--------23--------24--------25--------26--------27--------28--------29--------30--------31--------32--------33--------34--------35--------36--------37--------38--------39--------40--------41--------42--------43--------44--------45--------46--------47--------48--------49--------50--------51--------52--------53--------54--------55--------56--------57--------58--------59--------60--------61--------62--------63--------64--------65--------66--------67--------68--------69--------70--------71--------72--------73--------74
      40.338184     168.722549     290.0      5.07      6.68     110.2         1         1      1000      1000   1134.86    -9.451      19.4      36.8   264.348     0.654     185.7   0.11889     100.0         H               346.5  0.058827  0.057414  0.002267  3.675385  0.764871  4.805233  1.147377    163.38   20.0326  350.9201   0.17516   7.62008   0.08535   0.00088 578.90387  17.98876    1302.2  0.533376  0.002354  0.000251  0.000281  0.244726  7.540724  0.665345    105.60  1.000302  1.000035     2.773    15.907     200.3      99.5    1425.8    1316.5     16.54     -6.54     13.19     -1.49      1.63      1.48     -3.42      2.48     -5.43     -8.37      0.96      3.45      4.75      2.85     -0.91     -9.83      3.51      0.18      2.41      2.18
      40.347790     168.792587     267.6      4.97      6.68     101.0         1         2      1000      2325   1173.60    -9.305      20.0      37.1   265.010     0.655     170.4   0.11910     100.0         H               346.5  0.059936  0.054621  0.002665  3.790193  0.775090  4.890001  1.148525    127.86   20.5779  361.6393   0.17092   7.63682   0.08466   0.00088 599.65039  18.37906    1347.8  0.535984  0.002322  0.000210  0.000273  0.235073  7.438683  0.665808    102.10  1.000292  1.000033     2.821    16.964     190.7      99.6    1526.2    1396.0     16.14     -5.16     12.57     -1.07      0.83      2.50     -2.28      2.34     -4.91     -6.95      0.49      2.92      5.37      2.60     -0.26    -10.63      1.98      1.85      2.01      0.96
      40.357273     168.862045     283.7      5.30      6.68     101.7         1         3      1000      3650   1143.03    -9.419      20.0      37.5   264.644     0.658     186.8   0.12095     100.0         H               346.5  0.058925  0.059123  0.002536  3.827812  0.779762  4.908953  1.150706    188.78   20.1333  353.7659   0.17737   7.61947   0.08586   0.00089 582.04205  18.03336    1315.3  0.535032  0.002355  0.000219  0.000294  0.244565  7.549503  0.669524    100.94  1.000372  1.000044     2.820    17.096     200.3      99.5    1450.0    1368.5     16.87     -5.06     14.08     -2.14      1.38      1.13     -3.54      1.73     -6.59     -6.49      0.84      2.65      7.19      1.84     -2.36    -10.84      2.96      0.69      1.70      0.71
      40.391411     168.709869     279.3      5.32      6.68     105.4         2         1      2462      1000   1193.96    -9.230      19.9      36.8   269.446     0.672     257.1   0.12545     100.0         H               346.5  0.060915  0.060802  0.002791  3.933337  0.783000  5.023420  1.163768    151.77   20.7763  367.9515   0.17870   7.63123   0.08552   0.00091 604.39319  18.44191    1389.5  0.544612  0.003273  0.000445  0.000286  0.242855  7.550013  0.685291    103.32  1.000330  1.000040     2.915    18.327     210.9      99.7    1605.6    1419.7     16.66     -4.74     13.58     -1.77      0.83      1.43     -3.41      1.81     -6.53     -6.46      0.60      2.37      5.78      1.81     -1.22    -10.59      2.11      1.66      2.21      0.57
      40.401016     168.779968     296.4      5.41      6.68     106.4         2         2      2462      2325   1229.87    -9.101      20.5      37.1   265.946     0.661     209.4   0.12253     100.0         H               346.5  0.060103  0.060022  0.002893  3.957074  0.770668  5.134603  1.153853    174.34   21.2986  377.6882   0.18022   7.64490   0.08485   0.00093 619.24023  18.73524    1419.0  0.536007  0.002542  0.000326  0.000285  0.248024  7.559921  0.673839    103.53  1.000337  1.000040     2.780    16.043     210.9      99.8    1690.5    1417.9     16.96     -4.97     13.86     -2.31      1.52      0.78     -3.60      1.96     -6.28     -7.03      1.85      2.43      5.63      2.05     -1.61    -11.67      2.55     -0.51      3.78      0.98
      40.410500     168.849472     287.0      5.14      6.68      97.9         2         3      2462      3650   1195.00    -9.226      20.4      37.5   263.066     0.650     128.6   0.11824     100.0         H               346.5  0.059260  0.055652  0.002109  3.729419  0.765573  4.871406  1.143499    101.25   20.8990  367.2242   0.17123   7.64891   0.08382   0.00088 608.69373  18.56459    1366.5  0.531619  0.001442  0.000105  0.000263  0.235825  7.462763  0.660074    100.77  1.000369  1.000044     2.775    16.190     190.7      99.8    1577.2    1392.2     16.31     -4.40     13.24     -0.93      0.53      1.92     -3.20      1.56     -5.41     -5.65     -0.08      1.71      5.77      2.65     -1.26     -9.18      1.80      0.73      1.68      2.01
      40.444637     168.697174     253.3      5.34      6.68     100.4         3         1      3924      1000   1312.31    -8.820      20.7      36.8   265.021     0.659     195.9   0.12225      78.1         H               346.5  0.060830  0.058326  0.002461  3.913234  0.787256  4.970723  1.151736    155.19   22.3996  397.1498   0.17454   7.66604   0.08382   0.00099 655.66455  19.41691    1511.4  0.535228  0.002274  0.000302  0.000277  0.238504  7.489869  0.670685    100.97  1.000337  1.000040     2.797    16.239     200.3     100.1    1921.6    1475.2     16.31     -3.76     13.24     -0.86      0.55      2.35     -3.30      1.19     -6.02     -5.35     -0.20      2.06      6.70      2.09     -1.72     -9.42      1.99      1.93      1.05      0.83
      40.454243     168.767334     267.6      5.23      6.68     101.0         3         2      3924      2325   1242.48    -9.057      20.5      37.1   263.541     0.652     163.1   0.11831     100.0         H               346.5  0.059081  0.056459  0.002409  4.024283  0.766616  5.249409  1.145404    117.08   21.5311  379.6902   0.17142   7.66030   0.08304   0.00091 629.21436  18.94611    1423.1  0.531958  0.002083  0.000214  0.000260  0.235643  7.477706  0.662615    100.52  1.000328  1.000038     2.773    16.098     200.3      99.9    1709.9    1420.3     16.03     -3.72     12.39     -0.96      0.44      2.25     -2.52      1.25     -4.51     -4.73     -0.62      2.15      4.60      3.01     -0.02     -9.62      1.86      1.23     -0.40      2.01
      40.463730     168.836899     263.9      5.42      6.68     104.5         3         3      3924      3650   1212.67    -9.163      20.5      37.5   264.641     0.657     155.6   0.12083     182.8         H               346.5  0.059076  0.059276  0.002624  3.760596  0.768391  4.894120  1.149724    165.04   21.1059  372.1542   0.17450   7.64847   0.08427   0.00090 614.42737  18.65936    1394.2  0.534412  0.001799  0.000141  0.000285  0.246855  7.551607  0.668642    102.31  1.000338  1.000041     2.816    16.773     210.9      99.8    1633.6    1412.1     16.93     -3.78     14.13     -1.95      0.43      1.21     -3.88      1.91     -6.77     -5.95      0.72      2.31      6.54      2.13     -2.08    -10.85      0.53      0.35      2.32      1.11
