corner points
167.8221436    43.81282806
167.7782593    43.98629761
168.0626221    43.84394455
168.019455    44.01742172
========== RESULTS WAVE VERSION 16.10.2018 ====================
IMAGE SIZE  X: 4316     Y:4772    col:row     POLARIZATION:VV
COVERAGE    X: 19.55535956km       Y: 19.55809217km 
RESOLUTION dX: 4.530898878m       dY:4.098510514m  
resolution of original product 4.530898878m x 4.098510514m;   raster step x:5998.910115m  
===============================================================
FLAGS: H=HIGH PROBABILITY SEA STATE, I=LAND(ISLAND), O=OUTLIER NO SEA STATE, N=NO WIND AVAILABLE, SEA STATE NOT VISIBLE, M=MEAN PROBABILITY SEA STATE, L= LOW PROBABILITY SEA STATE
Filtering wave length
 integration  Lmin=1m
 integration  Lmax=2200m
  peak        Lmin=100m
               FFT=1024pixels, 4639.640451m 
   mean-Hs (SWH_c)=6.73864624m
         mean-wind=23.4858017m/s
--------------0--------------1---------2---------3---------4---------5---------6---------7---------8---------9--------10--------11--------12--------13--------14--------15--------16--------17--------18--------19------------------20--------21--------22--------23--------24--------25--------26--------27--------28--------29--------30--------31--------32--------33--------34--------35--------36--------37--------38--------39--------40--------41--------42--------43--------44--------45--------46--------47--------48--------49--------50--------51--------52--------53--------54--------55--------56--------57--------58--------59--------60--------61--------62--------63--------64--------65--------66--------67--------68--------69--------70--------71--------72--------73
            LAT            LON  P-LENGHT     SWH_o     SWH_c     P-DIR      LINE     POINT     ROW-Y     COL-X  M-INTENC        dB      WIND INC-ANGLE  ENERGY-M  ENERGY-N  ENERGY-R ENERGY-NN  FG-DEPTH      FLAG         HEADING-DEG    E30-75   E75-390  E390-600 meanincut   meanout   cut/out  STD-NORM  SPEC-MAX   GL-MEAN    GL-VAR      CORR   ENTROPY   HOMOGEN    ENERGY  CONTRAST  DISSIMIL     STD-O    E 1-30 E600-2000   E2000 >      GODA  LONG-HIG     Tmean  CONVOLUT  MEAN-DIR  relation     Sy/Sx  SKEWNESS  KURTOSIS  cutoff-A >50/10000     INT*V   INT-LOG  S-1_g1f1  S-2_g1f2  S-3_g1f3  S-4_g2f1  S-5_g2f2  S-6_g2f3  S-7_g3f1  S-8_g3f2  S-9_g3f3 S-10_g1f4 S-11_g2f4 S-12_g3f4 S-13_g1f5 S-14_g2f5 S-15_g3f5 S-16_g4f1 S-17_g4f2 S-18_g4f3 S-19_g4f4 S-20_g4f5
--------------1--------------2---------3---------4---------5---------6---------7---------8---------9--------10--------11--------12--------13--------14--------15--------16--------17--------18--------19--------20------------------21--------22--------23--------24--------25--------26--------27--------28--------29--------30--------31--------32--------33--------34--------35--------36--------37--------38--------39--------40--------41--------42--------43--------44--------45--------46--------47--------48--------49--------50--------51--------52--------53--------54--------55--------56--------57--------58--------59--------60--------61--------62--------63--------64--------65--------66--------67--------68--------69--------70--------71--------72--------73--------74
      43.856522     167.869308     240.6      6.55      7.78      99.9         1         1      1000      1000   1703.88    -7.686      23.2      36.7   277.881     0.690     171.3   0.13512      58.8         H               346.0  0.063247  0.071034  0.002773  4.359976  0.803058  5.429215  1.178034    162.59   26.6847  470.0844   0.18055   7.58977   0.09248   0.00216 770.41748  21.38918    2007.3  0.550825  0.002101  0.000142  0.000331  0.242322  7.603542  0.703768    101.80  1.000381  1.000052     2.921    17.631     236.0     101.1    3311.2    1714.1     16.48     -5.27     14.19     -0.91      1.50      2.32     -3.03      2.24     -5.29     -6.91      1.14      3.01      5.71      4.41     -1.52     -9.79      2.65      0.07      2.73      4.24
      43.866119     167.943359     250.3      6.33      7.78     103.8         1         2      1000      2324   1596.66    -7.968      22.9      37.1   279.986     0.695     229.8   0.13703      72.3         H               346.0  0.064937  0.069588  0.003236  4.426322  0.806220  5.490218  1.183218    171.77   25.5217  454.6998   0.18525   7.61687   0.09003   0.00174 740.93158  20.87338    1889.1  0.554805  0.002737  0.000414  0.000320  0.238610  7.539242  0.709387    100.45  1.000357  1.000050     2.980    18.947     236.0     100.8    2921.6    1670.6     16.49     -4.70     13.76     -0.91      1.15      2.73     -3.29      1.81     -6.15     -5.99      0.62      2.42      5.62      4.45     -2.23    -10.43      2.65      1.19      2.21      4.99
      43.875584     168.016800     267.9      6.62      7.78     101.0         1         3      1000      3648   1640.64    -7.850      23.4      37.5   280.117     0.697     187.8   0.13775     100.0         H               346.0  0.065502  0.072645  0.003264  4.318913  0.798348  5.409812  1.184544    166.47   25.9723  461.5057   0.18598   7.60430   0.09127   0.00192 751.35449  21.05057    1943.4  0.554112  0.002084  0.000211  0.000326  0.245341  7.598740  0.712313    101.20  1.000405  1.000056     2.979    19.804     250.9     100.9    3089.1    1684.5     16.74     -4.73     14.85     -1.24      1.33      1.86     -3.29      1.72     -5.85     -6.00      0.75      2.37      7.06      3.58     -2.41    -10.45      2.73     -0.68      2.02      3.28
      43.909718     167.855911     290.2      6.89      7.78     110.2         2         1      2463      1000   1823.09    -7.392      23.9      36.7   284.312     0.716     275.6   0.14508     100.0         H               346.0  0.066914  0.077038  0.003584  4.338934  0.837320  5.181931  1.200299    214.67   27.6967  485.4819   0.18697   7.53578   0.09797   0.00283 789.42004  21.66069    2188.1  0.564389  0.003580  0.000456  0.000333  0.248524  7.633857  0.732790    102.48  1.000369  1.000054     3.086    19.917     267.9     101.3    3837.3    1775.9     16.96     -4.18     14.75     -1.75      1.28      1.91     -3.67      1.62     -6.89     -5.58      1.02      2.33      6.99      3.30     -2.41    -11.06      2.16      1.11      1.88      2.69
      43.919312     167.930023     274.1      7.01      7.78     109.1         2         2      2463      2324   1705.62    -7.681      23.5      37.1   283.955     0.716     198.8   0.14564     100.0         H               346.0  0.067233  0.079738  0.004013  4.405441  0.830329  5.305655  1.200050    227.52   26.5336  470.3491   0.19114   7.57899   0.09417   0.00222 760.89551  21.19259    2046.9  0.562702  0.002377  0.000181  0.000354  0.249281  7.654766  0.733666    103.40  1.000404  1.000059     3.076    19.995     250.9     101.0    3371.7    1731.3     16.78     -4.76     14.58     -1.63      0.84      2.09     -3.26      2.25     -6.38     -6.77      0.83      2.88      6.80      3.42     -2.35    -10.93      1.46      1.39      2.02      3.82
      43.928780     168.003540     287.2      6.40      7.78      97.9         2         3      2463      3648   1625.45    -7.890      23.4      37.5   275.433     0.685     152.0   0.13412     100.0         H               346.0  0.064080  0.068711  0.002886  4.160579  0.795260  5.231719  1.174150    174.77   25.8947  458.4205   0.18037   7.61526   0.08992   0.00184 751.47791  21.07389    1908.6  0.548355  0.001736  0.000104  0.000321  0.241723  7.542958  0.699244     97.97  1.000442  1.000060     2.910    17.732     236.0     101.0    3005.6    1676.7     16.65     -3.46     14.89     -0.98      0.95      2.09     -3.26      0.85     -6.04     -4.47      0.53      1.20      7.94      3.23     -2.67     -9.76      2.14      0.33      1.49      2.61
      43.962910     167.842484     274.1      7.01      7.78     109.1         3         1      3926      1000   1839.95    -7.352      24.0      36.7   282.147     0.710     175.6   0.14368     100.0         H               346.0  0.065801  0.077900  0.003129  4.309526  0.813962  5.294503  1.195209    207.33   27.9029  486.4084   0.18361   7.53612   0.09795   0.00291 794.19519  21.75759    2198.9  0.561541  0.002018  0.000142  0.000358  0.247366  7.664908  0.726929    101.72  1.000404  1.000059     3.069    20.053     250.9     101.3    3890.4    1777.4     16.66     -4.15     14.96     -0.44      0.60      2.89     -3.94      2.01     -6.76     -6.21      0.79      2.33      7.19      3.88     -2.21     -8.89      0.69      1.76      2.46      2.77
      43.972507     167.916687     290.2      6.91      7.78     110.2         3         2      3926      2324   1717.47    -7.651      23.6      37.1   281.709     0.708     235.4   0.14204     100.0         H               346.0  0.064838  0.076601  0.003734  4.274880  0.830134  5.149627  1.193364    213.09   26.7028  472.4234   0.18949   7.57735   0.09438   0.00227 765.80457  21.28255    2049.6  0.559613  0.002843  0.000344  0.000331  0.249627  7.670181  0.724356    102.64  1.000371  1.000053     3.027    19.349     250.9     101.0    3401.1    1728.2     16.91     -4.47     14.91     -1.77      1.02      1.57     -3.34      2.05     -6.41     -6.07      0.62      2.80      7.08      3.14     -2.63    -11.43      1.37     -0.24      1.02      2.65
      43.981976     167.990265     283.9      6.92      7.78     101.7         3         3      3926      3648   1622.55    -7.898      23.3      37.5   278.626     0.698     189.5   0.13839     100.0         H               346.0  0.062769  0.075962  0.003542  4.160440  0.810957  5.130285  1.185168    212.77   25.7704  458.5571   0.18709   7.60755   0.09107   0.00185 745.53052  20.94345    1923.0  0.553785  0.002337  0.000168  0.000349  0.251479  7.705303  0.714164    100.54  1.000418  1.000060     2.940    17.868     250.9     100.9    3027.4    1682.6     16.64     -3.85     14.91     -0.83      0.59      2.63     -3.26      1.30     -6.27     -5.92      0.48      2.17      7.41      3.98     -2.84    -10.21      1.95      0.71      2.18      3.84
