corner points
176.1025238    4.94290638
176.0664673    5.118194103
176.2752686    4.978833675
176.2392578    5.154084206
========== RESULTS WAVE VERSION 16.10.2018 ====================
IMAGE SIZE  X: 4316     Y:4786    col:row     POLARIZATION:VV
COVERAGE    X: 19.5047426km       Y: 19.84903706km 
RESOLUTION dX: 4.519171131m       dY:4.147312382m  
resolution of original product 4.519171131m x 4.147312382m;   raster step x:5996.940091m  
===============================================================
FLAGS: H=HIGH PROBABILITY SEA STATE, I=LAND(ISLAND), O=OUTLIER NO SEA STATE, N=NO WIND AVAILABLE, SEA STATE NOT VISIBLE, M=MEAN PROBABILITY SEA STATE, L= LOW PROBABILITY SEA STATE
Filtering wave length
 integration  Lmin=1m
 integration  Lmax=2200m
  peak        Lmin=100m
               FFT=1024pixels, 4627.631238m 
   mean-Hs (SWH_c)=2.270317841m
         mean-wind=13.7670784m/s
--------------0--------------1---------2---------3---------4---------5---------6---------7---------8---------9--------10--------11--------12--------13--------14--------15--------16--------17--------18--------19------------------20--------21--------22--------23--------24--------25--------26--------27--------28--------29--------30--------31--------32--------33--------34--------35--------36--------37--------38--------39--------40--------41--------42--------43--------44--------45--------46--------47--------48--------49--------50--------51--------52--------53--------54--------55--------56--------57--------58--------59--------60--------61--------62--------63--------64--------65--------66--------67--------68--------69--------70--------71--------72--------73
            LAT            LON  P-LENGHT     SWH_o     SWH_c     P-DIR      LINE     POINT     ROW-Y     COL-X  M-INTENC        dB      WIND INC-ANGLE  ENERGY-M  ENERGY-N  ENERGY-R ENERGY-NN  FG-DEPTH      FLAG         HEADING-DEG    E30-75   E75-390  E390-600 meanincut   meanout   cut/out  STD-NORM  SPEC-MAX   GL-MEAN    GL-VAR      CORR   ENTROPY   HOMOGEN    ENERGY  CONTRAST  DISSIMIL     STD-O    E 1-30 E600-2000   E2000 >      GODA  LONG-HIG     Tmean  CONVOLUT  MEAN-DIR  relation     Sy/Sx  SKEWNESS  KURTOSIS  cutoff-A >50/10000     INT*V   INT-LOG  S-1_g1f1  S-2_g1f2  S-3_g1f3  S-4_g2f1  S-5_g2f2  S-6_g2f3  S-7_g3f1  S-8_g3f2  S-9_g3f3 S-10_g1f4 S-11_g2f4 S-12_g3f4 S-13_g1f5 S-14_g2f5 S-15_g3f5 S-16_g4f1 S-17_g4f2 S-18_g4f3 S-19_g4f4 S-20_g4f5
--------------1--------------2---------3---------4---------5---------6---------7---------8---------9--------10--------11--------12--------13--------14--------15--------16--------17--------18--------19--------20------------------21--------22--------23--------24--------25--------26--------27--------28--------29--------30--------31--------32--------33--------34--------35--------36--------37--------38--------39--------40--------41--------42--------43--------44--------45--------46--------47--------48--------49--------50--------51--------52--------53--------54--------55--------56--------57--------58--------59--------60--------61--------62--------63--------64--------65--------66--------67--------68--------69--------70--------71--------72--------73--------74
       4.987957     176.135452     149.5      2.46      2.97      75.7         1         1      1000      1000    600.08   -12.218      14.1      36.9   225.270     0.600      85.9   0.09185      15.3         H               348.0  0.051928  0.034507  0.000818  2.996033  0.733706  4.083426  1.099059     57.33   11.3494  151.5963   0.14158   6.88513   0.12382   0.00210 260.26624  11.31799     659.5  0.511895  0.001439  0.000105  0.000212  0.198645  7.236043  0.610219     75.79  1.000134  1.000013     2.587    14.571     121.0      95.5     362.3     731.9     11.11      1.90      4.75      6.73      3.03      9.49      4.99      1.03      4.48      3.69      3.52      2.65      2.34      3.36      3.49     -0.79      3.40      9.90      1.04      2.48
       4.999039     176.188751     159.5      2.33      2.97      74.8         1         2      1000      2327    568.72   -12.451      14.0      37.3   224.164     0.594      90.3   0.08885      17.8         H               348.0  0.050781  0.032958  0.000776  3.024914  0.725080  4.171836  1.093986     43.04   10.7671  138.3701   0.13766   6.79418   0.12890   0.00231 238.64310  10.78941     622.1  0.508644  0.001362  0.000148  0.000197  0.193018  7.196024  0.603505     75.83  1.000140  1.000014     2.537    13.950     121.0      95.2     321.9     692.7     11.13      2.11      4.53      6.32      2.82      9.36      4.98      0.83      4.28      3.47      3.60      1.98      2.48      3.16      3.28     -1.33      2.41      9.23      1.65      1.89
       5.010022     176.241577     143.7      2.27      2.97      74.3         1         3      1000      3654    540.28   -12.674      13.8      37.7   224.491     0.595      95.7   0.08854      14.0         H               348.0  0.050740  0.032848  0.000691  2.902012  0.720895  4.025568  1.094713     59.30   10.2209  126.5534   0.13760   6.70142   0.13472   0.00255 218.27960  10.28121     591.5  0.509640  0.001458  0.000147  0.000206  0.194704  7.212815  0.604688     75.54  1.000146  1.000012     2.582    14.562     121.0      94.6     289.2     663.1     11.06      1.87      5.20      7.08      3.01      9.24      4.90      1.00      4.55      3.68      3.93      2.17      2.19      3.78      3.55     -0.10      2.94      8.50      1.98      2.89
       5.040926     176.124557     139.5      2.21      2.97      74.8         2         1      2446      1000    554.65   -12.560      13.5      36.9   224.977     0.597     139.9   0.08876      13.1         H               348.0  0.051200  0.032760  0.000737  2.908468  0.714059  4.073149  1.096456     48.19   10.4927  132.6478   0.13726   6.74781   0.13172   0.00243 228.87906  10.55062     608.1  0.510588  0.001731  0.000332  0.000198  0.194487  7.193923  0.606575     76.51  1.000158  1.000014     2.580    14.489     121.0      94.8     306.4     675.9     11.02      2.08      4.59      6.50      2.72      9.09      4.92      0.91      4.71      3.23      3.68      2.42      2.22      3.52      3.72     -0.45      2.65      9.26      2.08      2.95
       5.052004     176.177856     141.7      2.29      2.97      78.5         2         2      2446      2327    548.49   -12.608      13.7      37.3   223.781     0.594      87.7   0.08808      13.5         H               348.0  0.050820  0.033301  0.000720  3.161052  0.720224  4.388986  1.093224     48.12   10.3806  129.9489   0.13799   6.72976   0.13309   0.00248 224.03381  10.43122     599.6  0.507704  0.001299  0.000139  0.000193  0.194194  7.207987  0.603224     78.07  1.000157  1.000014     2.540    13.956     121.0      94.8     298.0     658.1     11.10      2.12      4.94      6.62      2.53      9.04      4.63      0.52      4.37      3.61      3.00      1.52      2.46      3.54      3.54     -0.46      2.11      8.88      0.76      2.77
       5.062984     176.230698     159.5      2.24      2.97      74.8         2         3      2446      3654    546.07   -12.628      13.9      37.7   224.781     0.598     183.0   0.09050      17.8         H               348.0  0.051157  0.032422  0.000880  2.937025  0.718537  4.087505  1.098232     55.27   10.3291  129.3771   0.14124   6.71920   0.13360   0.00251 222.20673  10.37419     599.7  0.511237  0.002661  0.000403  0.000204  0.195280  7.191270  0.608290     76.78  1.000142  1.000013     2.598    14.683     124.8      94.7     297.1     656.5     11.32      1.76      4.59      6.10      2.54      9.22      4.75      0.45      4.38      3.16      3.22      1.56      2.61      3.64      3.41     -2.21      2.59      8.82      1.37      2.65
       5.093894     176.113663     139.5      2.05      2.97      74.8         3         1      3892      1000    536.05   -12.708      13.2      36.9   224.368     0.593     102.7   0.08684      13.1         H               348.0  0.050008  0.031051  0.000790  2.936924  0.702462  4.180901  1.092312     46.01   10.1423  125.0132   0.13358   6.68840   0.13532   0.00259 216.62653  10.23454     585.5  0.509350  0.001646  0.000167  0.000198  0.191103  7.178110  0.601306     76.09  1.000143  1.000013     2.556    14.770     124.8      94.6     283.7     676.3     10.99      1.77      3.82      5.89      2.31      8.91      5.22      0.92      4.54      2.64      3.16      2.44      2.12      2.84      3.54     -1.56      2.47     10.15      1.67      2.31
       5.104969     176.166962     159.5      2.36      2.97      74.8         3         2      3892      2327    553.10   -12.572      13.8      37.3   223.971     0.595      88.9   0.08938      17.8         H               348.0  0.050872  0.034061  0.000743  3.049982  0.727725  4.191119  1.094591     41.98   10.4677  132.2447   0.13931   6.74358   0.13189   0.00245 227.64398  10.51639     605.3  0.508453  0.001228  0.000146  0.000206  0.193426  7.211566  0.604752     76.95  1.000163  1.000015     2.533    13.752     124.8      94.8     304.1     654.2     10.82      2.18      4.77      6.69      3.03      8.98      5.21      1.10      5.16      3.46      3.86      2.36      2.51      3.67      3.93      0.07      2.83      8.94      2.20      2.97
       5.115945     176.219818     157.8      2.22      2.97      81.5         3         3      3892      3654    553.94   -12.565      14.0      37.7   222.871     0.590      71.1   0.08740      17.3         H               348.0  0.050566  0.031519  0.000804  3.095386  0.709354  4.363670  1.090052     33.23   10.4882  131.6619   0.13471   6.74948   0.13141   0.00242 227.85193  10.53868     603.8  0.506584  0.001059  0.000091  0.000188  0.192981  7.174304  0.599063     79.17  1.000161  1.000016     2.527    13.863     121.0      94.9     303.4     650.3     11.07      1.97      4.62      6.12      2.35      8.72      4.68      0.73      3.93      2.78      3.10      2.07      2.08      3.43      4.02     -1.33      2.27      9.42      1.65      2.30
