corner points
60.93293381    -31.9879818
60.88102722    -32.16643906
60.71721268    -31.94059944
60.66477203    -32.11895752
========== RESULTS WAVE VERSION 16.10.2018 ====================
IMAGE SIZE  X: 5599     Y:4919    col:row     POLARIZATION:VV
COVERAGE    X: 20.98060654km       Y: 20.39262125km 
RESOLUTION dX: 3.747206026m       dY:4.145684336m  
resolution of original product 3.747206026m x 4.145684336m;   raster step x:5999.276848m  
===============================================================
FLAGS: H=HIGH PROBABILITY SEA STATE, I=LAND(ISLAND), O=OUTLIER NO SEA STATE, N=NO WIND AVAILABLE, SEA STATE NOT VISIBLE, M=MEAN PROBABILITY SEA STATE, L= LOW PROBABILITY SEA STATE
Filtering wave length
 integration  Lmin=1m
 integration  Lmax=2200m
  peak        Lmin=100m
               FFT=1024pixels, 3837.138971m 
   mean-Hs (SWH_c)=1.089476471m
         mean-wind=7.781275272m/s
--------------0--------------1---------2---------3---------4---------5---------6---------7---------8---------9--------10--------11--------12--------13--------14--------15--------16--------17--------18--------19------------------20--------21--------22--------23--------24--------25--------26--------27--------28--------29--------30--------31--------32--------33--------34--------35--------36--------37--------38--------39--------40--------41--------42--------43--------44--------45--------46--------47--------48--------49--------50--------51--------52--------53--------54--------55--------56--------57--------58--------59--------60--------61--------62--------63--------64--------65--------66--------67--------68--------69--------70--------71--------72--------73
            LAT            LON  P-LENGHT     SWH_o     SWH_c     P-DIR      LINE     POINT     ROW-Y     COL-X  M-INTENC        dB      WIND INC-ANGLE  ENERGY-M  ENERGY-N  ENERGY-R ENERGY-NN  FG-DEPTH      FLAG         HEADING-DEG    E30-75   E75-390  E390-600 meanincut   meanout   cut/out  STD-NORM  SPEC-MAX   GL-MEAN    GL-VAR      CORR   ENTROPY   HOMOGEN    ENERGY  CONTRAST  DISSIMIL     STD-O    E 1-30 E600-2000   E2000 >      GODA  LONG-HIG     Tmean  CONVOLUT  MEAN-DIR  relation     Sy/Sx  SKEWNESS  KURTOSIS  cutoff-A >50/10000     INT*V   INT-LOG  S-1_g1f1  S-2_g1f2  S-3_g1f3  S-4_g2f1  S-5_g2f2  S-6_g2f3  S-7_g3f1  S-8_g3f2  S-9_g3f3 S-10_g1f4 S-11_g2f4 S-12_g3f4 S-13_g1f5 S-14_g2f5 S-15_g3f5 S-16_g4f1 S-17_g4f2 S-18_g4f3 S-19_g4f4 S-20_g4f5
--------------1--------------2---------3---------4---------5---------6---------7---------8---------9--------10--------11--------12--------13--------14--------15--------16--------17--------18--------19--------20------------------21--------22--------23--------24--------25--------26--------27--------28--------29--------30--------31--------32--------33--------34--------35--------36--------37--------38--------39--------40--------41--------42--------43--------44--------45--------46--------47--------48--------49--------50--------51--------52--------53--------54--------55--------56--------57--------58--------59--------60--------61--------62--------63--------64--------65--------66--------67--------68--------69--------70--------71--------72--------73--------74
     -32.015598      60.882767     284.7      1.13      2.57     132.1         1         1      1000      1000   3043.56    -5.166       7.9      23.0   311.379     0.703     124.4   0.15882     100.0         H               192.9  0.070143  0.050354  0.001273  3.651160  0.930237  3.924980  1.189158     97.28    5.5873   50.5585   0.25542   5.54999   0.23616   0.00977  75.28966   5.63854    3619.2  0.580252  0.001548  0.000055  0.000163  0.222574  7.285171  0.736749    135.44  1.000110  1.000007     3.112    21.068      76.6      86.0      96.8     455.3     14.39     -9.55     -1.84     -1.87      3.73      2.98     -2.55      3.77      1.85      0.63     -2.30     -0.41     -5.06      1.72      1.96     -8.45      7.33      3.54     -2.24      3.39
     -32.001904      60.820332     272.1      1.11      2.57     134.8         1         2      1000      2601   2625.91    -5.807       7.4      23.5   313.428     0.706     152.8   0.15932     100.0         H               192.9  0.070874  0.052207  0.001292  3.822784  0.941837  4.058859  1.190164     67.64    4.7681   38.3572   0.25528   5.26063   0.26407   0.01308  57.13058   4.87290    3125.1  0.579798  0.002044  0.000094  0.000171  0.218906  7.295818  0.739291    125.07  1.000086  1.000006     3.102    20.669      76.6      83.5      71.8     387.1     13.83     -9.21     -1.30     -0.37      2.39      2.98     -2.47      4.37      1.66     -0.25     -2.05      0.30     -5.32      0.55      2.22     -6.79      6.38      3.66     -1.63      2.77
     -31.988440      60.759079     300.8      1.27      2.57     135.1         1         3      1000      4202   2386.24    -6.223       7.4      23.9   315.642     0.713     159.8   0.16178     100.0         H               192.9  0.071113  0.055909  0.001489  3.899563  0.933535  4.177199  1.198324     88.29    4.2940   32.1590   0.25892   5.06881   0.28441   0.01603  47.66403   4.42478    2859.6  0.582577  0.002165  0.000067  0.000175  0.225125  7.353665  0.748075    128.45  1.000065  1.000006     3.120    20.440      76.6      81.4      59.3     329.6     14.36     -9.69     -1.57     -1.62      3.71      2.30     -2.98      4.42      1.80     -0.22     -1.49      0.29     -6.09      1.12      2.20     -8.26      7.91      2.68     -0.92      3.64
     -32.068100      60.867474     272.1      1.06      2.57     134.8         2         1      2447      1000   3112.86    -5.068       8.1      23.0   313.002     0.708     114.7   0.16023     100.0         H               192.9  0.071671  0.048572  0.001216  3.711498  0.953657  3.891857  1.193091     69.28    5.7357   53.2164   0.25484   5.59769   0.23114   0.00927  79.30861   5.78764    3713.8  0.585502  0.001480  0.000052  0.000161  0.212696  7.225023  0.741362    121.00  1.000092  1.000008     3.143    21.312      75.2      86.5     102.4     478.4     13.90     -8.71     -2.45     -1.28      3.56      2.75     -2.32      4.10      1.72      1.25     -1.56      0.20     -5.41      0.71      1.80     -7.80      6.96      4.01     -1.98      3.10
     -32.054398      60.804993     284.7      1.07      2.57     132.1         2         2      2447      2601   2609.19    -5.835       7.3      23.5   312.484     0.705     123.8   0.15997     100.0         H               192.9  0.070911  0.051615  0.001353  3.836649  0.947284  4.050159  1.190889     84.66    4.7278   37.7254   0.25625   5.24553   0.26536   0.01325  56.11599   4.83315    3107.2  0.580016  0.001599  0.000060  0.000169  0.217404  7.283906  0.738631    123.54  1.000102  1.000007     3.096    20.330      73.8      83.3      70.5     372.6     14.15     -8.92     -2.57     -1.90      4.19      2.54     -2.55      4.21      1.86      0.86     -1.11      0.13     -5.57      0.94      2.14     -8.38      7.70      3.71     -0.98      2.82
     -32.040924      60.743694     316.3      1.08      2.57     132.1         2         3      2447      4202   2388.74    -6.218       7.4      23.9   313.757     0.705     154.9   0.15871     100.0         H               192.9  0.070432  0.051751  0.001218  3.841301  0.927458  4.141753  1.190491     74.05    4.3026   31.9119   0.25450   5.07574   0.28242   0.01573  47.57988   4.43825    2843.8  0.580036  0.002138  0.000095  0.000172  0.216990  7.289969  0.738565    113.30  1.000100  1.000009     3.124    21.539      75.2      81.6      59.2     367.2     13.94     -8.81     -1.65     -1.10      3.71      2.42     -2.49      4.21      1.84      0.10     -1.17      0.64     -5.78      0.92      2.34     -7.29      7.13      3.10     -1.12      2.67
     -32.120602      60.852165     300.8      0.97      2.57     135.1         3         1      3894      1000   3292.96    -4.824       8.7      23.0   310.517     0.700     138.7   0.15708     100.0         H               192.9  0.070775  0.044463  0.001223  3.579668  0.937875  3.816786  1.185851     65.25    6.0712   58.2331   0.25123   5.70446   0.22160   0.00826  87.20680   6.09804    3904.8  0.581646  0.002126  0.000080  0.000162  0.204444  7.160067  0.732151     97.38  1.000121  1.000010     3.103    20.594      73.8      87.5     113.4     482.7     13.63     -7.81     -2.27     -1.23      3.93      2.38     -1.51      3.48      1.89      1.11     -0.95      0.02     -5.41      1.12      1.69     -8.21      7.44      3.57     -0.97      3.47
     -32.106892      60.789639     286.1      1.15      2.57     137.8         3         2      3894      2601   2762.25    -5.587       7.9      23.4   315.318     0.708     174.9   0.15934     100.0         H               192.9  0.071033  0.051561  0.001281  3.954953  0.944942  4.185392  1.193256     81.37    5.0337   42.2802   0.25547   5.35871   0.25451   0.01188  62.95764   5.12632    3295.9  0.582295  0.002638  0.000122  0.000174  0.211585  7.242719  0.742266    116.82  1.000113  1.000009     3.156    21.987      75.2      84.3      79.7     447.0     13.96     -9.20     -1.64     -1.47      4.09      2.11     -2.25      4.22      1.80      0.35     -1.08      0.42     -6.03      1.36      2.38     -8.03      7.94      2.96     -1.10      3.29
     -32.093410      60.728294     255.7      0.99      2.57     164.5         3         3      3894      4202   2507.53    -6.008       7.9      23.9   310.884     0.697     182.4   0.15493      84.3         H               192.9  0.069924  0.048287  0.001219  3.685783  0.924038  3.988778  1.185042     59.14    4.5283   34.5685   0.25149   5.17008   0.27247   0.01421  51.74886   4.64613    2971.7  0.574833  0.002559  0.000142  0.000166  0.211353  7.229928  0.728959    112.97  1.000086  1.000007     3.075    20.419      73.8      82.7      64.5     361.5     13.96     -8.23     -2.93     -1.65      3.55      2.89     -2.29      4.01      2.29      1.40     -1.87      0.05     -4.54      0.50      1.87     -8.14      6.78      3.82     -2.07      2.27
