corner points
71.20714569    12.18899441
71.16944122    12.00827599
71.02339172    12.22608852
70.98580933    12.04538727
========== RESULTS WAVE VERSION 16.10.2018 ====================
IMAGE SIZE  X: 5599     Y:4929    col:row     POLARIZATION:VV
COVERAGE    X: 20.34670647km       Y: 20.46067917km 
RESOLUTION dX: 3.633989368m       dY:4.151081187m  
resolution of original product 3.633989368m x 4.151081187m;   raster step x:5999.716447m  
===============================================================
FLAGS: H=HIGH PROBABILITY SEA STATE, I=LAND(ISLAND), O=OUTLIER NO SEA STATE, N=NO WIND AVAILABLE, SEA STATE NOT VISIBLE, M=MEAN PROBABILITY SEA STATE, L= LOW PROBABILITY SEA STATE
Filtering wave length
 integration  Lmin=1m
 integration  Lmax=2200m
  peak        Lmin=100m
               FFT=1024pixels, 3721.205113m 
   mean-Hs (SWH_c)=0.2m
         mean-wind=3.167901278m/s
--------------0--------------1---------2---------3---------4---------5---------6---------7---------8---------9--------10--------11--------12--------13--------14--------15--------16--------17--------18--------19------------------20--------21--------22--------23--------24--------25--------26--------27--------28--------29--------30--------31--------32--------33--------34--------35--------36--------37--------38--------39--------40--------41--------42--------43--------44--------45--------46--------47--------48--------49--------50--------51--------52--------53--------54--------55--------56--------57--------58--------59--------60--------61--------62--------63--------64--------65--------66--------67--------68--------69--------70--------71--------72--------73
            LAT            LON  P-LENGHT     SWH_o     SWH_c     P-DIR      LINE     POINT     ROW-Y     COL-X  M-INTENC        dB      WIND INC-ANGLE  ENERGY-M  ENERGY-N  ENERGY-R ENERGY-NN  FG-DEPTH      FLAG         HEADING-DEG    E30-75   E75-390  E390-600 meanincut   meanout   cut/out  STD-NORM  SPEC-MAX   GL-MEAN    GL-VAR      CORR   ENTROPY   HOMOGEN    ENERGY  CONTRAST  DISSIMIL     STD-O    E 1-30 E600-2000   E2000 >      GODA  LONG-HIG     Tmean  CONVOLUT  MEAN-DIR  relation     Sy/Sx  SKEWNESS  KURTOSIS  cutoff-A >50/10000     INT*V   INT-LOG  S-1_g1f1  S-2_g1f2  S-3_g1f3  S-4_g2f1  S-5_g2f2  S-6_g2f3  S-7_g3f1  S-8_g3f2  S-9_g3f3 S-10_g1f4 S-11_g2f4 S-12_g3f4 S-13_g1f5 S-14_g2f5 S-15_g3f5 S-16_g4f1 S-17_g4f2 S-18_g4f3 S-19_g4f4 S-20_g4f5
--------------1--------------2---------3---------4---------5---------6---------7---------8---------9--------10--------11--------12--------13--------14--------15--------16--------17--------18--------19--------20------------------21--------22--------23--------24--------25--------26--------27--------28--------29--------30--------31--------32--------33--------34--------35--------36--------37--------38--------39--------40--------41--------42--------43--------44--------45--------46--------47--------48--------49--------50--------51--------52--------53--------54--------55--------56--------57--------58--------59--------60--------61--------62--------63--------64--------65--------66--------67--------68--------69--------70--------71--------72--------73--------74
      12.159129      71.165840     396.9      0.20      1.01      73.7         1         1      1000      1000    826.85   -10.826       2.4      23.7   388.504     0.598     393.7   0.11051     100.0         H               192.1  0.053599  0.023127  0.002093  2.037436  0.843392  2.415764  1.098001     14.29    1.2087    3.1961   0.20270   3.01599   0.54163   0.10419   5.09649   1.43801     907.8  0.511162  0.008076  0.000400  0.000139  0.171432  6.894873  0.621871     53.21  1.000073  1.000003     2.533    13.621      56.9      54.9       6.7      81.5     12.36      3.49     -0.84     -2.17     -0.81     -3.16      3.48      1.28      3.87      1.00     -0.29      0.80      2.03     -0.56     -1.58    -18.88     -5.60    -10.21     -1.87     -1.56
      12.170189      71.111092     199.8      0.20      1.01     170.7         1         2      1000      2651    953.52   -10.207       3.0      24.2   375.723     0.566     166.1   0.09838      31.4         H               192.1  0.049357  0.017632  0.001301  1.532690  0.764541  2.004718  1.066978      9.67    1.4606    4.0733   0.18441   3.30488   0.49202   0.07630   6.64429   1.69421    1017.4  0.494126  0.003639  0.000149  0.000136  0.167069  6.829281  0.584940     54.91  1.000024  1.000001     2.385    12.438      42.3      60.5       8.8      92.7     11.97      2.15     -2.24     -1.19      0.14     -2.86      2.25      0.11      3.36      0.40      0.16     -0.62      1.94     -0.41     -1.56    -14.92     -1.18     -7.56      0.97     -1.12
      12.181040      71.057327     234.3      0.26      1.01       7.2         1         3      1000      4302   1185.69    -9.260       4.1      24.7   370.384     0.554      85.4   0.09433      52.6         H               192.1  0.046893  0.016021  0.001006  1.399425  0.738366  1.895301  1.055278     10.97    1.9063    6.1611   0.17780   3.72381   0.42928   0.05010  10.13121   2.13254    1251.1  0.488640  0.001957  0.000046  0.000133  0.165618  6.819690  0.571653     59.39  0.999995  1.000000     2.328    11.885      38.2      67.4      13.2     117.0     11.70      1.89     -3.58     -0.47      0.07     -1.90      1.72     -0.28      3.34     -0.87     -0.21      1.01      2.08     -0.52     -1.78    -12.93     -0.98     -4.41     -0.91     -0.75
      12.106139      71.154785     396.9      0.20      1.01      73.7         2         1      2445      1000    839.43   -10.760       2.3      23.7   387.991     0.595     246.4   0.10901     100.0         H               192.1  0.054171  0.024818  0.001989  2.283277  0.825704  2.765248  1.095100     14.48    1.2366    3.2897   0.19989   3.05034   0.53529   0.10028   5.26429   1.46704     919.2  0.508825  0.005898  0.000152  0.000146  0.172023  6.930696  0.618869     59.68  1.000070  1.000003     2.533    13.842      50.4      55.6       7.0      87.0     12.35      3.38      0.07     -1.54     -0.21     -2.50      3.48      1.68      3.97      2.09     -0.08      1.00      1.83     -0.57     -1.39    -17.10     -4.40     -8.98     -2.42     -1.81
      12.117201      71.100052     222.1      0.21      1.01       6.9         2         2      2445      2651   1013.77    -9.941       3.2      24.2   376.371     0.566     213.4   0.09864      43.4         H               192.1  0.048766  0.017542  0.001364  1.487264  0.770962  1.929102  1.068834     12.12    1.5817    4.6393   0.18524   3.42688   0.47406   0.06784   7.55988   1.81348    1083.5  0.494161  0.004830  0.000152  0.000133  0.169707  6.843259  0.585526     56.04  1.000076  1.000005     2.395    12.499      46.8      62.6      10.0     100.4     12.09      2.32     -2.47     -1.68     -0.56     -3.17      2.12      0.48      4.18      0.07     -0.72      0.67      2.80     -0.64     -1.60    -15.95     -3.30     -9.39     -1.88     -1.83
      12.128053      71.046303     247.8      0.25      1.01       7.7         2         3      2445      4302   1134.35    -9.453       3.9      24.7   370.214     0.552     178.9   0.09362      68.2         H               192.1  0.046079  0.016005  0.001329  1.335481  0.745897  1.790435  1.054658     12.38    1.7962    5.5745   0.17880   3.62870   0.44305   0.05498   9.15560   2.02287    1196.3  0.485313  0.003974  0.000136  0.000127  0.169374  6.824697  0.570256     62.08  0.999995  0.999999     2.303    11.482      43.7      66.0      12.0     104.6     12.04      1.23     -2.99     -1.54      0.72     -2.04      2.42     -1.20      3.65     -0.32     -0.27      0.69      3.32     -1.11     -1.13    -16.07      2.31     -5.74     -1.09     -3.39
      12.053149      71.143738     371.8      0.20      1.01      64.1         3         1      3890      1000    775.58   -11.104       2.3      23.7   390.544     0.599     367.3   0.10896     100.0         H               192.1  0.053468  0.023736  0.002638  2.161382  0.828094  2.610070  1.099365     18.18    1.1218    2.8507   0.19933   2.90894   0.55801   0.11513   4.56488   1.35131     852.6  0.510423  0.008491  0.000273  0.000144  0.176154  6.924706  0.622581     61.44  1.000205  1.000012     2.554    13.888      64.2      52.9       6.0      74.2     12.99      4.05      1.24     -3.15     -1.31     -4.01      4.32      1.65      5.37      1.71     -0.30      1.29      2.64     -1.93     -0.24    -22.34     -7.54    -15.59     -3.48     -6.06
      12.064213      71.089012     211.2      0.22      1.01       6.5         3         2      3890      2651   1060.73    -9.744       3.3      24.2   377.294     0.568     318.6   0.09895      36.9         H               192.1  0.048264  0.017765  0.001459  1.505663  0.770087  1.955185  1.070603     11.92    1.6738    5.1113   0.18718   3.51441   0.46150   0.06256   8.30910   1.90447    1135.6  0.494700  0.006067  0.000372  0.000129  0.168517  6.845479  0.587649     62.01  1.000084  1.000005     2.401    12.440      56.9      63.9      10.9     105.8     12.11      2.38     -2.09     -1.70     -0.65     -3.29      2.68      0.90      4.68     -0.02     -0.31      0.43      3.33     -1.58     -0.84    -17.02     -4.02    -10.57     -1.03     -5.45
      12.075067      71.035271     209.5      0.26      1.01       9.7         3         3      3890      4302   1182.73    -9.271       4.0      24.7   373.446     0.560     213.0   0.09615      36.1         H               192.1  0.047274  0.016868  0.001168  1.398180  0.756853  1.847359  1.061447      9.86    1.9250    6.3370   0.18288   3.73815   0.42802   0.04982  10.35616   2.15140    1255.3  0.490116  0.004419  0.000194  0.000127  0.170623  6.849738  0.578120     59.34  1.000070  1.000005     2.353    12.002      49.1      67.5      13.5     116.0     11.90      1.74     -2.82     -0.92      0.48     -2.74      1.70     -0.95      4.24     -0.90      0.15      0.32      3.18     -1.08     -0.56    -14.34      0.59     -8.32      1.03     -5.13
