corner points
65.09366608    -16.15234566
65.05215454    -16.33250237
64.90480804    -16.11041641
64.86305237    -16.29051399
========== RESULTS WAVE VERSION 16.10.2018 ====================
IMAGE SIZE  X: 5599     Y:4926    col:row     POLARIZATION:VV
COVERAGE    X: 20.66311249km       Y: 20.47068024km 
RESOLUTION dX: 3.690500533m       dY:4.155639514m  
resolution of original product 3.690500533m x 4.155639514m;   raster step x:5997.063366m  
===============================================================
FLAGS: H=HIGH PROBABILITY SEA STATE, I=LAND(ISLAND), O=OUTLIER NO SEA STATE, N=NO WIND AVAILABLE, SEA STATE NOT VISIBLE, M=MEAN PROBABILITY SEA STATE, L= LOW PROBABILITY SEA STATE
Filtering wave length
 integration  Lmin=1m
 integration  Lmax=2200m
  peak        Lmin=100m
               FFT=1024pixels, 3779.072546m 
   mean-Hs (SWH_c)=1.730099487m
         mean-wind=12.01358032m/s
--------------0--------------1---------2---------3---------4---------5---------6---------7---------8---------9--------10--------11--------12--------13--------14--------15--------16--------17--------18--------19------------------20--------21--------22--------23--------24--------25--------26--------27--------28--------29--------30--------31--------32--------33--------34--------35--------36--------37--------38--------39--------40--------41--------42--------43--------44--------45--------46--------47--------48--------49--------50--------51--------52--------53--------54--------55--------56--------57--------58--------59--------60--------61--------62--------63--------64--------65--------66--------67--------68--------69--------70--------71--------72--------73
            LAT            LON  P-LENGHT     SWH_o     SWH_c     P-DIR      LINE     POINT     ROW-Y     COL-X  M-INTENC        dB      WIND INC-ANGLE  ENERGY-M  ENERGY-N  ENERGY-R ENERGY-NN  FG-DEPTH      FLAG         HEADING-DEG    E30-75   E75-390  E390-600 meanincut   meanout   cut/out  STD-NORM  SPEC-MAX   GL-MEAN    GL-VAR      CORR   ENTROPY   HOMOGEN    ENERGY  CONTRAST  DISSIMIL     STD-O    E 1-30 E600-2000   E2000 >      GODA  LONG-HIG     Tmean  CONVOLUT  MEAN-DIR  relation     Sy/Sx  SKEWNESS  KURTOSIS  cutoff-A >50/10000     INT*V   INT-LOG  S-1_g1f1  S-2_g1f2  S-3_g1f3  S-4_g2f1  S-5_g2f2  S-6_g2f3  S-7_g3f1  S-8_g3f2  S-9_g3f3 S-10_g1f4 S-11_g2f4 S-12_g3f4 S-13_g1f5 S-14_g2f5 S-15_g3f5 S-16_g4f1 S-17_g4f2 S-18_g4f3 S-19_g4f4 S-20_g4f5
--------------1--------------2---------3---------4---------5---------6---------7---------8---------9--------10--------11--------12--------13--------14--------15--------16--------17--------18--------19--------20------------------21--------22--------23--------24--------25--------26--------27--------28--------29--------30--------31--------32--------33--------34--------35--------36--------37--------38--------39--------40--------41--------42--------43--------44--------45--------46--------47--------48--------49--------50--------51--------52--------53--------54--------55--------56--------57--------58--------59--------60--------61--------62--------63--------64--------65--------66--------67--------68--------69--------70--------71--------72--------73--------74
     -16.181248      65.050598     107.4      1.70      2.70      95.8         1         1      1000      1000   3920.23    -4.067      11.9      23.4   410.797     0.833      90.1   0.21743       7.4         H               192.2  0.109540  0.062836  0.001861  6.157741  1.056930  5.826063  1.294659     54.04    7.2501   88.1233   0.29496   5.99277   0.20290   0.00663 124.26267   7.16774    5074.9  0.658662  0.001157  0.000032  0.000275  0.162133  6.973008  0.882736     93.12  1.000253  1.000039     3.967    34.276     110.8      89.0     184.0     723.9     11.09     -0.01      0.54      2.38      1.22      5.02      4.18     -0.89      3.09      1.11     -0.63      0.49     -0.61      1.72      1.82     -6.21      3.92      8.54     -2.87      4.34
     -16.168951      64.995163     120.1      1.84      2.70      99.8         1         2      1000      2625   3937.49    -4.048      13.2      23.8   404.882     0.811     140.1   0.20509       9.4         H               192.2  0.102859  0.060343  0.002256  5.835784  0.981517  5.945680  1.278437     50.66    7.3034   87.9987   0.28961   6.01105   0.20094   0.00648 125.02870   7.21739    5033.2  0.643448  0.002388  0.000085  0.000280  0.164455  6.983804  0.858064     93.98  1.000230  1.000033     3.811    32.239     114.0      89.2     182.8     709.9     10.81     -0.43      0.91      2.66      0.94      6.21      5.74     -1.39      3.74      0.34     -1.37      0.15     -0.26      2.15      2.99     -7.05      3.72     11.15     -4.15      4.50
     -16.156862      64.940758     109.8      1.61      2.70      98.9         1         3      1000      4250   3237.63    -4.898      11.7      24.3   402.322     0.806      92.1   0.20377       7.7         H               192.2  0.099900  0.059714  0.001948  5.939644  1.014947  5.852170  1.272023     45.56    5.9627   62.1294   0.28771   5.64385   0.23107   0.00927  88.50941   5.99118    4118.4  0.643283  0.001515  0.000029  0.000267  0.165461  7.014483  0.852192     93.54  1.000240  1.000034     3.885    33.923     110.8      86.5     121.4     604.8     10.74      0.26      1.24      3.13      0.76      6.20      5.27     -0.92      3.45      0.52     -0.31      0.45     -0.07      1.99      2.71     -5.46      2.24     10.51     -2.45      4.13
     -16.234030      65.038422     110.5      1.68      2.70      96.0         2         1      2443      1000   3635.05    -4.395      10.9      23.4   411.346     0.833      92.0   0.21455       7.9         H               192.2  0.107553  0.065678  0.001490  6.633986  1.038406  6.388622  1.292519     44.81    6.7207   78.0487   0.29471   5.85297   0.21487   0.00771 110.09526   6.69407    4698.0  0.657226  0.001128  0.000039  0.000273  0.162281  7.003769  0.882450     92.56  1.000232  1.000036     3.927    34.592     110.8      87.9     157.7     697.5     10.63      0.06      0.71      3.32      0.42      5.36      4.21     -0.70      3.37      0.48     -0.37      0.01     -0.02      1.30      2.72     -3.48      1.57      9.32     -1.63      2.34
     -16.221727      64.982971     119.5      1.88      2.70     101.3         2         2      2443      2625   4060.29    -3.914      13.6      23.8   399.027     0.790     199.1   0.19585       9.3         H               192.2  0.098239  0.058361  0.001922  5.542290  0.987887  5.610248  1.259522     58.81    7.5137   90.5750   0.28201   6.07098   0.19463   0.00597 130.06337   7.41044    5113.9  0.628428  0.003091  0.000170  0.000282  0.164803  6.989769  0.834711     94.76  1.000216  1.000030     3.751    32.074     110.8      89.8     189.4     742.8     10.64      0.10      0.72      2.62      0.43      6.25      5.46     -0.91      3.65      0.27     -1.09      0.13      0.29      1.83      3.27     -5.73      1.32     12.00     -3.64      2.91
     -16.209635      64.928535     121.7      1.64      2.70      93.3         2         3      2443      4250   3284.81    -4.835      11.9      24.3   403.297     0.807      80.9   0.20298       9.7         H               192.2  0.102077  0.060508  0.002290  6.212515  1.034706  6.004137  1.270391     41.29    6.0521   63.7530   0.28872   5.67052   0.22932   0.00908  90.69131   6.06908    4172.9  0.641575  0.001025  0.000022  0.000260  0.166143  6.989098  0.853622     92.19  1.000235  1.000033     3.879    35.894     110.8      86.6     125.3     643.1     10.90     -0.75      0.75      2.61      1.51      6.75      5.50     -1.37      3.39      1.36     -1.70      1.24     -0.22      2.36      3.08     -6.55      5.21     12.64     -6.40      4.37
     -16.286812      65.026245     103.8      1.72      2.70      98.4         3         1      3886      1000   3901.54    -4.088      11.8      23.4   406.001     0.817      81.2   0.20818       6.9         H               192.2  0.104962  0.062375  0.001524  6.011375  1.007936  5.964042  1.281066     48.38    7.2239   86.7787   0.29035   5.99027   0.20259   0.00662 123.16620   7.15047    4997.7  0.647289  0.001081  0.000024  0.000281  0.161907  7.001106  0.864667     90.65  1.000228  1.000035     3.834    32.884     114.0      89.0     179.7     739.8     10.62     -0.53      0.73      3.04      0.78      5.50      4.45     -0.44      3.52      0.49     -0.57      0.60     -0.47      1.64      2.58     -3.94      2.29      9.73     -2.10      3.59
     -16.274504      64.970772     112.0      1.80      2.70      77.8         3         2      3886      2625   3528.21    -4.524      11.7      23.8   408.976     0.824      80.0   0.21082       8.1         H               192.2  0.105495  0.065761  0.001529  6.076446  1.032366  5.885941  1.287915     59.24    6.5169   73.4653   0.29252   5.80005   0.21920   0.00811 103.95100   6.50649    4544.0  0.650422  0.001079  0.000023  0.000281  0.168044  7.040975  0.872642     86.53  1.000219  1.000033     3.962    36.289     110.8      87.5     147.0     687.8     10.33      0.42      1.50      3.84      0.35      6.08      5.05     -0.12      4.76      0.70      0.02      0.43     -0.10      2.47      3.34     -2.20      0.64      9.70     -1.35      4.36
     -16.262405      64.916321     112.0      1.70      2.70      77.8         3         3      3886      4250   3201.75    -4.946      11.5      24.3   406.564     0.817     117.6   0.20908       8.1         H               192.2  0.103282  0.063650  0.001717  6.165740  1.030756  5.981765  1.280303     43.85    5.8970   61.5815   0.29211   5.61983   0.23403   0.00962  87.18621   5.92643    4099.1  0.647641  0.001670  0.000063  0.000269  0.167768  7.026208  0.865270     91.84  1.000245  1.000036     3.918    34.781     114.0      86.2     120.2     622.3     10.68     -0.04      1.49      3.57      0.67      6.51      5.03     -0.90      4.46      0.72     -0.96      0.63      0.15      2.97      3.66     -3.40      2.14     10.76     -3.82      4.93
