corner points
58.67314911    -38.97241974
58.61257553    -39.1495018
58.43736649    -38.92134476
58.37608337    -39.09829712
========== RESULTS WAVE VERSION 16.10.2018 ====================
IMAGE SIZE  X: 5599     Y:4911    col:row     POLARIZATION:VV
COVERAGE    X: 21.12600274km       Y: 20.32921368km 
RESOLUTION dX: 3.77317427m       dY:4.139526303m  
resolution of original product 3.77317427m x 4.139526303m;   raster step x:5999.34709m  
===============================================================
FLAGS: H=HIGH PROBABILITY SEA STATE, I=LAND(ISLAND), O=OUTLIER NO SEA STATE, N=NO WIND AVAILABLE, SEA STATE NOT VISIBLE, M=MEAN PROBABILITY SEA STATE, L= LOW PROBABILITY SEA STATE
Filtering wave length
 integration  Lmin=1m
 integration  Lmax=2200m
  peak        Lmin=100m
               FFT=1024pixels, 3863.730453m 
   mean-Hs (SWH_c)=1.054574432m
         mean-wind=4.431893349m/s
--------------0--------------1---------2---------3---------4---------5---------6---------7---------8---------9--------10--------11--------12--------13--------14--------15--------16--------17--------18--------19------------------20--------21--------22--------23--------24--------25--------26--------27--------28--------29--------30--------31--------32--------33--------34--------35--------36--------37--------38--------39--------40--------41--------42--------43--------44--------45--------46--------47--------48--------49--------50--------51--------52--------53--------54--------55--------56--------57--------58--------59--------60--------61--------62--------63--------64--------65--------66--------67--------68--------69--------70--------71--------72--------73
            LAT            LON  P-LENGHT     SWH_o     SWH_c     P-DIR      LINE     POINT     ROW-Y     COL-X  M-INTENC        dB      WIND INC-ANGLE  ENERGY-M  ENERGY-N  ENERGY-R ENERGY-NN  FG-DEPTH      FLAG         HEADING-DEG    E30-75   E75-390  E390-600 meanincut   meanout   cut/out  STD-NORM  SPEC-MAX   GL-MEAN    GL-VAR      CORR   ENTROPY   HOMOGEN    ENERGY  CONTRAST  DISSIMIL     STD-O    E 1-30 E600-2000   E2000 >      GODA  LONG-HIG     Tmean  CONVOLUT  MEAN-DIR  relation     Sy/Sx  SKEWNESS  KURTOSIS  cutoff-A >50/10000     INT*V   INT-LOG  S-1_g1f1  S-2_g1f2  S-3_g1f3  S-4_g2f1  S-5_g2f2  S-6_g2f3  S-7_g3f1  S-8_g3f2  S-9_g3f3 S-10_g1f4 S-11_g2f4 S-12_g3f4 S-13_g1f5 S-14_g2f5 S-15_g3f5 S-16_g4f1 S-17_g4f2 S-18_g4f3 S-19_g4f4 S-20_g4f5
--------------1--------------2---------3---------4---------5---------6---------7---------8---------9--------10--------11--------12--------13--------14--------15--------16--------17--------18--------19--------20------------------21--------22--------23--------24--------25--------26--------27--------28--------29--------30--------31--------32--------33--------34--------35--------36--------37--------38--------39--------40--------41--------42--------43--------44--------45--------46--------47--------48--------49--------50--------51--------52--------53--------54--------55--------56--------57--------58--------59--------60--------61--------62--------63--------64--------65--------66--------67--------68--------69--------70--------71--------72--------73--------74
     -38.999142      58.617493     238.3      1.01      2.23     141.9         1         1      1000      1000   2016.03    -6.955       4.5      22.8   287.050     0.709     131.0   0.15882      56.4         H               193.5  0.075684  0.061805  0.000866  5.180845  0.895022  5.788509  1.193717     51.00    3.5522   22.8975   0.26160   4.73220   0.32171   0.02233  33.81506   3.70907    2406.4  0.569736  0.001510  0.000082  0.000171  0.212724  7.301785  0.745163    117.37  1.000249  1.000021     3.062    19.528      79.7      77.9      42.0     277.0     13.41     -7.06      1.21      2.03     -0.06      2.13     -3.61      4.11      1.18     -0.56     -1.11     -0.33     -1.84      0.60      1.44     -3.01      0.89      1.66     -0.80      1.33
     -38.984482      58.549694     229.1      1.02      2.23     134.6         1         2      1000      2590   1790.58    -7.470       4.4      23.3   290.193     0.724     112.6   0.16581      48.3         H               193.5  0.080056  0.064019  0.000833  5.272336  0.934988  5.638933  1.206549     54.48    3.1075   18.4213   0.26786   4.49530   0.34996   0.02836  26.97359   3.28630    2160.4  0.578122  0.001234  0.000049  0.000173  0.213183  7.298496  0.761606    116.32  1.000277  1.000024     3.221    22.651      81.3      75.0      33.6     269.8     13.46     -6.91      2.22      2.45      0.01      2.49     -3.54      3.94      1.50     -1.05     -0.74     -0.25     -1.06      1.14      1.96     -2.48      1.01      1.07     -0.10      1.00
     -38.970062      58.483196     259.7      1.06      2.23     142.8         1         3      1000      4180   1669.82    -7.773       4.6      23.7   290.744     0.723      92.4   0.16413      99.1         H               193.5  0.080086  0.064400  0.000688  5.499369  0.920761  5.972633  1.205327     57.66    2.8734   16.0615   0.26468   4.36082   0.36634   0.03230  23.62109   3.06392    2012.6  0.577394  0.000913  0.000021  0.000172  0.210495  7.293970  0.760116    112.67  1.000256  1.000024     3.181    21.608      79.7      73.4      29.4     245.7     13.28     -6.59      1.37      2.54     -0.05      2.65     -3.49      3.68      1.99     -0.50     -1.12     -0.76     -0.60      1.16      1.46     -2.02      1.03      1.60     -0.57      1.16
     -39.051395      58.599590     219.7      0.97      2.23     132.3         2         1      2449      1000   1758.47    -7.549       3.9      22.8   292.651     0.731     171.3   0.16792      41.8         H               193.5  0.081143  0.065513  0.000930  5.531958  0.943182  5.865205  1.212886     58.52    3.0506   18.0321   0.27004   4.46150   0.35418   0.02940  26.32518   3.23513    2132.8  0.581708  0.002071  0.000109  0.000169  0.209307  7.257924  0.770111    116.20  1.000211  1.000019     3.240    22.385      79.7      74.6      32.8     260.5     13.26     -7.34      1.44      2.27     -0.67      2.03     -3.09      3.80      1.32     -1.78     -1.06     -0.18     -2.63      0.07      2.04     -2.90      0.76      1.65     -0.13      0.96
     -39.036728      58.531731     270.5      1.25      2.23     129.6         2         2      2449      2590   1793.86    -7.462       4.4      23.3   293.126     0.734     147.2   0.16936     100.0         H               193.5  0.080914  0.069553  0.000956  5.804384  0.919690  6.311241  1.215140     71.29    3.1182   18.8193   0.27140   4.49703   0.35148   0.02875  27.42379   3.29637    2179.7  0.581104  0.001770  0.000095  0.000171  0.210464  7.319219  0.773549    117.64  1.000233  1.000020     3.192    21.412      79.7      74.9      34.1     267.7     13.41     -7.54      1.11      1.95      0.05      1.75     -3.62      4.06      1.57     -0.99     -0.78     -0.47     -2.57      0.40      1.99     -2.94      1.27      0.92     -0.06      0.50
     -39.022297      58.465172     249.1      1.06      2.23     134.8         2         3      2449      4180   1608.46    -7.936       4.4      23.7   290.678     0.725      84.1   0.16560      70.1         H               193.5  0.080588  0.065287  0.000743  5.720355  0.912227  6.270759  1.207889     60.79    2.7493   14.9286   0.26677   4.28475   0.37593   0.03486  21.89211   2.94510    1942.8  0.578539  0.000596  0.000019  0.000171  0.209332  7.274023  0.763141    115.75  1.000255  1.000022     3.186    21.649      79.7      72.4      27.3     237.3     13.37     -6.62      1.33      2.27      0.27      2.47     -3.46      3.94      1.78      0.14     -0.82     -0.83     -1.65      0.83      1.71     -2.36      1.24      1.66     -0.28      1.37
     -39.103645      58.581661     219.7      0.97      2.23     132.3         3         1      3898      1000   2014.24    -6.959       4.4      22.8   291.826     0.727     144.7   0.16568      41.8         H               193.5  0.080880  0.062886  0.000836  5.496411  0.928768  5.917960  1.208495     64.99    3.5559   23.4356   0.26710   4.72993   0.32240   0.02259  34.35149   3.71643    2434.0  0.580745  0.001727  0.000101  0.000168  0.204490  7.240154  0.764472    112.43  1.000211  1.000018     3.233    22.462      79.7      77.8      42.8     301.2     13.24     -6.72      1.45      2.50     -0.26      2.28     -3.41      3.68      1.24     -1.14     -0.98      0.00     -1.89      0.55      1.95     -2.50      0.91      1.60     -0.47      0.47
     -39.088966      58.513741     247.1      1.00      2.23     129.9         3         2      3898      2590   1945.62    -7.109       4.8      23.3   290.751     0.727     119.1   0.16700      67.1         H               193.5  0.081751  0.062713  0.000783  5.342532  0.933041  5.725937  1.208895     59.33    3.4161   21.8312   0.26882   4.65939   0.33063   0.02416  31.92523   3.58062    2351.9  0.580736  0.001207  0.000071  0.000168  0.207266  7.239475  0.764507    116.07  1.000228  1.000021     3.236    22.677      79.7      77.0      39.8     300.8     13.35     -7.03      1.57      2.48     -0.26      2.34     -3.73      4.07      1.23     -0.86     -0.83     -0.49     -2.13      0.70      2.03     -2.34      0.89      1.77     -0.14      1.20
     -39.074524      58.447124     256.4      1.15      2.23     127.2         3         3      3898      4180   1634.84    -7.865       4.5      23.7   293.680     0.740     108.9   0.17289      86.3         H               193.5  0.082948  0.067832  0.000852  5.527005  0.950479  5.814970  1.218305     71.87    2.7974   15.6763   0.27307   4.30939   0.37450   0.03456  22.79086   2.98866    1991.7  0.587207  0.001106  0.000038  0.000168  0.214300  7.304861  0.778935    121.36  1.000238  1.000022     3.230    21.958      79.7      72.5      28.4     242.0     13.78     -7.38      1.58      1.72      0.44      2.03     -4.39      4.28      0.94     -0.70     -0.76     -0.00     -2.69      0.90      2.16     -3.03      1.39      0.87     -0.68      1.09
