corner points
58.05103302    -40.711586
57.98761749    -40.8883667
57.8089447    -40.65935516
57.74477386    -40.83599854
========== RESULTS WAVE VERSION 16.10.2018 ====================
IMAGE SIZE  X: 5599     Y:4912    col:row     POLARIZATION:VV
COVERAGE    X: 21.18188203km       Y: 20.32501439km 
RESOLUTION dX: 3.783154498m       dY:4.137828663m  
resolution of original product 3.783154498m x 4.137828663m;   raster step x:5996.29988m  
===============================================================
FLAGS: H=HIGH PROBABILITY SEA STATE, I=LAND(ISLAND), O=OUTLIER NO SEA STATE, N=NO WIND AVAILABLE, SEA STATE NOT VISIBLE, M=MEAN PROBABILITY SEA STATE, L= LOW PROBABILITY SEA STATE
Filtering wave length
 integration  Lmin=1m
 integration  Lmax=2200m
  peak        Lmin=100m
               FFT=1024pixels, 3873.950206m 
   mean-Hs (SWH_c)=0.7652643585m
         mean-wind=6.631481647m/s
--------------0--------------1---------2---------3---------4---------5---------6---------7---------8---------9--------10--------11--------12--------13--------14--------15--------16--------17--------18--------19------------------20--------21--------22--------23--------24--------25--------26--------27--------28--------29--------30--------31--------32--------33--------34--------35--------36--------37--------38--------39--------40--------41--------42--------43--------44--------45--------46--------47--------48--------49--------50--------51--------52--------53--------54--------55--------56--------57--------58--------59--------60--------61--------62--------63--------64--------65--------66--------67--------68--------69--------70--------71--------72--------73
            LAT            LON  P-LENGHT     SWH_o     SWH_c     P-DIR      LINE     POINT     ROW-Y     COL-X  M-INTENC        dB      WIND INC-ANGLE  ENERGY-M  ENERGY-N  ENERGY-R ENERGY-NN  FG-DEPTH      FLAG         HEADING-DEG    E30-75   E75-390  E390-600 meanincut   meanout   cut/out  STD-NORM  SPEC-MAX   GL-MEAN    GL-VAR      CORR   ENTROPY   HOMOGEN    ENERGY  CONTRAST  DISSIMIL     STD-O    E 1-30 E600-2000   E2000 >      GODA  LONG-HIG     Tmean  CONVOLUT  MEAN-DIR  relation     Sy/Sx  SKEWNESS  KURTOSIS  cutoff-A >50/10000     INT*V   INT-LOG  S-1_g1f1  S-2_g1f2  S-3_g1f3  S-4_g2f1  S-5_g2f2  S-6_g2f3  S-7_g3f1  S-8_g3f2  S-9_g3f3 S-10_g1f4 S-11_g2f4 S-12_g3f4 S-13_g1f5 S-14_g2f5 S-15_g3f5 S-16_g4f1 S-17_g4f2 S-18_g4f3 S-19_g4f4 S-20_g4f5
--------------1--------------2---------3---------4---------5---------6---------7---------8---------9--------10--------11--------12--------13--------14--------15--------16--------17--------18--------19--------20------------------21--------22--------23--------24--------25--------26--------27--------28--------29--------30--------31--------32--------33--------34--------35--------36--------37--------38--------39--------40--------41--------42--------43--------44--------45--------46--------47--------48--------49--------50--------51--------52--------53--------54--------55--------56--------57--------58--------59--------60--------61--------62--------63--------64--------65--------66--------67--------68--------69--------70--------71--------72--------73--------74
     -40.738026      57.993633     202.4      0.61      2.25     128.4         1         1      1000      1000   2769.30    -5.576       6.4      22.7   270.238     0.687     114.0   0.15105      32.6         H               193.7  0.072480  0.044449  0.000730  3.512830  0.924048  3.801566  1.174914     48.36    5.0495   41.3684   0.24859   5.37076   0.25103   0.01145  62.16859   5.13576    3253.4  0.567961  0.001451  0.000082  0.000167  0.210766  7.198838  0.716468    125.23  1.000145  1.000012     3.054    20.692      73.8      84.7      78.4     419.7     12.94     -8.13      0.41      2.67     -1.43      1.64     -3.14      4.25      0.97     -1.87     -1.42      0.02     -5.69     -1.50      2.94     -2.69      0.27      1.62     -0.63     -0.03
     -40.723083      57.924229     214.5      0.66      2.25     123.8         1         2      1000      2585   2542.46    -5.947       6.6      23.2   270.949     0.692      89.2   0.15423      38.8         H               193.7  0.072967  0.045733  0.000705  3.363472  0.909211  3.699329  1.179155     53.48    4.6092   35.5089   0.25062   5.20380   0.26728   0.01356  53.21870   4.72353    2997.8  0.571739  0.000989  0.000040  0.000172  0.214620  7.220224  0.721695    128.62  1.000159  1.000013     3.020    19.030      75.2      83.2      66.5     343.0     13.19     -8.76      0.21      2.35     -1.00      1.44     -3.81      5.14      1.16     -1.42     -1.70     -0.24     -6.16     -0.99      3.62     -2.90      0.95      0.90     -0.53      0.49
     -40.708382      57.856163     235.7      0.64      2.25     127.7         1         3      1000      4170   2290.62    -6.400       6.6      23.7   271.212     0.692     110.8   0.15369      53.9         H               193.7  0.072696  0.045797  0.000728  3.465967  0.908960  3.813111  1.179767     56.09    4.1011   28.8308   0.25031   4.99452   0.28877   0.01663  43.22828   4.24180    2702.5  0.572181  0.001283  0.000083  0.000167  0.216963  7.234776  0.722562    127.07  1.000176  1.000014     3.056    19.885      75.2      81.2      53.6     319.6     13.31     -8.10     -0.04      2.06     -0.60      1.49     -3.93      4.83      1.31     -0.69     -1.67     -0.13     -6.21     -0.90      3.63     -3.26      0.74      0.68     -1.26      0.66
     -40.790218      57.974880     183.8      0.81      2.25     121.4         2         1      2450      1000   2859.50    -5.437       6.7      22.7   267.543     0.675      94.5   0.14638      25.2         H               193.7  0.068267  0.046317  0.000630  3.360070  0.908635  3.697930  1.164656     54.54    5.2325   43.5321   0.24484   5.43828   0.24408   0.01062  65.74761   5.30123    3330.2  0.559231  0.001055  0.000045  0.000178  0.216177  7.283186  0.704248    124.86  1.000139  1.000010     2.922    18.015      71.1      85.4      82.9     389.0     13.04     -8.53      0.64      3.12     -2.10      1.55     -3.68      4.65      0.91     -2.43     -1.74      0.41     -6.02     -1.64      3.18     -2.41      0.27      1.00     -0.51      0.42
     -40.775261      57.905411     231.7      0.85      2.25     123.1         2         2      2450      2585   2604.81    -5.842       6.8      23.2   268.420     0.682      81.8   0.14989      50.4         H               193.7  0.069389  0.047818  0.000704  3.614623  0.909190  3.975650  1.170757     70.84    4.7238   36.5953   0.24810   5.25030   0.26278   0.01290  55.03182   4.82545    3049.5  0.563781  0.000829  0.000029  0.000176  0.218501  7.292552  0.711826    124.35  1.000154  1.000011     2.954    18.310      76.6      83.7      68.8     346.1     13.31     -8.35      1.06      2.61     -1.49      1.79     -3.89      4.88      0.37     -2.31     -1.52      0.62     -5.82     -1.57      3.24     -2.63      0.14      1.54     -0.75      0.06
     -40.760548      57.837284     224.7      0.72      2.25     125.7         2         3      2450      4170   2324.26    -6.337       6.7      23.7   270.993     0.688     135.3   0.15204      45.1         H               193.7  0.070862  0.046491  0.000784  3.432799  0.931423  3.685541  1.175471     72.09    4.1653   29.4574   0.24925   5.02296   0.28604   0.01618  44.23063   4.29976    2732.0  0.568400  0.001723  0.000108  0.000182  0.216020  7.257556  0.717851    123.18  1.000143  1.000011     3.068    22.070      75.2      81.5      54.9     351.5     13.24     -8.44      0.97      2.66     -1.84      1.78     -3.70      4.93      0.38     -2.47     -1.96      0.81     -6.21     -1.66      3.30     -3.07     -0.02      1.14     -0.91      0.25
     -40.842403      57.956104     205.0      0.90      2.25     136.5         3         1      3900      1000   2858.42    -5.439       6.7      22.7   269.702     0.685     112.1   0.14994      33.8         H               193.7  0.068984  0.048621  0.000750  3.607292  0.910549  3.961667  1.172490     46.99    5.2277   43.9263   0.24889   5.43410   0.24526   0.01075  65.98601   5.29777    3351.3  0.565173  0.001421  0.000066  0.000172  0.217949  7.307069  0.714975    127.62  1.000152  1.000010     2.997    19.229      72.4      85.3      83.6     414.8     13.06     -8.50      0.89      2.85     -1.90      1.66     -3.42      4.46      0.90     -2.29     -1.95      0.00     -5.50     -1.37      2.88     -2.71      0.30      0.96     -0.71      0.20
     -40.827435      57.886570     245.3      0.91      2.25     117.6         3         2      3900      2585   2533.20    -5.963       6.6      23.2   271.839     0.696      99.9   0.15585      64.5         H               193.7  0.071245  0.050641  0.000739  3.582066  0.906841  3.950050  1.182038     72.20    4.5866   35.3729   0.25415   5.19334   0.26954   0.01380  52.76550   4.69664    2994.3  0.572323  0.001097  0.000054  0.000184  0.220992  7.317637  0.727258    123.44  1.000143  1.000012     3.032    19.332      78.1      83.0      66.1     352.1     13.56     -8.90      1.49      2.37     -1.42      1.91     -4.14      5.08      0.30     -3.01     -1.95      0.66     -5.66     -0.97      3.27     -2.76      0.19      1.31     -0.85      0.34
     -40.812714      57.818378     251.8      0.79      2.25     122.3         3         3      3900      4170   2274.30    -6.432       6.5      23.7   270.925     0.693      97.8   0.15539      75.1         H               193.7  0.072085  0.049008  0.000753  3.604540  0.925303  3.895526  1.180348     48.63    4.0706   28.5098   0.25316   4.98005   0.29100   0.01698  42.58454   4.20840    2684.4  0.570608  0.001110  0.000050  0.000174  0.216168  7.268754  0.724195    124.11  1.000146  1.000011     3.032    19.501      75.2      80.9      53.0     317.9     13.28     -8.56      0.89      2.47     -1.29      1.99     -3.46      4.55      0.79     -2.11     -1.96      0.07     -5.84     -1.30      2.99     -3.05      0.84      1.40     -0.81      0.28
