corner points
68.61598969    -0.2220661938
68.57822418    -0.4028574228
68.43591309    -0.1833801121
68.39811707    -0.3641375005
========== RESULTS WAVE VERSION 16.10.2018 ====================
IMAGE SIZE  X: 5599     Y:4929    col:row     POLARIZATION:VV
COVERAGE    X: 20.43642986km       Y: 20.48955362km 
RESOLUTION dX: 3.650014264m       dY:4.156939262m  
resolution of original product 3.650014264m x 4.156939262m;   raster step x:5996.973436m  
===============================================================
FLAGS: H=HIGH PROBABILITY SEA STATE, I=LAND(ISLAND), O=OUTLIER NO SEA STATE, N=NO WIND AVAILABLE, SEA STATE NOT VISIBLE, M=MEAN PROBABILITY SEA STATE, L= LOW PROBABILITY SEA STATE
Filtering wave length
 integration  Lmin=1m
 integration  Lmax=2200m
  peak        Lmin=100m
               FFT=1024pixels, 3737.614606m 
   mean-Hs (SWH_c)=0.2m
         mean-wind=3.180247068m/s
--------------0--------------1---------2---------3---------4---------5---------6---------7---------8---------9--------10--------11--------12--------13--------14--------15--------16--------17--------18--------19------------------20--------21--------22--------23--------24--------25--------26--------27--------28--------29--------30--------31--------32--------33--------34--------35--------36--------37--------38--------39--------40--------41--------42--------43--------44--------45--------46--------47--------48--------49--------50--------51--------52--------53--------54--------55--------56--------57--------58--------59--------60--------61--------62--------63--------64--------65--------66--------67--------68--------69--------70--------71--------72--------73
            LAT            LON  P-LENGHT     SWH_o     SWH_c     P-DIR      LINE     POINT     ROW-Y     COL-X  M-INTENC        dB      WIND INC-ANGLE  ENERGY-M  ENERGY-N  ENERGY-R ENERGY-NN  FG-DEPTH      FLAG         HEADING-DEG    E30-75   E75-390  E390-600 meanincut   meanout   cut/out  STD-NORM  SPEC-MAX   GL-MEAN    GL-VAR      CORR   ENTROPY   HOMOGEN    ENERGY  CONTRAST  DISSIMIL     STD-O    E 1-30 E600-2000   E2000 >      GODA  LONG-HIG     Tmean  CONVOLUT  MEAN-DIR  relation     Sy/Sx  SKEWNESS  KURTOSIS  cutoff-A >50/10000     INT*V   INT-LOG  S-1_g1f1  S-2_g1f2  S-3_g1f3  S-4_g2f1  S-5_g2f2  S-6_g2f3  S-7_g3f1  S-8_g3f2  S-9_g3f3 S-10_g1f4 S-11_g2f4 S-12_g3f4 S-13_g1f5 S-14_g2f5 S-15_g3f5 S-16_g4f1 S-17_g4f2 S-18_g4f3 S-19_g4f4 S-20_g4f5
--------------1--------------2---------3---------4---------5---------6---------7---------8---------9--------10--------11--------12--------13--------14--------15--------16--------17--------18--------19--------20------------------21--------22--------23--------24--------25--------26--------27--------28--------29--------30--------31--------32--------33--------34--------35--------36--------37--------38--------39--------40--------41--------42--------43--------44--------45--------46--------47--------48--------49--------50--------51--------52--------53--------54--------55--------56--------57--------58--------59--------60--------61--------62--------63--------64--------65--------66--------67--------68--------69--------70--------71--------72--------73--------74
      -0.251663      68.575325     276.7      0.22      0.82     167.2         1         1      1000      1000   1195.01    -9.226       3.3      23.6   384.752     0.613     157.7   0.11679     100.0         H               192.0  0.062112  0.032115  0.000967  3.031624  0.979883  3.093863  1.110328     12.59    1.9220    6.8966   0.21490   3.72306   0.43866   0.05412  10.82909   2.14402    1326.8  0.514877  0.002945  0.000157  0.000135  0.157052  6.917225  0.640092     69.86  1.000031  1.000001     2.605    14.721      41.0      66.1      14.0     140.6     10.49     -0.26     -3.85      1.67      2.25     -0.19      2.24      0.26      1.84      1.35      0.38      1.21      0.38     -0.55     -0.89     -6.35      4.60      0.97     -0.13     -0.45
      -0.240187      68.521919     113.1      0.22      0.82      69.8         1         2      1000      2643   1084.19    -9.649       3.3      24.1   384.656     0.609     117.9   0.11512       8.3         H               192.0  0.061965  0.031652  0.000878  3.067866  0.946623  3.240854  1.106659     12.91    1.7070    5.6319   0.21177   3.53573   0.46485   0.06446   8.87860   1.93449    1199.8  0.512273  0.002332  0.000077  0.000134  0.155347  6.903560  0.635478     70.51  0.999973  0.999999     2.548    13.610      41.0      63.3      11.6     111.9     10.17      0.24     -3.91      2.22      2.32     -0.30      2.39      0.47      1.28      0.73      0.18      1.14      0.79     -1.21     -0.58     -5.58      3.91      1.74     -0.17     -2.36
      -0.228919      68.469482     303.0      0.22      0.82     175.3         1         3      1000      4286    933.24   -10.300       3.2      24.6   386.214     0.613     117.0   0.11641     100.0         H               192.0  0.062472  0.032690  0.001155  3.154063  0.973213  3.240876  1.110995     13.89    1.4170    4.1905   0.21178   3.24795   0.50795   0.08520   6.60610   1.64609    1036.8  0.514804  0.002349  0.000073  0.000135  0.155231  6.911725  0.640471     70.36  0.999990  1.000000     2.589    14.252      41.0      58.6       8.7      99.7     10.41      0.35     -4.11      1.58      2.03      0.41      3.07      0.59      1.51      0.43      0.73      0.98      0.90     -1.37     -0.87     -7.56      3.29      2.76      1.69     -1.96
      -0.304600      68.564270     104.2      0.21      0.82      66.9         2         1      2443      1000   1134.87    -9.451       3.1      23.6   382.702     0.606      94.7   0.11433       6.9         H               192.0  0.061416  0.031106  0.000886  2.932176  0.953709  3.074499  1.104195     10.67    1.8087    6.1685   0.21044   3.62778   0.45124   0.05886   9.74089   2.03376    1253.1  0.511407  0.001780  0.000067  0.000134  0.155950  6.898569  0.632591     70.76  1.000026  1.000001     2.550    13.742      41.0      64.8      12.6     119.0     10.24      0.29     -4.03      2.20      1.84     -0.78      2.07      0.39      1.74      0.38      0.46      0.81      0.45     -0.86     -0.92     -5.57      2.80      0.24      1.16     -1.32
      -0.293121      68.510857     265.4      0.21      0.82     175.9         2         2      2443      2643   1033.10    -9.859       3.2      24.1   384.729     0.610      94.6   0.11640     100.0         H               192.0  0.062433  0.031940  0.000823  3.054299  0.970083  3.148493  1.106651     14.10    1.6033    5.0943   0.21296   3.43755   0.47911   0.07085   8.01890   1.83117    1143.2  0.513637  0.001959  0.000041  0.000135  0.155459  6.904274  0.637136     70.46  1.000013  1.000001     2.565    13.813      41.4      61.8      10.5     106.1     10.11      0.36     -3.90      2.53      1.88     -0.57      2.15      0.64      2.15      0.63      0.79      1.18      0.70     -1.23     -0.84     -4.57      2.79      0.07      1.38     -1.73
      -0.281851      68.458412     116.8      0.22      0.82      75.7         2         3      2443      4286    929.91   -10.316       3.2      24.6   387.577     0.617     119.6   0.11817       8.8         H               192.0  0.062835  0.033021  0.000940  3.172732  0.987737  3.212121  1.114494      9.89    1.4037    4.1557   0.21355   3.23287   0.51073   0.08669   6.53651   1.63281    1036.4  0.517907  0.002432  0.000074  0.000137  0.154447  6.918280  0.644147     67.06  1.000013  1.000001     2.628    14.732      41.4      58.2       8.6      96.3     10.03      0.21     -3.60      2.47      2.09     -1.04      2.59      0.30      2.01      0.62      0.93      1.15      0.19     -0.99     -0.73     -5.37      3.96     -0.68      1.31     -1.26
      -0.357536      68.553207     103.2      0.21      0.82      65.7         3         1      3886      1000   1104.16    -9.570       3.1      23.6   388.681     0.621     102.4   0.12077       6.8         H               192.0  0.064660  0.033315  0.001078  3.196081  0.991217  3.224400  1.117551     10.53    1.7520    5.9919   0.21865   3.57375   0.46024   0.06280   9.36353   1.97839    1233.9  0.520686  0.001985  0.000072  0.000138  0.155932  6.920577  0.649563     68.34  1.000004  1.000000     2.629    14.598      40.6      63.7      12.1     120.4     10.41      0.10     -3.32      1.95      2.16     -0.81      2.38      0.09      1.79      0.25      0.94      0.84      0.74     -0.91     -0.58     -6.63      4.21     -0.37      1.87     -2.06
      -0.346055      68.499794     107.0      0.21      0.82      70.9         3         2      3886      2643   1007.95    -9.966       3.1      24.1   387.389     0.616      99.6   0.11756       7.3         H               192.0  0.063109  0.033781  0.000957  3.194537  0.987700  3.234318  1.113313     11.06    1.5587    4.9081   0.21442   3.39279   0.48666   0.07436   7.71134   1.78718    1122.1  0.516460  0.002041  0.000056  0.000137  0.156336  6.927903  0.643457     69.29  0.999995  1.000000     2.608    14.513      41.9      60.9      10.1     111.1     10.13      0.39     -3.70      2.46      2.19     -0.87      2.45      0.31      2.00      0.21      0.88      1.18      0.85     -1.40     -0.88     -5.36      3.86     -0.09      1.63     -2.59
      -0.334781      68.447350     295.4      0.21      0.82     166.3         3         3      3886      4286    903.67   -10.440       3.1      24.6   389.436     0.618     119.1   0.11823     100.0         H               192.0  0.063795  0.033185  0.000977  3.164960  0.987273  3.205759  1.114612     13.63    1.3542    3.9335   0.21263   3.17876   0.51899   0.09153   6.19421   1.58457    1007.1  0.518394  0.002375  0.000092  0.000135  0.156293  6.914220  0.645709     67.38  1.000020  1.000002     2.598    14.190      41.0      57.2       8.1      93.8     10.22      0.34     -3.62      2.21      2.09     -0.34      2.45      0.26      1.83      0.56      0.61      1.31      0.83     -0.88     -0.51     -5.77      3.59      0.59      0.96     -1.74
