corner points
68.24130249    -1.995120168
68.20333862    -2.175926447
68.06095886    -1.956135154
68.02293396    -2.136905193
========== RESULTS WAVE VERSION 16.10.2018 ====================
IMAGE SIZE  X: 5599     Y:4930    col:row     POLARIZATION:VV
COVERAGE    X: 20.46160306km       Y: 20.4953672km 
RESOLUTION dX: 3.654510281m       dY:4.157275294m  
resolution of original product 3.654510281m x 4.157275294m;   raster step x:5997.051371m  
===============================================================
FLAGS: H=HIGH PROBABILITY SEA STATE, I=LAND(ISLAND), O=OUTLIER NO SEA STATE, N=NO WIND AVAILABLE, SEA STATE NOT VISIBLE, M=MEAN PROBABILITY SEA STATE, L= LOW PROBABILITY SEA STATE
Filtering wave length
 integration  Lmin=1m
 integration  Lmax=2200m
  peak        Lmin=100m
               FFT=1024pixels, 3742.218528m 
   mean-Hs (SWH_c)=0.2m
         mean-wind=5.409465313m/s
--------------0--------------1---------2---------3---------4---------5---------6---------7---------8---------9--------10--------11--------12--------13--------14--------15--------16--------17--------18--------19------------------20--------21--------22--------23--------24--------25--------26--------27--------28--------29--------30--------31--------32--------33--------34--------35--------36--------37--------38--------39--------40--------41--------42--------43--------44--------45--------46--------47--------48--------49--------50--------51--------52--------53--------54--------55--------56--------57--------58--------59--------60--------61--------62--------63--------64--------65--------66--------67--------68--------69--------70--------71--------72--------73
            LAT            LON  P-LENGHT     SWH_o     SWH_c     P-DIR      LINE     POINT     ROW-Y     COL-X  M-INTENC        dB      WIND INC-ANGLE  ENERGY-M  ENERGY-N  ENERGY-R ENERGY-NN  FG-DEPTH      FLAG         HEADING-DEG    E30-75   E75-390  E390-600 meanincut   meanout   cut/out  STD-NORM  SPEC-MAX   GL-MEAN    GL-VAR      CORR   ENTROPY   HOMOGEN    ENERGY  CONTRAST  DISSIMIL     STD-O    E 1-30 E600-2000   E2000 >      GODA  LONG-HIG     Tmean  CONVOLUT  MEAN-DIR  relation     Sy/Sx  SKEWNESS  KURTOSIS  cutoff-A >50/10000     INT*V   INT-LOG  S-1_g1f1  S-2_g1f2  S-3_g1f3  S-4_g2f1  S-5_g2f2  S-6_g2f3  S-7_g3f1  S-8_g3f2  S-9_g3f3 S-10_g1f4 S-11_g2f4 S-12_g3f4 S-13_g1f5 S-14_g2f5 S-15_g3f5 S-16_g4f1 S-17_g4f2 S-18_g4f3 S-19_g4f4 S-20_g4f5
--------------1--------------2---------3---------4---------5---------6---------7---------8---------9--------10--------11--------12--------13--------14--------15--------16--------17--------18--------19--------20------------------21--------22--------23--------24--------25--------26--------27--------28--------29--------30--------31--------32--------33--------34--------35--------36--------37--------38--------39--------40--------41--------42--------43--------44--------45--------46--------47--------48--------49--------50--------51--------52--------53--------54--------55--------56--------57--------58--------59--------60--------61--------62--------63--------64--------65--------66--------67--------68--------69--------70--------71--------72--------73--------74
      -2.024658      68.200546     248.2      0.34      0.98     172.4         1         1      1000      1000   2015.02    -6.957       5.4      23.6   380.899     0.621      63.7   0.12289      68.8         H               192.0  0.070574  0.021013  0.000399  2.037664  0.820449  2.483598  1.117460     12.52    3.5393   20.0098   0.21942   4.75294   0.30750   0.01959  31.23852   3.70218    2251.5  0.528591  0.000927  0.000053  0.000164  0.155907  6.696174  0.646860    101.11  1.000084  1.000006     2.697    15.656      52.4      79.6      38.5     242.5     10.67      0.70     -4.31      2.47      1.54      0.41      0.54      0.55      2.03      0.30     -0.46      0.68      0.63     -1.66     -0.84     -3.31      1.11      1.86     -0.48     -2.16
      -2.013108      68.147125     276.7      0.34      0.98     167.2         1         2      1000      2641   1788.80    -7.474       5.4      24.1   381.364     0.618      46.0   0.12088     100.0         H               192.0  0.070041  0.021715  0.000338  2.092811  0.810946  2.580703  1.114708     14.05    3.1005   15.7596   0.21593   4.52259   0.33394   0.02459  24.71340   3.28625    1994.0  0.525785  0.000555  0.000033  0.000168  0.155770  6.705341  0.643052     98.36  1.000058  1.000005     2.675    15.594      52.4      76.9      30.6     218.9     10.68      0.65     -4.87      2.45      1.98      0.62      0.40      0.56      1.95      0.64     -0.43      0.28      0.17     -1.98     -1.10     -2.89      1.90      2.34     -0.12     -1.89
      -2.001767      68.094666     263.4      0.34      0.98     171.9         1         3      1000      4282   1608.56    -7.936       5.4      24.5   383.017     0.622      40.5   0.12172     142.9         H               192.0  0.071022  0.021546  0.000365  2.127308  0.818718  2.598340  1.118116      9.77    2.7430   12.8019   0.21664   4.31171   0.36005   0.03036  20.05729   2.94625    1798.5  0.528534  0.000520  0.000021  0.000161  0.153549  6.692016  0.646951     97.43  1.000081  1.000007     2.693    15.675      52.4      74.3      25.0     195.5     10.48      0.72     -4.39      2.93      1.11      0.49      0.69      0.20      1.65     -0.23     -0.27      0.58     -0.33     -1.54     -0.59     -2.79      0.79      2.52     -0.03     -1.52
      -2.077589      68.189438     289.2      0.34      0.98     162.0         2         1      2443      1000   2032.94    -6.919       5.5      23.6   379.201     0.617      64.1   0.12116     100.0         H               192.0  0.069658  0.022002  0.000449  2.065206  0.810587  2.547790  1.114317     15.45    3.5770   20.2714   0.21780   4.77211   0.30580   0.01923  31.71241   3.73482    2265.3  0.524815  0.000893  0.000054  0.000161  0.158436  6.713873  0.642940     99.79  1.000086  1.000007     2.656    15.105      53.1      79.7      39.1     246.4     11.09      1.02     -5.10      1.66      1.65      0.97      0.33      0.41      2.26      0.72     -0.42      0.76      0.41     -1.90     -0.49     -4.61      1.14      2.61     -0.65     -2.39
      -2.066036      68.136002     300.1      0.34      0.98     170.8         2         2      2443      2641   1795.19    -7.459       5.4      24.1   380.844     0.617      51.8   0.12019     100.0         H               192.0  0.070464  0.021696  0.000394  2.096883  0.829403  2.528182  1.113901     15.43    3.1156   15.8657   0.21637   4.53122   0.33306   0.02434  24.86597   3.29881    1999.6  0.524025  0.000694  0.000040  0.000174  0.152180  6.671842  0.642224     99.13  1.000064  1.000005     2.665    15.280      51.7      77.1      30.8     211.5     10.51      0.99     -4.81      2.44      1.77      0.87      0.98      0.60      1.52      0.50     -0.25      0.54      0.19     -1.98     -0.83     -3.23      1.27      3.19      0.13     -2.20
      -2.054691      68.083542     248.2      0.33      0.98     172.4         2         3      2443      4282   1584.46    -8.001       5.3      24.5   384.897     0.627      65.4   0.12364      68.8         H               192.0  0.071491  0.021822  0.000492  2.103591  0.843350  2.494328  1.123656     11.72    2.6955   12.5286   0.21843   4.28080   0.36373   0.03135  19.58377   2.90380    1780.3  0.532818  0.000967  0.000051  0.000165  0.155104  6.698038  0.653028     97.45  1.000084  1.000007     2.722    15.765      53.1      73.9      24.4     185.6     10.64      0.99     -4.33      2.29      1.40      0.46      1.05      0.50      1.86      0.34      0.04      0.33      0.58     -2.00     -1.20     -4.11      0.68      1.91      0.48     -2.70
      -2.130519      68.178314     283.0      0.35      0.98     175.7         3         1      3886      1000   2046.84    -6.889       5.6      23.6   381.304     0.621      54.6   0.12140     100.0         H               192.0  0.071313  0.020959  0.000363  2.056695  0.818636  2.512342  1.116999     14.90    3.6087   20.6814   0.21728   4.78757   0.30389   0.01893  32.37528   3.76816    2286.3  0.527801  0.000726  0.000043  0.000168  0.153375  6.682909  0.646483    100.43  1.000074  1.000005     2.718    16.273      52.4      79.9      39.8     260.7     10.52      0.80     -4.82      2.53      1.67      0.56      0.78      0.15      2.13      0.21     -0.57      0.55      0.23     -1.80     -0.91     -3.00      1.19      2.11     -0.25     -1.58
      -2.118963      68.124878     260.2      0.35      0.98     168.0         3         2      3886      2641   1847.70    -7.334       5.6      24.1   378.102     0.613      47.7   0.11903     102.2         H               192.0  0.069634  0.021475  0.000404  2.098421  0.801571  2.617886  1.109184     11.51    3.2147   16.6484   0.21597   4.58613   0.32638   0.02304  26.10572   3.38822    2049.5  0.521258  0.000662  0.000030  0.000171  0.153011  6.689189  0.638226     99.82  1.000057  1.000004     2.630    15.103      53.1      77.7      32.3     221.5     10.72      0.65     -4.83      2.34      1.68      0.56      0.50      0.17      2.20      0.06     -0.30      0.69      0.20     -1.77     -0.95     -3.55      1.54      2.20     -0.36     -1.99
      -2.107615      68.072411     300.1      0.33      0.98     170.8         3         3      3886      4282   1571.27    -8.037       5.2      24.5   383.805     0.625      79.4   0.12298     100.0         H               192.0  0.072604  0.021253  0.000411  2.127162  0.820492  2.592546  1.120204      8.68    2.6678   12.2668   0.21855   4.26344   0.36640   0.03193  19.17204   2.87233    1760.0  0.529898  0.001172  0.000080  0.000177  0.151085  6.669902  0.650801     99.04  1.000093  1.000008     2.708    15.710      55.3      73.7      24.0     187.8     10.54      1.18     -4.04      2.77      1.60      0.57      0.98      0.20      1.71      0.03      0.06      0.65     -0.23     -1.64     -0.85     -3.46      1.40      2.39      0.54     -1.48
