corner points
-15.61457634    -56.58599472
-15.7291832    -56.75696945
-15.94627476    -56.51642609
-16.06238556    -56.68709564
========== RESULTS WAVE VERSION 16.10.2018 ====================
IMAGE SIZE  X: 5671     Y:4904    col:row     POLARIZATION:VV
COVERAGE    X: 21.70903898km       Y: 20.21697291km 
RESOLUTION dX: 3.828079524m       dY:4.122547494m  
resolution of original product 3.828079524m x 4.122547494m;   raster step x:5998.600614m  
===============================================================
FLAGS: H=HIGH PROBABILITY SEA STATE, I=LAND(ISLAND), O=OUTLIER NO SEA STATE, N=NO WIND AVAILABLE, SEA STATE NOT VISIBLE, M=MEAN PROBABILITY SEA STATE, L= LOW PROBABILITY SEA STATE
Filtering wave length
 integration  Lmin=1m
 integration  Lmax=2200m
  peak        Lmin=100m
               FFT=1024pixels, 3919.953432m 
   mean-Hs (SWH_c)=1.78071991m
         mean-wind=7.747119427m/s
--------------0--------------1---------2---------3---------4---------5---------6---------7---------8---------9--------10--------11--------12--------13--------14--------15--------16--------17--------18--------19------------------20--------21--------22--------23--------24--------25--------26--------27--------28--------29--------30--------31--------32--------33--------34--------35--------36--------37--------38--------39--------40--------41--------42--------43--------44--------45--------46--------47--------48--------49--------50--------51--------52--------53--------54--------55--------56--------57--------58--------59--------60--------61--------62--------63--------64--------65--------66--------67--------68--------69--------70--------71--------72--------73
            LAT            LON  P-LENGHT     SWH_o     SWH_c     P-DIR      LINE     POINT     ROW-Y     COL-X  M-INTENC        dB      WIND INC-ANGLE  ENERGY-M  ENERGY-N  ENERGY-R ENERGY-NN  FG-DEPTH      FLAG         HEADING-DEG    E30-75   E75-390  E390-600 meanincut   meanout   cut/out  STD-NORM  SPEC-MAX   GL-MEAN    GL-VAR      CORR   ENTROPY   HOMOGEN    ENERGY  CONTRAST  DISSIMIL     STD-O    E 1-30 E600-2000   E2000 >      GODA  LONG-HIG     Tmean  CONVOLUT  MEAN-DIR  relation     Sy/Sx  SKEWNESS  KURTOSIS  cutoff-A >50/10000     INT*V   INT-LOG  S-1_g1f1  S-2_g1f2  S-3_g1f3  S-4_g2f1  S-5_g2f2  S-6_g2f3  S-7_g3f1  S-8_g3f2  S-9_g3f3 S-10_g1f4 S-11_g2f4 S-12_g3f4 S-13_g1f5 S-14_g2f5 S-15_g3f5 S-16_g4f1 S-17_g4f2 S-18_g4f3 S-19_g4f4 S-20_g4f5
--------------1--------------2---------3---------4---------5---------6---------7---------8---------9--------10--------11--------12--------13--------14--------15--------16--------17--------18--------19--------20------------------21--------22--------23--------24--------25--------26--------27--------28--------29--------30--------31--------32--------33--------34--------35--------36--------37--------38--------39--------40--------41--------42--------43--------44--------45--------46--------47--------48--------49--------50--------51--------52--------53--------54--------55--------56--------57--------58--------59--------60--------61--------62--------63--------64--------65--------66--------67--------68--------69--------70--------71--------72--------73--------74
     -56.608299     -15.698220     100.1      1.69      2.95      95.4         1         1      1000      1000   3380.02    -4.711       7.7      22.4   249.892     0.855      97.2   0.22834       6.4         H               197.3  0.113596  0.079059  0.001805  6.104906  1.108529  5.507213  1.311508     82.87    6.2224   70.0375   0.30614   5.70257   0.23021   0.00924  97.19376   6.22032    4432.5  0.659500  0.001291  0.000023  0.000361  0.158032  7.027188  0.900490     94.92  1.000295  1.000049     4.013    35.550     124.8      86.4     138.0     660.8     12.24      0.89      0.86      1.02     -0.35      3.37      1.95     -0.19      1.77     -0.11      0.24     -0.09      0.44      0.70      1.48     -7.91     -1.00      5.02      0.41      0.94
     -56.588863     -15.791179     102.9      1.76      2.95      94.2         1         2      1000      2567   3147.69    -5.020       8.1      22.9   250.229     0.858     335.5   0.23110       6.7         H               197.3  0.110725  0.079507  0.002788  6.168389  1.094334  5.636661  1.314546    100.50    5.7683   62.3413   0.31126   5.55857   0.24738   0.01087  85.87505   5.78088    4137.4  0.659908  0.005782  0.000256  0.000374  0.157814  7.056985  0.905340     93.14  1.000305  1.000051     3.939    33.792     128.8      85.0     119.5     609.4     12.37      0.87      1.45      0.15     -0.69      3.03      3.34      0.19      1.74      0.12      0.60     -0.60      0.14      1.08      1.37    -11.81     -2.66      4.25      1.38      2.35
     -56.569725     -15.882276     102.4      1.94      2.95      97.0         1         3      1000      4134   2897.47    -5.380       8.2      23.4   251.164     0.861     122.4   0.23178       6.7         H               197.3  0.109235  0.083318  0.001818  5.808666  1.095980  5.299973  1.314980     86.30    5.2807   53.6287   0.30900   5.39997   0.25934   0.01264  74.11421   5.34966    3810.2  0.665589  0.001699  0.000054  0.000395  0.157974  7.088289  0.907008     93.17  1.000316  1.000054     4.014    36.344     128.8      83.7     100.7     574.1     11.88     -0.19      1.81      1.72     -0.09      3.42      2.63      0.03      2.37     -0.82      0.33     -0.24      0.06      1.20      2.10     -7.15     -0.18      3.98      1.09      1.49
     -56.659027     -15.732270     100.5      1.86      2.95      91.4         2         1      2455      1000   3295.09    -4.821       7.4      22.4   254.985     0.878     104.2   0.23740       6.4         H               197.3  0.115411  0.085531  0.002197  6.294033  1.107173  5.684779  1.328959     85.82    6.0568   68.0052   0.31125   5.64818   0.23598   0.00984  93.67709   6.06822    4378.7  0.674692  0.001431  0.000026  0.000381  0.154216  7.052143  0.927516     92.71  1.000283  1.000048     4.290    45.622     121.0      85.9     133.7     722.5     12.11      0.46      0.88      0.75     -0.13      2.67      2.76      0.11      2.20      0.28     -0.18      0.30     -0.58      1.43      0.99     -9.27     -0.50      3.53     -0.82      3.63
     -56.639561     -15.825355     102.7      1.94      2.95      95.6         2         2      2455      2567   3070.92    -5.127       7.8      22.9   254.120     0.876     102.8   0.23712       6.7         H               197.3  0.113641  0.086438  0.001699  5.771359  1.114585  5.178034  1.325688    111.28    5.6308   60.5660   0.31255   5.51224   0.24928   0.01141  83.27145   5.67811    4071.1  0.673107  0.001357  0.000033  0.000427  0.153669  7.065943  0.923442     92.71  1.000328  1.000058     4.035    35.454     128.8      84.6     115.6     600.6     11.92      0.70      1.25      1.40     -0.19      2.93      2.44     -0.03      2.25      0.05      0.28      0.01     -0.38      1.47      1.51     -7.23     -0.63      3.51      0.59      2.68
     -56.620403     -15.916573     111.8      1.83      2.95      87.0         2         3      2455      4134   2757.67    -5.595       7.7      23.4   251.194     0.863     120.4   0.23269       8.1         H               197.3  0.113078  0.083895  0.001774  6.230083  1.113332  5.595888  1.317290     70.97    5.0138   49.0939   0.31218   5.30549   0.26838   0.01387  67.53336   5.09184    3632.2  0.663433  0.001617  0.000064  0.000355  0.160110  7.084492  0.910791     91.81  1.000306  1.000052     4.074    37.540     124.8      82.8      91.3     565.7     11.68      0.14      1.80      1.81     -0.32      3.55      2.74      0.05      2.68     -0.47      0.15      0.42      0.11      1.10      2.37     -6.12     -0.80      4.74     -0.16      1.63
     -56.709743     -15.766405     100.4      1.61      2.95      92.7         3         1      3910      1000   3313.88    -4.797       7.5      22.4   248.481     0.843      87.4   0.22206       6.4         H               197.3  0.110148  0.076610  0.001418  5.968457  1.102047  5.415792  1.300784     73.71    6.0978   67.2831   0.30384   5.66853   0.23272   0.00951  93.67899   6.10727    4310.2  0.654193  0.001185  0.000024  0.000372  0.152544  7.021086  0.887496     91.26  1.000294  1.000049     3.927    35.410     121.0      86.2     131.1     642.0     11.71      0.26      1.14      2.05      0.05      3.19      2.15      0.33      1.78      0.29     -0.04     -0.29     -0.16      0.72      1.51     -5.92     -0.69      4.58      0.31      1.38
     -56.690254     -15.859615     100.5      1.75      2.95      90.0         3         2      3910      2567   3064.37    -5.137       7.8      22.9   249.631     0.853     110.4   0.22848       6.4         H               197.3  0.110886  0.080431  0.001760  6.067373  1.096383  5.533990  1.310036     93.57    5.6147   59.2907   0.30775   5.51289   0.24871   0.01127  82.08743   5.65802    4014.5  0.659513  0.001494  0.000048  0.000363  0.159008  7.053076  0.898610     90.87  1.000325  1.000056     3.901    32.721     124.8      84.7     112.6     580.3     12.15      0.72      1.42      1.21     -0.48      3.53      2.31      0.14      2.11      0.32      0.43     -0.40     -0.13      1.01      2.03     -7.50     -1.78      4.47      0.58      1.17
     -56.671070     -15.950956     100.1      1.65      2.95      95.4         3         3      3910      4134   2724.58    -5.647       7.6      23.4   249.865     0.848     108.6   0.22462       6.4         H               197.3  0.108956  0.078356  0.001435  6.240363  1.082138  5.766697  1.305378     78.79    4.9512   47.4408   0.30496   5.28871   0.26872   0.01391  65.94724   5.04665    3556.5  0.658807  0.001480  0.000053  0.000357  0.157301  7.043269  0.892732     91.23  1.000307  1.000051     3.967    34.617     121.0      82.8      88.1     527.5     11.68      0.14      1.60      2.24      0.24      3.25      2.35     -0.15      2.52      0.11      0.02     -0.05     -0.11      1.23      2.14     -5.43      0.33      3.90      0.12      1.71
