corner points
-29.63590622    -69.54535675
-29.91102219    -69.69930267
-30.11315536    -69.43959045
-30.39059067    -69.59279633
========== RESULTS WAVE VERSION 16.10.2018 ====================
IMAGE SIZE  X: 5671     Y:4893    col:row     POLARIZATION:VV
COVERAGE    X: 21.9531762km       Y: 20.11985038km 
RESOLUTION dX: 3.871129642m       dY:4.111966151m  
resolution of original product 3.871129642m x 4.111966151m;   raster step x:5996.379815m  
===============================================================
FLAGS: H=HIGH PROBABILITY SEA STATE, I=LAND(ISLAND), O=OUTLIER NO SEA STATE, N=NO WIND AVAILABLE, SEA STATE NOT VISIBLE, M=MEAN PROBABILITY SEA STATE, L= LOW PROBABILITY SEA STATE
Filtering wave length
 integration  Lmin=1m
 integration  Lmax=2200m
  peak        Lmin=100m
               FFT=1024pixels, 3964.036753m 
   mean-Hs (SWH_c)=0.04444444656m
         mean-wind=2.456172943m/s
--------------0--------------1---------2---------3---------4---------5---------6---------7---------8---------9--------10--------11--------12--------13--------14--------15--------16--------17--------18--------19------------------20--------21--------22--------23--------24--------25--------26--------27--------28--------29--------30--------31--------32--------33--------34--------35--------36--------37--------38--------39--------40--------41--------42--------43--------44--------45--------46--------47--------48--------49--------50--------51--------52--------53--------54--------55--------56--------57--------58--------59--------60--------61--------62--------63--------64--------65--------66--------67--------68--------69--------70--------71--------72--------73
            LAT            LON  P-LENGHT     SWH_o     SWH_c     P-DIR      LINE     POINT     ROW-Y     COL-X  M-INTENC        dB      WIND INC-ANGLE  ENERGY-M  ENERGY-N  ENERGY-R ENERGY-NN  FG-DEPTH      FLAG         HEADING-DEG    E30-75   E75-390  E390-600 meanincut   meanout   cut/out  STD-NORM  SPEC-MAX   GL-MEAN    GL-VAR      CORR   ENTROPY   HOMOGEN    ENERGY  CONTRAST  DISSIMIL     STD-O    E 1-30 E600-2000   E2000 >      GODA  LONG-HIG     Tmean  CONVOLUT  MEAN-DIR  relation     Sy/Sx  SKEWNESS  KURTOSIS  cutoff-A >50/10000     INT*V   INT-LOG  S-1_g1f1  S-2_g1f2  S-3_g1f3  S-4_g2f1  S-5_g2f2  S-6_g2f3  S-7_g3f1  S-8_g3f2  S-9_g3f3 S-10_g1f4 S-11_g2f4 S-12_g3f4 S-13_g1f5 S-14_g2f5 S-15_g3f5 S-16_g4f1 S-17_g4f2 S-18_g4f3 S-19_g4f4 S-20_g4f5
--------------1--------------2---------3---------4---------5---------6---------7---------8---------9--------10--------11--------12--------13--------14--------15--------16--------17--------18--------19--------20------------------21--------22--------23--------24--------25--------26--------27--------28--------29--------30--------31--------32--------33--------34--------35--------36--------37--------38--------39--------40--------41--------42--------43--------44--------45--------46--------47--------48--------49--------50--------51--------52--------53--------54--------55--------56--------57--------58--------59--------60--------61--------62--------63--------64--------65--------66--------67--------68--------69--------70--------71--------72--------73--------74
     -69.557716     -29.778950     382.5      0.17      1.94      50.5         1         1      1000      1000   1280.62    -8.926       2.5      22.1   207.440     0.832     956.8   0.20156     100.0         H               206.6  0.088767  0.071983  0.012334  5.264623  1.753233  3.002809  1.292389     55.47    2.0853   10.6429   0.29393   3.78415   0.45544   0.06389  15.02932   2.30800    1654.8  0.635833  0.022926  0.000638  0.000112  0.226071  7.363456  0.882779     61.20  1.000001  0.999999     3.402    24.452      90.6      63.4      18.5     206.8     14.22      1.71     -0.48     -5.53     -0.82      0.15      4.73      0.58      0.38     -0.13      0.58     -0.32     -0.06      0.38     -0.30    -28.22     -3.70      0.18      1.49      1.36
     -69.528473     -29.911375     387.5      0.16      1.94      23.0         1         2      1000      2549   1022.38    -9.904       2.3      22.6   221.352     0.915    1286.2   0.23684     100.0         H               206.6  0.098112  0.094652  0.017495  6.563201  1.979822  3.315047  1.362955     83.60    1.6040    7.5675   0.31611   3.34242   0.52385   0.09955  10.35058   1.82187    1393.4  0.678843  0.025983  0.000846  0.000123  0.238215  7.503812  0.977462     67.46  0.999955  0.999996     3.736    27.139      94.9      55.9      12.8     168.3     14.94      1.11     -0.16     -6.78     -1.19      0.48      4.44      1.05     -0.83     -0.40      0.64     -0.34      0.82     -0.49     -0.14    -30.27     -4.66      1.96      1.53     -1.02
     -69.499695     -30.040901     390.3      0.16      1.94      62.4         1         3      1000      4098    919.36   -10.365       2.2      23.1   234.793     0.990    2593.1   0.26845     100.0         H               206.6  0.105485  0.097568  0.016404  6.795457  2.075444  3.274219  1.419830     78.04    1.4111    6.6658   0.33402   3.11683   0.56568   0.12886   8.87842   1.61789    1305.1  0.720448  0.048692  0.002121  0.000119  0.233743  7.450930  1.062666     97.08  0.999754  0.999987     3.929    29.246     121.0      51.4      11.0     162.1     14.41     -0.11     -0.82     -5.86     -0.46      0.09      4.13      0.80      0.44      0.41     -0.65     -0.11     -0.55      1.07     -0.41    -27.78     -1.96      0.45     -0.90      2.52
     -69.603607     -29.860960     390.3      0.17      1.94      62.4         2         1      2459      1000   1245.39    -9.047       2.5      22.1   205.321     0.821     850.3   0.19778     100.0         H               206.6  0.091109  0.065000  0.012901  4.615972  1.899533  2.430056  1.282547     44.98    2.0178    9.9800   0.29079   3.74374   0.45442   0.06242  14.15576   2.24422    1597.3  0.631593  0.021005  0.000458  0.000112  0.223994  7.273925  0.870940     77.44  0.999774  0.999986     3.608    26.485      84.8      63.8      17.5     193.6     14.19      1.21     -1.45     -6.30     -0.51      1.11      5.34      0.53     -1.71      0.07     -0.45      0.22      0.10      0.13      0.27    -30.58     -2.91      6.32     -1.05     -0.12
     -69.574303     -29.993578     381.0      0.16      1.94       5.5         2         2      2459      2549   1051.62    -9.781       2.4      22.6   215.572     0.882    1049.7   0.22391     100.0         H               206.6  0.098985  0.080425  0.015887  5.453112  2.038121  2.675558  1.337751     66.65    1.6733    7.7802   0.30651   3.41994   0.51234   0.09216  10.79087   1.88932    1406.7  0.661726  0.025367  0.000751  0.000116  0.231736  7.369461  0.940568     79.06  0.999749  0.999984     3.670    26.685      90.6      57.4      13.4     174.1     14.47      0.92     -1.57     -6.80     -0.43      1.02      5.32      0.29     -0.42     -0.06     -0.50      0.49      0.05      0.29      0.48    -31.23     -2.37      3.97     -1.97      0.62
     -69.545471     -30.123291     387.5      0.17      1.94      23.0         2         3      2459      4098   1039.39    -9.832       2.5      23.1   225.636     0.937    1507.5   0.24647     100.0         H               206.6  0.109010  0.087078  0.016031  6.404471  2.191046  2.923020  1.377740     55.18    1.6554    7.9882   0.31762   3.37234   0.53510   0.10388  10.90199   1.83946    1431.8  0.690540  0.034238  0.001016  0.000110  0.222277  7.300361  1.002375     79.22  0.999875  0.999993     3.730    27.601      99.7      55.7      13.5     175.4     14.23      0.48     -0.90     -5.89      0.03      0.64      5.05      0.23     -0.56      0.07     -0.32      0.43      0.79     -0.67      0.74    -29.62     -0.55      2.87     -1.33     -2.39
     -69.649467     -29.943314     390.3      0.16      1.94      62.4         3         1      3918      1000   1055.74    -9.764       2.3      22.1   213.440     0.870    1618.8   0.21819     100.0         H               206.6  0.094137  0.070125  0.014379  4.795141  1.966893  2.437927  1.329740     71.64    1.6602    7.6351   0.30637   3.41625   0.50851   0.08888  10.59171   1.87783    1403.6  0.652719  0.037922  0.001138  0.000114  0.224407  7.282718  0.926512     64.48  0.999788  0.999988     3.788    28.626     117.4      57.9      13.2     179.3     14.37      2.11     -0.88     -7.05     -1.32     -0.20      5.58      0.62     -0.41      0.69     -1.06      0.61      0.09      0.55     -0.03    -32.09     -4.74      1.25     -3.36      0.82
     -69.620094     -30.076126     387.5      0.20      1.94      23.0         3         2      3918      2549   1214.81    -9.155       2.6      22.6   195.364     0.757     469.2   0.17152     100.0         H               206.6  0.092038  0.049157  0.005943  3.463790  1.933900  1.791091  1.240945     29.43    1.9625    8.6913   0.26572   3.72163   0.45355   0.06164  12.76367   2.19017    1507.5  0.599921  0.010037  0.000348  0.000108  0.198667  7.051217  0.796001     60.50  0.999897  0.999991     3.728    36.957      49.7      63.9      16.1     235.9     12.40      1.66     -2.51     -2.56     -0.88     -0.35      3.66      0.72     -0.73      0.60     -0.17     -0.07      0.30      0.51      0.38    -19.51     -3.45      2.56     -0.64      0.37
     -69.591202     -30.206024     371.9      0.20      1.94     152.0         3         3      3918      4098   1170.74    -9.315       2.9      23.1   190.872     0.731     332.5   0.16072     100.0         H               206.6  0.087354  0.045330  0.004943  3.265459  1.772767  1.842013  1.216797     26.24    1.8870    7.9016   0.25600   3.66395   0.46051   0.06430  11.75770   2.11672    1424.4  0.587058  0.007092  0.000197  0.000104  0.194089  7.026612  0.766802     90.86  0.999879  0.999991     3.261    23.047      43.7      63.2      14.7     172.3     12.22     -0.07     -2.70     -2.13      0.37     -0.32      3.39     -0.33     -0.43      0.31     -0.15     -0.08      0.61      0.57     -0.21    -18.01      1.20      2.43     -0.58      0.73
