corner points
-4.606347084    -24.14688301
-4.653782368    -24.32034874
-4.802510738    -24.10079956
-4.85022974    -24.27418709
========== RESULTS WAVE VERSION 16.10.2018 ====================
IMAGE SIZE  X: 4486     Y:4778    col:row     POLARIZATION:VV
COVERAGE    X: 20.51224325km       Y: 19.8341756km 
RESOLUTION dX: 4.572501839m       dY:4.151146003m  
resolution of original product 4.572501839m x 4.151146003m;   raster step x:5999.122413m  
===============================================================
FLAGS: H=HIGH PROBABILITY SEA STATE, I=LAND(ISLAND), O=OUTLIER NO SEA STATE, N=NO WIND AVAILABLE, SEA STATE NOT VISIBLE, M=MEAN PROBABILITY SEA STATE, L= LOW PROBABILITY SEA STATE
Filtering wave length
 integration  Lmin=1m
 integration  Lmax=2200m
  peak        Lmin=100m
               FFT=1024pixels, 4682.241883m 
   mean-Hs (SWH_c)=0.943838501m
         mean-wind=13.95473194m/s
--------------0--------------1---------2---------3---------4---------5---------6---------7---------8---------9--------10--------11--------12--------13--------14--------15--------16--------17--------18--------19------------------20--------21--------22--------23--------24--------25--------26--------27--------28--------29--------30--------31--------32--------33--------34--------35--------36--------37--------38--------39--------40--------41--------42--------43--------44--------45--------46--------47--------48--------49--------50--------51--------52--------53--------54--------55--------56--------57--------58--------59--------60--------61--------62--------63--------64--------65--------66--------67--------68--------69--------70--------71--------72--------73
            LAT            LON  P-LENGHT     SWH_o     SWH_c     P-DIR      LINE     POINT     ROW-Y     COL-X  M-INTENC        dB      WIND INC-ANGLE  ENERGY-M  ENERGY-N  ENERGY-R ENERGY-NN  FG-DEPTH      FLAG         HEADING-DEG    E30-75   E75-390  E390-600 meanincut   meanout   cut/out  STD-NORM  SPEC-MAX   GL-MEAN    GL-VAR      CORR   ENTROPY   HOMOGEN    ENERGY  CONTRAST  DISSIMIL     STD-O    E 1-30 E600-2000   E2000 >      GODA  LONG-HIG     Tmean  CONVOLUT  MEAN-DIR  relation     Sy/Sx  SKEWNESS  KURTOSIS  cutoff-A >50/10000     INT*V   INT-LOG  S-1_g1f1  S-2_g1f2  S-3_g1f3  S-4_g2f1  S-5_g2f2  S-6_g2f3  S-7_g3f1  S-8_g3f2  S-9_g3f3 S-10_g1f4 S-11_g2f4 S-12_g3f4 S-13_g1f5 S-14_g2f5 S-15_g3f5 S-16_g4f1 S-17_g4f2 S-18_g4f3 S-19_g4f4 S-20_g4f5
--------------1--------------2---------3---------4---------5---------6---------7---------8---------9--------10--------11--------12--------13--------14--------15--------16--------17--------18--------19--------20------------------21--------22--------23--------24--------25--------26--------27--------28--------29--------30--------31--------32--------33--------34--------35--------36--------37--------38--------39--------40--------41--------42--------43--------44--------45--------46--------47--------48--------49--------50--------51--------52--------53--------54--------55--------56--------57--------58--------59--------60--------61--------62--------63--------64--------65--------66--------67--------68--------69--------70--------71--------72--------73--------74
     -24.172819      -4.660542     248.6      0.92      1.90       6.1         1         1      1000      1000    601.10   -12.211      13.7      36.4   239.264     0.549      86.0   0.07285      69.4         H               192.5  0.048123  0.013423  0.000511  1.181830  0.685074  1.725111  1.051783      9.79   11.4214  144.8403   0.10858   6.91372   0.11954   0.00194 258.22968  11.40044     632.3  0.485779  0.001474  0.000165  0.000122  0.164752  6.714441  0.553158     95.33  0.999989  1.000000     2.314    11.838      75.2      96.0     345.0     648.0     11.72     -0.10     -3.95      0.40      0.41      2.03      0.87     -0.72      1.23     -0.28     -0.02      0.58      0.21     -0.93      0.13     -8.04      1.84      4.21     -0.91     -0.99
     -24.159290      -4.718169     241.6      0.86      1.90      14.9         1         2      1000      2312    571.76   -12.428      13.6      36.8   239.146     0.548      78.1   0.07203      59.9         H               192.5  0.047957  0.013345  0.000539  1.173664  0.682969  1.718474  1.049998      7.09   10.8597  132.7424   0.10767   6.82483   0.12465   0.00214 236.89803  10.88117     600.4  0.484528  0.001372  0.000135  0.000118  0.164920  6.709574  0.551401     93.01  0.999999  1.000000     2.306    11.751      75.2      95.6     310.2     608.8     11.71     -0.08     -3.69      0.54      0.57      1.90      0.74     -0.40      0.81      0.31     -0.37      0.53      0.29     -0.61      0.57     -8.28      1.87      4.91     -1.93     -0.98
     -24.145861      -4.775280     241.6      1.04      1.90      14.9         1         3      1000      3624    624.61   -12.044      14.6      37.2   236.823     0.544      75.7   0.07327      59.9         H               192.5  0.048053  0.013171  0.000618  1.160437  0.687548  1.687789  1.046855      8.18   11.8733  154.0950   0.10997   6.98239   0.11522   0.00180 274.29901  11.79978     653.9  0.481371  0.001268  0.000137  0.000125  0.162001  6.683626  0.547998     95.39  1.000016  1.000001     2.255    11.117      72.4      96.2     372.3     646.9     11.55     -0.09     -3.79      0.32      0.17      1.73      1.64     -0.95      1.02      0.08     -0.75      0.74      0.29     -0.89      0.35     -9.43      1.62      4.79     -2.51     -1.60
     -24.225286      -4.674904     233.5      0.95      1.90       8.6         2         1      2445      1000    616.93   -12.098      13.9      36.4   238.603     0.549     122.6   0.07402      51.9         H               192.5  0.049399  0.013318  0.000516  1.160685  0.697925  1.663050  1.051901      7.87   11.7211  151.4332   0.11144   6.95856   0.11684   0.00185 269.11658  11.66006     648.9  0.483890  0.001761  0.000285  0.000126  0.163397  6.682183  0.553065     95.09  1.000001  0.999999     2.306    11.707      73.8      96.2     364.6     672.6     11.66     -0.02     -3.50      0.62      0.63      1.52      0.69     -0.54      1.13      0.47     -0.59      0.44      0.12     -0.49      0.24     -7.63      1.76      3.81     -2.08     -0.19
     -24.211752      -4.732556     235.9      0.92      1.90       2.9         2         2      2445      2312    584.92   -12.329      13.8      36.8   239.528     0.549      93.8   0.07322      54.0         H               192.5  0.048378  0.013595  0.000517  1.182192  0.691179  1.710399  1.051996      9.06   11.1109  138.5382   0.10895   6.86444   0.12191   0.00205 246.89073  11.11973     615.3  0.485653  0.001379  0.000207  0.000129  0.162351  6.687277  0.553222     94.99  1.000006  1.000001     2.299    11.527      75.2      95.7     326.0     610.5     11.56     -0.37     -3.84      0.60      0.42      1.58      1.03     -0.59      1.06      0.60     -0.33      0.37      0.31     -0.81      0.17     -7.82      1.79      4.04     -1.43     -0.89
     -24.198315      -4.789693     249.7      1.04      1.90       3.1         2         3      2445      3624    606.91   -12.169      14.4      37.2   237.855     0.546      70.5   0.07314      71.2         H               192.5  0.048488  0.013907  0.000475  1.212317  0.703589  1.723048  1.049136      8.75   11.5340  147.1445   0.10990   6.93115   0.11860   0.00191 261.94772  11.49401     636.7  0.482761  0.001030  0.000149  0.000125  0.163001  6.699395  0.550589     94.90  1.000000  0.999999     2.264    11.109      72.4      96.0     351.1     612.3     11.63     -0.23     -3.87      0.73      0.75      1.41      0.52     -0.72      0.97      0.24     -0.52      0.51     -0.24     -0.65      0.21     -7.16      2.24      3.59     -1.80     -0.39
     -24.277752      -4.689280     238.1      0.93      1.90      17.8         3         1      3890      1000    606.08   -12.175      13.8      36.4   237.574     0.546      84.2   0.07289      56.2         H               192.5  0.048351  0.013351  0.000537  1.186453  0.686748  1.727639  1.048805      6.50   11.5212  146.9176   0.10979   6.92921   0.11857   0.00191 261.57486  11.47813     635.6  0.482568  0.001378  0.000182  0.000128  0.162852  6.691254  0.550098     94.85  1.000011  1.000001     2.261    11.094      73.8      96.0     350.0     621.5     11.73     -0.30     -3.58      0.38      0.47      1.72      0.99     -0.29      0.67      0.25     -0.49      0.44     -0.06     -0.70      0.89     -8.74      1.62      4.91     -1.98     -1.82
     -24.264212      -4.746957     264.0      0.87      1.90     173.5         3         2      3890      2312    572.51   -12.422      13.6      36.8   238.333     0.549      90.7   0.07344     218.4         H               192.5  0.048581  0.013506  0.000555  1.185327  0.682994  1.735486  1.051348      6.69   10.8751  133.6698   0.11099   6.82647   0.12474   0.00214 237.66772  10.89292     601.9  0.484980  0.001409  0.000198  0.000136  0.162422  6.678312  0.553270     95.90  0.999995  0.999998     2.284    11.337      75.2      95.6     311.7     584.6     11.73     -0.24     -3.82      0.26      0.41      2.16      1.11     -0.09      0.25      0.48     -0.31      0.52      0.18     -0.86      0.90     -8.87      1.21      6.41     -1.69     -2.18
     -24.250767      -4.804118     235.0      0.96      1.90       5.8         3         3      3890      3624    590.28   -12.289      14.1      37.2   238.288     0.546      76.2   0.07228      53.2         H               192.5  0.048196  0.013498  0.000427  1.177349  0.683759  1.721877  1.048329      7.07   11.2192  140.4768   0.10781   6.88285   0.12109   0.00201 250.66321  11.22268     618.8  0.482692  0.001107  0.000150  0.000128  0.162842  6.688709  0.549477     96.25  1.000007  1.000001     2.261    11.215      73.8      95.7     330.9     617.5     11.54      0.14     -3.53      1.09      0.17      1.17      0.33     -0.42      1.53     -0.35     -0.40      0.61      0.03     -0.41      0.23     -6.35      0.58      2.48     -1.17     -0.52
