corner points
-0.02555910125    -13.083251
-0.0659725219    -13.26356506
-0.213788718    -13.04155159
-0.2544101775    -13.22181129
========== RESULTS WAVE VERSION 16.10.2018 ====================
IMAGE SIZE  X: 5671     Y:4926    col:row     POLARIZATION:VV
COVERAGE    X: 20.86676982km       Y: 20.47553229km 
RESOLUTION dX: 3.679557365m       dY:4.156624501m  
resolution of original product 3.679557365m x 4.156624501m;   raster step x:5997.678504m  
===============================================================
FLAGS: H=HIGH PROBABILITY SEA STATE, I=LAND(ISLAND), O=OUTLIER NO SEA STATE, N=NO WIND AVAILABLE, SEA STATE NOT VISIBLE, M=MEAN PROBABILITY SEA STATE, L= LOW PROBABILITY SEA STATE
Filtering wave length
 integration  Lmin=1m
 integration  Lmax=2200m
  peak        Lmin=100m
               FFT=1024pixels, 3767.866741m 
   mean-Hs (SWH_c)=0.3172858047m
         mean-wind=7.013374805m/s
--------------0--------------1---------2---------3---------4---------5---------6---------7---------8---------9--------10--------11--------12--------13--------14--------15--------16--------17--------18--------19------------------20--------21--------22--------23--------24--------25--------26--------27--------28--------29--------30--------31--------32--------33--------34--------35--------36--------37--------38--------39--------40--------41--------42--------43--------44--------45--------46--------47--------48--------49--------50--------51--------52--------53--------54--------55--------56--------57--------58--------59--------60--------61--------62--------63--------64--------65--------66--------67--------68--------69--------70--------71--------72--------73
            LAT            LON  P-LENGHT     SWH_o     SWH_c     P-DIR      LINE     POINT     ROW-Y     COL-X  M-INTENC        dB      WIND INC-ANGLE  ENERGY-M  ENERGY-N  ENERGY-R ENERGY-NN  FG-DEPTH      FLAG         HEADING-DEG    E30-75   E75-390  E390-600 meanincut   meanout   cut/out  STD-NORM  SPEC-MAX   GL-MEAN    GL-VAR      CORR   ENTROPY   HOMOGEN    ENERGY  CONTRAST  DISSIMIL     STD-O    E 1-30 E600-2000   E2000 >      GODA  LONG-HIG     Tmean  CONVOLUT  MEAN-DIR  relation     Sy/Sx  SKEWNESS  KURTOSIS  cutoff-A >50/10000     INT*V   INT-LOG  S-1_g1f1  S-2_g1f2  S-3_g1f3  S-4_g2f1  S-5_g2f2  S-6_g2f3  S-7_g3f1  S-8_g3f2  S-9_g3f3 S-10_g1f4 S-11_g2f4 S-12_g3f4 S-13_g1f5 S-14_g2f5 S-15_g3f5 S-16_g4f1 S-17_g4f2 S-18_g4f3 S-19_g4f4 S-20_g4f5
--------------1--------------2---------3---------4---------5---------6---------7---------8---------9--------10--------11--------12--------13--------14--------15--------16--------17--------18--------19--------20------------------21--------22--------23--------24--------25--------26--------27--------28--------29--------30--------31--------32--------33--------34--------35--------36--------37--------38--------39--------40--------41--------42--------43--------44--------45--------46--------47--------48--------49--------50--------51--------52--------53--------54--------55--------56--------57--------58--------59--------60--------61--------62--------63--------64--------65--------66--------67--------68--------69--------70--------71--------72--------73--------74
     -13.112321      -0.067856     289.3      0.46      1.54     162.1         1         1      1000      1000   2688.75    -5.705       7.6      23.4   376.193     0.688     119.8   0.15294     100.0         H               192.1  0.078559  0.025377  0.000932  2.459797  0.906052  2.714853  1.176365     13.23    4.8778   38.8711   0.24433   5.31085   0.25401   0.01183  58.74650   4.98993    3163.0  0.581786  0.001980  0.000111  0.000156  0.166408  6.779270  0.719007     81.43  1.000199  1.000019     3.165    22.041      75.2      84.5      73.9     407.1     11.76      1.29     -2.02      1.16      0.94      1.87      1.45     -0.12      1.43      0.81      0.83     -0.30     -0.98     -0.98      0.68     -7.85      0.28      2.64      1.80     -0.90
     -13.100204      -0.122586     353.1      0.42      1.54       5.4         1         2      1000      2630   2242.67    -6.492       6.8      23.9   377.189     0.688      70.4   0.15248     100.0         H               192.1  0.078704  0.026425  0.001001  2.532782  0.905008  2.798630  1.175552     12.50    4.0131   27.5526   0.24345   4.95965   0.28965   0.01678  41.68965   4.17333    2636.2  0.581440  0.001108  0.000036  0.000153  0.165571  6.790675  0.718531     81.34  1.000173  1.000017     3.132    21.095      72.4      81.1      51.5     318.1     11.76      1.11     -2.53      0.72      0.71      1.70      1.40     -0.27      0.90      1.30      0.27     -0.53     -0.42     -1.53      0.88     -8.24      0.59      3.74      0.82     -2.37
     -13.088296      -0.176310     300.3      0.42      1.54     156.5         1         3      1000      4260   2057.93    -6.866       6.9      24.4   380.450     0.697     101.0   0.15558     100.0         H               192.1  0.080263  0.027437  0.000959  2.548842  0.901136  2.828476  1.183681     18.16    3.6327   23.3561   0.24657   4.78122   0.30949   0.02014  35.19439   3.81360    2436.0  0.587164  0.001658  0.000068  0.000163  0.169686  6.797286  0.728393     81.28  1.000182  1.000020     3.225    22.987      76.6      79.1      43.4     316.5     12.00      0.62     -2.68      0.61      1.28      1.84      0.92     -0.08      1.64      0.89     -0.21      0.18     -0.81     -1.10      0.57     -8.24      1.61      2.61      0.02     -1.08
     -13.165150      -0.079705     295.5      0.45      1.54     166.4         2         1      2443      1000   2638.73    -5.786       7.4      23.4   378.269     0.690      61.0   0.15316     100.0         H               192.1  0.079836  0.025242  0.000737  2.430042  0.899691  2.700974  1.178892     11.90    4.7902   37.6962   0.24365   5.27760   0.25719   0.01227  57.02301   4.91060    3110.7  0.583764  0.001014  0.000026  0.000159  0.163974  6.769394  0.720651     80.68  1.000166  1.000016     3.192    22.639      72.4      84.1      71.4     402.4     11.46      0.56     -2.38      1.75      1.31      1.48      1.06     -0.15      1.36      1.44     -0.10     -0.15     -0.89     -1.29      0.54     -6.21      1.75      2.47     -0.25     -1.37
     -13.153028      -0.134454     322.6      0.43      1.54       9.9         2         2      2443      2630   2299.02    -6.385       7.0      23.9   381.167     0.698      94.0   0.15640     100.0         H               192.1  0.081741  0.026962  0.000843  2.529486  0.916556  2.759772  1.184564     17.03    4.1170   29.1719   0.24603   5.00305   0.28569   0.01622  43.98869   4.27812    2723.3  0.587615  0.001503  0.000067  0.000159  0.164815  6.780715  0.729346     80.45  1.000162  1.000018     3.230    23.292      75.2      81.4      54.5     354.0     11.63      1.17     -3.08      1.11      0.80      2.43      1.32     -0.11      0.93      0.79      1.06     -0.11      0.27     -1.53      0.21     -7.21      0.79      4.79      1.53     -1.99
     -13.141116      -0.188195     300.3      0.43      1.54     156.5         2         3      2443      4260   2080.75    -6.818       7.0      24.4   385.676     0.711      99.4   0.16108     100.0         H               192.1  0.084409  0.026619  0.000816  2.638752  0.920383  2.867014  1.194558      9.22    3.6843   24.3581   0.24926   4.80312   0.30759   0.01987  36.57314   3.87018    2485.4  0.597848  0.001522  0.000079  0.000165  0.162030  6.769648  0.742760     82.50  1.000173  1.000020     3.315    24.347      78.1      79.3      45.1     319.4     11.30      1.09     -1.60      2.14      0.77      1.91      1.70      0.07      1.25      0.93      0.49      0.52     -0.81     -0.98      0.79     -5.88      0.42      3.12      0.25     -1.53
     -13.217978      -0.091560     326.2      0.41      1.54       5.0         3         1      3886      1000   2477.96    -6.059       6.8      23.4   386.624     0.717      89.3   0.16403     100.0         H               192.1  0.086266  0.027331  0.000882  2.604211  0.929834  2.800729  1.200024     15.40    4.4604   34.2885   0.25243   5.14271   0.27241   0.01428  51.26595   4.60529    2973.6  0.601504  0.001437  0.000063  0.000163  0.164255  6.760468  0.750276     81.75  1.000175  1.000022     3.405    27.052      78.1      82.7      64.2     427.2     11.74      1.23     -2.62      1.07      1.15      2.06      1.16      0.03      1.31      1.10      0.66     -0.09     -0.32     -1.37      0.64     -7.35      0.82      3.85      0.95     -1.64
     -13.205851      -0.146327     348.6      0.41      1.54      10.7         3         2      3886      2630   2213.17    -6.550       6.7      23.9   385.930     0.719      87.8   0.16588     100.0         H               192.1  0.086084  0.027158  0.000960  2.623027  0.924108  2.838441  1.201441     14.50    3.9445   27.7029   0.25506   4.92153   0.29587   0.01783  41.27420   4.11147    2658.8  0.603344  0.001457  0.000054  0.000172  0.164704  6.747248  0.752165     82.08  1.000186  1.000022     3.402    26.686      79.7      80.4      51.3     369.2     11.98      1.10     -1.86      0.92      0.73      2.34      1.28     -0.79      1.18      0.41      0.27     -0.04      0.14     -1.25      0.89     -8.17      0.99      3.43      0.44     -2.11
     -13.193934      -0.200085     369.8      1.26      1.54     162.9         3         3      3886      4260   2068.38    -6.844       6.9      24.4   659.789     1.318     298.9   0.39445     100.0         H               192.1  0.177488  0.090626  0.005649  8.170478  2.774663  2.944674  1.646315     44.74    3.6364   24.7122   0.26514   4.77326   0.31197   0.02067  36.32024   3.82213    3405.1  1.039045  0.006226  0.000112  0.000149  0.188371  7.064031  1.411093    130.57  1.000115  1.000007    92.874  9999.000      57.7      78.8      51.5     826.4     12.36     -5.25     -1.38     -0.48     -1.17      0.61      2.23      0.38      0.10      0.36     -0.62     -0.09     -2.81     -2.44      0.03    -12.57      1.54      1.73     -0.86     -1.72
