corner points
-5.609915257    -27.65009308
-5.660375118    -27.82320976
-5.811837673    -27.6024437
-5.862633705    -27.77547455
========== RESULTS WAVE VERSION 16.10.2018 ====================
IMAGE SIZE  X: 4486     Y:4780    col:row     POLARIZATION:VV
COVERAGE    X: 20.54236203km       Y: 19.83532443km 
RESOLUTION dX: 4.57921579m       dY:4.149649462m  
resolution of original product 4.57921579m x 4.149649462m;   raster step x:5998.772685m  
===============================================================
FLAGS: H=HIGH PROBABILITY SEA STATE, I=LAND(ISLAND), O=OUTLIER NO SEA STATE, N=NO WIND AVAILABLE, SEA STATE NOT VISIBLE, M=MEAN PROBABILITY SEA STATE, L= LOW PROBABILITY SEA STATE
Filtering wave length
 integration  Lmin=1m
 integration  Lmax=2200m
  peak        Lmin=100m
               FFT=1024pixels, 4689.116969m 
   mean-Hs (SWH_c)=0.5209468079m
         mean-wind=12.05843735m/s
--------------0--------------1---------2---------3---------4---------5---------6---------7---------8---------9--------10--------11--------12--------13--------14--------15--------16--------17--------18--------19------------------20--------21--------22--------23--------24--------25--------26--------27--------28--------29--------30--------31--------32--------33--------34--------35--------36--------37--------38--------39--------40--------41--------42--------43--------44--------45--------46--------47--------48--------49--------50--------51--------52--------53--------54--------55--------56--------57--------58--------59--------60--------61--------62--------63--------64--------65--------66--------67--------68--------69--------70--------71--------72--------73
            LAT            LON  P-LENGHT     SWH_o     SWH_c     P-DIR      LINE     POINT     ROW-Y     COL-X  M-INTENC        dB      WIND INC-ANGLE  ENERGY-M  ENERGY-N  ENERGY-R ENERGY-NN  FG-DEPTH      FLAG         HEADING-DEG    E30-75   E75-390  E390-600 meanincut   meanout   cut/out  STD-NORM  SPEC-MAX   GL-MEAN    GL-VAR      CORR   ENTROPY   HOMOGEN    ENERGY  CONTRAST  DISSIMIL     STD-O    E 1-30 E600-2000   E2000 >      GODA  LONG-HIG     Tmean  CONVOLUT  MEAN-DIR  relation     Sy/Sx  SKEWNESS  KURTOSIS  cutoff-A >50/10000     INT*V   INT-LOG  S-1_g1f1  S-2_g1f2  S-3_g1f3  S-4_g2f1  S-5_g2f2  S-6_g2f3  S-7_g3f1  S-8_g3f2  S-9_g3f3 S-10_g1f4 S-11_g2f4 S-12_g3f4 S-13_g1f5 S-14_g2f5 S-15_g3f5 S-16_g4f1 S-17_g4f2 S-18_g4f3 S-19_g4f4 S-20_g4f5
--------------1--------------2---------3---------4---------5---------6---------7---------8---------9--------10--------11--------12--------13--------14--------15--------16--------17--------18--------19--------20------------------21--------22--------23--------24--------25--------26--------27--------28--------29--------30--------31--------32--------33--------34--------35--------36--------37--------38--------39--------40--------41--------42--------43--------44--------45--------46--------47--------48--------49--------50--------51--------52--------53--------54--------55--------56--------57--------58--------59--------60--------61--------62--------63--------64--------65--------66--------67--------68--------69--------70--------71--------72--------73--------74
     -27.675592      -5.666043     184.6      0.73      1.81     177.7         1         1      1000      1000    536.53   -12.704      12.8      36.4   240.099     0.533      82.0   0.06559      25.5         H               192.6  0.041959  0.012058  0.000503  0.997477  0.652842  1.527899  1.036350      6.89   10.1888  116.9062   0.09388   6.71368   0.12964   0.00237 211.86179  10.28672     556.0  0.477352  0.001373  0.000162  0.000091  0.174715  6.803311  0.535131     83.44  0.999981  0.999999     2.215    10.786      66.4      95.1     266.6     526.6     11.61      0.64     -4.07      0.60     -0.58      0.96      0.31      0.04      0.84     -0.69      0.21      0.06      0.04     -0.42      0.90     -8.28     -1.34      4.59      1.05     -1.98
     -27.661625      -5.725276     184.6      0.70      1.81     177.7         1         2      1000      2310    487.84   -13.117      12.3      36.7   240.672     0.535      90.1   0.06516      25.5         H               192.6  0.042149  0.012368  0.000554  0.983366  0.675462  1.455842  1.038083      8.99    9.2376   98.7912   0.09453   6.53344   0.14094   0.00288 178.90434   9.39253     506.4  0.478666  0.001397  0.000190  0.000091  0.178325  6.816190  0.537755    101.91  1.000001  1.000000     2.211    10.694      66.4      94.2     218.4     479.0     11.98      0.83     -4.38      0.08     -0.13      1.06     -0.08     -0.21      1.24     -0.35     -0.16      0.45      0.29     -0.36      0.26     -9.05     -0.62      4.00     -0.40     -1.24
     -27.647757      -5.783977     211.6      0.63      1.81       5.2         1         3      1000      3620    381.67   -14.183      10.8      37.1   240.849     0.531     131.5   0.06115      37.2         H               192.6  0.040435  0.011577  0.000555  0.931773  0.655838  1.420736  1.034972      6.10    7.1393   61.6536   0.08645   6.05608   0.17211   0.00465 112.64629   7.39540     395.0  0.476978  0.001753  0.000340  0.000091  0.174137  6.800786  0.533794     78.99  0.999958  0.999997     2.207    10.799      71.1      91.4     129.3     384.0     11.65      0.35     -4.37      0.29     -0.45      0.97      0.54      0.37      0.57     -0.28      0.06     -0.15      0.10     -0.64      1.16     -9.15     -1.83      4.94      0.36     -2.55
     -27.727930      -5.681317     223.4      0.76      1.81     177.3         2         1      2445      1000    538.33   -12.690      12.8      36.4   240.073     0.535      78.9   0.06614      44.2         H               192.6  0.042101  0.013011  0.000653  0.978842  0.677293  1.445226  1.038318      8.81   10.2239  118.1634   0.09733   6.71917   0.12993   0.00237 213.32425  10.31632     559.0  0.478375  0.001290  0.000152  0.000092  0.180220  6.841398  0.538121     74.83  0.999969  0.999998     2.209    10.721      64.2      95.1     269.1     539.2     11.90      0.06     -5.28     -0.09      0.33      1.68      0.30     -0.31      1.29     -0.02     -0.25      0.32      0.98     -0.43      0.02     -9.85      1.02      6.18     -0.61     -1.60
     -27.713959      -5.740580     202.2      0.70      1.81     177.5         2         2      2445      2310    490.61   -13.093      12.4      36.7   240.521     0.535     131.5   0.06522      32.5         H               192.6  0.041581  0.012233  0.000542  0.976952  0.664863  1.469405  1.038389      6.15    9.2916   99.8159   0.09594   6.54412   0.14011   0.00284 180.47806   9.43535     509.4  0.478752  0.001946  0.000316  0.000090  0.175845  6.820933  0.537910     89.13  0.999990  1.000000     2.222    10.822      66.4      94.2     221.1     496.9     11.60      0.45     -3.80      0.52     -0.51      0.67      0.60      0.21      1.41     -0.24     -0.14     -0.12      0.15     -0.04      0.32     -8.45     -1.57      2.55      0.30     -0.50
     -27.700083      -5.799309     212.2      0.62      1.81       2.6         2         3      2445      3620    377.87   -14.227      10.7      37.1   241.649     0.534     138.5   0.06208      37.5         H               192.6  0.040654  0.011977  0.000650  0.964268  0.652559  1.477672  1.037411      9.70    7.0634   60.6785   0.08802   6.03594   0.17392   0.00476 110.67493   7.32370     392.0  0.478322  0.002323  0.000312  0.000092  0.176306  6.810964  0.536504     36.22  0.999965  0.999998     2.222    10.994      73.8      91.2     126.9     382.0     11.70      0.42     -3.62      0.31     -0.34      0.57      0.90     -0.02      1.37     -0.62      0.12     -0.02      1.00     -0.71      0.32    -10.15     -1.28      2.71      1.03     -2.45
     -27.780268      -5.696605     191.7      0.73      1.81     173.0         3         1      3890      1000    537.99   -12.692      12.8      36.4   240.045     0.534     113.4   0.06612      28.1         H               192.6  0.042220  0.012382  0.000606  0.973493  0.666994  1.459523  1.037569      8.55   10.2195  118.0542   0.09691   6.71889   0.13005   0.00237 213.22716  10.31167     558.2  0.477264  0.001815  0.000259  0.000091  0.179233  6.828968  0.536934    119.85  0.999968  0.999998     2.199    10.636      65.3      95.1     268.8     546.5     11.86      0.15     -4.63      0.02     -0.41      1.23      0.35      0.12      1.18     -0.04     -0.12     -0.44      0.92     -0.51      0.14     -9.53     -0.68      4.98      0.33     -1.88
     -27.766287      -5.755898     193.0      0.71      1.81       2.4         3         2      3890      2310    503.86   -12.977      12.6      36.7   239.941     0.532      75.1   0.06412      28.6         H               192.6  0.041247  0.012666  0.000459  0.991769  0.652673  1.519550  1.035023      9.04    9.5524  104.3844   0.09232   6.59590   0.13670   0.00269 189.49510   9.68984     521.5  0.476557  0.001140  0.000159  0.000092  0.180924  6.849136  0.534184    112.94  0.999977  0.999999     2.196    10.631      65.3      94.5     232.9     505.4     11.81      0.11     -4.81      0.79     -0.18      1.03     -0.70     -0.44      1.85      0.07     -0.34     -0.12      1.05     -0.78      0.05     -7.00     -0.06      3.70     -0.22     -2.10
     -27.752405      -5.814657     190.2      0.65      1.81      26.5         3         3      3890      3620    413.36   -13.837      11.4      37.1   243.275     0.543     354.2   0.06636      27.5         H               192.6  0.041476  0.012360  0.000682  0.994394  0.654863  1.518478  1.047340      6.88    7.7664   73.4011   0.09949   6.21027   0.16247   0.00405 132.19600   7.99346     432.9  0.482812  0.004521  0.001036  0.000091  0.176019  6.820390  0.546322     61.57  0.999992  1.000000     2.281    11.509      88.6      92.2     155.6     441.6     11.80      0.55     -4.31     -0.16      0.12      1.14      1.17     -0.57      1.03     -0.24     -0.18      0.36      0.98     -1.22      0.67    -10.81      0.35      4.51     -0.37     -3.97
