corner points
-11.17711449    -43.27345657
-11.25105858    -43.44318771
-11.42095375    -43.21559906
-11.49556541    -43.38516998
========== RESULTS WAVE VERSION 16.10.2018 ====================
IMAGE SIZE  X: 4486     Y:4772    col:row     POLARIZATION:VV
COVERAGE    X: 20.72772948km       Y: 19.75371162km 
RESOLUTION dX: 4.620537111m       dY:4.139503692m  
resolution of original product 4.620537111m x 4.139503692m;   raster step x:5997.45717m  
===============================================================
FLAGS: H=HIGH PROBABILITY SEA STATE, I=LAND(ISLAND), O=OUTLIER NO SEA STATE, N=NO WIND AVAILABLE, SEA STATE NOT VISIBLE, M=MEAN PROBABILITY SEA STATE, L= LOW PROBABILITY SEA STATE
Filtering wave length
 integration  Lmin=1m
 integration  Lmax=2200m
  peak        Lmin=100m
               FFT=1024pixels, 4731.430001m 
   mean-Hs (SWH_c)=1.112480087m
         mean-wind=14.18518543m/s
--------------0--------------1---------2---------3---------4---------5---------6---------7---------8---------9--------10--------11--------12--------13--------14--------15--------16--------17--------18--------19------------------20--------21--------22--------23--------24--------25--------26--------27--------28--------29--------30--------31--------32--------33--------34--------35--------36--------37--------38--------39--------40--------41--------42--------43--------44--------45--------46--------47--------48--------49--------50--------51--------52--------53--------54--------55--------56--------57--------58--------59--------60--------61--------62--------63--------64--------65--------66--------67--------68--------69--------70--------71--------72--------73
            LAT            LON  P-LENGHT     SWH_o     SWH_c     P-DIR      LINE     POINT     ROW-Y     COL-X  M-INTENC        dB      WIND INC-ANGLE  ENERGY-M  ENERGY-N  ENERGY-R ENERGY-NN  FG-DEPTH      FLAG         HEADING-DEG    E30-75   E75-390  E390-600 meanincut   meanout   cut/out  STD-NORM  SPEC-MAX   GL-MEAN    GL-VAR      CORR   ENTROPY   HOMOGEN    ENERGY  CONTRAST  DISSIMIL     STD-O    E 1-30 E600-2000   E2000 >      GODA  LONG-HIG     Tmean  CONVOLUT  MEAN-DIR  relation     Sy/Sx  SKEWNESS  KURTOSIS  cutoff-A >50/10000     INT*V   INT-LOG  S-1_g1f1  S-2_g1f2  S-3_g1f3  S-4_g2f1  S-5_g2f2  S-6_g2f3  S-7_g3f1  S-8_g3f2  S-9_g3f3 S-10_g1f4 S-11_g2f4 S-12_g3f4 S-13_g1f5 S-14_g2f5 S-15_g3f5 S-16_g4f1 S-17_g4f2 S-18_g4f3 S-19_g4f4 S-20_g4f5
--------------1--------------2---------3---------4---------5---------6---------7---------8---------9--------10--------11--------12--------13--------14--------15--------16--------17--------18--------19--------20------------------21--------22--------23--------24--------25--------26--------27--------28--------29--------30--------31--------32--------33--------34--------35--------36--------37--------38--------39--------40--------41--------42--------43--------44--------45--------46--------47--------48--------49--------50--------51--------52--------53--------54--------55--------56--------57--------58--------59--------60--------61--------62--------63--------64--------65--------66--------67--------68--------69--------70--------71--------72--------73--------74
     -43.296017     -11.247677     298.8      1.24      1.85      39.2         1         1      1000      1000    705.37   -11.516      14.6      36.0   275.508     0.585      36.7   0.08965     100.0         H               194.2  0.062650  0.016312  0.000562  1.702133  0.743737  2.288622  1.084671      6.24   13.3122  191.8066   0.13313   7.15981   0.10693   0.00149 332.54175  13.05073     765.1  0.505081  0.000453  0.000036  0.000214  0.145950  6.622728  0.590106     86.93  1.000207  1.000019     2.521    13.999     114.0      97.0     500.4     828.0     11.53      1.19      0.21      1.67     -0.66      1.28      1.89     -0.21     -0.05      0.52      0.19      0.20     -1.38      0.90      0.75     -7.16     -1.26      2.06     -0.49      2.25
     -43.279213     -11.318587     301.9      1.10      1.85      44.6         1         2      1000      2298    645.16   -11.903      14.2      36.3   275.151     0.583      42.7   0.08816     100.0         H               194.2  0.061245  0.015993  0.000462  1.672843  0.741537  2.255914  1.082946      6.41   12.2096  166.9537   0.13081   7.01763   0.11488   0.00177 290.22809  12.09019     698.7  0.504863  0.000503  0.000060  0.000199  0.146940  6.634605  0.587876     86.83  1.000221  1.000021     2.528    14.157     107.8      96.3     414.3     768.6     11.43      1.57      0.59      2.06     -0.48      0.85      1.51     -0.32     -0.00      0.87     -0.02      0.05     -1.94      0.84      1.39     -5.72     -1.08      1.15     -0.58      1.99
     -43.262520     -11.388828     330.4      1.05      1.85      56.9         1         3      1000      3596    612.88   -12.126      14.1      36.7   274.433     0.579      36.1   0.08689     100.0         H               194.2  0.060332  0.016152  0.000512  1.683877  0.722958  2.329150  1.079651      5.29   11.6102  153.5868   0.12946   6.93194   0.11986   0.00195 267.40393  11.54720     661.6  0.502265  0.000435  0.000041  0.000201  0.148307  6.649738  0.584329     85.90  1.000202  1.000019     2.491    13.594     110.8      95.9     370.8     706.7     11.60      1.36      0.16      1.71     -0.65      1.44      1.71      0.01     -0.04      1.02      0.09     -0.11     -1.20      0.66      1.41     -6.89     -2.09      2.44     -0.51      1.02
     -43.347557     -11.270164     316.3      1.25      1.85      53.3         2         1      2449      1000    712.81   -11.470      14.7      36.0   274.778     0.583      39.2   0.08913     100.0         H               194.2  0.061845  0.016152  0.000557  1.660841  0.742889  2.235651  1.083379      9.21   13.4491  194.4588   0.13239   7.17743   0.10617   0.00146 337.43115  13.16586     772.2  0.504673  0.000473  0.000043  0.000196  0.148816  6.640626  0.588597     86.63  1.000217  1.000019     2.505    13.596     110.8      97.1     511.1     808.3     11.85      1.89      0.53      1.10     -0.88      0.96      1.56     -0.36     -0.32      1.05      0.05     -0.20     -1.05      0.89      0.94     -7.71     -1.74      1.66     -0.23      1.94
     -43.330742     -11.341133     293.2      1.12      1.85      33.9         2         2      2449      2298    656.17   -11.830      14.4      36.3   274.714     0.581      38.1   0.08761     100.0         H               194.2  0.060289  0.015759  0.000474  1.610718  0.738302  2.181651  1.081118      5.87   12.4148  171.1232   0.13003   7.04605   0.11304   0.00170 297.74347  12.26927     709.3  0.504129  0.000420  0.000048  0.000194  0.147979  6.641680  0.585603     87.18  1.000223  1.000021     2.504    13.738     107.8      96.5     428.6     766.4     11.59      1.48      0.20      1.60     -0.59      0.88      1.45     -0.38      0.28      0.66      0.71     -0.39     -1.37      0.66      1.56     -6.44     -1.50      0.66      0.77      0.93
     -43.314034     -11.411433     352.9      0.98      1.85      48.2         2         3      2449      3596    590.22   -12.290      13.8      36.7   275.905     0.581      36.6   0.08600     100.0         H               194.2  0.060396  0.016163  0.000458  1.684156  0.736021  2.288188  1.080940      7.55   11.1802  144.4247   0.12867   6.86558   0.12379   0.00209 251.68356  11.15956     638.0  0.503724  0.000445  0.000039  0.000190  0.147501  6.645623  0.585830     86.85  1.000200  1.000018     2.513    13.941     110.8      95.6     343.2     704.5     11.54      2.12      0.35      1.70     -1.16      0.76      1.36     -0.21     -0.05      1.41     -0.03     -0.72     -1.67      0.95      0.87     -6.07     -3.17      0.90     -0.29      2.24
     -43.399094     -11.292687     275.6      1.21      1.85      44.3         3         1      3898      1000    673.41   -11.717      14.2      36.0   276.745     0.588      37.0   0.09056     100.0         H               194.2  0.062990  0.017320  0.000431  1.818405  0.737737  2.464841  1.087802      9.63   12.7206  178.5253   0.13327   7.08473   0.11149   0.00163 309.46521  12.52505     732.6  0.507285  0.000451  0.000040  0.000216  0.147900  6.651287  0.593656     86.05  1.000200  1.000018     2.570    14.499     110.8      96.7     455.8     784.5     11.66      2.00      0.27      1.72     -0.96      1.19      1.07     -0.54      0.19      1.04     -0.18     -0.32     -1.82      0.82      1.33     -5.66     -2.14      1.89     -0.75      1.64
     -43.382263     -11.363716     302.3      1.08      1.85      50.1         3         2      3898      2298    618.55   -12.086      13.9      36.3   275.132     0.582      36.7   0.08826     100.0         H               194.2  0.061552  0.016936  0.000432  1.817005  0.729305  2.491420  1.082255      5.80   11.7127  156.1022   0.13240   6.94599   0.11921   0.00192 270.86954  11.62883     669.4  0.503091  0.000415  0.000044  0.000208  0.143557  6.664676  0.587258     85.58  1.000206  1.000019     2.513    13.725     107.8      96.0     379.0     702.7     11.36      1.36      0.07      2.07      0.03      0.93      1.34     -0.62     -0.16      0.99      0.25      0.00     -0.90      0.62      1.11     -5.57     -0.07      1.58     -0.60      1.34
     -43.365540     -11.434073     302.3      0.99      1.85      50.1         3         3      3898      3596    581.52   -12.354      13.7      36.7   275.625     0.582      41.2   0.08678     100.0         H               194.2  0.061142  0.016734  0.000483  1.790166  0.736374  2.431055  1.081846      8.27   11.0157  141.2033   0.13059   6.83947   0.12522   0.00217 245.52824  11.01455     629.0  0.503069  0.000453  0.000056  0.000200  0.145910  6.659249  0.586793     85.89  1.000185  1.000017     2.516    14.306     107.8      95.4     332.9     718.4     11.75      1.94      0.25      1.29     -0.73      0.76      1.25     -0.39      0.00      1.19     -0.19     -0.47     -1.29      0.92      0.97     -6.84     -1.87      1.08     -0.60      1.70
