corner points
-15.57704258    -51.78617859
-15.67823982    -51.9525032
-15.86008835    -51.71880722
-15.96224785    -51.88489532
========== RESULTS WAVE VERSION 16.10.2018 ====================
IMAGE SIZE  X: 4486     Y:4770    col:row     POLARIZATION:VV
COVERAGE    X: 20.82970412km       Y: 19.71355865km 
RESOLUTION dX: 4.643268863m       dY:4.13282152m  
resolution of original product 4.643268863m x 4.13282152m;   raster step x:5999.103371m  
===============================================================
FLAGS: H=HIGH PROBABILITY SEA STATE, I=LAND(ISLAND), O=OUTLIER NO SEA STATE, N=NO WIND AVAILABLE, SEA STATE NOT VISIBLE, M=MEAN PROBABILITY SEA STATE, L= LOW PROBABILITY SEA STATE
Filtering wave length
 integration  Lmin=1m
 integration  Lmax=2200m
  peak        Lmin=100m
               FFT=1024pixels, 4754.707316m 
   mean-Hs (SWH_c)=0.6531349945m
         mean-wind=9.331892967m/s
--------------0--------------1---------2---------3---------4---------5---------6---------7---------8---------9--------10--------11--------12--------13--------14--------15--------16--------17--------18--------19------------------20--------21--------22--------23--------24--------25--------26--------27--------28--------29--------30--------31--------32--------33--------34--------35--------36--------37--------38--------39--------40--------41--------42--------43--------44--------45--------46--------47--------48--------49--------50--------51--------52--------53--------54--------55--------56--------57--------58--------59--------60--------61--------62--------63--------64--------65--------66--------67--------68--------69--------70--------71--------72--------73
            LAT            LON  P-LENGHT     SWH_o     SWH_c     P-DIR      LINE     POINT     ROW-Y     COL-X  M-INTENC        dB      WIND INC-ANGLE  ENERGY-M  ENERGY-N  ENERGY-R ENERGY-NN  FG-DEPTH      FLAG         HEADING-DEG    E30-75   E75-390  E390-600 meanincut   meanout   cut/out  STD-NORM  SPEC-MAX   GL-MEAN    GL-VAR      CORR   ENTROPY   HOMOGEN    ENERGY  CONTRAST  DISSIMIL     STD-O    E 1-30 E600-2000   E2000 >      GODA  LONG-HIG     Tmean  CONVOLUT  MEAN-DIR  relation     Sy/Sx  SKEWNESS  KURTOSIS  cutoff-A >50/10000     INT*V   INT-LOG  S-1_g1f1  S-2_g1f2  S-3_g1f3  S-4_g2f1  S-5_g2f2  S-6_g2f3  S-7_g3f1  S-8_g3f2  S-9_g3f3 S-10_g1f4 S-11_g2f4 S-12_g3f4 S-13_g1f5 S-14_g2f5 S-15_g3f5 S-16_g4f1 S-17_g4f2 S-18_g4f3 S-19_g4f4 S-20_g4f5
--------------1--------------2---------3---------4---------5---------6---------7---------8---------9--------10--------11--------12--------13--------14--------15--------16--------17--------18--------19--------20------------------21--------22--------23--------24--------25--------26--------27--------28--------29--------30--------31--------32--------33--------34--------35--------36--------37--------38--------39--------40--------41--------42--------43--------44--------45--------46--------47--------48--------49--------50--------51--------52--------53--------54--------55--------56--------57--------58--------59--------60--------61--------62--------63--------64--------65--------66--------67--------68--------69--------70--------71--------72--------73--------74
     -51.805904     -15.662206     120.7      0.79      2.42      70.0         1         1      1000      1000    347.37   -14.592       9.0      35.7   331.863     0.686     121.6   0.11337       9.5         H               195.9  0.068414  0.029165  0.001135  3.000342  0.950630  3.156161  1.175121     16.62    6.4441   55.7205   0.12487   5.85617   0.19132   0.00601  97.52457   6.73210     408.1  0.585955  0.001894  0.000258  0.000138  0.170673  6.940672  0.698199     80.78  1.000183  1.000015    30.743  6512.578     102.3      89.7     115.0     724.9     11.47      0.35      0.86      2.11      0.12      3.85      3.84      1.39      1.64      0.86      1.72      1.64     -0.18      0.65      1.13     -7.92     -0.49      6.73      1.67      1.14
     -51.786427     -15.744167     121.9      0.68      2.42      71.5         1         2      1000      2292    365.74   -14.368       9.7      36.1   292.761     0.583      57.2   0.08128       9.7         H               195.9  0.053593  0.022574  0.000442  2.319544  0.718633  3.227719  1.083000     20.05    6.8173   61.2524   0.12275   5.96137   0.18279   0.00540 107.46718   7.09030     396.1  0.505793  0.000588  0.000106  0.000156  0.165899  6.885612  0.587402     78.28  1.000248  1.000019     2.542    14.638     121.0      90.3     125.4     454.7     10.56      2.29      0.98      3.77      1.00      3.84      3.60      1.51      2.74      1.47      2.68      2.15     -0.37      1.28      1.88     -1.88      0.29      5.83      3.43      2.44
     -51.767071     -15.825321     128.1      0.74      2.42      70.6         1         3      1000      3584    368.22   -14.339      10.1      36.5   294.315     0.584      61.8   0.08103      10.8         H               195.9  0.053488  0.022642  0.000558  2.313090  0.706939  3.271980  1.084858     18.36    6.8686   62.2074   0.12159   5.97497   0.18223   0.00532 109.28790   7.14562     399.5  0.507334  0.000643  0.000133  0.000156  0.168628  6.901230  0.588960     80.06  1.000235  1.000017     2.541    14.127     124.8      90.5     127.4     423.4     11.17      2.37      1.43      2.95      0.61      4.02      3.24      1.58      2.56      2.00      2.42      2.08     -0.24      1.93      1.86     -3.93     -0.77      5.30      2.72      3.15
     -51.856499     -15.693031     120.0      0.61      2.42      73.5         2         1      2451      1000    350.29   -14.556       9.1      35.7   292.876     0.582      38.1   0.08097       9.4         H               195.9  0.053164  0.022927  0.000513  2.341592  0.704621  3.323196  1.082242     16.26    6.5130   56.3697   0.12167   5.87704   0.18938   0.00587  99.02185   6.79732     379.1  0.505366  0.000389  0.000049  0.000155  0.166596  6.900373  0.586650     80.58  1.000229  1.000018     2.517    13.972     117.4      89.9     114.6     416.4     10.80      2.28      1.01      3.56      1.24      3.88      3.51      1.48      2.75      1.83      2.64      2.48     -0.87      1.35      1.86     -2.92      0.69      5.32      2.53      2.49
     -51.836998     -15.775078     129.0      0.68      2.42      77.7         2         2      2451      2292    350.91   -14.548       9.4      36.1   293.458     0.585      37.5   0.08131      11.0         H               195.9  0.053779  0.023406  0.000663  2.377748  0.715641  3.322542  1.084926     18.78    6.5240   56.7900   0.12288   5.87976   0.18928   0.00588  99.62282   6.81098     380.7  0.506981  0.000421  0.000030  0.000158  0.167895  6.900319  0.589958     80.75  1.000259  1.000020     2.546    14.515     124.8      89.7     115.3     431.7     11.08      2.09      1.34      2.71      0.96      3.81      3.62      1.18      2.67      1.83      1.95      2.16     -0.44      1.86      2.80     -4.40      0.72      5.59      1.72      2.05
     -51.817623     -15.856316     114.2      0.66      2.42      69.5         2         3      2451      3584    334.95   -14.750       9.4      36.5   293.971     0.582      39.7   0.07957       8.4         H               195.9  0.052287  0.023081  0.000573  2.360396  0.693462  3.403784  1.082789     17.74    6.2099   51.7910   0.11803   5.78941   0.19648   0.00641  91.35699   6.51705     362.7  0.506336  0.000443  0.000046  0.000163  0.168612  6.927752  0.586713     80.33  1.000270  1.000020     2.503    13.691     128.8      89.3     104.4     388.4     10.80      1.97      1.70      3.58      1.19      4.44      3.93      1.92      3.08      2.22      2.98      2.25      0.08      2.39      2.20     -3.04      0.22      6.00      3.61      3.73
     -51.907082     -15.723925     104.7      0.52      2.42      75.7         3         1      3902      1000    332.46   -14.783       8.7      35.7   293.498     0.583      35.1   0.08023       7.0         H               195.9  0.052942  0.022269  0.000618  2.254051  0.702561  3.208338  1.083147     15.30    6.1587   51.0846   0.11937   5.77381   0.19749   0.00652  89.97266   6.46133     360.1  0.507184  0.000400  0.000026  0.000150  0.168480  6.907203  0.587577     81.10  1.000238  1.000018     2.515    13.841     124.8      89.1     102.7     391.6     11.38      2.16      1.17      2.67      0.29      3.96      3.11      1.06      1.78      1.40      1.93      1.38     -0.60      1.56      1.90     -5.19     -1.14      5.64      2.02      2.39
     -51.887562     -15.806056     139.0      0.54      2.42      74.8         3         2      3902      2292    325.73   -14.871       8.9      36.1   293.973     0.587      41.0   0.08253      13.0         H               195.9  0.054128  0.022886  0.000650  2.320259  0.701343  3.308309  1.086685     14.95    6.0230   49.2133   0.12223   5.73207   0.20097   0.00680  86.39614   6.32809     354.0  0.509042  0.000478  0.000037  0.000154  0.168197  6.889441  0.591346     82.48  1.000288  1.000023     2.577    14.896     133.1      88.7      98.9     396.8     11.46      2.13      1.36      2.26      0.35      3.94      3.29      1.33      1.97      1.32      2.41      1.51     -0.50      2.45      2.17     -5.58     -1.09      5.89      2.98      3.65
     -51.868168     -15.887377     119.5      0.70      2.42      78.6         3         3      3902      3584    346.87   -14.598       9.7      36.5   296.018     0.592      56.2   0.08437       9.3         H               195.9  0.054889  0.023544  0.000758  2.359806  0.725652  3.251981  1.091872     20.20    6.4447   55.9509   0.12437   5.85600   0.19125   0.00604  97.98430   6.73977     378.7  0.512473  0.000677  0.000088  0.000169  0.170173  6.910899  0.596716     80.93  1.000250  1.000020     2.637    16.079     133.1      89.6     113.4     458.9     11.38      2.40      1.53      2.19      0.49      4.19      3.85      1.49      2.52      1.74      2.48      2.13     -0.34      2.53      2.46     -5.80     -0.66      6.26      3.05      3.46
