corner points
-10.43549538    -41.55437088
-10.50561333    -41.72458649
-10.67329216    -41.49796295
-10.74403095    -41.6680336
========== RESULTS WAVE VERSION 16.10.2018 ====================
IMAGE SIZE  X: 4486     Y:4772    col:row     POLARIZATION:VV
COVERAGE    X: 20.72135456km       Y: 19.76012333km 
RESOLUTION dX: 4.619116041m       dY:4.140847303m  
resolution of original product 4.619116041m x 4.140847303m;   raster step x:5995.612621m  
===============================================================
FLAGS: H=HIGH PROBABILITY SEA STATE, I=LAND(ISLAND), O=OUTLIER NO SEA STATE, N=NO WIND AVAILABLE, SEA STATE NOT VISIBLE, M=MEAN PROBABILITY SEA STATE, L= LOW PROBABILITY SEA STATE
Filtering wave length
 integration  Lmin=1m
 integration  Lmax=2200m
  peak        Lmin=100m
               FFT=1024pixels, 4729.974826m 
   mean-Hs (SWH_c)=0.4156856155m
         mean-wind=12.00555611m/s
--------------0--------------1---------2---------3---------4---------5---------6---------7---------8---------9--------10--------11--------12--------13--------14--------15--------16--------17--------18--------19------------------20--------21--------22--------23--------24--------25--------26--------27--------28--------29--------30--------31--------32--------33--------34--------35--------36--------37--------38--------39--------40--------41--------42--------43--------44--------45--------46--------47--------48--------49--------50--------51--------52--------53--------54--------55--------56--------57--------58--------59--------60--------61--------62--------63--------64--------65--------66--------67--------68--------69--------70--------71--------72--------73
            LAT            LON  P-LENGHT     SWH_o     SWH_c     P-DIR      LINE     POINT     ROW-Y     COL-X  M-INTENC        dB      WIND INC-ANGLE  ENERGY-M  ENERGY-N  ENERGY-R ENERGY-NN  FG-DEPTH      FLAG         HEADING-DEG    E30-75   E75-390  E390-600 meanincut   meanout   cut/out  STD-NORM  SPEC-MAX   GL-MEAN    GL-VAR      CORR   ENTROPY   HOMOGEN    ENERGY  CONTRAST  DISSIMIL     STD-O    E 1-30 E600-2000   E2000 >      GODA  LONG-HIG     Tmean  CONVOLUT  MEAN-DIR  relation     Sy/Sx  SKEWNESS  KURTOSIS  cutoff-A >50/10000     INT*V   INT-LOG  S-1_g1f1  S-2_g1f2  S-3_g1f3  S-4_g2f1  S-5_g2f2  S-6_g2f3  S-7_g3f1  S-8_g3f2  S-9_g3f3 S-10_g1f4 S-11_g2f4 S-12_g3f4 S-13_g1f5 S-14_g2f5 S-15_g3f5 S-16_g4f1 S-17_g4f2 S-18_g4f3 S-19_g4f4 S-20_g4f5
--------------1--------------2---------3---------4---------5---------6---------7---------8---------9--------10--------11--------12--------13--------14--------15--------16--------17--------18--------19--------20------------------21--------22--------23--------24--------25--------26--------27--------28--------29--------30--------31--------32--------33--------34--------35--------36--------37--------38--------39--------40--------41--------42--------43--------44--------45--------46--------47--------48--------49--------50--------51--------52--------53--------54--------55--------56--------57--------58--------59--------60--------61--------62--------63--------64--------65--------66--------67--------68--------69--------70--------71--------72--------73--------74
     -41.577358     -10.503889     284.9      0.66      1.86      57.5         1         1      1000      1000    474.36   -13.239      11.5      36.0   268.113     0.550      44.7   0.07030     100.0         H               193.9  0.046556  0.012608  0.000312  1.201023  0.683011  1.758424  1.052895      5.58    8.9685   95.5501   0.10104   6.47595   0.14493   0.00309 171.79166   9.15105     499.4  0.490681  0.000531  0.000080  0.000094  0.163954  6.751348  0.552314     86.06  1.000125  1.000010     2.331    12.039      81.3      93.7     209.4     517.9     10.95      1.32     -0.28      2.73     -0.50      0.21      1.09     -0.91     -0.09      1.00     -0.17     -0.33     -1.70      0.32      1.03     -3.90     -0.80      0.75     -0.99      0.94
     -41.560978     -10.573039     274.6      0.67      1.86      54.4         1         2      1000      2298    459.74   -13.375      11.6      36.4   266.622     0.546      27.0   0.06879     100.0         H               193.9  0.046025  0.012220  0.000275  1.142879  0.693164  1.648785  1.048719      4.72    8.6815   89.8121   0.09824   6.41649   0.14866   0.00327 161.97876   8.88484     482.1  0.487806  0.000282  0.000031  0.000094  0.163437  6.740942  0.547709     89.44  1.000126  1.000009     2.288    11.458      81.3      93.4     195.1     476.4     10.78      1.00     -0.92      2.95     -0.68      0.18      0.96     -0.30      0.15      0.71      0.13     -0.44     -1.58      0.17      1.23     -3.29     -1.43      0.81     -0.10      0.75
     -41.544701     -10.641540     276.1      0.68      1.86      49.4         1         3      1000      3596    465.09   -13.325      12.0      36.7   268.788     0.551      36.0   0.07040     100.0         H               193.9  0.046676  0.012527  0.000330  1.193818  0.683800  1.745858  1.053175      5.52    8.7842   92.2760   0.10025   6.43755   0.14737   0.00321 166.04945   8.98361     489.8  0.491408  0.000413  0.000057  0.000094  0.163521  6.753253  0.552665     86.23  1.000129  1.000009     2.330    12.030      83.0      93.6     200.7     513.9     10.91      1.30     -0.29      2.63     -0.67      0.52      1.44     -0.53     -0.05      1.01      0.10     -0.32     -1.30      0.32      1.00     -4.26     -1.16      1.04     -0.56      0.91
     -41.629009     -10.525198     258.2      0.69      1.86      60.8         2         1      2448      1000    512.25   -12.905      12.1      36.0   269.076     0.555     101.0   0.07277      92.5         H               193.9  0.047230  0.012703  0.000433  1.195030  0.685840  1.742434  1.057402      5.09    9.7038  110.2653   0.10498   6.61961   0.13644   0.00266 197.37788   9.84190     541.7  0.493308  0.001236  0.000291  0.000095  0.162646  6.744455  0.556967     86.61  1.000110  1.000008     2.373    12.504      86.6      94.5     247.8     575.8     11.06      1.30     -0.80      1.89     -0.56      0.55      1.91     -0.28      0.04      0.46      0.49      0.11     -1.20      0.42      1.14     -6.31     -1.24      1.29     -0.01      0.86
     -41.612614     -10.594402     295.1      0.68      1.86      60.8         2         2      2448      2298    478.62   -13.200      11.9      36.4   265.492     0.545      26.0   0.06976     100.0         H               193.9  0.046365  0.012454  0.000294  1.170912  0.678637  1.725387  1.047345      5.08    9.0511   96.3129   0.10102   6.49360   0.14370   0.00302 173.16589   9.20943     501.3  0.485799  0.000277  0.000029  0.000093  0.163319  6.754054  0.546531     87.95  1.000121  1.000009     2.307    11.844      78.1      93.9     212.0     526.1     10.87      1.54     -0.91      2.57     -0.94      0.28      1.23     -0.26      0.28      0.83      0.16     -0.40     -1.79      0.93      0.77     -3.88     -2.19      0.77     -0.43      2.28
     -41.596329     -10.662957     311.9      0.69      1.86      59.0         2         3      2448      3596    476.99   -13.215      12.1      36.7   268.366     0.550      25.9   0.07106     100.0         H               193.9  0.047227  0.012444  0.000317  1.168355  0.687957  1.698295  1.052322      5.24    9.0168   96.3983   0.10149   6.48550   0.14436   0.00305 173.23151   9.19552     502.0  0.490347  0.000287  0.000025  0.000094  0.162735  6.738130  0.551715     87.91  1.000121  1.000008     2.332    12.136      81.3      93.9     211.5     527.7     11.00      1.49     -0.95      2.40     -0.80      0.32      1.23     -0.38     -0.09      0.77     -0.14     -0.34     -1.51      0.09      0.94     -4.55     -1.60      1.20     -0.54      0.40
     -41.680656     -10.546539     284.9      0.72      1.86      57.5         3         1      3896      1000    550.10   -12.596      12.6      36.0   267.541     0.552      43.3   0.07295     100.0         H               193.9  0.048058  0.012892  0.000428  1.220134  0.701342  1.739713  1.053927      5.36   10.4395  124.5261   0.10506   6.75278   0.12798   0.00231 222.88686  10.52291     579.7  0.490016  0.000610  0.000065  0.000095  0.163782  6.742924  0.553542     85.76  1.000122  1.000009     2.349    12.288      81.3      95.2     286.9     616.6     11.17      1.62     -0.51      1.99     -0.74      0.54      1.58     -0.50     -0.33      1.26      0.19     -0.62     -1.55      0.18      1.14     -6.17     -1.58      1.50     -0.20      1.06
     -41.664253     -10.615799     208.5      0.69      1.86     141.9         3         2      3896      2298    495.28   -13.051      12.2      36.3   267.281     0.548      48.2   0.07031      35.6         H               193.9  0.046709  0.012319  0.000286  1.152351  0.683398  1.686208  1.050595      4.19    9.3762  103.1360   0.10082   6.55785   0.13965   0.00283 185.47586   9.53872     520.3  0.488554  0.000557  0.000093  0.000093  0.163152  6.740990  0.549633     87.64  1.000133  1.000009     2.306    11.708      81.3      94.2     229.0     523.3     10.89      0.29     -0.82      2.63     -0.57      0.24      1.11     -0.07      0.33      0.45      0.35     -0.03     -1.40      0.34      1.14     -3.74     -0.65      0.53      0.45      0.84
     -41.647949     -10.684407     288.0      0.69      1.86      52.3         3         3      3896      3596    472.66   -13.254      12.1      36.7   267.678     0.550      28.5   0.07076     100.0         H               193.9  0.046783  0.012613  0.000326  1.185853  0.685358  1.730269  1.051983      6.67    8.9323   94.7082   0.10149   6.46839   0.14585   0.00310 170.19371   9.10909     497.3  0.490239  0.000365  0.000031  0.000094  0.165271  6.754798  0.551738     87.00  1.000127  1.000008     2.345    12.267      81.3      93.8     207.6     524.8     10.97      1.06     -0.84      2.57     -0.40      0.57      1.32     -0.46      0.26      1.16      0.07     -0.16     -1.66      0.22      0.79     -4.23     -0.44      1.43     -0.57      1.14
