corner points
-22.89378738    -64.83837128
-23.08171844    -65.00159454
-23.30758667    -64.75039673
-23.49764824    -64.9131012
========== RESULTS WAVE VERSION 16.10.2018 ====================
IMAGE SIZE  X: 5671     Y:4897    col:row     POLARIZATION:VV
COVERAGE    X: 21.8570035km       Y: 20.15341451km 
RESOLUTION dX: 3.854170958m       dY:4.115461408m  
resolution of original product 3.854170958m x 4.115461408m;   raster step x:5997.09001m  
===============================================================
FLAGS: H=HIGH PROBABILITY SEA STATE, I=LAND(ISLAND), O=OUTLIER NO SEA STATE, N=NO WIND AVAILABLE, SEA STATE NOT VISIBLE, M=MEAN PROBABILITY SEA STATE, L= LOW PROBABILITY SEA STATE
Filtering wave length
 integration  Lmin=1m
 integration  Lmax=2200m
  peak        Lmin=100m
               FFT=1024pixels, 3946.671061m 
   mean-Hs (SWH_c)=0.2m
         mean-wind=4.679629803m/s
--------------0--------------1---------2---------3---------4---------5---------6---------7---------8---------9--------10--------11--------12--------13--------14--------15--------16--------17--------18--------19------------------20--------21--------22--------23--------24--------25--------26--------27--------28--------29--------30--------31--------32--------33--------34--------35--------36--------37--------38--------39--------40--------41--------42--------43--------44--------45--------46--------47--------48--------49--------50--------51--------52--------53--------54--------55--------56--------57--------58--------59--------60--------61--------62--------63--------64--------65--------66--------67--------68--------69--------70--------71--------72--------73
            LAT            LON  P-LENGHT     SWH_o     SWH_c     P-DIR      LINE     POINT     ROW-Y     COL-X  M-INTENC        dB      WIND INC-ANGLE  ENERGY-M  ENERGY-N  ENERGY-R ENERGY-NN  FG-DEPTH      FLAG         HEADING-DEG    E30-75   E75-390  E390-600 meanincut   meanout   cut/out  STD-NORM  SPEC-MAX   GL-MEAN    GL-VAR      CORR   ENTROPY   HOMOGEN    ENERGY  CONTRAST  DISSIMIL     STD-O    E 1-30 E600-2000   E2000 >      GODA  LONG-HIG     Tmean  CONVOLUT  MEAN-DIR  relation     Sy/Sx  SKEWNESS  KURTOSIS  cutoff-A >50/10000     INT*V   INT-LOG  S-1_g1f1  S-2_g1f2  S-3_g1f3  S-4_g2f1  S-5_g2f2  S-6_g2f3  S-7_g3f1  S-8_g3f2  S-9_g3f3 S-10_g1f4 S-11_g2f4 S-12_g3f4 S-13_g1f5 S-14_g2f5 S-15_g3f5 S-16_g4f1 S-17_g4f2 S-18_g4f3 S-19_g4f4 S-20_g4f5
--------------1--------------2---------3---------4---------5---------6---------7---------8---------9--------10--------11--------12--------13--------14--------15--------16--------17--------18--------19--------20------------------21--------22--------23--------24--------25--------26--------27--------28--------29--------30--------31--------32--------33--------34--------35--------36--------37--------38--------39--------40--------41--------42--------43--------44--------45--------46--------47--------48--------49--------50--------51--------52--------53--------54--------55--------56--------57--------58--------59--------60--------61--------62--------63--------64--------65--------66--------67--------68--------69--------70--------71--------72--------73--------74
     -64.855820     -23.007408     387.9      0.27      1.31      79.4         1         1      1000      1000   2191.75    -6.592       4.2      22.2   172.011     0.555     310.6   0.09664     100.0         H               201.8  0.047655  0.011645  0.000664  1.060195  0.792832  1.337226  1.058641      4.15    3.9065   21.4588   0.18296   4.94181   0.28009   0.01510  35.06541   4.03864    2320.2  0.490410  0.004689  0.000423  0.000108  0.155614  6.695380  0.566566     85.64  1.000071  1.000004     2.352    12.012      53.8      82.5      43.1     216.6     10.48      0.98     -0.90      1.44     -0.47     -2.15      3.36      0.76      0.27      0.70     -0.57      0.30      0.85     -0.18      0.63     -9.15     -2.58     -3.28     -2.00     -1.72
     -64.831398     -23.122665     387.6      0.26      1.31     156.9         1         2      1000      2556   1814.73    -7.412       3.9      22.7   186.809     0.637     982.1   0.12909     100.0         M               201.8  0.055150  0.020274  0.008611  1.524468  0.979579  1.556249  1.141342     39.87    3.1691   16.6277   0.22965   4.56015   0.32734   0.02309  25.61845   3.33850    2071.2  0.529347  0.022941  0.000728  0.000118  0.194280  6.904052  0.660651    144.89  0.999870  0.999990     3.859    48.262     114.0      77.8      32.8     361.3     14.98     -5.39     -3.10    -12.32      6.78      2.91     12.66     -5.60     -3.81      1.13     -1.48      1.49     -0.38      0.69     -0.52    -53.90     24.51     13.17     -5.61      1.97
     -64.807358     -23.235510     381.6      0.32      1.31      50.7         1         3      1000      4112   2056.27    -6.869       5.0      23.2   170.736     0.546      97.6   0.09297     100.0         H               201.8  0.046772  0.011087  0.000636  1.036706  0.777394  1.333566  1.048275      3.23    3.6540   18.6835   0.17279   4.82573   0.29051   0.01671  30.91015   3.80614    2155.5  0.486076  0.001860  0.000091  0.000109  0.151692  6.677314  0.555685     88.94  1.000052  1.000004     2.301    11.679      39.0      81.4      37.9     210.6     10.12      0.89     -1.27      1.90     -0.68     -1.53      3.73      0.57     -0.05      0.22     -0.25      0.32      0.03      0.73     -0.02     -8.74     -2.73     -2.14     -1.08      1.70
     -64.904373     -23.063356     392.9      0.30      1.31      84.6         2         1      2457      1000   2400.77    -6.197       4.7      22.2   171.350     0.553     166.7   0.09624     100.0         H               201.8  0.047543  0.012003  0.000709  1.091480  0.776524  1.405598  1.055251      3.99    4.3059   25.4005   0.17958   5.11661   0.26113   0.01264  41.67799   4.41929    2533.4  0.489577  0.003142  0.000131  0.000109  0.155599  6.699703  0.563486     87.23  1.000081  1.000005     2.332    11.946      43.2      84.1      51.0     251.0     10.45      0.21     -1.14      1.32     -0.03     -2.02      3.57     -0.09      0.30      0.37     -0.14      0.40      0.37      0.32      0.51     -9.59      0.11     -3.16     -1.26      0.07
     -64.879913     -23.178789     380.0      0.27      1.31      74.3         2         2      2457      2556   1951.17    -7.097       4.2      22.7   171.400     0.549      97.7   0.09379     100.0         H               201.8  0.047270  0.011515  0.000598  1.083169  0.766634  1.412889  1.051265      3.24    3.4268   16.7654   0.17380   4.71232   0.30339   0.01875  27.70309   3.59410    2051.0  0.488483  0.001821  0.000084  0.000109  0.153713  6.681436  0.559213     80.39  1.000050  1.000004     2.316    11.723      39.0      80.2      34.1     194.1     10.26      0.91     -0.74      1.97     -0.34     -1.34      3.53      0.51     -0.34      0.35     -0.18     -0.04      0.26      0.38      0.28     -8.08     -2.16     -1.61     -0.42      0.62
     -64.855827     -23.291805     331.1      0.30      1.31      30.2         2         3      2457      4112   1947.30    -7.106       4.7      23.2   170.620     0.547     100.9   0.09312     100.0         H               201.8  0.046920  0.011451  0.000452  1.052950  0.777782  1.353785  1.049348      2.17    3.4290   16.7039   0.17360   4.71376   0.30314   0.01869  27.60830   3.59224    2043.3  0.486535  0.001810  0.000085  0.000109  0.153630  6.688527  0.556620     90.99  1.000060  1.000003     2.310    11.818      39.0      80.3      34.0     201.3     10.07      0.37     -1.51      2.52     -0.29     -1.33      2.73      0.17      0.00      0.26      0.26      0.35      0.05      0.45      0.33     -5.57     -1.11     -1.50     -0.22      0.46
     -64.952911     -23.119497     381.6      0.32      1.31      50.7         3         1      3914      1000   2571.64    -5.898       5.0      22.2   171.152     0.550     179.9   0.09529     100.0         H               201.8  0.047478  0.011552  0.000529  1.045352  0.784371  1.332727  1.052201      3.46    4.6479   28.9607   0.17827   5.25500   0.24812   0.01097  47.59587   4.73162    2705.7  0.487995  0.002678  0.000229  0.000109  0.155222  6.684599  0.560681     82.55  1.000039  1.000004     2.431    17.352      40.2      85.5      58.3     323.2     10.13      0.72     -1.47      2.28     -0.59     -1.64      3.00      0.55     -0.12      0.51     -0.30      0.13      0.30      0.09      0.30     -6.70     -2.14     -1.71     -1.03     -0.06
     -64.928406     -23.235107     392.9      0.32      1.31      84.6         3         2      3914      2556   2289.33    -6.403       5.0      22.7   172.748     0.558     287.4   0.09785     100.0         H               201.8  0.047564  0.011941  0.000609  1.095677  0.777086  1.409981  1.060193      3.83    4.0825   23.3043   0.18336   5.02005   0.27189   0.01401  38.06232   4.20836    2427.1  0.492945  0.004520  0.000374  0.000109  0.156486  6.692524  0.568673     85.43  1.000095  1.000005     2.355    12.135      52.4      83.2      46.6     247.3     10.55      0.91     -0.86      1.54     -0.65     -2.01      2.80      0.35     -0.13      0.17     -0.10      0.08      0.39      0.17     -0.10     -8.16     -2.62     -2.81     -0.41      0.29
     -64.904282     -23.348297     392.9      0.29      1.31      84.6         3         3      3914      4112   1901.08    -7.210       4.6      23.2   172.086     0.554     186.2   0.09561     100.0         H               201.8  0.047593  0.011923  0.000862  1.114537  0.779699  1.429445  1.055841      4.95    3.3175   15.9706   0.17855   4.65460   0.31046   0.01997  26.23835   3.48701    2007.2  0.489937  0.003556  0.000187  0.000108  0.155751  6.697302  0.564387     85.32  1.000098  1.000008     2.347    11.994      46.8      79.5      32.4     189.9     10.82      0.97      0.37      0.63     -1.12     -3.57      4.08      0.94      1.36      0.24     -0.31      0.40      0.77     -0.21      0.45    -12.31     -4.25     -8.89     -1.49     -1.26
