corner points
-5.583004475    -34.19750977
-5.637301922    -34.37551117
-5.806725979    -34.14853668
-5.861610413    -34.32643127
========== RESULTS WAVE VERSION 16.10.2018 ====================
IMAGE SIZE  X: 5671     Y:4915    col:row     POLARIZATION:VV
COVERAGE    X: 21.24874223km       Y: 20.36738302km 
RESOLUTION dX: 3.746912755m       dY:4.1439233m  
resolution of original product 3.746912755m x 4.1439233m;   raster step x:5998.807321m  
===============================================================
FLAGS: H=HIGH PROBABILITY SEA STATE, I=LAND(ISLAND), O=OUTLIER NO SEA STATE, N=NO WIND AVAILABLE, SEA STATE NOT VISIBLE, M=MEAN PROBABILITY SEA STATE, L= LOW PROBABILITY SEA STATE
Filtering wave length
 integration  Lmin=1m
 integration  Lmax=2200m
  peak        Lmin=100m
               FFT=1024pixels, 3836.838661m 
   mean-Hs (SWH_c)=0.2359823036m
         mean-wind=2.84156394m/s
--------------0--------------1---------2---------3---------4---------5---------6---------7---------8---------9--------10--------11--------12--------13--------14--------15--------16--------17--------18--------19------------------20--------21--------22--------23--------24--------25--------26--------27--------28--------29--------30--------31--------32--------33--------34--------35--------36--------37--------38--------39--------40--------41--------42--------43--------44--------45--------46--------47--------48--------49--------50--------51--------52--------53--------54--------55--------56--------57--------58--------59--------60--------61--------62--------63--------64--------65--------66--------67--------68--------69--------70--------71--------72--------73
            LAT            LON  P-LENGHT     SWH_o     SWH_c     P-DIR      LINE     POINT     ROW-Y     COL-X  M-INTENC        dB      WIND INC-ANGLE  ENERGY-M  ENERGY-N  ENERGY-R ENERGY-NN  FG-DEPTH      FLAG         HEADING-DEG    E30-75   E75-390  E390-600 meanincut   meanout   cut/out  STD-NORM  SPEC-MAX   GL-MEAN    GL-VAR      CORR   ENTROPY   HOMOGEN    ENERGY  CONTRAST  DISSIMIL     STD-O    E 1-30 E600-2000   E2000 >      GODA  LONG-HIG     Tmean  CONVOLUT  MEAN-DIR  relation     Sy/Sx  SKEWNESS  KURTOSIS  cutoff-A >50/10000     INT*V   INT-LOG  S-1_g1f1  S-2_g1f2  S-3_g1f3  S-4_g2f1  S-5_g2f2  S-6_g2f3  S-7_g3f1  S-8_g3f2  S-9_g3f3 S-10_g1f4 S-11_g2f4 S-12_g3f4 S-13_g1f5 S-14_g2f5 S-15_g3f5 S-16_g4f1 S-17_g4f2 S-18_g4f3 S-19_g4f4 S-20_g4f5
--------------1--------------2---------3---------4---------5---------6---------7---------8---------9--------10--------11--------12--------13--------14--------15--------16--------17--------18--------19--------20------------------21--------22--------23--------24--------25--------26--------27--------28--------29--------30--------31--------32--------33--------34--------35--------36--------37--------38--------39--------40--------41--------42--------43--------44--------45--------46--------47--------48--------49--------50--------51--------52--------53--------54--------55--------56--------57--------58--------59--------60--------61--------62--------63--------64--------65--------66--------67--------68--------69--------70--------71--------72--------73--------74
     -34.224884      -5.634630     157.0      0.40      1.73     177.7         1         1      1000      1000   1606.81    -7.940       3.7      23.0   294.426     0.632     238.8   0.12656      17.1         H               193.1  0.055683  0.044203  0.000742  3.398297  0.853006  3.983905  1.128349     33.83    2.7508   13.1024   0.22715   4.31105   0.36427   0.03135  20.25246   2.94154    1813.0  0.528294  0.003685  0.000201  0.000171  0.208237  7.393291  0.659575    149.49  0.999914  0.999995     2.665    14.894      65.3      73.9      25.3     190.4     11.02     -2.00     -5.01      4.25     -1.76     -1.51     -2.16      0.50      3.24      1.43      0.48     -1.29     -2.36     -2.28     -0.65     -2.20     -0.59      0.78     -0.03     -1.56
     -34.210907      -5.698589     154.5      0.37      1.73     161.2         1         2      1000      2601   1001.14    -9.995       2.7      23.4   299.569     0.650     312.9   0.13227      16.5         H               193.1  0.056843  0.050914  0.001741  3.632745  0.867967  4.185352  1.144473     44.43    1.5523    5.1463   0.23266   3.37728   0.49319   0.07814   7.89790   1.77764    1145.7  0.534459  0.005928  0.000298  0.000196  0.209045  7.465683  0.680161    151.25  1.000004  1.000001     2.816    16.939      69.9      60.1      10.3     122.7     11.30     -3.00     -3.90      3.40     -2.70     -2.54     -1.28      1.15      3.65      2.04      0.63     -1.29     -2.19     -2.67     -0.10     -5.63     -1.45     -2.53     -1.09     -2.59
     -34.197159      -5.761334     142.8      0.24      1.73     135.0         1         3      1000      4202    996.76   -10.014       3.0      23.9   298.079     0.643     199.8   0.12890      13.8         H               193.1  0.057566  0.047820  0.001328  3.530874  0.881918  4.003632  1.136226     40.86    1.5376    5.0039   0.22642   3.36440   0.49477   0.07883   7.74175   1.76488    1132.5  0.532495  0.003533  0.000172  0.000179  0.208081  7.405525  0.671102    138.75  0.999970  0.999997     2.706    15.325      67.5      59.9      10.1     111.5     11.29     -3.05     -4.14      3.76     -1.45     -1.48     -1.40      0.65      3.18      1.06      0.58     -1.25     -3.21     -3.05     -0.06     -4.47      1.20     -0.49      0.55     -1.63
     -34.277294      -5.650642     156.4      0.30      1.73     163.4         2         1      2447      1000   1602.41    -7.952       3.7      23.0   295.537     0.638     474.8   0.12820      17.0         H               193.1  0.055531  0.042339  0.001048  3.246887  0.843460  3.849488  1.132803     35.93    2.7183   12.9659   0.23149   4.28854   0.36833   0.03241  19.92914   2.90807    1815.2  0.530940  0.007772  0.000473  0.000168  0.207556  7.356691  0.666244    153.33  0.999909  0.999995     2.687    15.123      63.2      73.4      24.9     186.1     11.18     -2.15     -5.28      3.61     -1.65     -1.20     -1.90      0.82      2.89      1.69      0.62     -1.37     -1.99     -2.18     -0.22     -3.96     -0.42      1.98     -0.24     -1.97
     -34.263309      -5.714651     156.4      0.20      1.73     163.4         2         2      2447      2601    803.58   -10.950       2.3      23.4   301.504     0.654     440.3   0.13283      17.0         H               193.1  0.057686  0.048767  0.001803  3.694815  0.864619  4.273345  1.148257     36.25    1.1772    3.3335   0.23068   2.96307   0.55775   0.11640   5.12901   1.39989     922.7  0.537325  0.008323  0.000438  0.000170  0.207462  7.396427  0.684899    151.46  0.999967  0.999998     2.758    16.015      68.7      52.8       6.8      90.0     11.33     -1.95     -3.92      2.98     -2.10     -2.55     -1.02      1.10      3.48      1.63      0.80     -1.34     -1.41     -1.99     -0.74     -6.29     -1.55     -2.41      0.41     -1.68
     -34.249554      -5.777444     156.4      0.20      1.73     148.0         2         3      2447      4202    885.41   -10.529       2.7      23.9   302.118     0.656     504.3   0.13406      17.0         H               193.1  0.058463  0.047084  0.001738  3.368609  0.877871  3.837250  1.150092     41.95    1.3210    4.0127   0.23308   3.13109   0.53168   0.09969   6.15482   1.54621    1018.3  0.539595  0.008959  0.000503  0.000179  0.207691  7.371621  0.686570    143.02  0.999960  0.999998     2.812    17.085      67.5      55.7       8.1     108.2     11.46     -3.38     -4.11      3.09     -2.02     -1.23     -1.15      0.86      2.74      1.77      0.65     -1.46     -3.11     -2.56      0.14     -6.34      0.52      0.63     -0.18     -0.98
     -34.329704      -5.666671     157.7      0.20      1.73     144.9         3         1      3894      1000   1216.09    -9.150       2.9      23.0   312.265     0.692    1128.6   0.14914      17.3         H               193.1  0.061114  0.050950  0.001834  3.459970  0.922453  3.750835  1.183114     50.99    1.9458    7.9838   0.25566   3.71725   0.45203   0.06001  11.88539   2.15847    1438.8  0.559299  0.017276  0.001491  0.000186  0.210363  7.398359  0.727058    154.60  0.999890  0.999991     2.919    17.406      83.0      64.5      15.1     148.7     11.40     -2.61     -5.35      2.86     -1.52     -1.89     -1.81      1.16      3.21      2.18      0.84     -1.68     -1.71     -1.77      0.12     -6.10      0.30      0.87     -0.14     -1.89
     -34.315708      -5.730729     160.0      0.20      1.73     160.5         3         2      3894      2601    790.73   -11.020       2.1      23.4   303.646     0.662     502.5   0.13661      17.9         H               193.1  0.058941  0.048588  0.001766  3.802618  0.889211  4.276394  1.155504     41.12    1.1411    3.2149   0.23451   2.91626   0.56572   0.12217   4.92204   1.36220     913.6  0.543332  0.009158  0.000494  0.000169  0.208522  7.386807  0.693243    153.28  1.000057  1.000004     2.818    16.827      69.9      51.8       6.5      97.0     11.43     -1.28     -3.91      2.99     -1.50     -2.43     -1.40      0.68      3.44      1.34      0.84     -1.15     -1.74     -2.03     -0.13     -6.15     -1.06     -1.92      0.49     -1.77
     -34.301945      -5.793571     149.3      0.20      1.73     161.9         3         3      3894      4202    846.56   -10.723       2.5      23.9   299.498     0.647     293.0   0.13102      15.2         H               193.1  0.059252  0.044933  0.001804  3.531989  0.880453  4.011558  1.142491     36.69    1.2524    3.6388   0.22748   3.05532   0.54193   0.10570   5.62224   1.47853     967.2  0.536009  0.005425  0.000264  0.000156  0.205677  7.323608  0.676202    152.75  0.999990  0.999999     2.769    16.175      63.2      54.6       7.4      97.6     11.57     -2.05     -3.96      2.48     -0.91     -2.06     -1.04      0.43      3.38      1.40      1.24     -1.58     -2.11     -1.92     -0.28     -7.11      1.13     -1.74      1.49     -1.24
