corner points
-35.01714325    -69.33504486
-35.31977844    -69.47628784
-35.44289017    -69.2204361
-35.74679565    -69.36095428
========== RESULTS WAVE VERSION 16.10.2018 ====================
IMAGE SIZE  X: 4486     Y:4763    col:row     POLARIZATION:VV
COVERAGE    X: 21.00144503km       Y: 19.62466534km 
RESOLUTION dX: 4.681552614m       dY:4.120232068m  
resolution of original product 4.681552614m x 4.120232068m;   raster step x:5997.068899m  
===============================================================
FLAGS: H=HIGH PROBABILITY SEA STATE, I=LAND(ISLAND), O=OUTLIER NO SEA STATE, N=NO WIND AVAILABLE, SEA STATE NOT VISIBLE, M=MEAN PROBABILITY SEA STATE, L= LOW PROBABILITY SEA STATE
Filtering wave length
 integration  Lmin=1m
 integration  Lmax=2200m
  peak        Lmin=100m
               FFT=1024pixels, 4793.909877m 
   mean-Hs (SWH_c)=1.131921844m
         mean-wind=13.39691448m/s
--------------0--------------1---------2---------3---------4---------5---------6---------7---------8---------9--------10--------11--------12--------13--------14--------15--------16--------17--------18--------19------------------20--------21--------22--------23--------24--------25--------26--------27--------28--------29--------30--------31--------32--------33--------34--------35--------36--------37--------38--------39--------40--------41--------42--------43--------44--------45--------46--------47--------48--------49--------50--------51--------52--------53--------54--------55--------56--------57--------58--------59--------60--------61--------62--------63--------64--------65--------66--------67--------68--------69--------70--------71--------72--------73
            LAT            LON  P-LENGHT     SWH_o     SWH_c     P-DIR      LINE     POINT     ROW-Y     COL-X  M-INTENC        dB      WIND INC-ANGLE  ENERGY-M  ENERGY-N  ENERGY-R ENERGY-NN  FG-DEPTH      FLAG         HEADING-DEG    E30-75   E75-390  E390-600 meanincut   meanout   cut/out  STD-NORM  SPEC-MAX   GL-MEAN    GL-VAR      CORR   ENTROPY   HOMOGEN    ENERGY  CONTRAST  DISSIMIL     STD-O    E 1-30 E600-2000   E2000 >      GODA  LONG-HIG     Tmean  CONVOLUT  MEAN-DIR  relation     Sy/Sx  SKEWNESS  KURTOSIS  cutoff-A >50/10000     INT*V   INT-LOG  S-1_g1f1  S-2_g1f2  S-3_g1f3  S-4_g2f1  S-5_g2f2  S-6_g2f3  S-7_g3f1  S-8_g3f2  S-9_g3f3 S-10_g1f4 S-11_g2f4 S-12_g3f4 S-13_g1f5 S-14_g2f5 S-15_g3f5 S-16_g4f1 S-17_g4f2 S-18_g4f3 S-19_g4f4 S-20_g4f5
--------------1--------------2---------3---------4---------5---------6---------7---------8---------9--------10--------11--------12--------13--------14--------15--------16--------17--------18--------19--------20------------------21--------22--------23--------24--------25--------26--------27--------28--------29--------30--------31--------32--------33--------34--------35--------36--------37--------38--------39--------40--------41--------42--------43--------44--------45--------46--------47--------48--------49--------50--------51--------52--------53--------54--------55--------56--------57--------58--------59--------60--------61--------62--------63--------64--------65--------66--------67--------68--------69--------70--------71--------72--------73--------74
     -69.338928     -35.176952     363.3      0.75      3.87      99.9         1         1      1000      1000    631.95   -11.993      13.2      35.4   374.902     0.739    1163.7   0.13874     100.0         H               207.7  0.072490  0.044802  0.007446  3.379483  1.385154  2.439790  1.223823     31.12   11.7741  183.5822   0.21499   6.88230   0.13205   0.00238 288.22812  11.61396     773.4  0.591486  0.020127  0.002687  0.000087  0.210876  7.167587  0.761525     83.40  1.000126  1.000011     3.098    19.593     117.4      94.7     462.7     903.5     14.18      0.49      0.02     -5.74     -0.34     -0.47      4.84      0.20     -0.22      0.34     -0.61      0.53      0.68      0.07     -0.01    -28.69     -1.83     -0.09     -2.12     -0.56
     -69.306053     -35.299316     395.9      1.63      3.87      41.4         1         2      1000      2281    718.54   -11.435      14.6      35.7   332.520     0.617     538.7   0.09577     100.0         H               207.7  0.055816  0.020964  0.002370  1.705699  1.025424  1.663409  1.116171     15.58   13.4954  202.8264   0.15214   7.16515   0.10870   0.00153 343.93573  13.19948     802.0  0.526659  0.010078  0.001156  0.000085  0.178727  6.878977  0.625094     76.95  0.999931  0.999997     2.625    14.596      79.7      96.8     538.4     850.2     12.25      2.57     -2.06     -2.41     -2.50      0.41      4.61      2.17     -0.86      0.02      0.25     -0.09     -0.43      1.01     -0.81    -20.42    -10.44      3.80      0.52      3.82
     -69.273392     -35.420193     387.2      2.84      3.87     117.3         1         3      1000      3562    657.96   -11.818      14.2      36.1   374.928     0.736     596.5   0.13691     100.0         H               207.7  0.074862  0.046963  0.007195  3.301643  1.453414  2.271646  1.218102     34.02   12.2541  193.9490   0.20759   6.95176   0.12847   0.00222 307.37372  12.06450     801.3  0.593338  0.013263  0.000911  0.000087  0.208157  7.163693  0.758028    100.63  1.000079  1.000005     3.258    32.010      81.3      95.0     499.3     982.1     13.83     -0.34     -1.01     -5.41      0.33     -1.13      4.64     -0.90      1.02     -0.19     -0.36      0.54     -0.19      1.14     -0.87    -27.06      2.24     -2.96     -1.52      3.59
     -69.382088     -35.269409     398.0      0.71      3.87      19.4         2         1      2456      1000    574.15   -12.410      12.5      35.4   354.905     0.682    1088.2   0.11797     100.0         H               207.7  0.062518  0.033148  0.006285  2.407893  1.170638  2.056908  1.176253     30.00   10.7754  150.6631   0.18687   6.76190   0.13498   0.00254 245.01590  10.74913     675.3  0.558474  0.019395  0.002674  0.000086  0.203446  7.070601  0.699199     87.50  0.999935  0.999996     3.022    18.970     121.0      94.5     359.9     802.6     13.96      0.77     -1.44     -6.33     -0.59      0.25      6.08      0.38     -0.49      0.48     -0.04     -0.11      0.60     -0.64      0.77    -31.56     -2.39      2.09     -0.74     -2.73
     -69.349144     -35.391888     392.5      0.74      3.87      79.3         2         2      2456      2281    598.94   -12.226      13.1      35.7   380.445     0.756    1092.7   0.14468     100.0         H               207.7  0.075211  0.048367  0.008926  3.482767  1.491045  2.335790  1.237004     44.67   11.1709  171.4742   0.22189   6.78741   0.13822   0.00268 266.85107  11.07523     740.9  0.599823  0.021590  0.002277  0.000087  0.207794  7.151208  0.781069     93.18  0.999902  0.999994     3.185    21.066     110.8      94.2     420.0     932.4     13.97      0.88     -0.64     -6.21     -1.16     -0.74      5.85      1.14     -0.15      0.41      0.02     -0.29      1.64     -1.32      0.94    -30.94     -4.56     -0.22      0.71     -5.11
     -69.316422     -35.512871     387.2      2.73      3.87     117.3         2         3      2456      3562    662.99   -11.785      14.3      36.1   376.536     0.743     820.5   0.14076     100.0         H               207.7  0.077135  0.045616  0.007490  3.290764  1.520937  2.163642  1.225708     29.79   12.3301  198.4648   0.21630   6.95324   0.12915   0.00224 311.07437  12.10969     812.6  0.595214  0.016896  0.001550  0.000086  0.202917  7.103868  0.766598    104.97  1.000007  1.000001     3.028    18.449      92.7      95.0     512.1     912.8     13.65     -0.64     -1.23     -5.39      0.69     -0.61      5.19     -0.85      0.29      0.16      0.02     -0.24      0.54      0.28     -0.43    -28.24      3.25     -0.60     -0.05      1.03
     -69.425194     -35.362232     397.7      0.72      3.87      95.4         3         1      3912      1000    596.02   -12.247      12.8      35.4   365.686     0.715    1108.6   0.13006     100.0         H               207.7  0.067811  0.037937  0.006932  2.763661  1.314840  2.101900  1.203169     24.18   11.1499  163.9380   0.20251   6.80622   0.13421   0.00250 261.47830  11.06809     717.1  0.577745  0.022548  0.002262  0.000087  0.201520  7.092254  0.735623    103.21  1.000060  1.000005     3.108    19.912     121.0      94.5     400.7     851.0     13.58     -0.73     -1.78     -5.85      0.53     -0.09      5.95     -0.70     -0.62      0.24      0.07      0.63      0.83     -0.63      0.80    -30.53      2.63      2.24     -1.44     -2.91
     -69.392189     -35.484821     395.9      0.72      3.87     138.6         3         2      3912      2281    564.01   -12.487      12.6      35.7   370.046     0.730     946.4   0.13704     100.0         H               207.7  0.070836  0.045798  0.008079  3.072348  1.397821  2.197955  1.214586     35.14   10.5434  150.0288   0.20659   6.70791   0.13973   0.00276 238.06546  10.50611     685.0  0.583903  0.020124  0.001666  0.000089  0.211226  7.170041  0.752696     90.47  0.999912  0.999994     3.278    22.179      99.7      94.1     361.5     838.9     14.03      0.07     -2.58     -6.33      0.51      0.48      5.19     -1.00     -0.35      0.46     -0.57      0.43      0.57      0.14     -0.23    -30.46      2.48      3.28     -1.88      0.05
     -69.359406     -35.605915     395.9      2.99      3.87      41.4         3         3      3912      3562    587.98   -12.306      13.3      36.1   379.760     0.756     800.7   0.14542     100.0         H               207.7  0.076615  0.053546  0.009149  3.812667  1.491007  2.557108  1.235973     40.31   10.9634  164.5875   0.21835   6.76067   0.13867   0.00270 257.29865  10.88932     726.7  0.599232  0.016959  0.001462  0.000088  0.214361  7.199921  0.782363     94.39  0.999994  0.999999     3.268    21.835      94.9      94.1     403.2     878.4     14.25      0.29     -1.17     -6.36     -0.47      0.30      5.05      0.36     -0.47      0.53     -0.70      0.42     -0.26      0.32      0.33    -29.83     -1.67      2.14     -2.10      0.04
