corner points
-92.29351807    -9.661065102
-92.33300781    -9.486169815
-92.11372375    -9.62045002
-92.15332031    -9.445607185
========== RESULTS WAVE VERSION 16.10.2018 ====================
IMAGE SIZE  X: 4444     Y:4786    col:row     POLARIZATION:VV
COVERAGE    X: 20.17401233km       Y: 19.87758839km 
RESOLUTION dX: 4.539606735m       dY:4.153277976m  
resolution of original product 4.539606735m x 4.153277976m;   raster step x:5996.820496m  
===============================================================
FLAGS: H=HIGH PROBABILITY SEA STATE, I=LAND(ISLAND), O=OUTLIER NO SEA STATE, N=NO WIND AVAILABLE, SEA STATE NOT VISIBLE, M=MEAN PROBABILITY SEA STATE, L= LOW PROBABILITY SEA STATE
Filtering wave length
 integration  Lmin=1m
 integration  Lmax=2200m
  peak        Lmin=100m
               FFT=1024pixels, 4648.557296m 
   mean-Hs (SWH_c)=0.2m
         mean-wind=7.979629517m/s
--------------0--------------1---------2---------3---------4---------5---------6---------7---------8---------9--------10--------11--------12--------13--------14--------15--------16--------17--------18--------19------------------20--------21--------22--------23--------24--------25--------26--------27--------28--------29--------30--------31--------32--------33--------34--------35--------36--------37--------38--------39--------40--------41--------42--------43--------44--------45--------46--------47--------48--------49--------50--------51--------52--------53--------54--------55--------56--------57--------58--------59--------60--------61--------62--------63--------64--------65--------66--------67--------68--------69--------70--------71--------72--------73
            LAT            LON  P-LENGHT     SWH_o     SWH_c     P-DIR      LINE     POINT     ROW-Y     COL-X  M-INTENC        dB      WIND INC-ANGLE  ENERGY-M  ENERGY-N  ENERGY-R ENERGY-NN  FG-DEPTH      FLAG         HEADING-DEG    E30-75   E75-390  E390-600 meanincut   meanout   cut/out  STD-NORM  SPEC-MAX   GL-MEAN    GL-VAR      CORR   ENTROPY   HOMOGEN    ENERGY  CONTRAST  DISSIMIL     STD-O    E 1-30 E600-2000   E2000 >      GODA  LONG-HIG     Tmean  CONVOLUT  MEAN-DIR  relation     Sy/Sx  SKEWNESS  KURTOSIS  cutoff-A >50/10000     INT*V   INT-LOG  S-1_g1f1  S-2_g1f2  S-3_g1f3  S-4_g2f1  S-5_g2f2  S-6_g2f3  S-7_g3f1  S-8_g3f2  S-9_g3f3 S-10_g1f4 S-11_g2f4 S-12_g3f4 S-13_g1f5 S-14_g2f5 S-15_g3f5 S-16_g4f1 S-17_g4f2 S-18_g4f3 S-19_g4f4 S-20_g4f5
--------------1--------------2---------3---------4---------5---------6---------7---------8---------9--------10--------11--------12--------13--------14--------15--------16--------17--------18--------19--------20------------------21--------22--------23--------24--------25--------26--------27--------28--------29--------30--------31--------32--------33--------34--------35--------36--------37--------38--------39--------40--------41--------42--------43--------44--------45--------46--------47--------48--------49--------50--------51--------52--------53--------54--------55--------56--------57--------58--------59--------60--------61--------62--------63--------64--------65--------66--------67--------68--------69--------70--------71--------72--------73--------74
      -9.615281     -92.260849     309.5      0.52      1.50      36.8         1         1      1000      1000    295.93   -15.288       8.7      36.7   221.708     0.543     104.2   0.06553     100.0         H               348.0  0.043332  0.011597  0.000534  1.047992  0.661959  1.583166  1.046334      4.61    5.4333   38.1610   0.09430   5.54993   0.21264   0.00781  69.12434   5.73441     309.6  0.486411  0.001571  0.000262  0.000099  0.163775  6.730046  0.546802     83.03  1.000101  1.000007     2.277    11.349      78.1      87.8      77.3     294.9     11.53     -0.43     -2.19      0.39      0.26      0.30      1.68     -0.88      0.31     -0.08      0.14     -0.02     -1.01      0.37      0.64     -9.17      2.62      1.60     -0.17      0.91
      -9.603168     -92.207207     308.6      0.49      1.50      19.4         1         2      1000      2321    259.35   -15.861       8.2      37.1   223.498     0.548     168.6   0.06561     100.0         H               348.0  0.042980  0.011833  0.000718  1.058970  0.662400  1.598688  1.051177      8.14    4.7033   29.5712   0.09409   5.28650   0.23594   0.01024  53.57789   5.03408     272.6  0.489639  0.002514  0.000423  0.000097  0.166655  6.748587  0.551552     80.55  1.000165  1.000009     2.311    11.814      90.6      85.4      59.4     268.4     11.98     -0.30     -1.36     -0.70      0.77     -0.47      2.43     -0.58      0.89     -0.59      0.84      0.09     -0.77     -0.10      1.20    -12.63      3.35     -1.89      1.35     -1.00
      -9.591152     -92.154030     271.2      0.47      1.50      17.0         1         3      1000      3642    232.10   -16.343       7.8      37.5   222.280     0.544      74.3   0.06456     100.0         H               348.0  0.043868  0.011740  0.000534  1.068719  0.668437  1.598833  1.047096      6.11    4.1617   23.5161   0.09149   5.06688   0.25653   0.01264  42.72908   4.49780     243.0  0.487148  0.001329  0.000131  0.000098  0.165187  6.734358  0.547882     82.87  1.000137  1.000009     2.275    11.389      79.7      83.7      47.5     228.1     11.91     -0.78     -1.93     -0.03      0.82      0.27      1.35      0.08      0.46     -0.40      0.74      0.38     -1.05      0.13      0.51     -9.64      2.34      0.81      0.75      1.36
      -9.562506     -92.272781     276.3      0.50      1.50      24.6         2         1      2444      1000    279.33   -15.539       8.3      36.7   221.822     0.544     119.7   0.06521     100.0         H               348.0  0.043490  0.011842  0.000690  1.055260  0.674331  1.564899  1.047505      4.60    5.1019   34.0631   0.09372   5.43481   0.22243   0.00878  61.74143   5.41756     292.6  0.486553  0.001916  0.000267  0.000098  0.167072  6.742259  0.548103     82.86  1.000116  1.000007     2.282    11.455      83.0      86.8      68.7     278.6     11.98     -0.82     -1.65     -0.41      0.95     -0.27      1.97     -0.46      1.23      0.47      0.47     -0.20     -0.93      0.05      0.94    -11.97      3.33     -1.44      0.06     -0.02
      -9.550398     -92.219147     288.8      0.46      1.50      18.1         2         2      2444      2321    236.84   -16.255       7.6      37.1   221.431     0.542      75.6   0.06374     100.0         H               348.0  0.042742  0.011884  0.000719  1.046241  0.653710  1.600467  1.044666      6.85    4.2555   24.3861   0.09008   5.10714   0.25242   0.01211  44.37835   4.58718     247.4  0.485183  0.001375  0.000128  0.000097  0.167860  6.754650  0.545095     81.75  1.000106  1.000006     2.275    11.415      79.7      84.0      49.3     232.6     11.97     -1.14     -1.86     -0.56      1.32      0.20      2.35     -1.15      0.92     -0.67      0.93      0.01     -1.32      1.39     -0.30    -12.35      5.99      0.12      1.98      4.23
      -9.538386     -92.165977     308.6      0.47      1.50      19.4         2         3      2444      3642    233.74   -16.313       7.8      37.5   222.189     0.542      73.6   0.06348     100.0         H               348.0  0.042513  0.011938  0.000622  1.041615  0.654910  1.590471  1.044814      9.06    4.1946   23.7574   0.08813   5.08148   0.25487   0.01242  43.32746   4.53329     244.2  0.485611  0.001219  0.000138  0.000096  0.167875  6.749784  0.544749     79.26  1.000115  1.000007     2.259    11.216      81.3      83.9      48.0     229.6     11.89     -0.43     -1.98     -0.60      0.41      0.29      2.16     -0.34      0.52     -0.82      1.16      0.04     -1.28      0.78      0.52    -11.17      2.12      0.38      2.02      2.09
      -9.509729     -92.284706     293.5      0.48      1.50      26.2         3         1      3888      1000    262.18   -15.814       7.9      36.7   220.563     0.537      72.2   0.06268     100.0         H               348.0  0.041777  0.011319  0.000629  1.024609  0.661136  1.549771  1.039611      5.24    4.7599   29.6049   0.08736   5.30977   0.23285   0.00983  54.03692   5.08051     272.6  0.482103  0.001232  0.000140  0.000095  0.164935  6.736372  0.539582     81.73  1.000101  1.000007     2.232    10.887      76.6      86.0      60.0     245.3     11.59     -0.94     -1.77      0.15      1.24     -0.36      2.36     -1.13      1.23     -0.61      1.30     -0.64     -1.36      0.64      0.21    -11.00      5.37     -1.27      3.09      2.84
      -9.497626     -92.231079     293.5      0.46      1.50      26.2         3         2      3888      2321    239.26   -16.211       7.7      37.1   222.694     0.544      98.0   0.06421     100.0         H               348.0  0.042719  0.011883  0.000588  1.052118  0.660099  1.593878  1.046824      7.50    4.3041   25.0042   0.09043   5.12721   0.25014   0.01192  45.48620   4.64420     250.5  0.487093  0.001574  0.000223  0.000096  0.167543  6.753713  0.547093     80.09  1.000093  1.000004     2.259    11.093      79.7      84.0      50.4     231.9     11.80     -0.26     -2.33     -0.24      0.67      0.45      1.87     -0.84      0.44     -0.50      0.82     -0.05     -1.46      0.84      0.32    -10.53      3.56      1.48      1.15      2.68
      -9.485620     -92.177917     301.4      0.47      1.50      22.9         3         3      3888      3642    234.07   -16.307       7.8      37.5   223.086     0.545      68.4   0.06418     100.0         H               348.0  0.043217  0.011727  0.000648  1.048452  0.661002  1.586156  1.047752      5.69    4.2010   23.9608   0.08963   5.08373   0.25511   0.01245  43.62643   4.54479     245.2  0.488199  0.001222  0.000115  0.000098  0.166797  6.745631  0.547912     83.74  1.000111  1.000007     2.259    11.088      79.7      83.9      48.3     220.9     11.86     -1.36     -1.79     -0.37      1.45      0.02      2.13     -0.70      0.79     -0.15      0.97     -0.47     -1.65      0.95      0.28    -11.46      5.77     -0.23      2.18      3.46
