corner points
-96.4298172    1.482243419
-96.467453    1.663163424
-96.2492981    1.520778537
-96.28694153    1.70166719
========== RESULTS WAVE VERSION 16.10.2018 ====================
IMAGE SIZE  X: 5619     Y:4932    col:row     POLARIZATION:VV
COVERAGE    X: 20.47079768km       Y: 20.50016129km 
RESOLUTION dX: 3.643138936m       dY:4.156561495m  
resolution of original product 3.643138936m x 4.156561495m;   raster step x:5996.606688m  
===============================================================
FLAGS: H=HIGH PROBABILITY SEA STATE, I=LAND(ISLAND), O=OUTLIER NO SEA STATE, N=NO WIND AVAILABLE, SEA STATE NOT VISIBLE, M=MEAN PROBABILITY SEA STATE, L= LOW PROBABILITY SEA STATE
Filtering wave length
 integration  Lmin=1m
 integration  Lmax=2200m
  peak        Lmin=100m
               FFT=1024pixels, 3730.57427m 
   mean-Hs (SWH_c)=0.2m
         mean-wind=5.529629707m/s
--------------0--------------1---------2---------3---------4---------5---------6---------7---------8---------9--------10--------11--------12--------13--------14--------15--------16--------17--------18--------19------------------20--------21--------22--------23--------24--------25--------26--------27--------28--------29--------30--------31--------32--------33--------34--------35--------36--------37--------38--------39--------40--------41--------42--------43--------44--------45--------46--------47--------48--------49--------50--------51--------52--------53--------54--------55--------56--------57--------58--------59--------60--------61--------62--------63--------64--------65--------66--------67--------68--------69--------70--------71--------72--------73
            LAT            LON  P-LENGHT     SWH_o     SWH_c     P-DIR      LINE     POINT     ROW-Y     COL-X  M-INTENC        dB      WIND INC-ANGLE  ENERGY-M  ENERGY-N  ENERGY-R ENERGY-NN  FG-DEPTH      FLAG         HEADING-DEG    E30-75   E75-390  E390-600 meanincut   meanout   cut/out  STD-NORM  SPEC-MAX   GL-MEAN    GL-VAR      CORR   ENTROPY   HOMOGEN    ENERGY  CONTRAST  DISSIMIL     STD-O    E 1-30 E600-2000   E2000 >      GODA  LONG-HIG     Tmean  CONVOLUT  MEAN-DIR  relation     Sy/Sx  SKEWNESS  KURTOSIS  cutoff-A >50/10000     INT*V   INT-LOG  S-1_g1f1  S-2_g1f2  S-3_g1f3  S-4_g2f1  S-5_g2f2  S-6_g2f3  S-7_g3f1  S-8_g3f2  S-9_g3f3 S-10_g1f4 S-11_g2f4 S-12_g3f4 S-13_g1f5 S-14_g2f5 S-15_g3f5 S-16_g4f1 S-17_g4f2 S-18_g4f3 S-19_g4f4 S-20_g4f5
--------------1--------------2---------3---------4---------5---------6---------7---------8---------9--------10--------11--------12--------13--------14--------15--------16--------17--------18--------19--------20------------------21--------22--------23--------24--------25--------26--------27--------28--------29--------30--------31--------32--------33--------34--------35--------36--------37--------38--------39--------40--------41--------42--------43--------44--------45--------46--------47--------48--------49--------50--------51--------52--------53--------54--------55--------56--------57--------58--------59--------60--------61--------62--------63--------64--------65--------66--------67--------68--------69--------70--------71--------72--------73--------74
       1.525970     -96.404495     205.4      0.34      1.66      29.7         1         1      1000      1000   1964.00    -7.069       5.4      23.7   390.430     0.623      92.0   0.12321      34.0         H               348.0  0.059316  0.030630  0.000675  2.556041  0.830840  3.076452  1.118966     22.60    3.4536   19.2332   0.21854   4.70928   0.31326   0.02060  30.06018   3.62311    2197.6  0.531201  0.001511  0.000057  0.000131  0.191464  7.052989  0.648993     82.69  1.000069  1.000004     2.678    15.165      56.1      78.9      37.0     225.8     11.82      0.86     -4.41      1.95     -0.71      0.43     -1.95     -1.58      3.49     -0.95      0.09     -0.11     -1.32     -1.35      0.29     -4.05     -0.51      1.07      0.49     -1.19
       1.537379     -96.351044     214.3      0.34      1.66      31.1         1         2      1000      2646   1762.04    -7.540       5.4      24.2   391.666     0.625     105.7   0.12427      38.6         H               348.0  0.059086  0.030379  0.000697  2.543100  0.823589  3.087828  1.121040     20.51    3.0543   15.5415   0.21851   4.49492   0.33785   0.02543  24.29112   3.24366    1975.3  0.533977  0.001674  0.000087  0.000131  0.192134  7.045643  0.651202     75.01  1.000081  1.000006     2.719    15.923      56.1      76.5      30.0     207.0     11.84      0.84     -4.16      1.87     -1.19      0.51     -1.69     -1.94      3.38     -1.26     -0.09     -0.18     -1.59     -1.51     -0.01     -4.04     -0.98      1.14      0.42     -0.81
       1.548579     -96.298561     220.6      0.34      1.66      28.2         1         3      1000      4292   1604.66    -7.946       5.4      24.6   390.043     0.620      64.5   0.12153      42.4         H               348.0  0.058507  0.029055  0.000665  2.404717  0.826759  2.908608  1.115813     29.01    2.7338   12.6769   0.21502   4.30653   0.36025   0.03039  19.90189   2.93699    1790.4  0.530603  0.001092  0.000025  0.000131  0.192187  7.041571  0.644450     49.03  1.000088  1.000005     2.716    16.656      55.3      74.3      24.8     203.6     12.01      2.07     -4.29      1.63     -0.97      0.42     -2.13     -2.45      3.69     -1.64      0.25      0.78     -1.59     -0.99      0.26     -4.23     -0.72      0.31      0.42     -0.33
       1.578912     -96.415504     210.9      0.36      1.66      26.9         2         1      2443      1000   2080.91    -6.817       5.8      23.7   388.074     0.618      90.3   0.12267      36.8         H               348.0  0.058646  0.029206  0.000757  2.510972  0.819331  3.064661  1.114763     22.93    3.6763   21.3154   0.21863   4.82024   0.30025   0.01832  33.31047   3.82734    2319.6  0.528523  0.001474  0.000056  0.000128  0.187047  7.021879  0.643675     79.18  1.000103  1.000007     2.673    15.239      53.8      80.3      41.1     243.9     11.68      0.74     -3.89      1.87     -0.67      0.16     -1.24     -1.27      3.32     -1.01      0.14      0.05     -1.65     -0.97      0.52     -4.81     -0.32      0.16      0.52     -0.34
       1.590318     -96.362061     216.1      0.36      1.66      23.9         2         2      2443      2646   1882.95    -7.252       5.8      24.2   391.294     0.625      99.6   0.12428      39.7         H               348.0  0.059862  0.029610  0.000699  2.490741  0.825757  3.016313  1.121048     22.31    3.2801   17.6011   0.21880   4.61877   0.32332   0.02247  27.50014   3.45707    2110.8  0.533261  0.001671  0.000062  0.000132  0.189559  7.024321  0.650257     72.48  1.000098  1.000006     2.707    15.581      55.3      78.0      33.9     223.9     11.87      1.07     -4.36      1.76     -0.74      0.43     -1.75     -1.62      3.50     -1.32     -0.13      0.13     -1.20     -1.20      0.10     -4.39     -0.36      1.11      0.55     -0.66
       1.601516     -96.309578     216.1      0.34      1.66      23.9         2         3      2443      4292   1591.61    -7.982       5.4      24.6   389.285     0.620      95.4   0.12296      39.7         H               348.0  0.058606  0.029504  0.000637  2.436408  0.829820  2.936069  1.116749     27.73    2.7030   12.4605   0.21704   4.28657   0.36263   0.03108  19.51233   2.90679    1777.3  0.530472  0.001625  0.000070  0.000132  0.192410  7.046706  0.645452     69.88  1.000102  1.000006     2.699    15.777      56.9      74.0      24.4     187.0     11.76      0.02     -4.49      1.98     -0.67      0.91     -1.67     -1.30      4.04     -1.08     -0.30     -0.15     -0.86     -1.51      0.20     -3.74     -0.22      1.16      0.19     -1.59
       1.631855     -96.426521     205.4      0.34      1.66      29.7         3         1      3886      1000   1956.63    -7.085       5.4      23.7   392.093     0.625      75.6   0.12379      34.0         H               348.0  0.059497  0.032110  0.000728  2.597189  0.823725  3.152980  1.121354     33.03    3.4338   19.0609   0.21899   4.69893   0.31443   0.02082  29.77339   3.60464    2194.0  0.532053  0.001268  0.000034  0.000140  0.195166  7.079109  0.651641     53.94  1.000078  1.000005     2.737    16.861      56.9      78.8      36.7     262.4     12.00      1.41     -4.64      1.75     -1.15      0.40     -2.30     -2.08      4.14     -1.45     -0.24      0.51     -1.41     -1.57      0.13     -4.08     -1.22      0.27      0.22     -1.16
       1.643258     -96.373070     210.9      0.35      1.66      26.9         3         2      3886      2646   1838.31    -7.356       5.6      24.2   394.017     0.632     134.2   0.12755      36.8         H               348.0  0.060651  0.030981  0.000737  2.519358  0.844297  2.983972  1.128908     38.88    3.1856   16.9029   0.22282   4.56597   0.33020   0.02391  26.27293   3.36803    2075.3  0.538110  0.002243  0.000124  0.000138  0.192251  7.050436  0.658973     43.98  1.000125  1.000009     2.782    16.830      57.7      77.2      32.5     224.5     11.93      1.30     -4.17      1.83     -1.22      0.35     -2.01     -1.71      3.87     -1.89     -0.17      0.75     -1.05     -1.20      0.26     -4.18     -1.51      0.14     -0.12     -0.84
       1.654453     -96.320595     210.9      0.35      1.66      26.9         3         3      3886      4292   1628.32    -7.883       5.5      24.6   390.343     0.623      82.6   0.12377      36.8         H               348.0  0.058790  0.030406  0.000757  2.509866  0.827561  3.032846  1.119080     31.01    2.7916   13.2281   0.21826   4.34105   0.35609   0.02954  20.68189   2.99286    1822.2  0.531931  0.001333  0.000044  0.000138  0.192729  7.052641  0.648447     55.84  1.000104  1.000006     2.703    15.728      57.7      74.6      25.8     193.1     12.01      1.03     -4.38      1.58     -1.05      0.37     -1.99     -2.08      4.37     -1.54      0.07      0.20     -1.16     -1.42      0.45     -4.48     -0.63      0.11      0.64     -1.21
