corner points
-94.61039734    0.9480368495
-94.64705658    1.123271585
-94.43312836    0.9859265089
-94.46977997    1.161119699
========== RESULTS WAVE VERSION 16.10.2018 ====================
IMAGE SIZE  X: 4444     Y:4786    col:row     POLARIZATION:VV
COVERAGE    X: 20.10821803km       Y: 19.86002987km 
RESOLUTION dX: 4.524801537m       dY:4.149609251m  
resolution of original product 4.524801537m x 4.149609251m;   raster step x:5999.886838m  
===============================================================
FLAGS: H=HIGH PROBABILITY SEA STATE, I=LAND(ISLAND), O=OUTLIER NO SEA STATE, N=NO WIND AVAILABLE, SEA STATE NOT VISIBLE, M=MEAN PROBABILITY SEA STATE, L= LOW PROBABILITY SEA STATE
Filtering wave length
 integration  Lmin=1m
 integration  Lmax=2200m
  peak        Lmin=100m
               FFT=1024pixels, 4633.396774m 
   mean-Hs (SWH_c)=0.2m
         mean-wind=6.068930149m/s
--------------0--------------1---------2---------3---------4---------5---------6---------7---------8---------9--------10--------11--------12--------13--------14--------15--------16--------17--------18--------19------------------20--------21--------22--------23--------24--------25--------26--------27--------28--------29--------30--------31--------32--------33--------34--------35--------36--------37--------38--------39--------40--------41--------42--------43--------44--------45--------46--------47--------48--------49--------50--------51--------52--------53--------54--------55--------56--------57--------58--------59--------60--------61--------62--------63--------64--------65--------66--------67--------68--------69--------70--------71--------72--------73
            LAT            LON  P-LENGHT     SWH_o     SWH_c     P-DIR      LINE     POINT     ROW-Y     COL-X  M-INTENC        dB      WIND INC-ANGLE  ENERGY-M  ENERGY-N  ENERGY-R ENERGY-NN  FG-DEPTH      FLAG         HEADING-DEG    E30-75   E75-390  E390-600 meanincut   meanout   cut/out  STD-NORM  SPEC-MAX   GL-MEAN    GL-VAR      CORR   ENTROPY   HOMOGEN    ENERGY  CONTRAST  DISSIMIL     STD-O    E 1-30 E600-2000   E2000 >      GODA  LONG-HIG     Tmean  CONVOLUT  MEAN-DIR  relation     Sy/Sx  SKEWNESS  KURTOSIS  cutoff-A >50/10000     INT*V   INT-LOG  S-1_g1f1  S-2_g1f2  S-3_g1f3  S-4_g2f1  S-5_g2f2  S-6_g2f3  S-7_g3f1  S-8_g3f2  S-9_g3f3 S-10_g1f4 S-11_g2f4 S-12_g3f4 S-13_g1f5 S-14_g2f5 S-15_g3f5 S-16_g4f1 S-17_g4f2 S-18_g4f3 S-19_g4f4 S-20_g4f5
--------------1--------------2---------3---------4---------5---------6---------7---------8---------9--------10--------11--------12--------13--------14--------15--------16--------17--------18--------19--------20------------------21--------22--------23--------24--------25--------26--------27--------28--------29--------30--------31--------32--------33--------34--------35--------36--------37--------38--------39--------40--------41--------42--------43--------44--------45--------46--------47--------48--------49--------50--------51--------52--------53--------54--------55--------56--------57--------58--------59--------60--------61--------62--------63--------64--------65--------66--------67--------68--------69--------70--------71--------72--------73--------74
       0.993281     -94.577713     230.4      0.38      1.55      29.8         1         1      1000      1000    187.92   -17.260       6.1      36.9   215.463     0.528      36.5   0.05452      49.3         H               348.0  0.037125  0.013472  0.000328  1.136916  0.627559  1.811648  1.031611     10.52    3.2799   14.9502   0.07001   4.64893   0.29778   0.01882  27.80701   3.64328     193.9  0.477337  0.000484  0.000050  0.000094  0.182353  6.900075  0.530823     56.83  1.000050  1.000002     2.159    10.274      78.1      79.5      31.1     173.2     11.36      0.50     -3.31      2.15     -1.11     -0.05     -0.88     -1.40      2.60     -0.96      0.03     -0.11     -1.56     -0.77      0.75     -3.61     -0.79     -0.43      0.41     -0.24
       1.004627     -94.524620     222.3      0.38      1.55      19.6         1         2      1000      2326    179.05   -17.470       6.1      37.2   216.086     0.529      31.0   0.05476      43.5         H               348.0  0.037343  0.013860  0.000336  1.141862  0.636612  1.793655  1.032082     11.77    3.1075   13.5691   0.06960   4.55516   0.30784   0.02058  25.24940   3.46802     184.8  0.477293  0.000399  0.000030  0.000096  0.184717  6.926281  0.531139     51.21  1.000030  1.000002     2.166    10.281      78.1      78.5      28.4     159.6     11.57      1.64     -4.17      1.53     -1.32      0.61     -1.15     -2.02      2.71     -1.57      0.26     -0.01     -1.49     -0.28      0.93     -4.20     -1.33      1.15      0.70      0.41
       1.015874     -94.471985     218.8      0.38      1.55      34.5         1         3      1000      3652    171.16   -17.666       6.1      37.6   214.613     0.524      32.1   0.05312      41.3         H               348.0  0.036185  0.013106  0.000302  1.109299  0.603198  1.839029  1.027675      9.87    2.9487   12.2860   0.06641   4.46502   0.31788   0.02238  22.94025   3.30856     175.9  0.474698  0.000430  0.000039  0.000095  0.182540  6.919493  0.526388     71.76  1.000040  1.000002     2.149    10.204      79.7      77.6      26.0     152.1     11.32      1.15     -3.64      2.11     -1.01      0.20     -0.96     -1.74      2.78     -0.86      0.04     -0.22     -1.23     -0.65      0.75     -3.34     -1.12      0.15     -0.18     -0.47
       1.046196     -94.588783     224.7      0.38      1.55      32.2         2         1      2445      1000    187.58   -17.268       6.1      36.9   215.048     0.528      34.5   0.05488      45.1         H               348.0  0.036976  0.013992  0.000374  1.149584  0.621573  1.849474  1.031363     15.02    3.2734   14.8839   0.07132   4.64539   0.29836   0.01885  27.64474   3.63109     193.4  0.476357  0.000451  0.000044  0.000097  0.186829  6.935653  0.530117     37.92  1.000060  1.000003     2.170    10.388      78.1      79.6      31.0     176.6     11.69      1.60     -3.68      1.56     -1.35      0.19     -1.17     -1.92      2.94     -1.56      0.32      0.33     -1.74     -0.43      1.21     -4.39     -1.54      0.08      0.60     -0.30
       1.057538     -94.535690     218.8      0.38      1.55      34.5         2         2      2445      2326    181.11   -17.421       6.2      37.2   215.634     0.529      37.6   0.05494      41.3         H               348.0  0.037659  0.013202  0.000380  1.133162  0.630460  1.797359  1.031993     10.68    3.1481   13.8774   0.07029   4.57761   0.30523   0.02010  25.80418   3.50552     186.9  0.477337  0.000512  0.000052  0.000094  0.179874  6.879592  0.530941     56.71  1.000062  1.000004     2.182    10.532      79.7      78.8      29.0     169.9     11.47      1.80     -3.08      1.69     -1.20     -0.06     -0.61     -1.96      2.37     -1.42      0.25      0.03     -1.92     -0.53      1.30     -4.68     -1.44     -0.29      0.67      0.01
       1.068782     -94.483055     246.5      0.37      1.55      21.9         2         3      2445      3652    169.54   -17.707       6.0      37.6   214.920     0.524      29.4   0.05306      66.2         H               348.0  0.036327  0.012647  0.000297  1.077032  0.610900  1.763027  1.027556      8.09    2.9177   12.0519   0.06530   4.44696   0.31946   0.02276  22.52975   3.28078     174.2  0.474988  0.000381  0.000034  0.000095  0.178082  6.879332  0.526260     83.25  1.000037  1.000002     2.135     9.993      79.7      77.4      25.5     145.9     11.22      1.23     -3.58      1.95     -1.27      0.20     -0.51     -1.79      2.35     -0.89      0.21     -0.36     -1.28     -0.44      0.74     -3.57     -1.81      0.74      0.39     -0.05
       1.099112     -94.599854     215.2      0.37      1.55      40.6         3         1      3890      1000    181.88   -17.402       5.9      36.9   215.668     0.528      33.6   0.05377      39.1         H               348.0  0.036691  0.013331  0.000337  1.115393  0.617240  1.807065  1.031515     11.29    3.1604   13.9983   0.06824   4.58446   0.30467   0.02001  26.08608   3.52552     187.6  0.477828  0.000506  0.000035  0.000095  0.185010  6.928462  0.530733     39.87  1.000050  1.000002     2.176    10.518      79.7      78.8      29.2     172.2     11.45      1.41     -3.86      1.94     -0.64      0.13     -1.22     -2.41      2.84     -1.19     -0.18      0.11     -1.48     -0.80      1.10     -3.93     -0.27      0.32      0.12     -0.43
       1.110450     -94.546761     231.1      0.38      1.55      40.4         3         2      3890      2326    177.54   -17.507       6.1      37.2   216.069     0.531      55.1   0.05549      49.9         H               348.0  0.037344  0.013404  0.000370  1.148313  0.616338  1.863121  1.033961     10.79    3.0770   13.3812   0.07085   4.53789   0.31029   0.02096  24.86630   3.43657     183.6  0.478979  0.000753  0.000102  0.000094  0.183467  6.909442  0.533004     45.91  1.000069  1.000003     2.187    10.548      81.3      78.3      28.0     165.0     11.60      1.36     -3.17      1.76     -1.16      0.21     -1.01     -2.15      2.65     -0.89      0.06      0.03     -1.64     -0.71      1.10     -4.24     -0.86     -0.24      0.06     -0.80
       1.121690     -94.494125     204.6      0.38      1.55      35.0         3         3      3890      3652    171.57   -17.656       6.1      37.6   214.650     0.526      36.6   0.05328      33.7         H               348.0  0.036785  0.013014  0.000366  1.080537  0.609801  1.771950  1.028882     12.01    2.9576   12.3749   0.06680   4.47021   0.31733   0.02227  23.09660   3.31751     176.5  0.475201  0.000497  0.000049  0.000095  0.183575  6.913586  0.527838     39.91  1.000045  1.000002     2.154    10.219      81.3      77.7      26.1     153.8     11.50      1.46     -3.91      1.60     -1.00     -0.09     -1.01     -1.94      3.14     -1.77      0.16      0.29     -1.32     -0.41      0.90     -4.47     -1.25     -0.57      0.59     -0.06
