corner points
-165.2077789    34.00699615
-165.2463989    34.18123245
-164.9961395    34.03892899
-165.0343018    34.21315384
========== RESULTS WAVE VERSION 16.10.2018 ====================
IMAGE SIZE  X: 4376     Y:4777    col:row     POLARIZATION:VV
COVERAGE    X: 19.78173739km       Y: 19.64930071km 
RESOLUTION dX: 4.520506717m       dY:4.113313943m  
resolution of original product 4.520506717m x 4.113313943m;   raster step x:5998.712413m  
===============================================================
FLAGS: H=HIGH PROBABILITY SEA STATE, I=LAND(ISLAND), O=OUTLIER NO SEA STATE, N=NO WIND AVAILABLE, SEA STATE NOT VISIBLE, M=MEAN PROBABILITY SEA STATE, L= LOW PROBABILITY SEA STATE
Filtering wave length
 integration  Lmin=1m
 integration  Lmax=2200m
  peak        Lmin=100m
               FFT=1024pixels, 4628.998878m 
   mean-Hs (SWH_c)=1.556842804m
         mean-wind=10.59115219m/s
--------------0--------------1---------2---------3---------4---------5---------6---------7---------8---------9--------10--------11--------12--------13--------14--------15--------16--------17--------18--------19------------------20--------21--------22--------23--------24--------25--------26--------27--------28--------29--------30--------31--------32--------33--------34--------35--------36--------37--------38--------39--------40--------41--------42--------43--------44--------45--------46--------47--------48--------49--------50--------51--------52--------53--------54--------55--------56--------57--------58--------59--------60--------61--------62--------63--------64--------65--------66--------67--------68--------69--------70--------71--------72--------73
            LAT            LON  P-LENGHT     SWH_o     SWH_c     P-DIR      LINE     POINT     ROW-Y     COL-X  M-INTENC        dB      WIND INC-ANGLE  ENERGY-M  ENERGY-N  ENERGY-R ENERGY-NN  FG-DEPTH      FLAG         HEADING-DEG    E30-75   E75-390  E390-600 meanincut   meanout   cut/out  STD-NORM  SPEC-MAX   GL-MEAN    GL-VAR      CORR   ENTROPY   HOMOGEN    ENERGY  CONTRAST  DISSIMIL     STD-O    E 1-30 E600-2000   E2000 >      GODA  LONG-HIG     Tmean  CONVOLUT  MEAN-DIR  relation     Sy/Sx  SKEWNESS  KURTOSIS  cutoff-A >50/10000     INT*V   INT-LOG  S-1_g1f1  S-2_g1f2  S-3_g1f3  S-4_g2f1  S-5_g2f2  S-6_g2f3  S-7_g3f1  S-8_g3f2  S-9_g3f3 S-10_g1f4 S-11_g2f4 S-12_g3f4 S-13_g1f5 S-14_g2f5 S-15_g3f5 S-16_g4f1 S-17_g4f2 S-18_g4f3 S-19_g4f4 S-20_g4f5
--------------1--------------2---------3---------4---------5---------6---------7---------8---------9--------10--------11--------12--------13--------14--------15--------16--------17--------18--------19--------20------------------21--------22--------23--------24--------25--------26--------27--------28--------29--------30--------31--------32--------33--------34--------35--------36--------37--------38--------39--------40--------41--------42--------43--------44--------45--------46--------47--------48--------49--------50--------51--------52--------53--------54--------55--------56--------57--------58--------59--------60--------61--------62--------63--------64--------65--------66--------67--------68--------69--------70--------71--------72--------73--------74
      34.050888    -165.166946     274.6      1.66      3.77      62.8         1         1      1000      1000    376.08   -14.247      10.5      36.8   245.667     0.591      94.4   0.08202     100.0         H               347.1  0.047862  0.032699  0.001123  2.354692  0.705209  3.338997  1.090294     69.79    7.0206   65.3836   0.12681   6.01406   0.18019   0.00519 114.18539   7.28844     410.1  0.508088  0.000999  0.000126  0.000157  0.230267  7.284162  0.594661     58.10  1.000133  1.000008     2.569    14.528     124.8      90.6     134.0     455.0     15.59      8.47      4.19     -2.77     -2.82      2.12     -3.03     -4.26     -1.24      5.64     -0.98     -2.20     -2.89      2.19      3.24    -10.08     -4.22      1.59     -2.99      2.08
      34.060616    -165.102524     295.0      1.53      3.77      55.9         1         2      1000      2327    351.29   -14.543      10.3      37.2   242.873     0.582      84.6   0.08035     100.0         H               347.1  0.046594  0.031184  0.001064  2.402761  0.672814  3.571209  1.082660     64.18    6.5350   56.7639   0.12439   5.88311   0.18973   0.00587  99.40526   6.80585     380.3  0.502483  0.000890  0.000100  0.000150  0.227866  7.260880  0.585579     54.33  1.000141  1.000008     2.495    13.580     124.8      89.8     115.3     399.6     15.50      8.38      3.55     -2.85     -3.28      2.25     -2.56     -3.86     -0.48      4.30     -0.57     -1.34     -3.22      2.62      3.02    -10.61     -5.26      1.11     -2.66      2.96
      34.070232    -165.038620     284.5      1.51      3.77      47.5         1         3      1000      3654    348.33   -14.580      10.5      37.6   243.311     0.582      90.7   0.07987     100.0         H               347.1  0.046537  0.030516  0.001171  2.229861  0.675216  3.302442  1.083073     67.19    6.4754   55.8225   0.12357   5.86616   0.19096   0.00596  97.84906   6.74847     377.3  0.503478  0.001048  0.000113  0.000158  0.229613  7.261575  0.586024     53.65  1.000127  1.000010     2.542    14.718     121.0      89.7     113.4     440.5     15.66      9.45      3.66     -3.30     -3.77      1.76     -2.94     -4.70     -1.17      5.05     -1.05     -1.87     -4.15      2.71      3.44    -11.07     -5.68      1.40     -3.49      2.97
      34.104076    -165.178696     284.5      1.61      3.77      47.5         2         1      2458      1000    384.53   -14.151      10.6      36.8   243.294     0.585      88.1   0.08146     100.0         H               347.1  0.047674  0.031538  0.001015  2.409923  0.688167  3.501944  1.085279     66.32    7.1886   67.8040   0.12616   6.05872   0.17646   0.00494 118.49915   7.44707     417.3  0.503916  0.001131  0.000102  0.000153  0.225654  7.264974  0.588899     54.95  1.000161  1.000011     2.511    13.769     124.8      90.9     139.7     449.0     15.20      8.42      4.19     -1.92     -3.19      2.59     -2.58     -3.92     -0.99      4.70     -0.29     -1.75     -3.60      3.40      3.09     -9.24     -5.07      1.85     -2.23      3.89
      34.113808    -165.114227     289.8      1.60      3.77      61.2         2         2      2458      2327    359.16   -14.447      10.4      37.2   243.565     0.584      87.4   0.08029     100.0         H               347.1  0.046865  0.031788  0.001188  2.309972  0.689613  3.349663  1.084793     73.64    6.6906   59.4717   0.12546   5.92621   0.18649   0.00564 104.01984   6.96284     389.6  0.503809  0.001048  0.000091  0.000158  0.230564  7.276546  0.588703     57.36  1.000149  1.000009     2.508    13.847     124.8      90.1     121.0     430.9     15.72      9.11      4.44     -3.18     -3.70      1.94     -2.81     -4.28     -1.61      5.82     -1.37     -2.43     -3.98      3.45      2.97    -11.16     -6.08      1.79     -3.53      4.43
      34.123417    -165.050293     280.0      1.53      3.77      57.9         2         3      2458      3654    352.71   -14.526      10.6      37.6   242.516     0.580      80.3   0.07875     100.0         H               347.1  0.045923  0.030419  0.001194  2.239824  0.681398  3.287101  1.080288     67.63    6.5622   57.0121   0.12262   5.89125   0.18852   0.00581 100.04252   6.83507     381.0  0.501467  0.001058  0.000068  0.000151  0.229525  7.259126  0.583388     56.91  1.000119  1.000007     2.487    13.647     121.0      89.9     115.9     413.2     15.56      8.54      3.41     -3.11     -2.97      2.16     -2.91     -4.41     -1.31      5.34     -1.11     -2.06     -2.67      1.57      3.08    -10.93     -4.61      2.03     -3.32      1.10
      34.157269    -165.190460     283.4      1.51      3.77      52.7         3         1      3916      1000    395.91   -14.024      10.8      36.8   242.946     0.583      77.9   0.08106     100.0         H               347.1  0.047818  0.029795  0.001026  2.393332  0.698342  3.427163  1.083543     57.07    7.4141   71.4119   0.12492   6.11643   0.17207   0.00464 124.98216   7.66435     428.9  0.503915  0.000938  0.000084  0.000143  0.218434  7.207484  0.586645     59.15  1.000129  1.000010     2.513    13.926     121.0      91.4     148.2     473.1     14.95      7.29      3.30     -1.95     -2.43      2.75     -2.05     -3.57     -0.50      4.87     -0.73     -1.80     -2.33      2.58      2.63     -9.67     -3.98      2.18     -2.77      3.10
      34.166996    -165.125946     283.4      1.56      3.77      52.7         3         2      3916      2327    379.27   -14.210      10.9      37.2   243.938     0.585      84.9   0.08102     100.0         H               347.1  0.047429  0.030411  0.001109  2.416819  0.689275  3.506319  1.085826     68.62    7.0885   66.0553   0.12509   6.03306   0.17832   0.00505 115.58519   7.34939     411.8  0.505745  0.001081  0.000094  0.000149  0.221943  7.222120  0.589147     57.13  1.000173  1.000011     2.526    13.952     124.8      90.8     135.8     442.4     15.18      7.68      4.81     -1.96     -3.00      2.01     -2.41     -3.65     -1.34      4.87     -1.45     -2.07     -3.23      3.05      3.05     -9.80     -4.83      1.08     -3.43      3.31
      34.176605    -165.061966     280.0      1.52      3.77      57.9         3         3      3916      3654    360.84   -14.427      10.7      37.6   242.256     0.580      86.5   0.07914     100.0         H               347.1  0.046986  0.030174  0.001085  2.346195  0.689203  3.404217  1.080495     63.44    6.7233   59.5447   0.12312   5.93604   0.18540   0.00556 104.42688   6.98748     389.9  0.500570  0.001141  0.000097  0.000151  0.223214  7.224210  0.583377     56.66  1.000121  1.000008     2.499    13.805     124.8      90.2     121.6     432.2     15.27      8.40      4.05     -2.13     -3.12      2.92     -2.29     -3.95     -1.13      4.76     -0.26     -2.02     -3.21      3.14      3.00    -10.36     -5.28      2.26     -2.40      3.44
