corner points
-168.6023254    48.08678055
-168.6500092    48.25990677
-168.3387604    48.11850357
-168.3855286    48.29164505
========== RESULTS WAVE VERSION 16.10.2018 ====================
IMAGE SIZE  X: 4376     Y:4771    col:row     POLARIZATION:VV
COVERAGE    X: 19.84309736km       Y: 19.52360603km 
RESOLUTION dX: 4.534528648m       dY:4.092141277m  
resolution of original product 4.534528648m x 4.092141277m;   raster step x:5999.181401m  
===============================================================
FLAGS: H=HIGH PROBABILITY SEA STATE, I=LAND(ISLAND), O=OUTLIER NO SEA STATE, N=NO WIND AVAILABLE, SEA STATE NOT VISIBLE, M=MEAN PROBABILITY SEA STATE, L= LOW PROBABILITY SEA STATE
Filtering wave length
 integration  Lmin=1m
 integration  Lmax=2200m
  peak        Lmin=100m
               FFT=1024pixels, 4643.357336m 
   mean-Hs (SWH_c)=2.607164001m
         mean-wind=9.788889885m/s
--------------0--------------1---------2---------3---------4---------5---------6---------7---------8---------9--------10--------11--------12--------13--------14--------15--------16--------17--------18--------19------------------20--------21--------22--------23--------24--------25--------26--------27--------28--------29--------30--------31--------32--------33--------34--------35--------36--------37--------38--------39--------40--------41--------42--------43--------44--------45--------46--------47--------48--------49--------50--------51--------52--------53--------54--------55--------56--------57--------58--------59--------60--------61--------62--------63--------64--------65--------66--------67--------68--------69--------70--------71--------72--------73
            LAT            LON  P-LENGHT     SWH_o     SWH_c     P-DIR      LINE     POINT     ROW-Y     COL-X  M-INTENC        dB      WIND INC-ANGLE  ENERGY-M  ENERGY-N  ENERGY-R ENERGY-NN  FG-DEPTH      FLAG         HEADING-DEG    E30-75   E75-390  E390-600 meanincut   meanout   cut/out  STD-NORM  SPEC-MAX   GL-MEAN    GL-VAR      CORR   ENTROPY   HOMOGEN    ENERGY  CONTRAST  DISSIMIL     STD-O    E 1-30 E600-2000   E2000 >      GODA  LONG-HIG     Tmean  CONVOLUT  MEAN-DIR  relation     Sy/Sx  SKEWNESS  KURTOSIS  cutoff-A >50/10000     INT*V   INT-LOG  S-1_g1f1  S-2_g1f2  S-3_g1f3  S-4_g2f1  S-5_g2f2  S-6_g2f3  S-7_g3f1  S-8_g3f2  S-9_g3f3 S-10_g1f4 S-11_g2f4 S-12_g3f4 S-13_g1f5 S-14_g2f5 S-15_g3f5 S-16_g4f1 S-17_g4f2 S-18_g4f3 S-19_g4f4 S-20_g4f5
--------------1--------------2---------3---------4---------5---------6---------7---------8---------9--------10--------11--------12--------13--------14--------15--------16--------17--------18--------19--------20------------------21--------22--------23--------24--------25--------26--------27--------28--------29--------30--------31--------32--------33--------34--------35--------36--------37--------38--------39--------40--------41--------42--------43--------44--------45--------46--------47--------48--------49--------50--------51--------52--------53--------54--------55--------56--------57--------58--------59--------60--------61--------62--------63--------64--------65--------66--------67--------68--------69--------70--------71--------72--------73--------74
      48.130463    -168.551376     234.6      2.64      5.01     106.3         1         1      1000      1000    347.21   -14.594       9.8      36.7   277.469     0.646     109.1   0.10511      52.9         H               345.4  0.054619  0.050665  0.001885  3.739046  0.733393  5.098283  1.140267    142.91    6.4425   60.1902   0.16097   5.84226   0.19781   0.00650 101.00264   6.71477     395.9  0.537984  0.001102  0.000112  0.000256  0.238974  7.540375  0.652806    106.99  1.000275  1.000027     2.944    19.687     181.9      89.0     120.5     504.9     15.31     -5.56     10.88      1.95     -0.80      5.52     -3.21      3.40     -5.17     -7.46     -1.01      3.87      3.86      3.25     -0.10     -6.91     -0.12      4.59      0.99      1.77
      48.140110    -168.471375     223.7      2.53      5.01     105.5         1         2      1000      2323    291.63   -15.352       8.9      37.0   280.085     0.655     151.5   0.10831      44.4         H               345.4  0.056341  0.052363  0.002217  3.846115  0.735213  5.231293  1.148098    101.09    5.3431   43.8556   0.16603   5.49617   0.22761   0.00932  73.14865   5.65717     334.8  0.542133  0.001658  0.000237  0.000239  0.238285  7.536618  0.662405    105.15  1.000306  1.000030     2.930    18.648     190.7      86.1      84.7     402.2     15.34     -4.66     10.92      1.75     -0.53      5.55     -2.52      2.22     -4.46     -6.08     -1.17      2.83      3.56      3.82     -0.01     -8.05      0.92      3.84      0.23      2.99
      48.149616    -168.392014     220.3      2.24      5.01     108.4         1         3      1000      3646    265.64   -15.757       8.6      37.4   279.123     0.654      92.7   0.10892      42.2         H               345.4  0.058693  0.050056  0.001876  4.036660  0.765976  5.269957  1.146345     76.17    4.8250   36.0828   0.16300   5.31283   0.24327   0.01103  60.40260   5.14534     304.5  0.542306  0.000950  0.000059  0.000205  0.228678  7.413533  0.660679    103.97  1.000321  1.000031     3.164    25.587     181.9      84.8      69.9     439.4     14.82     -3.45      9.27      2.14     -1.02      6.56     -1.85      2.16     -3.69     -4.90     -1.14      1.97      3.30      3.88      0.75     -7.21     -0.87      5.94      0.37      2.04
      48.183670    -168.565964     223.7      2.87      5.01     105.5         2         1      2466      1000    380.26   -14.199      10.4      36.7   276.993     0.640     117.1   0.10305      44.4         H               345.4  0.052739  0.051215  0.001822  3.625500  0.714183  5.076431  1.134761    151.67    7.0951   71.1734   0.15800   6.02102   0.18375   0.00543 119.85603   7.35867     431.4  0.533036  0.001230  0.000130  0.000279  0.242028  7.571862  0.646161    109.58  1.000233  1.000023     2.815    17.214     181.9      90.2     144.6     512.2     15.46     -6.62     10.57      1.74     -1.07      5.06     -4.08      4.27     -5.50     -8.16     -1.51      4.69      2.43      3.10      0.72     -6.64     -0.01      4.41      0.55      1.72
      48.193321    -168.485870     230.7      2.81      5.01     109.3         2         2      2466      2323    339.29   -14.694       9.9      37.0   278.348     0.651     120.7   0.10791      49.5         H               345.4  0.055541  0.053186  0.001979  3.674905  0.744564  4.935649  1.144888    151.57    6.2843   58.1181   0.16512   5.79462   0.20165   0.00686  97.04276   6.56907     388.5  0.539546  0.001168  0.000130  0.000285  0.241984  7.573232  0.658778    109.07  1.000288  1.000031     2.933    18.878     190.7      88.5     115.4     472.4     15.61     -6.11     11.29      1.51     -0.81      5.16     -3.49      3.96     -5.31     -8.46     -1.09      4.77      3.31      3.53      0.35     -7.31     -0.00      3.98      0.98      2.37
      48.202831    -168.406433     246.5      2.42      5.01     107.1         2         3      2466      3646    293.21   -15.328       9.2      37.4   281.298     0.659     109.0   0.11002      66.3         H               345.4  0.057913  0.050531  0.001668  3.855485  0.744962  5.175414  1.151325     88.56    5.3733   44.3771   0.16356   5.50675   0.22614   0.00913  74.23587   5.69459     337.6  0.547858  0.001168  0.000108  0.000222  0.233356  7.460374  0.665610    103.98  1.000368  1.000036     3.025    20.371     190.7      86.4      86.0     427.6     15.21     -4.09     11.12      2.28     -0.55      5.67     -3.05      1.99     -4.83     -4.96     -1.24      2.24      4.47      3.54     -0.39     -6.30      0.41      4.09     -0.10      1.93
      48.236881    -168.580566     236.9      2.93      5.01     113.3         3         1      3932      1000    408.64   -13.887      10.9      36.7   274.382     0.635      83.8   0.10239      55.0         H               345.4  0.052282  0.050325  0.001770  3.541061  0.721351  4.908932  1.130026    131.79    7.6522   80.5203   0.15742   6.16203   0.17311   0.00468 135.68973   7.87315     461.7  0.529902  0.000716  0.000036  0.000265  0.239515  7.550531  0.640515    112.33  1.000214  1.000022     2.833    18.222     174.0      91.2     167.4     581.8     15.28     -6.80     10.13      1.89     -0.87      5.27     -3.34      4.22     -4.58     -8.29     -1.60      4.21      1.58      3.23      1.50     -6.67      0.07      4.28      0.63      1.92
      48.246532    -168.500381     236.9      2.62      5.01     113.3         3         2      3932      2323    369.07   -14.329      10.5      37.0   274.291     0.636     112.7   0.10220      55.0         H               345.4  0.053809  0.048040  0.001507  3.501231  0.731994  4.783143  1.131456    107.07    6.8757   66.9176   0.15778   5.96405   0.18748   0.00573 112.71838   7.13705     417.5  0.531668  0.001134  0.000148  0.000237  0.233955  7.500162  0.642158    109.48  1.000252  1.000025     2.849    18.736     166.7      89.8     135.3     538.6     14.85     -5.88     10.12      2.76     -1.27      5.85     -2.78      3.60     -3.87     -7.47     -1.74      3.62      2.89      3.41      1.27     -5.48     -0.32      4.45      0.68      1.57
      48.256042    -168.420853     236.9      2.41      5.01     113.3         3         3      3932      3646    322.53   -14.914       9.9      37.4   275.058     0.634      86.9   0.10021      55.0         H               345.4  0.053226  0.046713  0.001426  3.557873  0.715550  4.972222  1.129316    102.77    5.9557   51.5192   0.15245   5.70106   0.20841   0.00740  87.32941   6.25050     364.2  0.531733  0.000807  0.000067  0.000232  0.236080  7.492437  0.638571    108.75  1.000300  1.000029     2.900    20.327     174.0      88.1     102.0     491.2     15.07     -5.43     10.63      2.31     -0.53      5.36     -3.05      3.24     -3.87     -6.76     -1.10      3.55      3.17      4.03      0.82     -5.44      0.20      3.63      0.29      3.10
