corner points
-145.03508    -45.1366272
-145.113266    -44.96730423
-144.7901154    -45.07849503
-144.8690033    -44.90933609
========== RESULTS WAVE VERSION 16.10.2018 ====================
IMAGE SIZE  X: 4376     Y:4775    col:row     POLARIZATION:VV
COVERAGE    X: 20.23471251km       Y: 19.76094131km 
RESOLUTION dX: 4.624020226m       dY:4.138417029m  
resolution of original product 4.624020226m x 4.138417029m;   raster step x:5997.354233m  
===============================================================
FLAGS: H=HIGH PROBABILITY SEA STATE, I=LAND(ISLAND), O=OUTLIER NO SEA STATE, N=NO WIND AVAILABLE, SEA STATE NOT VISIBLE, M=MEAN PROBABILITY SEA STATE, L= LOW PROBABILITY SEA STATE
Filtering wave length
 integration  Lmin=1m
 integration  Lmax=2200m
  peak        Lmin=100m
               FFT=1024pixels, 4734.996711m 
   mean-Hs (SWH_c)=0.2m
         mean-wind=4.503292084m/s
--------------0--------------1---------2---------3---------4---------5---------6---------7---------8---------9--------10--------11--------12--------13--------14--------15--------16--------17--------18--------19------------------20--------21--------22--------23--------24--------25--------26--------27--------28--------29--------30--------31--------32--------33--------34--------35--------36--------37--------38--------39--------40--------41--------42--------43--------44--------45--------46--------47--------48--------49--------50--------51--------52--------53--------54--------55--------56--------57--------58--------59--------60--------61--------62--------63--------64--------65--------66--------67--------68--------69--------70--------71--------72--------73
            LAT            LON  P-LENGHT     SWH_o     SWH_c     P-DIR      LINE     POINT     ROW-Y     COL-X  M-INTENC        dB      WIND INC-ANGLE  ENERGY-M  ENERGY-N  ENERGY-R ENERGY-NN  FG-DEPTH      FLAG         HEADING-DEG    E30-75   E75-390  E390-600 meanincut   meanout   cut/out  STD-NORM  SPEC-MAX   GL-MEAN    GL-VAR      CORR   ENTROPY   HOMOGEN    ENERGY  CONTRAST  DISSIMIL     STD-O    E 1-30 E600-2000   E2000 >      GODA  LONG-HIG     Tmean  CONVOLUT  MEAN-DIR  relation     Sy/Sx  SKEWNESS  KURTOSIS  cutoff-A >50/10000     INT*V   INT-LOG  S-1_g1f1  S-2_g1f2  S-3_g1f3  S-4_g2f1  S-5_g2f2  S-6_g2f3  S-7_g3f1  S-8_g3f2  S-9_g3f3 S-10_g1f4 S-11_g2f4 S-12_g3f4 S-13_g1f5 S-14_g2f5 S-15_g3f5 S-16_g4f1 S-17_g4f2 S-18_g4f3 S-19_g4f4 S-20_g4f5
--------------1--------------2---------3---------4---------5---------6---------7---------8---------9--------10--------11--------12--------13--------14--------15--------16--------17--------18--------19--------20------------------21--------22--------23--------24--------25--------26--------27--------28--------29--------30--------31--------32--------33--------34--------35--------36--------37--------38--------39--------40--------41--------42--------43--------44--------45--------46--------47--------48--------49--------50--------51--------52--------53--------54--------55--------56--------57--------58--------59--------60--------61--------62--------63--------64--------65--------66--------67--------68--------69--------70--------71--------72--------73--------74
     -45.087776    -144.994843     129.7      0.31      1.72     115.4         1         1      1000      1000    164.84   -17.829       4.9      35.9   274.978     0.541      97.1   0.05718      11.1         H               345.6  0.039655  0.016100  0.000441  1.484012  0.626656  2.368144  1.044368     11.83    2.8255   11.7644   0.07496   4.39031   0.32787   0.02454  21.76523   3.19559     172.1  0.483738  0.001219  0.000271  0.000102  0.182611  6.941330  0.543303    115.99  1.000043  1.000002     2.243    11.003      97.3      76.4      24.6     160.5     11.40     -2.60     -0.96      2.62     -2.88      2.31      1.68     -0.92      1.49     -2.56     -1.15     -0.84     -1.22     -2.00      0.53     -4.78     -1.76      3.43     -0.64     -2.20
     -45.070507    -144.921982     129.7      0.27      1.72     115.4         1         2      1000      2297    129.52   -18.877       4.2      36.3   279.577     0.549     333.4   0.05723      11.1         H               345.6  0.037933  0.014893  0.000644  1.361457  0.597732  2.277703  1.054155      9.25    2.1241    7.3636   0.07270   3.91150   0.38829   0.03961  13.65646   2.49882     136.5  0.490724  0.004244  0.000969  0.000096  0.180145  6.928640  0.551953    116.41  0.999989  1.000000     2.331    12.033     121.0      70.0      15.6     129.9     11.45     -1.84     -0.42      1.90     -2.20      1.21      2.63     -0.98      1.46     -1.50     -1.02     -0.89     -0.46     -1.51      0.34     -7.88     -1.60      1.30     -1.11     -2.76
     -45.053349    -144.849823     129.3      0.29      1.72     127.6         1         3      1000      3594    136.00   -18.665       4.5      36.7   276.136     0.539      65.2   0.05421      11.0         H               345.6  0.038299  0.015457  0.000573  1.422199  0.614404  2.314761  1.042086      7.11    2.2537    7.9357   0.06559   4.01057   0.37414   0.03549  14.83032   2.62567     141.7  0.484207  0.001079  0.000106  0.000095  0.182189  6.942075  0.541247    120.98  1.000041  1.000002     2.226    10.901      97.3      71.6      17.0     125.2     11.46     -2.09     -0.77      2.31     -2.51      0.92      1.79     -0.24      1.52     -1.48     -1.02     -0.41     -1.65     -1.57     -0.14     -6.70     -1.81      0.49     -0.70     -0.55
     -45.036396    -145.018646     133.4      0.29      1.72     122.3         2         1      2449      1000    147.97   -18.298       4.5      35.9   275.999     0.541      83.4   0.05586      11.8         H               345.6  0.038922  0.016058  0.000607  1.479458  0.620670  2.383648  1.044285      9.18    2.4915    9.4592   0.07014   4.17731   0.35347   0.03028  17.59150   2.86466     154.5  0.484121  0.001379  0.000171  0.000098  0.182916  6.961301  0.543065    122.02  1.000081  1.000003     2.235    10.951      92.7      73.7      20.0     134.3     11.22     -2.22     -0.67      2.58     -2.82      0.55      2.35     -0.72      2.35     -1.00     -1.40     -1.28     -1.45     -2.09     -0.06     -6.59     -2.27     -1.05     -1.33     -1.86
     -45.019142    -144.945847     134.2      0.29      1.72     124.7         2         2      2449      2297    138.51   -18.585       4.4      36.3   280.027     0.554     454.7   0.06032      12.0         H               345.6  0.039180  0.016255  0.000717  1.464933  0.636766  2.300583  1.059297      8.30    2.3024    8.5191   0.08273   4.04321   0.37315   0.03522  15.62885   2.67258     146.7  0.491441  0.005028  0.001370  0.000095  0.183059  6.958994  0.557415    120.12  1.000058  1.000002     2.330    11.786     137.8      71.7      17.9     137.4     11.69     -2.10     -0.41      1.53     -2.24      0.31      2.18     -0.77      1.79     -1.40     -0.97     -0.74     -0.64     -1.84      0.09     -8.53     -1.49     -0.82     -0.78     -2.50
     -45.001999    -144.873749     130.2      0.28      1.72     121.5         2         3      2449      3594    125.85   -19.002       4.3      36.7   275.755     0.535      78.3   0.05192      11.2         H               345.6  0.036910  0.013634  0.000545  1.276681  0.603229  2.116411  1.037858      7.21    2.0538    6.7274   0.05681   3.85892   0.39252   0.04084  12.69052   2.42721     130.6  0.482640  0.001209  0.000168  0.000094  0.178842  6.908550  0.535837    119.39  1.000046  1.000001     2.211    10.876     105.0      69.6      14.6     118.8     11.43     -1.94     -0.01      2.23     -2.19      0.78      2.14     -0.77      1.41     -1.55     -1.24     -0.68     -0.74     -1.94      0.16     -7.27     -1.35     -0.34     -1.21     -2.20
     -44.985012    -145.042404     124.4      0.30      1.72     119.9         3         1      3898      1000    159.83   -17.963       4.8      35.9   275.488     0.543      89.6   0.05817      10.1         H               345.6  0.040137  0.016522  0.000523  1.516344  0.636956  2.380610  1.046330      7.71    2.7259   11.0920   0.07668   4.32875   0.33593   0.02617  20.48282   3.09370     167.2  0.484834  0.001352  0.000192  0.000097  0.182162  6.958014  0.545686    119.16  1.000100  1.000003     2.245    10.944      88.6      75.6      23.2     148.1     11.26     -2.16     -0.71      2.73     -2.92      0.57      1.60     -0.10      2.25     -1.51     -1.24     -0.50     -1.43     -1.57      0.12     -5.40     -3.22     -0.47     -1.64     -0.94
     -44.967773    -144.969681     126.2      0.28      1.72     118.4         3         2      3898      2297    130.60   -18.841       4.3      36.3   275.882     0.539     150.5   0.05429      10.5         H               345.6  0.037886  0.014570  0.000597  1.360481  0.608149  2.237085  1.042740      7.83    2.1457    7.3307   0.06533   3.92954   0.38428   0.03852  13.70362   2.51941     136.2  0.483317  0.002346  0.000402  0.000095  0.178496  6.931781  0.540919    118.51  1.000045  1.000001     2.231    10.904     105.0      70.4      15.8     117.9     11.24     -1.85     -0.56      2.31     -2.50      1.16      2.53     -0.47      1.15     -1.24     -1.39     -1.05     -0.52     -1.44     -0.17     -7.30     -2.90      2.14     -1.24     -1.16
     -44.950645    -144.897629     141.4      0.30      1.72     120.0         3         3      3898      3594    140.81   -18.514       4.7      36.7   274.375     0.537      76.8   0.05469      13.5         H               345.6  0.038811  0.015155  0.000483  1.406913  0.611935  2.299121  1.040343      8.07    2.3494    8.4866   0.06707   4.07962   0.36503   0.03304  15.83480   2.71810     146.5  0.482078  0.001109  0.000159  0.000097  0.181321  6.931538  0.539373    116.78  1.000087  1.000002     2.225    10.864      99.7      72.6      18.1     129.2     11.42     -3.20     -0.23      2.59     -2.07      1.46      1.92     -0.52      1.74     -2.40     -1.09     -0.67     -1.12     -1.16      0.02     -5.59     -0.47      1.10     -0.60     -0.31
