corner points
-161.8876801    18.10195351
-161.9232635    18.27708244
-161.7038269    18.13590813
-161.739212    18.31100845
========== RESULTS WAVE VERSION 16.10.2018 ====================
IMAGE SIZE  X: 4376     Y:4785    col:row     POLARIZATION:VV
COVERAGE    X: 19.74936657km       Y: 19.78497537km 
RESOLUTION dX: 4.513109362m       dY:4.134791091m  
resolution of original product 4.513109362m x 4.134791091m;   raster step x:5997.922343m  
===============================================================
FLAGS: H=HIGH PROBABILITY SEA STATE, I=LAND(ISLAND), O=OUTLIER NO SEA STATE, N=NO WIND AVAILABLE, SEA STATE NOT VISIBLE, M=MEAN PROBABILITY SEA STATE, L= LOW PROBABILITY SEA STATE
Filtering wave length
 integration  Lmin=1m
 integration  Lmax=2200m
  peak        Lmin=100m
               FFT=1024pixels, 4621.423987m 
   mean-Hs (SWH_c)=2.119107971m
         mean-wind=14.67139816m/s
--------------0--------------1---------2---------3---------4---------5---------6---------7---------8---------9--------10--------11--------12--------13--------14--------15--------16--------17--------18--------19------------------20--------21--------22--------23--------24--------25--------26--------27--------28--------29--------30--------31--------32--------33--------34--------35--------36--------37--------38--------39--------40--------41--------42--------43--------44--------45--------46--------47--------48--------49--------50--------51--------52--------53--------54--------55--------56--------57--------58--------59--------60--------61--------62--------63--------64--------65--------66--------67--------68--------69--------70--------71--------72--------73
            LAT            LON  P-LENGHT     SWH_o     SWH_c     P-DIR      LINE     POINT     ROW-Y     COL-X  M-INTENC        dB      WIND INC-ANGLE  ENERGY-M  ENERGY-N  ENERGY-R ENERGY-NN  FG-DEPTH      FLAG         HEADING-DEG    E30-75   E75-390  E390-600 meanincut   meanout   cut/out  STD-NORM  SPEC-MAX   GL-MEAN    GL-VAR      CORR   ENTROPY   HOMOGEN    ENERGY  CONTRAST  DISSIMIL     STD-O    E 1-30 E600-2000   E2000 >      GODA  LONG-HIG     Tmean  CONVOLUT  MEAN-DIR  relation     Sy/Sx  SKEWNESS  KURTOSIS  cutoff-A >50/10000     INT*V   INT-LOG  S-1_g1f1  S-2_g1f2  S-3_g1f3  S-4_g2f1  S-5_g2f2  S-6_g2f3  S-7_g3f1  S-8_g3f2  S-9_g3f3 S-10_g1f4 S-11_g2f4 S-12_g3f4 S-13_g1f5 S-14_g2f5 S-15_g3f5 S-16_g4f1 S-17_g4f2 S-18_g4f3 S-19_g4f4 S-20_g4f5
--------------1--------------2---------3---------4---------5---------6---------7---------8---------9--------10--------11--------12--------13--------14--------15--------16--------17--------18--------19--------20------------------21--------22--------23--------24--------25--------26--------27--------28--------29--------30--------31--------32--------33--------34--------35--------36--------37--------38--------39--------40--------41--------42--------43--------44--------45--------46--------47--------48--------49--------50--------51--------52--------53--------54--------55--------56--------57--------58--------59--------60--------61--------62--------63--------64--------65--------66--------67--------68--------69--------70--------71--------72--------73--------74
      18.146420    -161.852631     383.1      2.31      4.03      35.5         1         1      1000      1000    629.87   -12.007      14.5      37.0   230.333     0.608     126.1   0.09720     100.0         H               347.8  0.054379  0.031942  0.004985  2.774250  0.724218  3.830685  1.106564     86.84   11.9005  165.6858   0.14990   6.96201   0.12025   0.00195 281.69885  11.79386     697.0  0.515451  0.001850  0.000156  0.000212  0.194202  7.100388  0.617336     74.04  1.000100  1.000009     2.587    14.689     137.8      95.8     404.5     802.2     14.05      9.14     -0.45     -5.15     -6.44      8.83      9.08      7.34     -1.24      0.37      7.94     -1.29     -2.30      5.35     -0.58    -29.63    -27.15     20.05     16.90     13.91
      18.156773    -161.796585     383.1      2.16      4.03      35.5         1         2      1000      2329    623.69   -12.050      14.7      37.3   229.024     0.605     126.2   0.09578     100.0         H               347.8  0.055095  0.029611  0.003834  2.740763  0.729824  3.755373  1.103297     46.65   11.7898  162.4509   0.14849   6.94747   0.12103   0.00197 276.65546  11.68925     688.1  0.514354  0.001843  0.000194  0.000198  0.189303  7.043417  0.613091     76.84  1.000071  1.000008     2.548    13.682     133.1      95.8     394.9     727.4     13.75      7.48     -0.52     -3.89     -3.99      9.19      7.79      4.61     -2.01      1.27      6.54     -0.83     -0.43      2.41      2.23    -25.46    -17.54     21.83     13.28      2.91
      18.167021    -161.741013     383.1      2.16      4.03      35.5         1         3      1000      3658    599.29   -12.224      14.6      37.7   229.258     0.603     135.3   0.09412     100.0         H               347.8  0.053517  0.029788  0.004125  2.654243  0.728066  3.645607  1.101790     65.17   11.3341  151.9687   0.14681   6.88058   0.12480   0.00212 259.31628  11.27266     660.3  0.513792  0.001947  0.000194  0.000196  0.192559  7.054992  0.611383     74.28  1.000070  1.000006     2.567    14.086     128.8      95.5     362.6     708.0     13.93      8.72     -0.74     -4.58     -5.36      8.14      7.77      5.90     -1.30      1.13      6.56     -0.73     -2.42      4.20     -0.34    -26.92    -23.00     18.56     13.47     11.14
      18.199535    -161.863403     390.2      2.24      4.03      42.5         2         1      2451      1000    655.38   -11.835      14.8      37.0   228.685     0.605     128.9   0.09666     100.0         H               347.8  0.054900  0.030105  0.004605  2.738264  0.735110  3.724972  1.103802     83.78   12.3700  175.3600   0.15080   7.02798   0.11654   0.00180 297.83105  12.18470     723.5  0.514281  0.001716  0.000180  0.000190  0.193025  7.059019  0.614376     72.50  1.000099  1.000009     2.560    13.891     133.1      96.2     438.0     768.4     14.29      9.10     -1.10     -5.70     -6.81      8.36      8.33      6.63     -1.49      0.41      6.53     -0.69     -3.05      5.09     -0.88    -29.73    -26.50     18.96     12.99     14.13
      18.209887    -161.807343     371.0      2.17      4.03      28.8         2         2      2451      2329    615.68   -12.106      14.6      37.3   230.337     0.607     160.1   0.09555     100.0         H               347.8  0.054519  0.029978  0.003832  2.562378  0.733209  3.494745  1.106077     55.93   11.6353  159.1748   0.14780   6.92444   0.12202   0.00202 271.29538  11.55726     681.0  0.516762  0.002458  0.000263  0.000185  0.198135  7.075610  0.616165     72.77  1.000087  1.000009     2.605    14.632     128.8      95.7     385.6     756.5     14.20      8.49     -0.96     -4.52     -5.05      8.49      6.84      4.62     -1.47      0.53      6.61     -0.23     -1.95      3.54      0.44    -25.72    -20.10     18.41     11.82      8.06
      18.220131    -161.751755     397.5      1.97      4.03      20.1         2         3      2451      3658    607.70   -12.163      14.8      37.7   227.671     0.596     110.7   0.09158     100.0         H               347.8  0.053569  0.026827  0.003510  2.438864  0.710088  3.434594  1.095473     55.09   11.4970  154.2034   0.14141   6.90824   0.12270   0.00204 264.79510  11.43008     665.7  0.510773  0.001551  0.000150  0.000185  0.187442  7.002957  0.603482     74.83  1.000083  1.000008     2.541    13.841     124.8      95.7     370.4     719.7     13.85      8.34     -1.85     -4.78     -5.39      8.95      7.86      5.40     -1.94     -0.18      7.54     -1.21     -0.92      2.48      1.21    -26.61    -21.20     21.44     16.12      4.57
      18.252651    -161.874191     383.1      2.15      4.03      35.5         3         1      3902      1000    641.04   -11.931      14.6      37.0   230.372     0.608     177.7   0.09670     100.0         H               347.8  0.056059  0.029784  0.003275  2.698280  0.736748  3.662418  1.107025     68.48   12.0999  169.4232   0.14885   6.99060   0.11820   0.00187 288.40863  11.96435     709.6  0.516908  0.002319  0.000420  0.000190  0.191339  7.027727  0.617010     76.71  1.000100  1.000009     2.605    14.474     128.8      96.0     419.8     758.0     13.97      8.13     -0.58     -3.99     -4.86      7.69      6.44      4.45     -0.96      0.74      6.07     -0.43     -2.36      4.13      0.05    -23.50    -19.06     16.24     11.24      9.81
      18.262999    -161.818100     371.0      2.08      4.03      28.8         3         2      3902      2329    629.77   -12.008      14.8      37.3   228.857     0.603     153.5   0.09508     100.0         H               347.8  0.055217  0.028281  0.003987  2.505369  0.731958  3.422832  1.101566     63.08   11.9035  164.3078   0.14683   6.96541   0.11955   0.00193 280.36417  11.78760     693.8  0.513106  0.002070  0.000268  0.000185  0.192016  7.013269  0.610807     73.51  1.000065  1.000005     2.572    14.193     128.8      96.0     402.3     750.1     14.33      7.55     -2.49     -5.76     -4.69      9.53      7.87      4.48     -2.26      0.16      5.98     -0.08     -1.12      2.46      0.88    -28.83    -18.07     22.59     11.00      5.23
      18.273241    -161.762497     384.9      1.83      4.03      24.6         3         3      3902      3658    594.82   -12.256      14.6      37.7   226.878     0.593     126.4   0.09003     100.0         H               347.8  0.054030  0.025485  0.002738  2.368703  0.712995  3.322186  1.093284     43.69   11.2601  148.8023   0.13991   6.87258   0.12436   0.00212 255.96902  11.22428     650.3  0.509621  0.001698  0.000246  0.000177  0.185481  6.966572  0.600615     78.80  1.000088  1.000008     2.529    13.773     124.8      95.5     353.6     699.7     13.57      6.71     -1.65     -3.64     -3.73      8.24      6.46      3.85     -1.88      0.07      6.14     -0.96     -0.60      1.49      1.92    -22.74    -15.42     19.62     12.89      1.71
