corner points
-157.1227417    -4.909883022
-157.1607361    -4.734782696
-156.9476929    -4.871181965
-156.985733    -4.696127892
========== RESULTS WAVE VERSION 16.10.2018 ====================
IMAGE SIZE  X: 4376     Y:4786    col:row     POLARIZATION:VV
COVERAGE    X: 19.82036271km       Y: 19.87369442km 
RESOLUTION dX: 4.529333344m       dY:4.152464358m  
resolution of original product 4.529333344m x 4.152464358m;   raster step x:5996.837348m  
===============================================================
FLAGS: H=HIGH PROBABILITY SEA STATE, I=LAND(ISLAND), O=OUTLIER NO SEA STATE, N=NO WIND AVAILABLE, SEA STATE NOT VISIBLE, M=MEAN PROBABILITY SEA STATE, L= LOW PROBABILITY SEA STATE
Filtering wave length
 integration  Lmin=1m
 integration  Lmax=2200m
  peak        Lmin=100m
               FFT=1024pixels, 4638.037345m 
   mean-Hs (SWH_c)=0.5953603745m
         mean-wind=11.84012318m/s
--------------0--------------1---------2---------3---------4---------5---------6---------7---------8---------9--------10--------11--------12--------13--------14--------15--------16--------17--------18--------19------------------20--------21--------22--------23--------24--------25--------26--------27--------28--------29--------30--------31--------32--------33--------34--------35--------36--------37--------38--------39--------40--------41--------42--------43--------44--------45--------46--------47--------48--------49--------50--------51--------52--------53--------54--------55--------56--------57--------58--------59--------60--------61--------62--------63--------64--------65--------66--------67--------68--------69--------70--------71--------72--------73
            LAT            LON  P-LENGHT     SWH_o     SWH_c     P-DIR      LINE     POINT     ROW-Y     COL-X  M-INTENC        dB      WIND INC-ANGLE  ENERGY-M  ENERGY-N  ENERGY-R ENERGY-NN  FG-DEPTH      FLAG         HEADING-DEG    E30-75   E75-390  E390-600 meanincut   meanout   cut/out  STD-NORM  SPEC-MAX   GL-MEAN    GL-VAR      CORR   ENTROPY   HOMOGEN    ENERGY  CONTRAST  DISSIMIL     STD-O    E 1-30 E600-2000   E2000 >      GODA  LONG-HIG     Tmean  CONVOLUT  MEAN-DIR  relation     Sy/Sx  SKEWNESS  KURTOSIS  cutoff-A >50/10000     INT*V   INT-LOG  S-1_g1f1  S-2_g1f2  S-3_g1f3  S-4_g2f1  S-5_g2f2  S-6_g2f3  S-7_g3f1  S-8_g3f2  S-9_g3f3 S-10_g1f4 S-11_g2f4 S-12_g3f4 S-13_g1f5 S-14_g2f5 S-15_g3f5 S-16_g4f1 S-17_g4f2 S-18_g4f3 S-19_g4f4 S-20_g4f5
--------------1--------------2---------3---------4---------5---------6---------7---------8---------9--------10--------11--------12--------13--------14--------15--------16--------17--------18--------19--------20------------------21--------22--------23--------24--------25--------26--------27--------28--------29--------30--------31--------32--------33--------34--------35--------36--------37--------38--------39--------40--------41--------42--------43--------44--------45--------46--------47--------48--------49--------50--------51--------52--------53--------54--------55--------56--------57--------58--------59--------60--------61--------62--------63--------64--------65--------66--------67--------68--------69--------70--------71--------72--------73--------74
      -4.864353    -157.090225     156.3      0.82      1.94     126.0         1         1      1000      1000    504.76   -12.969      12.6      36.8   219.765     0.561      69.2   0.07499      16.9         H               348.0  0.050096  0.015925  0.000585  1.589303  0.687554  2.311532  1.062560      5.94    9.5567  108.7244   0.11245   6.58994   0.13925   0.00279 192.99612   9.70781     536.3  0.493310  0.001038  0.000141  0.000128  0.161461  6.772504  0.566004     82.04  1.000083  1.000005     2.344    11.934      86.6      94.2     241.6     542.8     10.96     -1.38     -1.85      2.24     -0.84      2.72      2.72      1.36      0.35     -0.13      0.23     -0.45     -1.38     -1.01      1.65     -6.66     -1.28      7.45      1.52     -1.52
      -4.852606    -157.037079     399.2      0.76      1.94      20.1         1         2      1000      2324    478.86   -13.198      12.6      37.2   219.006     0.558      47.4   0.07464     100.0         H               348.0  0.049569  0.015709  0.000826  1.573591  0.689636  2.281769  1.060395      8.97    9.0572   98.6300   0.11147   6.49164   0.14532   0.00308 175.27057   9.21576     507.8  0.491792  0.000845  0.000047  0.000122  0.161579  6.767904  0.563516     82.69  1.000079  1.000005     2.337    11.811      88.6      93.8     215.3     509.6     11.24     -1.27     -2.24      1.31     -0.77      4.17      3.75      1.84     -0.90     -0.22      0.80     -0.52     -0.95     -1.49      2.72    -10.13     -1.90     12.38      3.27     -4.16
      -4.840957    -156.984390     399.2      0.71      1.94      20.1         1         3      1000      3648    452.55   -13.443      12.4      37.6   219.378     0.558      49.5   0.07276     100.0         H               348.0  0.048512  0.015460  0.000625  1.527262  0.670463  2.277922  1.059985      7.31    8.5354   88.7384   0.10839   6.38231   0.15207   0.00344 158.24011   8.73426     479.7  0.493128  0.000684  0.000089  0.000124  0.160959  6.775034  0.563159     82.62  1.000102  1.000007     2.354    12.173      86.6      93.2     190.9     500.3     10.88     -1.17     -1.64      2.17     -0.52      2.95      3.20      1.48      0.47     -0.12      0.56     -0.76     -0.56     -0.71      1.91     -6.99     -1.43      7.34      2.77     -1.75
      -4.811515    -157.101700     381.3      0.64      1.94       9.5         2         1      2444      1000    412.60   -13.845      11.1      36.8   220.530     0.560      48.9   0.07157     100.0         H               348.0  0.049244  0.015642  0.000592  1.573279  0.668742  2.352593  1.062167      7.15    7.7486   74.9115   0.10621   6.20328   0.16396   0.00414 133.90930   8.00441     438.2  0.494213  0.000769  0.000070  0.000130  0.159675  6.761618  0.565390     82.10  1.000112  1.000006     2.345    11.863      90.6      92.1     157.6     424.6     11.00     -1.24     -1.90      2.20     -0.64      3.24      2.98      1.10      0.39      0.01      0.37     -0.62     -1.24     -1.10      2.01     -6.97     -1.06      8.27      1.69     -2.16
      -4.799773    -157.048569     385.2      0.66      1.94       4.8         2         2      2444      2324    415.80   -13.811      11.5      37.2   219.778     0.559      70.1   0.07264     100.0         H               348.0  0.049230  0.015637  0.000682  1.560309  0.675318  2.310482  1.061609      8.33    7.8168   75.8050   0.10871   6.21945   0.16321   0.00406 135.12906   8.04134     441.3  0.492990  0.001100  0.000145  0.000128  0.160704  6.763826  0.564822     83.38  1.000071  1.000005     2.370    12.217      92.7      92.2     160.1     440.4     11.00     -1.23     -1.97      1.87     -0.57      3.98      3.61      1.20     -0.15     -0.45      0.49     -0.46     -0.61     -1.36      2.37     -7.99     -1.21     10.74      2.15     -4.09
      -4.788127    -156.995880     221.9      0.66      1.94     141.5         2         3      2444      3648    398.71   -13.993      11.5      37.6   220.501     0.560      73.2   0.07178      43.2         H               348.0  0.049407  0.015073  0.000591  1.520543  0.674520  2.254260  1.062189      5.01    7.4736   70.1431   0.10656   6.13626   0.16897   0.00443 125.33821   7.72852     423.5  0.494298  0.001044  0.000148  0.000128  0.158350  6.753218  0.565496     83.68  1.000124  1.000007     2.362    12.119      92.7      91.8     146.5     428.2     10.90     -1.31     -1.42      2.13     -0.35      2.34      3.05      1.53      0.27     -0.02      0.61     -0.36     -1.20     -0.47      1.86     -7.03     -0.93      6.46      2.31     -0.98
      -4.758677    -157.113174     399.2      0.67      1.94      20.1         3         1      3888      1000    444.56   -13.521      11.7      36.8   219.546     0.560      60.9   0.07340     100.0         H               348.0  0.049787  0.015499  0.000694  1.541315  0.688989  2.237067  1.062023      6.94    8.3793   86.1034   0.11036   6.34806   0.15440   0.00357 153.20258   8.58493     472.2  0.493507  0.000856  0.000119  0.000124  0.159330  6.761921  0.565614     83.77  1.000121  1.000008     2.363    12.197      90.6      92.9     184.7     488.2     10.95     -1.08     -2.00      1.89     -1.07      3.35      3.51      0.70     -0.33     -0.15      0.13     -0.81     -0.89     -1.13      2.03     -8.19     -1.68      9.54      1.57     -2.78
      -4.746939    -157.060043     385.2      0.67      1.94     175.2         3         2      3888      2324    420.15   -13.766      11.6      37.2   219.550     0.560      73.7   0.07320     100.0         H               348.0  0.049437  0.015631  0.000597  1.577097  0.670773  2.351162  1.062166      6.24    7.9032   77.5228   0.10979   6.23971   0.16142   0.00400 138.02328   8.13665     446.2  0.493145  0.001023  0.000178  0.000122  0.160715  6.780060  0.564985     82.74  1.000096  1.000008     2.345    11.929      92.7      92.2     163.8     440.2     11.00     -1.39     -1.74      2.22     -0.43      3.26      3.09      0.81      0.29      0.21     -0.12     -0.05     -0.81     -0.95      2.05     -7.33     -0.05      8.52      0.07     -2.28
      -4.735298    -157.007355     381.3      0.66      1.94       9.5         3         3      3888      3648    405.48   -13.920      11.6      37.6   220.166     0.560      53.3   0.07298     100.0         H               348.0  0.050271  0.015102  0.000657  1.502932  0.682814  2.201085  1.062121      6.25    7.6086   72.3787   0.10762   6.16919   0.16644   0.00429 129.17793   7.85695     430.6  0.493706  0.000845  0.000074  0.000131  0.158684  6.738690  0.565385     83.48  1.000115  1.000008     2.372    12.547      94.9      91.8     152.0     469.1     11.05     -1.17     -1.68      1.86     -0.99      2.92      3.24      1.22     -0.39     -0.27      0.26     -0.56     -0.93     -0.80      1.66     -8.15     -2.06      8.25      2.28     -1.63
