corner points
-152.9919891    -29.0978756
-153.0410767    -28.91910362
-152.788147    -29.05288124
-152.8376923    -28.87419319
========== RESULTS WAVE VERSION 16.10.2018 ====================
IMAGE SIZE  X: 5471     Y:4917    col:row     POLARIZATION:VV
COVERAGE    X: 20.38005391km       Y: 20.39885987km 
RESOLUTION dX: 3.725105814m       dY:4.148639389m  
resolution of original product 3.725105814m x 4.148639389m;   raster step x:5997.420361m  
===============================================================
FLAGS: H=HIGH PROBABILITY SEA STATE, I=LAND(ISLAND), O=OUTLIER NO SEA STATE, N=NO WIND AVAILABLE, SEA STATE NOT VISIBLE, M=MEAN PROBABILITY SEA STATE, L= LOW PROBABILITY SEA STATE
Filtering wave length
 integration  Lmin=1m
 integration  Lmax=2200m
  peak        Lmin=100m
               FFT=1024pixels, 3814.508354m 
   mean-Hs (SWH_c)=0.2581130981m
         mean-wind=7.827983379m/s
--------------0--------------1---------2---------3---------4---------5---------6---------7---------8---------9--------10--------11--------12--------13--------14--------15--------16--------17--------18--------19------------------20--------21--------22--------23--------24--------25--------26--------27--------28--------29--------30--------31--------32--------33--------34--------35--------36--------37--------38--------39--------40--------41--------42--------43--------44--------45--------46--------47--------48--------49--------50--------51--------52--------53--------54--------55--------56--------57--------58--------59--------60--------61--------62--------63--------64--------65--------66--------67--------68--------69--------70--------71--------72--------73
            LAT            LON  P-LENGHT     SWH_o     SWH_c     P-DIR      LINE     POINT     ROW-Y     COL-X  M-INTENC        dB      WIND INC-ANGLE  ENERGY-M  ENERGY-N  ENERGY-R ENERGY-NN  FG-DEPTH      FLAG         HEADING-DEG    E30-75   E75-390  E390-600 meanincut   meanout   cut/out  STD-NORM  SPEC-MAX   GL-MEAN    GL-VAR      CORR   ENTROPY   HOMOGEN    ENERGY  CONTRAST  DISSIMIL     STD-O    E 1-30 E600-2000   E2000 >      GODA  LONG-HIG     Tmean  CONVOLUT  MEAN-DIR  relation     Sy/Sx  SKEWNESS  KURTOSIS  cutoff-A >50/10000     INT*V   INT-LOG  S-1_g1f1  S-2_g1f2  S-3_g1f3  S-4_g2f1  S-5_g2f2  S-6_g2f3  S-7_g3f1  S-8_g3f2  S-9_g3f3 S-10_g1f4 S-11_g2f4 S-12_g3f4 S-13_g1f5 S-14_g2f5 S-15_g3f5 S-16_g4f1 S-17_g4f2 S-18_g4f3 S-19_g4f4 S-20_g4f5
--------------1--------------2---------3---------4---------5---------6---------7---------8---------9--------10--------11--------12--------13--------14--------15--------16--------17--------18--------19--------20------------------21--------22--------23--------24--------25--------26--------27--------28--------29--------30--------31--------32--------33--------34--------35--------36--------37--------38--------39--------40--------41--------42--------43--------44--------45--------46--------47--------48--------49--------50--------51--------52--------53--------54--------55--------56--------57--------58--------59--------60--------61--------62--------63--------64--------65--------66--------67--------68--------69--------70--------71--------72--------73--------74
     -29.053097    -152.963745     282.0      0.46      2.01     158.3         1         1      1000      1000   2848.10    -5.454       7.5      23.1   353.053     0.781      67.3   0.19334     100.0         H               347.3  0.110283  0.041250  0.000860  4.446105  0.984136  4.517776  1.252859     19.99    5.2026   48.3563   0.28075   5.40056   0.25267   0.01176  69.55941   5.29351    3568.0  0.628736  0.000758  0.000022  0.000279  0.153396  6.762124  0.822801     92.18  1.000241  1.000036     3.670    31.567     105.0      84.4      91.1     545.9     12.37     -0.13     -1.33      1.66      0.11      3.54     -0.22      0.52      2.00      0.36     -0.59      0.18     -0.89      0.13      1.51     -5.13     -0.24      4.01     -0.65      0.13
     -29.039734    -152.903137     245.0      0.47      2.01     157.3         1         2      1000      2610   2665.90    -5.742       7.9      23.6   349.160     0.761      66.9   0.18313      64.1         H               347.3  0.103810  0.039569  0.000849  4.200023  0.977671  4.295946  1.236270     15.17    4.8407   41.7210   0.27282   5.27550   0.26444   0.01318  60.67645   4.94990    3295.5  0.616867  0.000826  0.000022  0.000262  0.155303  6.773806  0.800479     92.47  1.000213  1.000030     3.562    28.862     102.3      83.4      78.1     471.4     12.32     -0.32     -1.18      1.71     -0.11      3.20     -0.26      0.65      1.57      0.30     -0.51     -0.13     -0.96     -0.14      0.93     -5.20     -0.23      3.75     -0.13      0.18
     -29.026594    -152.843674     263.0      0.48      2.01     172.1         1         3      1000      4220   2465.40    -6.081       8.1      24.1   354.674     0.780      71.9   0.19170     130.8         H               347.3  0.110706  0.039426  0.000991  4.255148  0.971446  4.380221  1.250644     14.50    4.4467   36.7708   0.27869   5.11680   0.28104   0.01563  53.04668   4.58681    3083.1  0.629109  0.000847  0.000029  0.000280  0.153351  6.737006  0.821133     92.09  1.000218  1.000031     3.660    30.874     105.0      81.7      67.6     453.3     12.52     -0.66     -1.07      1.33     -0.11      3.41     -0.14      0.81      1.29      0.41      0.07     -0.22     -0.60     -0.09      1.07     -6.28     -0.25      4.60      0.92      0.07
     -29.000517    -152.978210     243.5      0.45      2.01     149.3         2         1      2446      1000   2837.59    -5.471       7.5      23.1   355.073     0.784      64.2   0.19392      62.2         H               347.3  0.109044  0.040642  0.000942  4.270567  0.972836  4.389812  1.257680     15.52    5.1665   47.7817   0.27966   5.38824   0.25366   0.01187  68.83755   5.26079    3568.5  0.633247  0.000699  0.000021  0.000264  0.156072  6.760403  0.825157     93.20  1.000234  1.000034     3.758    32.478     102.3      84.4      90.2     526.3     12.39     -0.26     -1.03      1.66     -0.50      3.57     -0.11      0.62      1.33      0.52     -0.22     -0.43     -0.68      0.08      1.05     -5.53     -1.21      4.79     -0.14      0.10
     -28.987164    -152.917648     251.3      0.47      2.01     152.5         2         2      2446      2610   2659.60    -5.752       7.9      23.6   357.178     0.788      96.5   0.19472      74.1         H               347.3  0.110726  0.041170  0.000840  4.559577  0.981955  4.643368  1.257198     14.68    4.8227   42.5171   0.28076   5.26218   0.26649   0.01354  61.15954   4.93732    3343.3  0.634312  0.001233  0.000071  0.000280  0.151597  6.755534  0.829306     91.88  1.000211  1.000031     3.717    30.369     102.3      83.1      79.4     466.2     12.22      0.46     -0.72      2.25     -0.28      3.42     -0.05      0.45      1.76      0.07      0.02     -0.18     -0.71     -0.28      1.19     -4.76     -1.06      3.66      0.67     -0.38
     -28.974031    -152.858231     227.1      0.48      2.01     155.4         2         3      2446      4220   2431.16    -6.142       7.9      24.1   355.761     0.785      66.7   0.19453      46.8         H               347.3  0.110221  0.040695  0.001005  4.399035  0.980262  4.487610  1.255200     17.67    4.3789   35.9796   0.28091   5.08864   0.28401   0.01603  51.74443   4.52106    3051.5  0.632836  0.000801  0.000019  0.000268  0.153616  6.760783  0.826433     91.60  1.000227  1.000033     3.690    30.105     102.3      81.4      66.1     435.3     12.32      0.16     -0.96      1.65     -0.01      3.34      0.22      0.88      1.58      0.93     -0.39     -0.53     -0.44      0.27      0.58     -6.16     -1.19      4.09     -0.21      0.51
     -28.947937    -152.992661     232.6      0.46      2.01     158.5         3         1      3892      1000   2893.26    -5.386       7.7      23.2   361.875     0.801      79.0   0.19976      51.1         H               347.3  0.113226  0.042159  0.001037  4.597034  0.981533  4.683523  1.269211     17.50    5.2772   50.2486   0.28255   5.42276   0.25109   0.01160  72.10221   5.37125    3672.2  0.644204  0.001054  0.000032  0.000286  0.152268  6.751707  0.843109     93.97  1.000239  1.000036     3.951    41.197     105.0      84.5      95.4     608.5     12.47     -0.13     -1.01      1.46      0.03      3.16     -0.15      0.90      1.69      0.91     -0.28     -0.63     -0.56      0.32      0.82     -6.36     -1.00      3.60      0.08      0.78
     -28.934591    -152.932144     258.7      0.47      2.01     156.0         3         2      3892      2610   2649.97    -5.768       7.9      23.6   358.238     0.797      77.8   0.20042      94.6         H               347.3  0.112754  0.044763  0.000933  4.769366  0.988249  4.826075  1.266498     18.28    4.8009   42.6965   0.28454   5.25064   0.26842   0.01379  61.09402   4.91542    3355.8  0.638614  0.000896  0.000035  0.000282  0.156203  6.788905  0.840633     91.84  1.000242  1.000036     3.771    31.194     105.0      82.9      79.3     463.0     12.54     -0.36     -0.75      1.67     -0.15      3.68     -0.44      0.72      1.24      0.31     -0.28     -0.25     -1.36      0.78      1.39     -5.32     -0.69      4.89      0.46      0.73
     -28.921465    -152.872757     265.5      0.48      2.01     159.6         3         3      3892      4220   2459.62    -6.091       8.1      24.1   358.763     0.797      81.8   0.19927     100.0         H               347.3  0.110682  0.042335  0.000983  4.498265  0.977206  4.603189  1.266564     19.47    4.4197   37.0883   0.28313   5.10121   0.28328   0.01602  53.17447   4.56382    3114.9  0.643009  0.001093  0.000040  0.000277  0.154715  6.776656  0.839726     91.63  1.000227  1.000034     3.777    32.533     107.8      81.4      67.9     449.5     12.43     -0.07     -0.88      1.58      0.12      3.56     -0.24      0.47      1.14      0.63      0.27     -0.21     -0.48     -0.11      1.13     -5.74     -0.36      4.92      0.94     -0.65
