corner points
-158.2642822    0.3971731663
-158.3010559    0.5724086761
-158.0898132    0.4346001148
-158.1265869    0.6097942591
========== RESULTS WAVE VERSION 16.10.2018 ====================
IMAGE SIZE  X: 4376     Y:4786    col:row     POLARIZATION:VV
COVERAGE    X: 19.79582093km       Y: 19.86292316km 
RESOLUTION dX: 4.523725077m       dY:4.150213782m  
resolution of original product 4.523725077m x 4.150213782m;   raster step x:5998.459451m  
===============================================================
FLAGS: H=HIGH PROBABILITY SEA STATE, I=LAND(ISLAND), O=OUTLIER NO SEA STATE, N=NO WIND AVAILABLE, SEA STATE NOT VISIBLE, M=MEAN PROBABILITY SEA STATE, L= LOW PROBABILITY SEA STATE
Filtering wave length
 integration  Lmin=1m
 integration  Lmax=2200m
  peak        Lmin=100m
               FFT=1024pixels, 4632.294478m 
   mean-Hs (SWH_c)=0.5333073044m
         mean-wind=10.23415565m/s
--------------0--------------1---------2---------3---------4---------5---------6---------7---------8---------9--------10--------11--------12--------13--------14--------15--------16--------17--------18--------19------------------20--------21--------22--------23--------24--------25--------26--------27--------28--------29--------30--------31--------32--------33--------34--------35--------36--------37--------38--------39--------40--------41--------42--------43--------44--------45--------46--------47--------48--------49--------50--------51--------52--------53--------54--------55--------56--------57--------58--------59--------60--------61--------62--------63--------64--------65--------66--------67--------68--------69--------70--------71--------72--------73
            LAT            LON  P-LENGHT     SWH_o     SWH_c     P-DIR      LINE     POINT     ROW-Y     COL-X  M-INTENC        dB      WIND INC-ANGLE  ENERGY-M  ENERGY-N  ENERGY-R ENERGY-NN  FG-DEPTH      FLAG         HEADING-DEG    E30-75   E75-390  E390-600 meanincut   meanout   cut/out  STD-NORM  SPEC-MAX   GL-MEAN    GL-VAR      CORR   ENTROPY   HOMOGEN    ENERGY  CONTRAST  DISSIMIL     STD-O    E 1-30 E600-2000   E2000 >      GODA  LONG-HIG     Tmean  CONVOLUT  MEAN-DIR  relation     Sy/Sx  SKEWNESS  KURTOSIS  cutoff-A >50/10000     INT*V   INT-LOG  S-1_g1f1  S-2_g1f2  S-3_g1f3  S-4_g2f1  S-5_g2f2  S-6_g2f3  S-7_g3f1  S-8_g3f2  S-9_g3f3 S-10_g1f4 S-11_g2f4 S-12_g3f4 S-13_g1f5 S-14_g2f5 S-15_g3f5 S-16_g4f1 S-17_g4f2 S-18_g4f3 S-19_g4f4 S-20_g4f5
--------------1--------------2---------3---------4---------5---------6---------7---------8---------9--------10--------11--------12--------13--------14--------15--------16--------17--------18--------19--------20------------------21--------22--------23--------24--------25--------26--------27--------28--------29--------30--------31--------32--------33--------34--------35--------36--------37--------38--------39--------40--------41--------42--------43--------44--------45--------46--------47--------48--------49--------50--------51--------52--------53--------54--------55--------56--------57--------58--------59--------60--------61--------62--------63--------64--------65--------66--------67--------68--------69--------70--------71--------72--------73--------74
       0.442442    -158.231644     372.3      0.59      2.28      28.8         1         1      1000      1000    355.12   -14.496      10.1      36.9   219.515     0.563      54.4   0.07251     100.0         H               348.0  0.047919  0.018888  0.001115  1.734128  0.666724  2.600969  1.064339     25.91    6.6076   56.3532   0.10864   5.90737   0.18544   0.00560 100.46251   6.88965     377.9  0.494453  0.000648  0.000075  0.000125  0.176808  6.888319  0.568404     82.32  1.000104  1.000007     2.382    12.331      97.3      90.1     115.2     369.7     11.99      1.51     -2.83     -0.28     -4.14      6.77      5.08      1.00      0.27     -2.86      1.56     -1.68     -0.23     -0.42      1.56    -12.80     -8.46     14.93      5.94     -0.99
       0.453820    -158.178604     386.3      0.58      2.28      24.6         1         2      1000      2326    331.04   -14.801       9.9      37.3   221.142     0.566      39.3   0.07242     100.0         H               348.0  0.047289  0.019057  0.001482  1.768654  0.668581  2.645386  1.067079     38.13    6.1332   49.3303   0.10646   5.76960   0.19627   0.00644  88.15726   6.44200     353.3  0.497729  0.000444  0.000018  0.000123  0.177580  6.895397  0.571071     77.13  1.000115  1.000008     2.394    12.622      99.7      89.2      99.8     370.7     12.16      2.32     -2.81     -0.85     -5.49      7.55      6.10      1.96     -0.17     -3.77      2.55     -3.03     -0.77      0.86      1.24    -15.68    -13.19     17.25     10.17      2.89
       0.465101    -158.125992     399.0      0.59      2.28      20.2         1         3      1000      3652    328.74   -14.831      10.1      37.6   219.753     0.563      59.2   0.07190     100.0         H               348.0  0.047198  0.018484  0.001216  1.687409  0.674530  2.501609  1.064860     36.79    6.0873   48.5117   0.10732   5.75591   0.19766   0.00652  86.61096   6.38448     350.1  0.495684  0.000699  0.000105  0.000124  0.176898  6.878701  0.568762     71.98  1.000069  1.000004     2.379    12.339      94.9      89.1      98.2     348.7     12.02      2.09     -3.33     -0.60     -4.82      7.13      5.38      1.35     -0.11     -3.87      3.07     -2.04     -0.08     -0.20      1.59    -14.07    -10.57     16.58      9.61     -0.04
       0.495357    -158.242767     386.3      0.61      2.28      24.6         2         1      2445      1000    374.85   -14.261      10.5      36.9   218.853     0.560      51.5   0.07182     100.0         H               348.0  0.046697  0.018578  0.001198  1.702118  0.666696  2.553064  1.062133     29.41    7.0000   62.3404   0.10740   6.01465   0.17753   0.00502 111.29034   7.27374     398.1  0.493658  0.000600  0.000067  0.000119  0.176775  6.892274  0.565804     79.95  1.000111  1.000007     2.365    12.272      94.9      90.9     128.7     413.6     12.01      2.12     -2.49     -0.44     -4.47      6.64      5.53      1.43      0.49     -2.94      2.03     -1.61     -0.86      1.19      0.78    -13.59    -10.15     14.30      6.89      3.85
       0.506732    -158.189697     356.6      0.60      2.28      22.6         2         2      2445      2326    352.27   -14.531      10.4      37.3   218.864     0.559      51.9   0.07104     100.0         H               348.0  0.046645  0.018258  0.000849  1.710912  0.674493  2.536588  1.060749     16.01    6.5549   55.1370   0.10554   5.89328   0.18672   0.00566  98.63547   6.83558     373.6  0.492639  0.000651  0.000079  0.000119  0.175222  6.881692  0.563848     86.90  1.000092  1.000006     2.342    11.944      94.9      90.1     112.7     366.2     11.62      0.86     -1.67      1.16     -2.35      5.94      4.41      0.26      0.73     -1.44      0.70     -0.57     -0.10     -0.21      1.77     -9.49     -3.82     11.93      2.68     -0.66
       0.518009    -158.137100     386.3      0.59      2.28      24.6         2         3      2445      3652    328.78   -14.831      10.1      37.6   220.604     0.563      87.6   0.07103     100.0         H               348.0  0.046043  0.018324  0.001128  1.713158  0.666638  2.569849  1.064633     29.67    6.0883   48.5315   0.10518   5.75648   0.19726   0.00651  86.85355   6.39432     350.1  0.496270  0.001071  0.000192  0.000123  0.175816  6.885843  0.568100     82.27  1.000071  1.000005     2.369    12.135      97.3      89.1      98.2     333.5     11.77      1.62     -2.39      0.37     -4.55      6.84      5.49      1.35      0.42     -3.37      2.11     -2.33     -0.32      0.14      1.12    -12.32    -10.01     14.40      8.20      1.36
       0.548273    -158.253860     386.3      0.61      2.28      24.6         3         1      3890      1000    375.10   -14.259      10.5      36.9   218.752     0.558      44.6   0.07062     100.0         H               348.0  0.046304  0.018132  0.001019  1.732830  0.663318  2.612368  1.060200     22.74    7.0056   62.2443   0.10483   6.01660   0.17708   0.00499 111.43829   7.28317     397.6  0.492679  0.000618  0.000042  0.000122  0.174914  6.890122  0.563416     83.29  1.000116  1.000008     2.353    12.103      94.9      90.9     128.8     399.0     11.65      1.58     -1.72      0.72     -3.11      6.57      5.40      1.24      1.01     -2.55      2.03     -1.16     -0.40      0.53      1.67    -11.29     -7.11     13.62      6.42      1.03
       0.559644    -158.200806     386.3      0.61      2.28      24.6         3         2      3890      2326    357.25   -14.470      10.5      37.3   220.008     0.561      47.6   0.07106     100.0         H               348.0  0.046631  0.018459  0.001218  1.713313  0.679805  2.520301  1.063150     29.27    6.6542   56.8363   0.10529   5.92120   0.18437   0.00550 101.70314   6.94011     379.8  0.494766  0.000691  0.000046  0.000119  0.176463  6.894220  0.566722     83.81  1.000083  1.000006     2.379    12.512      92.7      90.3     116.5     398.4     11.77      1.66     -2.43      0.15     -3.95      7.06      5.76      1.43      0.43     -3.02      2.42     -1.86     -0.02      0.11      1.23    -12.99     -8.92     15.35      8.21      0.48
       0.570917    -158.148209     399.0      0.59      2.28      20.2         3         3      3890      3652    328.15   -14.839      10.1      37.6   219.826     0.562      48.6   0.07087     100.0         H               348.0  0.046691  0.018642  0.001121  1.725658  0.675466  2.554768  1.063436     31.30    6.0749   48.2105   0.10562   5.75261   0.19770   0.00653  86.23718   6.37811     349.0  0.494915  0.000589  0.000055  0.000123  0.176055  6.886742  0.567228     75.49  1.000094  1.000005     2.367    12.200      94.9      89.1      97.7     349.2     11.78      2.24     -2.74     -0.01     -4.27      7.10      5.47      1.53      0.28     -3.23      3.27     -2.03      0.11     -0.10      1.59    -12.42     -9.66     15.83      9.85     -0.24
