corner points
-166.8171387    41.05510712
-166.8591309    41.22875977
-166.5840302    41.08665466
-166.6253815    41.26030731
========== RESULTS WAVE VERSION 16.10.2018 ====================
IMAGE SIZE  X: 4376     Y:4772    col:row     POLARIZATION:VV
COVERAGE    X: 19.81026438km       Y: 19.57806192km 
RESOLUTION dX: 4.527025682m       dY:4.102695288m  
resolution of original product 4.527025682m x 4.102695288m;   raster step x:5998.309029m  
===============================================================
FLAGS: H=HIGH PROBABILITY SEA STATE, I=LAND(ISLAND), O=OUTLIER NO SEA STATE, N=NO WIND AVAILABLE, SEA STATE NOT VISIBLE, M=MEAN PROBABILITY SEA STATE, L= LOW PROBABILITY SEA STATE
Filtering wave length
 integration  Lmin=1m
 integration  Lmax=2200m
  peak        Lmin=100m
               FFT=1024pixels, 4635.674298m 
   mean-Hs (SWH_c)=4.246430054m
         mean-wind=17.93477631m/s
--------------0--------------1---------2---------3---------4---------5---------6---------7---------8---------9--------10--------11--------12--------13--------14--------15--------16--------17--------18--------19------------------20--------21--------22--------23--------24--------25--------26--------27--------28--------29--------30--------31--------32--------33--------34--------35--------36--------37--------38--------39--------40--------41--------42--------43--------44--------45--------46--------47--------48--------49--------50--------51--------52--------53--------54--------55--------56--------57--------58--------59--------60--------61--------62--------63--------64--------65--------66--------67--------68--------69--------70--------71--------72--------73
            LAT            LON  P-LENGHT     SWH_o     SWH_c     P-DIR      LINE     POINT     ROW-Y     COL-X  M-INTENC        dB      WIND INC-ANGLE  ENERGY-M  ENERGY-N  ENERGY-R ENERGY-NN  FG-DEPTH      FLAG         HEADING-DEG    E30-75   E75-390  E390-600 meanincut   meanout   cut/out  STD-NORM  SPEC-MAX   GL-MEAN    GL-VAR      CORR   ENTROPY   HOMOGEN    ENERGY  CONTRAST  DISSIMIL     STD-O    E 1-30 E600-2000   E2000 >      GODA  LONG-HIG     Tmean  CONVOLUT  MEAN-DIR  relation     Sy/Sx  SKEWNESS  KURTOSIS  cutoff-A >50/10000     INT*V   INT-LOG  S-1_g1f1  S-2_g1f2  S-3_g1f3  S-4_g2f1  S-5_g2f2  S-6_g2f3  S-7_g3f1  S-8_g3f2  S-9_g3f3 S-10_g1f4 S-11_g2f4 S-12_g3f4 S-13_g1f5 S-14_g2f5 S-15_g3f5 S-16_g4f1 S-17_g4f2 S-18_g4f3 S-19_g4f4 S-20_g4f5
--------------1--------------2---------3---------4---------5---------6---------7---------8---------9--------10--------11--------12--------13--------14--------15--------16--------17--------18--------19--------20------------------21--------22--------23--------24--------25--------26--------27--------28--------29--------30--------31--------32--------33--------34--------35--------36--------37--------38--------39--------40--------41--------42--------43--------44--------45--------46--------47--------48--------49--------50--------51--------52--------53--------54--------55--------56--------57--------58--------59--------60--------61--------62--------63--------64--------65--------66--------67--------68--------69--------70--------71--------72--------73--------74
      41.098835    -166.772049     174.4      4.16      5.77     102.0         1         1      1000      1000    930.38   -10.313      17.6      36.8   261.441     0.633     106.2   0.10800      22.1         H               346.4  0.055633  0.048349  0.002061  3.680685  0.750023  4.907432  1.128146     84.14   17.0433  283.8160   0.16093   7.48513   0.09180   0.00099 476.28564  15.99734    1049.6  0.525383  0.001665  0.000076  0.000267  0.221813  7.421896  0.640458     99.74  1.000247  1.000027     2.728    15.972     181.9      98.5     930.3    1131.0     14.08     -1.12     10.33      3.61     -1.83      7.85      0.56     -0.93     -1.75     -1.73     -3.46     -1.21      4.86      5.90      0.81     -7.08     -0.68      5.88     -2.57      4.38
      41.108440    -166.701187     206.6      4.23      5.77     101.3         1         2      1000      2325    954.76   -10.201      18.1      37.1   259.147     0.628      85.0   0.10698      34.6         H               346.4  0.055701  0.047882  0.001820  3.715971  0.762120  4.875836  1.123996     73.84   17.4484  291.6101   0.16041   7.51483   0.08996   0.00095 489.66461  16.28334    1073.2  0.521961  0.001054  0.000046  0.000243  0.222857  7.422967  0.635786     99.76  1.000260  1.000029     2.715    15.854     174.0      98.7     976.4    1168.5     14.28     -1.27     10.26      3.41     -1.76      7.23     -0.29     -0.61     -2.22     -2.21     -2.95     -0.68      4.43      5.74      0.13     -6.72     -0.62      4.59     -1.43      5.25
      41.117916    -166.630905     197.9      4.27      5.77     100.9         1         3      1000      3650    920.29   -10.361      18.0      37.5   260.049     0.630     107.1   0.10758      30.7         H               346.4  0.055339  0.048680  0.002350  3.727352  0.750197  4.968500  1.126074     86.57   16.8834  280.3193   0.16334   7.47373   0.09206   0.00101 469.06390  15.85974    1036.3  0.522715  0.001576  0.000070  0.000257  0.224589  7.444306  0.638446     99.27  1.000239  1.000027     2.685    15.291     174.0      98.5     908.3    1110.1     14.36     -0.83     10.52      3.08     -2.05      7.51      0.39     -0.61     -2.31     -1.63     -3.40     -1.03      4.83      5.79      0.16     -8.33     -1.75      5.40     -2.40      4.84
      41.152050    -166.784866     197.9      4.44      5.77     100.9         2         1      2462      1000    959.49   -10.180      17.9      36.8   263.018     0.639      99.1   0.10989      30.7         H               346.4  0.055670  0.051465  0.001764  3.735500  0.753575  4.957041  1.133329    106.30   17.4809  293.7244   0.16245   7.51150   0.09029   0.00096 492.01849  16.31466    1087.4  0.528709  0.001256  0.000078  0.000288  0.224779  7.467895  0.646841     99.79  1.000252  1.000030     2.765    16.296     181.9      98.7     996.4    1157.2     14.24     -1.76     10.95      4.31     -1.75      8.40     -0.39     -0.47     -2.41     -2.66     -3.49     -0.25      5.76      6.49      0.27     -5.67     -0.31      5.60     -2.55      4.02
      41.161655    -166.713943     197.9      4.20      5.77     100.9         2         2      2462      2325    917.96   -10.372      17.8      37.1   262.274     0.635     123.6   0.10841      30.7         H               346.4  0.056306  0.048797  0.001888  3.728526  0.757364  4.923034  1.130456     93.76   16.8325  278.9266   0.16212   7.46904   0.09249   0.00101 467.41357  15.82419    1037.7  0.526398  0.001772  0.000154  0.000262  0.223286  7.424078  0.642981     99.68  1.000270  1.000029     2.771    17.082     174.0      98.4     905.8    1149.2     14.15     -1.24     10.57      3.88     -1.90      7.76     -0.01     -0.81     -1.97     -2.32     -3.42     -0.77      5.00      5.86      0.57     -6.41     -0.29      4.92     -1.54      3.89
      41.171131    -166.643600     169.4      4.15      5.77      99.3         2         3      2462      3650    886.82   -10.522      17.7      37.5   260.439     0.627     112.2   0.10571      20.5         H               346.4  0.053816  0.047254  0.001865  3.764327  0.722257  5.211894  1.123678     91.79   16.3501  267.9653   0.15976   7.43617   0.09392   0.00106 450.31189  15.47385     996.5  0.523220  0.001390  0.000161  0.000264  0.222674  7.442422  0.634186     98.55  1.000243  1.000027     2.687    15.376     174.0      98.3     839.1    1058.4     14.18     -1.24     10.67      3.62     -2.05      7.51     -0.00      0.01     -2.16     -2.23     -3.19     -0.25      5.24      5.67      0.62     -6.53     -1.92      5.10     -2.19      3.84
      41.205265    -166.797699     218.1      4.21      5.77      99.0         3         1      3924      1000    974.73   -10.111      18.0      36.8   260.058     0.629      94.8   0.10650      40.8         H               346.4  0.054864  0.047367  0.001976  3.744349  0.744966  5.026198  1.124502     67.16   17.7574  298.8237   0.15951   7.53286   0.08895   0.00093 502.31805  16.53192    1096.0  0.523463  0.001410  0.000051  0.000237  0.224020  7.429323  0.635989     99.64  1.000273  1.000031     2.712    15.986     174.0      98.8    1018.8    1186.7     14.47     -0.52     10.64      2.91     -1.87      6.74     -0.48     -0.81     -2.74     -1.54     -2.74     -0.95      4.58      5.36     -0.52     -7.61     -1.25      4.05     -1.30      4.54
      41.214867    -166.726700     196.0      4.40      5.77     103.5         3         2      3924      2325    963.32   -10.162      18.2      37.1   261.347     0.633      97.9   0.10921      29.8         H               346.4  0.055504  0.049949  0.001971  3.873178  0.739072  5.240597  1.128910     88.83   17.5566  295.4742   0.16268   7.51554   0.09010   0.00095 494.81091  16.36990    1087.5  0.524897  0.001458  0.000053  0.000261  0.225258  7.469725  0.641357    100.70  1.000274  1.000031     2.695    15.356     181.9      98.6    1000.5    1144.9     14.23     -1.81     10.92      3.75     -1.74      7.35     -0.18     -0.20     -2.13     -2.86     -3.14     -0.09      5.05      5.80      0.21     -6.44     -0.39      4.50     -1.58      4.70
      41.224346    -166.656311     190.0      4.16      5.77     100.4         3         3      3924      3650    907.70   -10.421      17.9      37.5   259.978     0.627     105.8   0.10518      27.4         H               346.4  0.054219  0.047029  0.001985  3.714358  0.749728  4.954272  1.122787     82.02   16.6923  275.3303   0.15839   7.46178   0.09267   0.00102 463.44348  15.73975    1019.1  0.522067  0.001593  0.000079  0.000245  0.224849  7.438433  0.633551    100.44  1.000236  1.000026     2.679    15.263     174.0      98.4     878.9    1048.9     14.51     -1.17     10.80      3.11     -2.08      6.97     -0.57      0.13     -2.85     -2.33     -3.05      0.04      5.07      5.27     -0.22     -7.60     -2.12      4.03     -1.95      3.81
