corner points
-140.1371613    -58.41400146
-140.2619019    -58.24424362
-139.8022156    -58.34378815
-139.9285278    -58.17435455
========== RESULTS WAVE VERSION 16.10.2018 ====================
IMAGE SIZE  X: 5471     Y:4899    col:row     POLARIZATION:VV
COVERAGE    X: 20.97716287km       Y: 20.1895471km 
RESOLUTION dX: 3.83424655m       dY:4.121156787m  
resolution of original product 3.83424655m x 4.121156787m;   raster step x:5996.761604m  
===============================================================
FLAGS: H=HIGH PROBABILITY SEA STATE, I=LAND(ISLAND), O=OUTLIER NO SEA STATE, N=NO WIND AVAILABLE, SEA STATE NOT VISIBLE, M=MEAN PROBABILITY SEA STATE, L= LOW PROBABILITY SEA STATE
Filtering wave length
 integration  Lmin=1m
 integration  Lmax=2200m
  peak        Lmin=100m
               FFT=1024pixels, 3926.268467m 
   mean-Hs (SWH_c)=2.020272522m
         mean-wind=12.13642025m/s
--------------0--------------1---------2---------3---------4---------5---------6---------7---------8---------9--------10--------11--------12--------13--------14--------15--------16--------17--------18--------19------------------20--------21--------22--------23--------24--------25--------26--------27--------28--------29--------30--------31--------32--------33--------34--------35--------36--------37--------38--------39--------40--------41--------42--------43--------44--------45--------46--------47--------48--------49--------50--------51--------52--------53--------54--------55--------56--------57--------58--------59--------60--------61--------62--------63--------64--------65--------66--------67--------68--------69--------70--------71--------72--------73
            LAT            LON  P-LENGHT     SWH_o     SWH_c     P-DIR      LINE     POINT     ROW-Y     COL-X  M-INTENC        dB      WIND INC-ANGLE  ENERGY-M  ENERGY-N  ENERGY-R ENERGY-NN  FG-DEPTH      FLAG         HEADING-DEG    E30-75   E75-390  E390-600 meanincut   meanout   cut/out  STD-NORM  SPEC-MAX   GL-MEAN    GL-VAR      CORR   ENTROPY   HOMOGEN    ENERGY  CONTRAST  DISSIMIL     STD-O    E 1-30 E600-2000   E2000 >      GODA  LONG-HIG     Tmean  CONVOLUT  MEAN-DIR  relation     Sy/Sx  SKEWNESS  KURTOSIS  cutoff-A >50/10000     INT*V   INT-LOG  S-1_g1f1  S-2_g1f2  S-3_g1f3  S-4_g2f1  S-5_g2f2  S-6_g2f3  S-7_g3f1  S-8_g3f2  S-9_g3f3 S-10_g1f4 S-11_g2f4 S-12_g3f4 S-13_g1f5 S-14_g2f5 S-15_g3f5 S-16_g4f1 S-17_g4f2 S-18_g4f3 S-19_g4f4 S-20_g4f5
--------------1--------------2---------3---------4---------5---------6---------7---------8---------9--------10--------11--------12--------13--------14--------15--------16--------17--------18--------19--------20------------------21--------22--------23--------24--------25--------26--------27--------28--------29--------30--------31--------32--------33--------34--------35--------36--------37--------38--------39--------40--------41--------42--------43--------44--------45--------46--------47--------48--------49--------50--------51--------52--------53--------54--------55--------56--------57--------58--------59--------60--------61--------62--------63--------64--------65--------66--------67--------68--------69--------70--------71--------72--------73--------74
     -58.366234    -140.099731     104.9      1.94      3.07      98.6         1         1      1000      1000   4710.15    -3.270      11.9      22.4   235.412     0.815      73.0   0.21068       7.0         H               342.1  0.106171  0.065998  0.001238  6.813548  1.040794  6.546489  1.280437     43.87    8.7660  118.1285   0.29027   6.34315   0.17430   0.00453 167.67813   8.51982    6030.6  0.641641  0.000706  0.000018  0.000270  0.168559  7.035544  0.856202     93.40  1.000274  1.000042     3.995    39.566     124.8      91.5     266.1     925.5     11.53      0.70      3.84      3.82     -1.03      5.08      2.66     -0.58      2.44      0.13     -0.91     -1.19      0.90      2.62      1.77     -2.24     -1.85      6.23     -1.11      4.21
     -58.345993    -140.002914     108.2      2.08      3.07      97.4         1         2      1000      2564   4335.56    -3.630      12.0      22.9   235.974     0.817      78.9   0.21062       7.5         H               342.1  0.104003  0.069590  0.001217  6.357609  1.067101  5.957831  1.281621     61.73    8.0647  103.2659   0.29042   6.19324   0.18564   0.00531 146.55000   7.89472    5556.6  0.642420  0.000813  0.000022  0.000277  0.172486  7.076509  0.859195     95.16  1.000260  1.000041     4.032    39.450     124.8      90.6     224.9     875.5     11.56      0.30      3.31      3.45     -0.07      5.29      2.47     -0.66      2.64      0.16     -0.27     -0.70      1.10      2.13      2.36     -2.19      0.07      7.19     -0.36      3.22
     -58.326069    -139.908051     103.5      1.93      3.07     102.8         1         3      1000      4128   3869.89    -4.123      11.7      23.3   233.829     0.798      78.1   0.20001       6.8         H               342.1  0.099619  0.066227  0.001193  6.388261  1.015040  6.293603  1.267244     48.60    7.1742   84.1591   0.28564   5.98438   0.20183   0.00654 120.24066   7.09397    4903.8  0.631105  0.000758  0.000026  0.000259  0.174754  7.069870  0.837405     95.04  1.000270  1.000040     3.855    34.156     117.4      89.2     174.1     725.3     11.59      0.24      3.67      3.81     -0.86      5.42      2.62     -0.74      2.82     -0.30     -1.18     -1.14      1.46      1.96      1.86     -1.84     -1.25      6.83     -0.97      2.81
     -58.315830    -140.136917     102.2      2.03      3.07      98.4         2         1      2455      1000   4886.81    -3.110      12.4      22.4   236.145     0.815      77.2   0.20849       6.7         H               342.1  0.105238  0.065881  0.001233  6.227432  1.050523  5.927933  1.279714     56.32    9.0999  125.5424   0.28700   6.40980   0.16960   0.00421 179.02374   8.82354    6253.1  0.642032  0.000834  0.000024  0.000280  0.170545  7.034627  0.855126     95.31  1.000266  1.000041     3.855    33.284     124.8      92.0     287.9     901.8     11.75      1.14      3.89      3.32     -0.62      4.65      2.04     -0.73      1.70      0.43      0.11     -1.29      0.87      1.67      1.58     -2.65     -1.51      6.06      0.43      2.55
     -58.295616    -140.040237     117.3      1.87      3.07      99.6         2         2      2455      2564   4350.85    -3.614      12.1      22.9   234.000     0.798      69.2   0.19946       8.9         H               342.1  0.102047  0.063140  0.000999  6.434638  1.032781  6.230399  1.266410     42.66    8.1027  103.3386   0.28514   6.20507   0.18419   0.00520 147.74689   7.94208    5510.0  0.631205  0.000666  0.000019  0.000261  0.168555  7.022630  0.836118     93.89  1.000253  1.000036     3.745    31.713     121.0      90.7     222.6     784.3     11.19      0.26      3.55      4.17     -0.35      5.16      2.78     -0.04      3.28      0.39     -0.03     -0.47      1.22      2.24      2.58     -0.78     -0.92      6.54     -0.16      3.40
     -58.275719    -139.945511     108.2      2.05      3.07      97.4         2         3      2455      4128   3921.07    -4.066      11.9      23.3   235.024     0.808      81.4   0.20568       7.5         H               342.1  0.102327  0.069503  0.001177  6.416799  1.022484  6.275695  1.275011     59.42    7.2741   87.2217   0.29022   6.00504   0.20080   0.00648 123.81686   7.18524    4998.8  0.634762  0.000864  0.000026  0.000274  0.174726  7.104499  0.848209     95.45  1.000245  1.000037     3.822    33.084     121.0      89.2     180.5     725.7     11.42      0.02      3.89      3.94     -0.66      5.08      2.59     -0.73      2.98      0.18     -1.12     -1.01      1.05      1.71      2.38     -1.31     -0.77      6.38     -1.88      2.32
     -58.265411    -140.174026     100.9      2.07      3.07     102.4         3         1      3910      1000   4906.96    -3.092      12.5      22.4   233.705     0.801      67.6   0.20102       6.5         H               342.1  0.101689  0.065502  0.001214  6.470006  1.007780  6.420057  1.269681     48.18    9.1451  125.6736   0.28417   6.42224   0.16845   0.00415 179.92076   8.86910    6229.7  0.632269  0.000587  0.000016  0.000282  0.167414  7.039778  0.840208     94.15  1.000255  1.000036     3.765    31.691     124.8      92.1     286.7     864.7     11.72      0.62      3.42      3.35     -0.26      4.70      1.81     -0.62      1.70      0.69     -0.40     -0.96      1.00      1.82      1.64     -2.84     -0.92      5.96     -1.26      2.75
     -58.245228    -140.077469     112.1      2.17      3.07     103.8         3         2      3910      2564   4466.47    -3.500      12.5      22.9   237.517     0.824      77.1   0.21360       8.1         H               342.1  0.106369  0.070900  0.001274  6.826391  1.047657  6.515864  1.287004     64.17    8.3082  109.4643   0.29426   6.24233   0.18232   0.00508 154.50792   8.11232    5747.8  0.645513  0.000755  0.000017  0.000284  0.170929  7.059387  0.866427     95.56  1.000289  1.000046     3.901    33.871     124.8      90.8     240.3     819.2     11.78      0.57      4.21      3.66     -0.63      5.14      1.85     -0.55      1.83     -0.19     -0.58     -0.64      2.00      2.11      1.86     -2.38     -1.43      6.28     -0.81      2.42
     -58.225357    -139.982864     118.7      2.05      3.07     104.7         3         3      3910      4128   3999.89    -3.980      12.2      23.3   237.336     0.821      91.9   0.21060       9.2         H               342.1  0.103980  0.069076  0.001242  6.871817  1.044969  6.576094  1.283614     51.21    7.4245   90.3481   0.29035   6.04147   0.19806   0.00623 128.23163   7.32121    5133.7  0.645980  0.001010  0.000039  0.000270  0.173196  7.079320  0.862176     93.85  1.000276  1.000043     3.976    35.459     124.8      89.5     190.5     750.9     11.61      0.22      4.22      3.71     -1.03      4.97      2.40     -0.55      2.33     -0.77     -0.71     -0.77      1.37      1.89      2.26     -1.81     -1.69      6.46     -0.86      2.63
