corner points
-163.7956696    18.65873528
-163.8343353    18.83924294
-163.6105347    18.69445038
-163.6490021    18.8749485
========== RESULTS WAVE VERSION 16.10.2018 ====================
IMAGE SIZE  X: 5471     Y:4928    col:row     POLARIZATION:VV
COVERAGE    X: 19.85766084km       Y: 20.43181179km 
RESOLUTION dX: 3.629621794m       dY:4.146065704m  
resolution of original product 3.629621794m x 4.146065704m;   raster step x:5999.764826m  
===============================================================
FLAGS: H=HIGH PROBABILITY SEA STATE, I=LAND(ISLAND), O=OUTLIER NO SEA STATE, N=NO WIND AVAILABLE, SEA STATE NOT VISIBLE, M=MEAN PROBABILITY SEA STATE, L= LOW PROBABILITY SEA STATE
Filtering wave length
 integration  Lmin=1m
 integration  Lmax=2200m
  peak        Lmin=100m
               FFT=1024pixels, 3716.732717m 
   mean-Hs (SWH_c)=1.42838028m
         mean-wind=9.972017288m/s
--------------0--------------1---------2---------3---------4---------5---------6---------7---------8---------9--------10--------11--------12--------13--------14--------15--------16--------17--------18--------19------------------20--------21--------22--------23--------24--------25--------26--------27--------28--------29--------30--------31--------32--------33--------34--------35--------36--------37--------38--------39--------40--------41--------42--------43--------44--------45--------46--------47--------48--------49--------50--------51--------52--------53--------54--------55--------56--------57--------58--------59--------60--------61--------62--------63--------64--------65--------66--------67--------68--------69--------70--------71--------72--------73
            LAT            LON  P-LENGHT     SWH_o     SWH_c     P-DIR      LINE     POINT     ROW-Y     COL-X  M-INTENC        dB      WIND INC-ANGLE  ENERGY-M  ENERGY-N  ENERGY-R ENERGY-NN  FG-DEPTH      FLAG         HEADING-DEG    E30-75   E75-390  E390-600 meanincut   meanout   cut/out  STD-NORM  SPEC-MAX   GL-MEAN    GL-VAR      CORR   ENTROPY   HOMOGEN    ENERGY  CONTRAST  DISSIMIL     STD-O    E 1-30 E600-2000   E2000 >      GODA  LONG-HIG     Tmean  CONVOLUT  MEAN-DIR  relation     Sy/Sx  SKEWNESS  KURTOSIS  cutoff-A >50/10000     INT*V   INT-LOG  S-1_g1f1  S-2_g1f2  S-3_g1f3  S-4_g2f1  S-5_g2f2  S-6_g2f3  S-7_g3f1  S-8_g3f2  S-9_g3f3 S-10_g1f4 S-11_g2f4 S-12_g3f4 S-13_g1f5 S-14_g2f5 S-15_g3f5 S-16_g4f1 S-17_g4f2 S-18_g4f3 S-19_g4f4 S-20_g4f5
--------------1--------------2---------3---------4---------5---------6---------7---------8---------9--------10--------11--------12--------13--------14--------15--------16--------17--------18--------19--------20------------------21--------22--------23--------24--------25--------26--------27--------28--------29--------30--------31--------32--------33--------34--------35--------36--------37--------38--------39--------40--------41--------42--------43--------44--------45--------46--------47--------48--------49--------50--------51--------52--------53--------54--------55--------56--------57--------58--------59--------60--------61--------62--------63--------64--------65--------66--------67--------68--------69--------70--------71--------72--------73--------74
      18.702078    -163.768829     398.3      1.32      3.56      32.4         1         1      1000      1000   2993.41    -5.238       9.5      23.8   469.277     0.841     165.6   0.21808     100.0         H               347.8  0.107603  0.062348  0.007000  5.851559  0.992035  5.898542  1.302133    144.38    5.4714   56.0258   0.29943   5.47000   0.25262   0.01180  78.49925   5.54078    3897.4  0.662808  0.001890  0.000055  0.000274  0.181346  6.984260  0.890481     85.73  1.000221  1.000032     3.924    35.214     121.0      84.2     106.0     590.5     14.65      7.74     -2.95     -5.82     -5.71      9.83      6.75      3.98     -2.34     -1.22      6.70     -2.86     -1.21      2.39      1.51    -27.61    -19.65     23.93     16.40      4.22
      18.712982    -163.712326     368.5      1.46      3.56      17.3         1         2      1000      2653   2832.56    -5.478       9.9      24.2   461.800     0.818     252.2   0.20713     100.0         H               347.8  0.099760  0.062408  0.007313  5.886376  0.954619  6.166202  1.282062    139.64    5.1657   49.9418   0.29335   5.36997   0.26263   0.01302  70.58333   5.25023    3631.2  0.645722  0.003185  0.000140  0.000264  0.187220  7.036431  0.865447     82.96  1.000186  1.000024     3.666    29.071     121.0      83.4      92.9     532.1     14.71      7.33     -2.66     -5.52     -5.29     10.70      6.70      3.13     -2.84     -1.68      6.82     -2.73     -0.76      1.55      3.21    -27.40    -17.41     26.14     16.48      0.11
      18.723675    -163.656845     368.5      1.39      3.56      17.3         1         3      1000      4306   2736.21    -5.629      10.6      24.7   450.419     0.784     135.3   0.19091     100.0         H               347.8  0.094698  0.057130  0.005661  5.418530  0.924231  5.862746  1.255819    105.80    4.9813   45.1610   0.28134   5.31702   0.26395   0.01321  64.91083   5.08173    3436.1  0.625717  0.001381  0.000040  0.000267  0.182813  7.015392  0.827385     84.60  1.000197  1.000025     3.569    28.062     114.0      83.2      83.9     481.1     14.34      7.67     -2.19     -4.50     -5.35      9.24      5.92      3.46     -1.74     -1.14      6.53     -2.14     -1.48      2.56      1.77    -24.23    -18.14     21.75     15.62      4.12
      18.755091    -163.780167     398.3      1.43      3.56      32.4         2         1      2447      1000   2980.65    -5.257       9.4      23.8   465.717     0.837     163.9   0.21661     100.0         H               347.8  0.105449  0.064608  0.007362  6.244877  0.960740  6.500070  1.297471    126.11    5.4537   55.5338   0.29977   5.46470   0.25328   0.01188  77.77351   5.51894    3866.9  0.657884  0.001940  0.000055  0.000276  0.181568  7.013129  0.886464     85.18  1.000195  1.000028     3.850    32.289     121.0      84.1     104.8     562.8     14.53      7.72     -2.54     -5.21     -5.43     10.42      7.09      4.20     -2.65     -1.31      7.17     -2.88     -0.89      1.60      2.02    -27.51    -19.94     25.26     17.21      2.14
      18.765995    -163.723663     398.3      1.27      3.56      32.4         2         2      2447      2653   2683.18    -5.714       9.3      24.2   466.740     0.829     168.2   0.21215     100.0         H               347.8  0.104451  0.061287  0.005636  5.739209  0.993464  5.776966  1.290174    105.39    4.8906   45.6729   0.29586   5.27031   0.27160   0.01429  64.32025   4.99680    3461.6  0.656015  0.002396  0.000078  0.000264  0.182039  7.006626  0.877386     82.71  1.000211  1.000031     3.823    32.456     117.4      82.5      84.4     504.7     13.89      7.61     -1.21     -3.21     -4.45      9.03      6.06      3.83     -0.56     -0.39      6.63     -1.31     -2.00      3.03      1.86    -21.61    -17.52     19.60     14.28      6.08
      18.776688    -163.668152     398.3      1.52      3.56      32.4         2         3      2447      4306   2787.68    -5.548      10.9      24.7   453.010     0.790     130.5   0.19510     100.0         H               347.8  0.096350  0.060050  0.004258  5.621683  0.926990  6.064448  1.257073     78.08    5.0806   47.0308   0.28511   5.35046   0.26123   0.01283  67.24285   5.17197    3504.0  0.628730  0.001553  0.000045  0.000263  0.182799  7.055604  0.834438     82.91  1.000198  1.000027     3.546    27.441     114.0      83.5      87.8     502.9     13.76      7.38     -0.65     -2.05     -3.26      8.53      4.95      2.31      0.21      0.76      5.59     -0.10     -1.48      2.72      1.97    -17.94    -12.71     16.18      9.16      4.43
      18.808102    -163.791519     368.7      1.48      3.56      29.7         3         1      3894      1000   2979.73    -5.258       9.4      23.8   463.229     0.820     155.2   0.20793     100.0         H               347.8  0.100699  0.064377  0.006953  5.816888  0.955062  6.090590  1.285630    160.82    5.4854   55.5308   0.29473   5.47898   0.25186   0.01166  78.32863   5.55207    3830.4  0.646751  0.001664  0.000040  0.000266  0.185469  7.048396  0.867520     78.28  1.000204  1.000027     3.644    27.874     114.0      84.4     104.4     525.7     14.41      8.11     -3.45     -5.07     -5.75     10.99      6.86      4.86     -2.09     -2.46      9.14     -3.08     -1.29      1.99      1.36    -26.04    -20.85     25.75     22.14      3.88
      18.819006    -163.734985     368.5      1.50      3.56      17.3         3         2      3894      2653   2841.52    -5.464      10.0      24.2   459.124     0.812     133.9   0.20447     100.0         H               347.8  0.100773  0.063402  0.005391  5.868557  0.958874  6.120256  1.277561     99.94    5.1992   50.1459   0.29217   5.38443   0.26018   0.01274  70.98923   5.28440    3629.9  0.641457  0.001458  0.000028  0.000263  0.184345  7.052648  0.858944     83.48  1.000178  1.000023     3.684    30.994     114.0      83.5      93.5     541.2     13.99      6.21     -2.14     -3.26     -2.89     10.35      5.64      2.36     -1.30     -0.46      6.72     -1.39      0.11      0.60      3.02    -20.92    -11.45     22.82     13.92     -1.38
      18.829697    -163.679474     375.3      1.48      3.56      37.3         3         3      3894      4306   2753.15    -5.602      10.7      24.7   453.075     0.794     125.2   0.19740     100.0         H               347.8  0.096615  0.059555  0.005382  5.649355  0.964769  5.855656  1.263726     97.36    5.0250   46.1866   0.28693   5.33024   0.26334   0.01309  65.86825   5.11536    3479.0  0.631230  0.001528  0.000028  0.000261  0.184502  7.049408  0.838649     82.31  1.000211  1.000028     3.707    33.015     114.0      83.4      86.1     519.5     14.09      6.93     -0.87     -3.33     -3.22      8.71      5.89      2.89     -0.33      0.50      5.57     -0.23     -2.20      3.51      0.62    -22.06    -13.15     17.51      9.77      8.30
