corner points
-142.4565735    -55.05387878
-142.5620575    -54.88190842
-142.1471405    -54.98894501
-142.2539673    -54.81724167
========== RESULTS WAVE VERSION 16.10.2018 ====================
IMAGE SIZE  X: 5471     Y:4905    col:row     POLARIZATION:VV
COVERAGE    X: 20.95192569km       Y: 20.22980527km 
RESOLUTION dX: 3.829633649m       dY:4.124323195m  
resolution of original product 3.829633649m x 4.124323195m;   raster step x:5997.206295m  
===============================================================
FLAGS: H=HIGH PROBABILITY SEA STATE, I=LAND(ISLAND), O=OUTLIER NO SEA STATE, N=NO WIND AVAILABLE, SEA STATE NOT VISIBLE, M=MEAN PROBABILITY SEA STATE, L= LOW PROBABILITY SEA STATE
Filtering wave length
 integration  Lmin=1m
 integration  Lmax=2200m
  peak        Lmin=100m
               FFT=1024pixels, 3921.544857m 
   mean-Hs (SWH_c)=1.695056305m
         mean-wind=13.87016487m/s
--------------0--------------1---------2---------3---------4---------5---------6---------7---------8---------9--------10--------11--------12--------13--------14--------15--------16--------17--------18--------19------------------20--------21--------22--------23--------24--------25--------26--------27--------28--------29--------30--------31--------32--------33--------34--------35--------36--------37--------38--------39--------40--------41--------42--------43--------44--------45--------46--------47--------48--------49--------50--------51--------52--------53--------54--------55--------56--------57--------58--------59--------60--------61--------62--------63--------64--------65--------66--------67--------68--------69--------70--------71--------72--------73
            LAT            LON  P-LENGHT     SWH_o     SWH_c     P-DIR      LINE     POINT     ROW-Y     COL-X  M-INTENC        dB      WIND INC-ANGLE  ENERGY-M  ENERGY-N  ENERGY-R ENERGY-NN  FG-DEPTH      FLAG         HEADING-DEG    E30-75   E75-390  E390-600 meanincut   meanout   cut/out  STD-NORM  SPEC-MAX   GL-MEAN    GL-VAR      CORR   ENTROPY   HOMOGEN    ENERGY  CONTRAST  DISSIMIL     STD-O    E 1-30 E600-2000   E2000 >      GODA  LONG-HIG     Tmean  CONVOLUT  MEAN-DIR  relation     Sy/Sx  SKEWNESS  KURTOSIS  cutoff-A >50/10000     INT*V   INT-LOG  S-1_g1f1  S-2_g1f2  S-3_g1f3  S-4_g2f1  S-5_g2f2  S-6_g2f3  S-7_g3f1  S-8_g3f2  S-9_g3f3 S-10_g1f4 S-11_g2f4 S-12_g3f4 S-13_g1f5 S-14_g2f5 S-15_g3f5 S-16_g4f1 S-17_g4f2 S-18_g4f3 S-19_g4f4 S-20_g4f5
--------------1--------------2---------3---------4---------5---------6---------7---------8---------9--------10--------11--------12--------13--------14--------15--------16--------17--------18--------19--------20------------------21--------22--------23--------24--------25--------26--------27--------28--------29--------30--------31--------32--------33--------34--------35--------36--------37--------38--------39--------40--------41--------42--------43--------44--------45--------46--------47--------48--------49--------50--------51--------52--------53--------54--------55--------56--------57--------58--------59--------60--------61--------62--------63--------64--------65--------66--------67--------68--------69--------70--------71--------72--------73--------74
     -55.006687    -142.419968     245.1      1.73      3.18     110.4         1         1      1000      1000   5188.75    -2.849      13.4      22.4   252.866     0.869     106.6   0.23298      64.2         H               343.3  0.125624  0.059179  0.001361  6.143796  1.109897  5.535466  1.321968     65.03    9.6069  138.7182   0.29454   6.49758   0.16366   0.00386 195.72202   9.26429    6858.4  0.682559  0.001246  0.000051  0.000282  0.170342  6.864993  0.915314     91.84  1.000261  1.000042     4.738    67.393     124.8      92.4     338.5    1072.9     13.12     -2.19      5.15      2.48     -0.58      3.53     -0.83      2.01     -1.58     -3.82     -0.10      2.23      0.96      0.73      0.70     -4.44     -1.24      4.05      0.67      0.51
     -54.987942    -142.330429     260.3      1.72      3.18     111.7         1         2      1000      2566   4776.54    -3.209      13.5      22.9   251.682     0.860      87.1   0.22805     102.4         H               343.3  0.123476  0.059388  0.001295  6.217123  1.093911  5.683389  1.313933     51.62    8.8537  121.8860   0.29376   6.35362   0.17440   0.00450 172.16216   8.60900    6275.4  0.675131  0.000985  0.000024  0.000271  0.170331  6.894479  0.904320     91.25  1.000265  1.000042     4.333    43.829     124.8      91.5     283.7     971.5     13.17     -2.00      5.15      2.34     -0.01      3.59     -0.78      1.17     -1.52     -3.10     -0.29      2.16      1.42      1.12      0.46     -4.64      0.38      4.21     -0.19      0.73
     -54.969490    -142.242661     249.7      1.60      3.18     107.2         1         3      1000      4132   4506.24    -3.462      13.9      23.4   244.024     0.819      91.4   0.21002      71.3         H               343.3  0.115094  0.053509  0.001342  5.588702  1.054262  5.301055  1.282324     41.92    8.3814  110.1276   0.28664   6.26249   0.18000   0.00491 157.12068   8.20038    5778.4  0.648123  0.001183  0.000033  0.000274  0.169450  6.864132  0.859376     90.29  1.000259  1.000038     3.902    33.716     124.8      91.0     243.8     842.7     12.82     -1.60      4.61      2.68     -0.73      3.87     -0.14      1.31     -0.67     -3.14     -0.51      1.46      1.10      1.46      0.71     -4.69     -1.21      3.97      0.70      1.53
     -54.955719    -142.451355     215.5      1.67      3.18     110.9         2         1      2454      1000   5199.82    -2.840      13.5      22.4   247.576     0.843      96.5   0.22188      39.3         H               343.3  0.120439  0.056019  0.001358  5.929698  1.090298  5.438601  1.300679     37.11    9.6497  138.2085   0.29000   6.51168   0.16215   0.00374 196.25694   9.29469    6762.2  0.664424  0.001232  0.000037  0.000264  0.171233  6.878315  0.886252     91.42  1.000264  1.000043     4.449    57.149     121.0      92.7     333.3    1051.9     12.93     -1.59      4.29      2.46      0.11      3.95     -0.31      1.01     -0.42     -1.78     -0.40      1.34      1.10      1.15      0.71     -4.69      0.48      4.21     -0.24      1.22
     -54.936993    -142.361923     260.3      1.74      3.18     111.7         2         2      2454      2566   4895.78    -3.102      13.9      22.9   248.310     0.845      97.0   0.22215     102.4         H               343.3  0.119880  0.057453  0.001308  5.951864  1.070355  5.560644  1.304343     47.55    9.0861  126.2131   0.29171   6.40267   0.17018   0.00426 178.79111   8.81362    6385.0  0.665877  0.001157  0.000034  0.000263  0.173137  6.885151  0.888343     91.17  1.000286  1.000044     4.305    45.307     124.8      91.9     295.1    1011.9     13.05     -2.39      5.17      2.53     -0.39      3.54     -0.26      1.60     -0.66     -3.24     -0.26      1.72      0.49      1.34      1.06     -4.56     -0.56      3.52      0.25      1.15
     -54.918564    -142.274277     231.5      1.76      3.18     109.2         2         3      2454      4132   4622.28    -3.351      14.3      23.4   247.457     0.840     113.8   0.22108      50.2         H               343.3  0.119167  0.057239  0.001421  5.939546  1.084040  5.479085  1.298364     44.43    8.5928  115.1132   0.29203   6.30454   0.17709   0.00470 162.99225   8.36896    6001.3  0.661115  0.001519  0.000045  0.000264  0.173044  6.883738  0.882712     92.20  1.000266  1.000041     4.356    52.003     121.0      91.3     261.4     952.4     12.97     -2.08      5.02      2.60     -0.45      4.09     -0.14      1.25     -1.16     -3.44     -0.41      1.63      1.43      1.09      0.54     -4.66     -0.46      4.92      0.28      0.59
     -54.904739    -142.482681     245.1      1.74      3.18     110.4         3         1      3908      1000   5305.75    -2.753      13.8      22.4   254.949     0.880     100.8   0.23908      64.2         H               343.3  0.130510  0.059100  0.001586  6.028307  1.139650  5.289614  1.329485     58.60    9.8203  143.2461   0.29365   6.53643   0.16063   0.00366 202.36292   9.44649    7053.2  0.688164  0.001350  0.000030  0.000275  0.171000  6.843493  0.926420     91.66  1.000266  1.000042     4.888    66.804     121.0      92.8     357.7    1106.6     13.18     -1.39      4.96      2.25     -0.08      3.34     -0.86      1.28     -1.63     -3.20      0.22      2.22      1.40      1.02      0.22     -5.36      0.02      3.66      0.83      0.47
     -54.886040    -142.393356     257.0      1.69      3.18     100.5         3         2      3908      2566   4983.50    -3.025      14.2      22.9   250.810     0.852      90.5   0.22437      88.3         H               343.3  0.122515  0.055387  0.001341  5.833302  1.125640  5.182211  1.309026     31.09    9.2433  128.6612   0.28574   6.43816   0.16714   0.00407 183.79543   8.96220    6523.4  0.671672  0.001219  0.000027  0.000281  0.167599  6.843854  0.895358     92.20  1.000279  1.000043     5.102    96.809     121.0      92.2     305.2    1061.4     12.86     -0.71      4.12      2.49     -0.30      3.80     -0.08      0.67     -0.63     -1.67     -0.10      0.69      1.59      1.06      0.45     -4.99     -0.82      4.21      0.44      0.43
     -54.867634    -142.305817     238.7      1.60      3.18     103.1         3         3      3908      4132   4627.65    -3.346      14.3      23.4   241.385     0.808      88.0   0.20600      56.9         H               343.3  0.112973  0.051389  0.001408  5.445024  1.034030  5.265828  1.274044     40.00    8.6160  114.1998   0.28411   6.31613   0.17526   0.00461 163.50897   8.41090    5895.8  0.641530  0.001166  0.000028  0.000265  0.172237  6.871028  0.847586     94.06  1.000262  1.000038     3.885    34.067     121.0      91.4     255.4     842.2     13.27     -2.54      4.95      2.10     -0.21      3.58     -0.77      1.21     -1.79     -3.30     -0.58      1.74      1.06      1.11      0.80     -5.74      0.45      4.51     -0.27      0.55
