corner points
-156.3387909    -8.445209503
-156.3778687    -8.270210266
-156.1624146    -8.405566216
-156.2015991    -8.23061657
========== RESULTS WAVE VERSION 16.10.2018 ====================
IMAGE SIZE  X: 4376     Y:4787    col:row     POLARIZATION:VV
COVERAGE    X: 19.84839626km       Y: 19.88233279km 
RESOLUTION dX: 4.535739548m       dY:4.153401461m  
resolution of original product 4.535739548m x 4.153401461m;   raster step x:5996.247683m  
===============================================================
FLAGS: H=HIGH PROBABILITY SEA STATE, I=LAND(ISLAND), O=OUTLIER NO SEA STATE, N=NO WIND AVAILABLE, SEA STATE NOT VISIBLE, M=MEAN PROBABILITY SEA STATE, L= LOW PROBABILITY SEA STATE
Filtering wave length
 integration  Lmin=1m
 integration  Lmax=2200m
  peak        Lmin=100m
               FFT=1024pixels, 4644.597297m 
   mean-Hs (SWH_c)=0.9751223755m
         mean-wind=13.4942379m/s
--------------0--------------1---------2---------3---------4---------5---------6---------7---------8---------9--------10--------11--------12--------13--------14--------15--------16--------17--------18--------19------------------20--------21--------22--------23--------24--------25--------26--------27--------28--------29--------30--------31--------32--------33--------34--------35--------36--------37--------38--------39--------40--------41--------42--------43--------44--------45--------46--------47--------48--------49--------50--------51--------52--------53--------54--------55--------56--------57--------58--------59--------60--------61--------62--------63--------64--------65--------66--------67--------68--------69--------70--------71--------72--------73
            LAT            LON  P-LENGHT     SWH_o     SWH_c     P-DIR      LINE     POINT     ROW-Y     COL-X  M-INTENC        dB      WIND INC-ANGLE  ENERGY-M  ENERGY-N  ENERGY-R ENERGY-NN  FG-DEPTH      FLAG         HEADING-DEG    E30-75   E75-390  E390-600 meanincut   meanout   cut/out  STD-NORM  SPEC-MAX   GL-MEAN    GL-VAR      CORR   ENTROPY   HOMOGEN    ENERGY  CONTRAST  DISSIMIL     STD-O    E 1-30 E600-2000   E2000 >      GODA  LONG-HIG     Tmean  CONVOLUT  MEAN-DIR  relation     Sy/Sx  SKEWNESS  KURTOSIS  cutoff-A >50/10000     INT*V   INT-LOG  S-1_g1f1  S-2_g1f2  S-3_g1f3  S-4_g2f1  S-5_g2f2  S-6_g2f3  S-7_g3f1  S-8_g3f2  S-9_g3f3 S-10_g1f4 S-11_g2f4 S-12_g3f4 S-13_g1f5 S-14_g2f5 S-15_g3f5 S-16_g4f1 S-17_g4f2 S-18_g4f3 S-19_g4f4 S-20_g4f5
--------------1--------------2---------3---------4---------5---------6---------7---------8---------9--------10--------11--------12--------13--------14--------15--------16--------17--------18--------19--------20------------------21--------22--------23--------24--------25--------26--------27--------28--------29--------30--------31--------32--------33--------34--------35--------36--------37--------38--------39--------40--------41--------42--------43--------44--------45--------46--------47--------48--------49--------50--------51--------52--------53--------54--------55--------56--------57--------58--------59--------60--------61--------62--------63--------64--------65--------66--------67--------68--------69--------70--------71--------72--------73--------74
      -8.399493    -156.306198     112.8      0.98      2.13      76.2         1         1      1000      1000    553.19   -12.571      13.3      36.8   224.270     0.572     106.0   0.08011       8.2         H               348.0  0.052281  0.016375  0.000590  1.651513  0.703842  2.346426  1.073267      4.97   10.4852  128.9137   0.12002   6.75503   0.12969   0.00235 226.88448  10.55762     593.7  0.501188  0.001646  0.000236  0.000122  0.159149  6.773427  0.578301     81.59  1.000129  1.000011     2.458    13.668      94.9      95.1     296.9     674.0     11.13     -0.64     -1.27      1.86     -0.27      2.11      2.55      0.76      0.29     -0.03      0.43     -0.35     -0.64     -0.41      1.29     -7.24     -0.83      5.64      2.01     -0.83
      -8.387480    -156.252731     100.3      0.98      2.13      76.4         1         2      1000      2322    548.17   -12.611      13.6      37.2   222.641     0.566      84.9   0.07913       6.4         H               348.0  0.051446  0.016028  0.000579  1.607961  0.708456  2.269669  1.067640      6.87   10.3938  125.9762   0.11858   6.74044   0.13039   0.00238 222.07678  10.45641     585.2  0.496777  0.001341  0.000177  0.000122  0.158461  6.773206  0.571693     81.99  1.000121  1.000010     2.410    12.654      94.9      95.0     289.6     604.6     11.01     -0.33     -1.27      1.68     -0.07      2.01      2.67      1.49      0.05      0.08      0.71     -0.01     -0.83     -0.04      1.56     -7.24     -1.27      5.92      1.83     -0.49
      -8.375563    -156.199738     103.5      0.93      2.13      78.8         1         3      1000      3644    516.29   -12.871      13.3      37.5   222.667     0.565     109.2   0.07765       6.8         H               348.0  0.051129  0.016179  0.000558  1.642124  0.691416  2.375014  1.067153      6.96    9.7771  113.5810   0.11719   6.62980   0.13710   0.00268 200.54147   9.89433     551.0  0.495794  0.001583  0.000272  0.000126  0.156861  6.787536  0.571004     82.22  1.000128  1.000009     2.394    12.500      97.3      94.5     254.5     565.6     10.78     -0.18     -0.69      2.40      0.19      1.58      3.01      0.46      0.78      0.10      0.60      0.30     -0.36     -0.38      1.51     -6.74      0.15      3.65      0.99     -1.34
      -8.346697    -156.318008     111.4      1.02      2.13      79.4         2         1      2444      1000    564.82   -12.481      13.5      36.8   223.528     0.570      86.2   0.08032       8.0         H               348.0  0.052340  0.016496  0.000536  1.678505  0.701528  2.392642  1.071800      7.25   10.7084  133.3225   0.12098   6.79277   0.12713   0.00226 234.38568  10.75790     605.3  0.499884  0.001358  0.000195  0.000128  0.156838  6.774076  0.576613     82.03  1.000141  1.000010     2.427    12.810      97.3      95.3     309.8     629.6     10.81      0.14     -0.70      2.26     -0.39      1.81      2.93      0.99      0.54      0.06      0.47     -0.15     -0.62      0.12      1.13     -6.42     -2.10      4.23      1.75      0.27
      -8.334688    -156.264542     101.8      1.00      2.13      80.4         2         2      2444      2322    547.60   -12.615      13.6      37.2   223.829     0.570      79.9   0.07898       6.6         H               348.0  0.051680  0.016257  0.000620  1.630352  0.704965  2.312670  1.070779      7.87   10.3810  126.2286   0.11771   6.73741   0.13049   0.00239 222.73941  10.46458     586.4  0.499789  0.001355  0.000143  0.000125  0.158905  6.778553  0.575338     83.14  1.000132  1.000010     2.430    12.925      94.9      94.9     289.9     622.2     11.03     -0.19     -1.28      1.72     -0.11      2.17      3.00      1.10      0.43      0.15      0.59     -0.09     -0.28     -0.22      1.19     -7.87     -0.88      5.58      1.81     -0.40
      -8.322776    -156.211548     100.3      1.01      2.13      76.4         2         3      2444      3644    540.37   -12.673      13.7      37.5   223.642     0.568      91.1   0.07864       6.4         H               348.0  0.051561  0.016241  0.000535  1.614686  0.699851  2.307186  1.069716      5.74   10.2403  122.9983   0.11729   6.71321   0.13179   0.00245 217.14346  10.33024     578.0  0.498506  0.001418  0.000185  0.000125  0.158169  6.769792  0.573811     82.85  1.000125  1.000010     2.448    13.619      97.3      94.9     281.1     641.0     10.94     -0.35     -1.21      1.98     -0.09      1.65      2.70      0.98      0.73     -0.11      0.48     -0.17     -0.68     -0.13      1.32     -6.63     -0.89      4.14      1.69     -0.46
      -8.293900    -156.329803     109.5      0.99      2.13      75.1         3         1      3888      1000    570.04   -12.441      13.6      36.8   223.951     0.572      96.8   0.08101       7.7         H               348.0  0.053159  0.015896  0.000618  1.596039  0.709932  2.248158  1.073243      6.97   10.8065  135.5399   0.12106   6.80872   0.12607   0.00222 238.26147  10.85419     611.8  0.500900  0.001630  0.000200  0.000124  0.158047  6.767988  0.578175     82.83  1.000137  1.000011     2.445    13.118      97.3      95.3     316.4     655.5     10.93      0.13     -0.73      1.87     -0.22      1.93      3.27      1.07      0.33     -0.05      0.73     -0.15     -0.48     -0.08      1.14     -7.67     -1.64      4.72      1.90     -0.02
      -8.281897    -156.276352     104.0      0.95      2.13      80.1         3         2      3888      2322    541.69   -12.663      13.5      37.2   223.061     0.567      94.3   0.07924       6.9         H               348.0  0.051655  0.015950  0.000673  1.618109  0.696206  2.324179  1.068929      7.19   10.2689  123.7395   0.11926   6.71829   0.13171   0.00244 217.96484  10.34240     579.0  0.497814  0.001487  0.000220  0.000127  0.157369  6.762488  0.573426     82.00  1.000142  1.000010     2.416    12.801      97.3      94.9     282.6     604.6     11.09     -0.00     -0.70      1.57     -0.17      1.98      3.27      1.20      0.57     -0.43      0.97     -0.36     -0.23     -0.17      1.64     -8.52     -1.78      4.69      3.56     -0.93
      -8.269988    -156.223358     116.0      0.93      2.13      67.5         3         3      3888      3644    524.13   -12.806      13.4      37.5   223.417     0.567     103.3   0.07841       8.7         H               348.0  0.051806  0.015915  0.000568  1.604363  0.694406  2.310412  1.068963      6.61    9.9291  117.0189   0.11781   6.65756   0.13560   0.00261 206.46638  10.04098     560.2  0.497640  0.001380  0.000302  0.000132  0.157459  6.755411  0.573013     83.59  1.000146  1.000011     2.398    12.462      97.3      94.6     263.4     574.9     10.96     -0.16     -0.81      1.91     -0.18      1.61      2.87      1.37      0.80     -0.07      0.52      0.02     -0.94      0.02      1.31     -7.06     -1.42      3.70      1.96      0.31
