corner points
-149.1832428    -34.77807999
-149.2415771    -34.60613251
-148.9711151    -34.72780609
-149.0299225    -34.55596542
========== RESULTS WAVE VERSION 16.10.2018 ====================
IMAGE SIZE  X: 4376     Y:4777    col:row     POLARIZATION:VV
COVERAGE    X: 20.12185691km       Y: 19.80577052km 
RESOLUTION dX: 4.598230556m       dY:4.146068771m  
resolution of original product 4.598230556m x 4.146068771m;   raster step x:5996.092645m  
===============================================================
FLAGS: H=HIGH PROBABILITY SEA STATE, I=LAND(ISLAND), O=OUTLIER NO SEA STATE, N=NO WIND AVAILABLE, SEA STATE NOT VISIBLE, M=MEAN PROBABILITY SEA STATE, L= LOW PROBABILITY SEA STATE
Filtering wave length
 integration  Lmin=1m
 integration  Lmax=2200m
  peak        Lmin=100m
               FFT=1024pixels, 4708.58809m 
   mean-Hs (SWH_c)=1.25437973m
         mean-wind=15.09567928m/s
--------------0--------------1---------2---------3---------4---------5---------6---------7---------8---------9--------10--------11--------12--------13--------14--------15--------16--------17--------18--------19------------------20--------21--------22--------23--------24--------25--------26--------27--------28--------29--------30--------31--------32--------33--------34--------35--------36--------37--------38--------39--------40--------41--------42--------43--------44--------45--------46--------47--------48--------49--------50--------51--------52--------53--------54--------55--------56--------57--------58--------59--------60--------61--------62--------63--------64--------65--------66--------67--------68--------69--------70--------71--------72--------73
            LAT            LON  P-LENGHT     SWH_o     SWH_c     P-DIR      LINE     POINT     ROW-Y     COL-X  M-INTENC        dB      WIND INC-ANGLE  ENERGY-M  ENERGY-N  ENERGY-R ENERGY-NN  FG-DEPTH      FLAG         HEADING-DEG    E30-75   E75-390  E390-600 meanincut   meanout   cut/out  STD-NORM  SPEC-MAX   GL-MEAN    GL-VAR      CORR   ENTROPY   HOMOGEN    ENERGY  CONTRAST  DISSIMIL     STD-O    E 1-30 E600-2000   E2000 >      GODA  LONG-HIG     Tmean  CONVOLUT  MEAN-DIR  relation     Sy/Sx  SKEWNESS  KURTOSIS  cutoff-A >50/10000     INT*V   INT-LOG  S-1_g1f1  S-2_g1f2  S-3_g1f3  S-4_g2f1  S-5_g2f2  S-6_g2f3  S-7_g3f1  S-8_g3f2  S-9_g3f3 S-10_g1f4 S-11_g2f4 S-12_g3f4 S-13_g1f5 S-14_g2f5 S-15_g3f5 S-16_g4f1 S-17_g4f2 S-18_g4f3 S-19_g4f4 S-20_g4f5
--------------1--------------2---------3---------4---------5---------6---------7---------8---------9--------10--------11--------12--------13--------14--------15--------16--------17--------18--------19--------20------------------21--------22--------23--------24--------25--------26--------27--------28--------29--------30--------31--------32--------33--------34--------35--------36--------37--------38--------39--------40--------41--------42--------43--------44--------45--------46--------47--------48--------49--------50--------51--------52--------53--------54--------55--------56--------57--------58--------59--------60--------61--------62--------63--------64--------65--------66--------67--------68--------69--------70--------71--------72--------73--------74
     -34.730492    -149.146423     210.7      1.24      2.19     147.5         1         1      1000      1000    716.78   -11.446      15.0      36.2   257.336     0.568      63.0   0.08201      36.7         H               346.9  0.053997  0.014376  0.000575  1.381152  0.713318  1.936236  1.068751      5.57   13.5465  193.9463   0.12029   7.19586   0.10402   0.00141 341.23322  13.28773     766.0  0.497670  0.001171  0.000086  0.000139  0.159640  6.681152  0.571930     84.70  1.000124  1.000010     2.442    13.641      92.7      97.2     508.2     860.3     11.37     -0.33     -1.47      1.63     -0.04      1.94      1.72      0.53     -0.23      0.92      0.40     -0.70     -0.62     -0.01      1.89     -8.01     -0.12      4.86      0.78     -1.19
     -34.715477    -149.083008     201.9      1.26      2.19     154.6         1         2      1000      2304    708.85   -11.494      15.2      36.6   257.098     0.567      50.9   0.08245      32.4         H               346.9  0.054150  0.014542  0.000532  1.374318  0.725642  1.893934  1.067900      5.01   13.4043  190.4452   0.12135   7.17913   0.10527   0.00144 334.67133  13.14334     757.0  0.496661  0.000985  0.000055  0.000146  0.160302  6.671727  0.570838     83.80  1.000120  1.000010     2.418    12.789      88.6      97.2     496.6     800.9     11.34     -0.61     -1.57      1.66     -0.40      1.52      1.45      0.98     -0.23      0.40      0.09     -0.80     -0.58     -0.38      1.80     -7.48     -1.08      4.67      1.07     -1.93
     -34.700558    -149.020157     325.8      1.25      2.19       4.0         1         3      1000      3608    699.22   -11.554      15.3      36.9   257.609     0.567     103.2   0.08229     100.0         H               346.9  0.054448  0.014231  0.000503  1.350957  0.727954  1.855826  1.068826      4.99   13.2285  187.3016   0.12158   7.15664   0.10630   0.00148 329.05884  13.01064     747.4  0.496454  0.001513  0.000225  0.000148  0.157178  6.657681  0.571404     83.84  1.000117  1.000010     2.401    12.526      90.6      97.0     483.1     767.1     11.37      0.47     -1.01      1.73     -0.70      1.85      1.78      0.45      0.07      0.23      0.61     -0.77      0.21     -0.10      1.44     -7.12     -1.86      3.76      1.59     -1.55
     -34.678406    -149.164139     380.9      1.28      2.19       9.3         2         1      2447      1000    728.31   -11.377      15.1      36.2   256.564     0.566      61.2   0.08198     100.0         H               346.9  0.053587  0.014459  0.000622  1.371132  0.706722  1.940129  1.067113      5.88   13.7586  198.7104   0.12029   7.22021   0.10275   0.00137 349.61469  13.47216     777.2  0.496300  0.001023  0.000093  0.000132  0.159838  6.679645  0.570022     84.09  1.000126  1.000009     2.398    12.656      90.6      97.3     524.9     814.1     11.48      0.31     -1.91      1.12     -0.83      2.22      1.82      1.24     -0.81      0.08      0.83     -1.15      0.08     -0.48      1.44     -8.72     -2.97      6.48      3.21     -1.72
     -34.663399    -149.100754     205.6      1.25      2.19     145.4         2         2      2447      2304    698.49   -11.558      15.0      36.6   255.520     0.561      46.1   0.08019      34.1         H               346.9  0.053264  0.014681  0.000515  1.370235  0.716684  1.911910  1.062380      5.83   13.2260  186.1874   0.11986   7.15825   0.10644   0.00147 327.74451  12.98945     742.1  0.491912  0.000733  0.000059  0.000130  0.160609  6.696373  0.565157     83.90  1.000118  1.000009     2.345    11.868      86.6      97.1     478.7     747.4     11.46     -0.50     -2.32      1.33     -0.34      1.79      1.03      1.25     -0.25      0.20      0.44     -0.78     -0.36     -0.46      1.73     -7.31     -1.20      4.72      1.86     -1.57
     -34.648491    -149.037964     374.8      1.20      2.19      13.8         2         3      2447      3608    689.83   -11.613      15.2      36.9   255.342     0.563      60.1   0.08074     100.0         H               346.9  0.053906  0.013876  0.000547  1.333985  0.717468  1.859295  1.064327      6.11   13.0642  182.9505   0.12031   7.13817   0.10741   0.00151 321.88049  12.85528     734.2  0.493529  0.000934  0.000104  0.000137  0.157079  6.658850  0.566967     84.87  1.000140  1.000010     2.379    12.465      90.6      97.0     467.7     773.4     11.28      0.25     -1.49      1.60     -0.78      2.06      2.10      1.11     -0.45      0.14      1.18     -0.86     -0.13     -0.35      1.27     -7.93     -2.86      5.45      3.11     -1.45
     -34.626316    -149.181839     210.7      1.29      2.19     147.5         3         1      3894      1000    714.24   -11.462      14.9      36.2   255.855     0.564      55.6   0.08160      36.7         H               346.9  0.052545  0.014999  0.000546  1.419522  0.717001  1.979805  1.065120      7.05   13.5062  192.8316   0.12005   7.19101   0.10421   0.00141 339.36584  13.24544     760.7  0.494938  0.000999  0.000068  0.000127  0.161651  6.715065  0.567976     83.43  1.000106  1.000009     2.371    12.104      88.6      97.2     502.8     753.5     11.47      0.39     -2.04      1.32     -0.64      1.65      1.20      0.91     -0.33      0.46      0.87     -1.27     -0.89     -0.44      1.79     -7.59     -2.60      5.21      2.92     -1.16
     -34.611320    -149.118500     210.9      1.24      2.19     153.4         3         2      3894      2304    686.30   -11.635      14.9      36.6   256.608     0.564      56.1   0.08089      36.8         H               346.9  0.053279  0.014945  0.000489  1.405769  0.724045  1.941549  1.065130      7.84   12.9970  181.2165   0.11931   7.12878   0.10780   0.00153 319.19073  12.79573     731.0  0.494249  0.001055  0.000065  0.000142  0.161403  6.692340  0.567895     83.31  1.000095  1.000008     2.394    12.544      88.6      97.0     462.8     767.2     11.66     -0.06     -2.01      1.32     -0.59      2.13      0.84      0.87     -0.33      0.43      0.79     -0.87     -0.15     -0.58      1.59     -7.25     -1.63      5.55      2.09     -1.89
     -34.596424    -149.055740     210.7      1.27      2.19     147.5         3         3      3894      3608    689.82   -11.613      15.2      36.9   255.315     0.560      55.1   0.08013      36.7         H               346.9  0.052204  0.014517  0.000527  1.388201  0.710404  1.954100  1.062008      6.24   13.0657  182.3545   0.11840   7.13897   0.10712   0.00151 321.52985  12.85724     732.6  0.492149  0.001001  0.000068  0.000129  0.160235  6.700696  0.564013     84.22  1.000095  1.000008     2.363    12.125      84.8      97.0     466.0     738.9     11.36     -0.39     -1.73      1.37     -0.34      1.92      1.77      1.18     -0.22      0.77      0.32     -0.80     -0.81     -0.14      1.66     -7.65     -1.52      5.20      1.11     -1.00
