corner points
-140.3149261    -53.61181641
-140.4238586    -53.44633484
-140.0284424    -53.54348755
-140.138382    -53.37825775
========== RESULTS WAVE VERSION 16.10.2018 ====================
IMAGE SIZE  X: 4376     Y:4772    col:row     POLARIZATION:VV
COVERAGE    X: 20.33520598km       Y: 19.71631468km 
RESOLUTION dX: 4.646984914m       dY:4.131666949m  
resolution of original product 4.646984914m x 4.131666949m;   raster step x:5999.257524m  
===============================================================
FLAGS: H=HIGH PROBABILITY SEA STATE, I=LAND(ISLAND), O=OUTLIER NO SEA STATE, N=NO WIND AVAILABLE, SEA STATE NOT VISIBLE, M=MEAN PROBABILITY SEA STATE, L= LOW PROBABILITY SEA STATE
Filtering wave length
 integration  Lmin=1m
 integration  Lmax=2200m
  peak        Lmin=100m
               FFT=1024pixels, 4758.512552m 
   mean-Hs (SWH_c)=2.110742798m
         mean-wind=13.99464989m/s
--------------0--------------1---------2---------3---------4---------5---------6---------7---------8---------9--------10--------11--------12--------13--------14--------15--------16--------17--------18--------19------------------20--------21--------22--------23--------24--------25--------26--------27--------28--------29--------30--------31--------32--------33--------34--------35--------36--------37--------38--------39--------40--------41--------42--------43--------44--------45--------46--------47--------48--------49--------50--------51--------52--------53--------54--------55--------56--------57--------58--------59--------60--------61--------62--------63--------64--------65--------66--------67--------68--------69--------70--------71--------72--------73
            LAT            LON  P-LENGHT     SWH_o     SWH_c     P-DIR      LINE     POINT     ROW-Y     COL-X  M-INTENC        dB      WIND INC-ANGLE  ENERGY-M  ENERGY-N  ENERGY-R ENERGY-NN  FG-DEPTH      FLAG         HEADING-DEG    E30-75   E75-390  E390-600 meanincut   meanout   cut/out  STD-NORM  SPEC-MAX   GL-MEAN    GL-VAR      CORR   ENTROPY   HOMOGEN    ENERGY  CONTRAST  DISSIMIL     STD-O    E 1-30 E600-2000   E2000 >      GODA  LONG-HIG     Tmean  CONVOLUT  MEAN-DIR  relation     Sy/Sx  SKEWNESS  KURTOSIS  cutoff-A >50/10000     INT*V   INT-LOG  S-1_g1f1  S-2_g1f2  S-3_g1f3  S-4_g2f1  S-5_g2f2  S-6_g2f3  S-7_g3f1  S-8_g3f2  S-9_g3f3 S-10_g1f4 S-11_g2f4 S-12_g3f4 S-13_g1f5 S-14_g2f5 S-15_g3f5 S-16_g4f1 S-17_g4f2 S-18_g4f3 S-19_g4f4 S-20_g4f5
--------------1--------------2---------3---------4---------5---------6---------7---------8---------9--------10--------11--------12--------13--------14--------15--------16--------17--------18--------19--------20------------------21--------22--------23--------24--------25--------26--------27--------28--------29--------30--------31--------32--------33--------34--------35--------36--------37--------38--------39--------40--------41--------42--------43--------44--------45--------46--------47--------48--------49--------50--------51--------52--------53--------54--------55--------56--------57--------58--------59--------60--------61--------62--------63--------64--------65--------66--------67--------68--------69--------70--------71--------72--------73--------74
     -53.561409    -140.271530     243.7      2.02      3.06     103.3         1         1      1000      1000    663.05   -11.785      13.9      35.7   294.431     0.582      68.4   0.08666      62.5         H               343.6  0.052097  0.027887  0.000642  2.652975  0.729802  3.635199  1.082564     49.91   12.5447  175.2956   0.13324   7.06171   0.11301   0.00169 303.87857  12.38864     717.8  0.500953  0.000839  0.000099  0.000158  0.192219  7.080786  0.587437    103.58  1.000102  1.000008     2.444    12.747     107.8      96.5     438.8     733.0     13.02     -4.19      6.79      2.81     -0.81      3.40     -0.86      1.74     -2.83     -6.23     -1.44      2.49      3.37      0.95     -0.41     -3.61     -0.36      4.32     -0.97     -0.24
     -53.541210    -140.186707     280.6      1.91      3.06     109.4         1         2      1000      2291    611.02   -12.139      13.6      36.1   292.385     0.579      78.4   0.08652     100.0         H               343.6  0.051892  0.027863  0.000573  2.706488  0.728696  3.714152  1.079943     41.66   11.5800  153.5940   0.13524   6.92652   0.12098   0.00198 265.64420  11.49267     659.8  0.498228  0.000930  0.000131  0.000147  0.193953  7.069332  0.584775    101.49  1.000119  1.000008     2.450    12.964     105.0      95.8     368.7     694.9     13.34     -4.10      6.79      2.18     -0.35      3.07     -1.32      1.92     -2.59     -6.17     -0.66      2.62      3.52      0.90     -0.27     -3.69      0.08      3.80      0.23     -0.08
     -53.521137    -140.102737     286.3      1.98      3.06     105.7         1         3      1000      3582    609.24   -12.152      13.9      36.5   292.078     0.577     101.0   0.08575     100.0         H               343.6  0.050953  0.027939  0.000636  2.768607  0.717243  3.860070  1.078049     37.69   11.5489  152.5457   0.13355   6.92251   0.12092   0.00198 264.34921  11.47584     656.8  0.496514  0.001091  0.000220  0.000155  0.192526  7.091866  0.582115    102.43  1.000092  1.000007     2.447    13.190     105.0      95.8     365.9     716.8     12.95     -4.48      6.44      2.22     -0.89      2.92     -0.11      1.23     -1.69     -6.35     -1.25      1.37      2.93      0.71      0.02     -3.84     -0.53      3.98     -0.37      0.07
     -53.511066    -140.304794     260.2      2.21      3.06     111.7         2         1      2452      1000    674.94   -11.707      14.1      35.7   292.226     0.582      64.0   0.08789     101.9         H               343.6  0.051827  0.030076  0.000708  2.761874  0.722019  3.825208  1.081989     58.62   12.7644  179.7794   0.13782   7.09171   0.11169   0.00163 310.00296  12.53407     730.3  0.498564  0.000707  0.000077  0.000168  0.202143  7.149299  0.587768    104.92  1.000117  1.000011     2.458    13.002     114.0      96.7     455.4     755.1     13.84     -5.96      7.74      1.95     -0.55      2.87     -2.02      2.57     -3.59     -8.29     -1.39      3.45      2.77      0.77     -0.09     -4.42      0.51      3.48     -0.05     -0.53
     -53.490894    -140.220062     270.6      2.04      3.06     104.8         2         2      2452      2291    634.05   -11.979      13.9      36.1   292.381     0.581      76.5   0.08771     100.0         H               343.6  0.052139  0.028697  0.000744  2.712684  0.731512  3.708327  1.081513     44.02   12.0080  163.1817   0.13678   6.98848   0.11738   0.00184 281.72119  11.87600     685.7  0.498606  0.001042  0.000103  0.000167  0.195426  7.099267  0.586712    102.79  1.000119  1.000010     2.446    12.810     110.8      96.2     399.4     719.5     13.07     -5.14      6.79      2.34     -1.06      3.27     -0.47      1.95     -2.01     -7.22     -1.48      2.24      2.59      1.37      0.58     -4.29     -0.53      4.11     -0.36      0.71
     -53.470840    -140.136169     252.3      2.24      3.06     107.4         2         3      2452      3582    633.59   -11.982      14.2      36.5   293.736     0.586      74.0   0.08985      76.2         H               343.6  0.052733  0.031128  0.000590  2.681796  0.738333  3.632229  1.085808     80.86   11.9946  163.6217   0.14001   6.98442   0.11756   0.00186 281.42377  11.86155     688.0  0.500730  0.000857  0.000098  0.000183  0.203344  7.135812  0.592221    104.81  1.000112  1.000011     2.477    13.210     114.0      96.1     400.5     732.2     14.02     -6.11      8.58      1.74     -0.21      2.17     -2.91      2.82     -4.49     -8.73     -0.62      4.28      3.68      0.83     -1.07     -3.50      0.77      2.99      0.11      0.53
     -53.460716    -140.337967     236.0      2.20      3.06     109.6         3         1      3904      1000    681.04   -11.668      14.1      35.7   293.942     0.585      73.9   0.08913      54.2         H               343.6  0.053080  0.030043  0.000561  2.829523  0.737936  3.834376  1.085341     54.12   12.8709  182.7376   0.13774   7.10304   0.11099   0.00161 315.13446  12.64493     739.2  0.500762  0.000952  0.000108  0.000178  0.196319  7.105953  0.591473    101.94  1.000110  1.000010     2.473    13.103     114.0      96.7     465.6     772.1     13.31     -5.56      7.39      2.78     -0.95      3.25     -1.60      2.15     -2.57     -7.43     -2.10      2.79      2.39      1.36      0.29     -2.73      0.33      3.58     -1.31      1.06
     -53.440563    -140.253326     265.7      2.15      3.06     108.3         3         2      3904      2291    639.34   -11.943      14.0      36.1   295.931     0.588      89.1   0.08947     100.0         H               343.6  0.052982  0.030344  0.000727  2.771728  0.746037  3.715267  1.088409     67.25   12.0965  166.1783   0.13874   6.99784   0.11679   0.00183 286.24268  11.96847     695.9  0.503427  0.001143  0.000133  0.000183  0.197626  7.117051  0.594657    105.39  1.000093  1.000008     2.496    13.342     117.4      96.1     409.3     710.8     13.79     -6.28      7.42      1.22     -0.13      2.21     -1.56      2.56     -3.25     -8.62     -0.53      3.33      2.44      0.47      0.45     -4.86      0.57      3.70      0.27     -0.87
     -53.420536    -140.169540     240.1      2.24      3.06     106.5         3         3      3904      3582    640.27   -11.936      14.3      36.5   293.956     0.585      80.5   0.08852      58.3         H               343.6  0.052394  0.030734  0.000646  2.931022  0.716601  4.090173  1.085321     48.32   12.1190  166.0979   0.13923   7.00247   0.11692   0.00182 285.94153  11.97124     694.8  0.500521  0.001042  0.000120  0.000177  0.198542  7.132267  0.591589    104.20  1.000102  1.000009     2.479    13.220     114.0      96.2     409.4     732.1     13.12     -5.41      7.67      3.11     -1.32      3.69     -1.06      1.46     -2.40     -7.69     -2.34      2.13      2.93      1.34      0.30     -2.76     -0.08      4.37     -1.30      0.77
