corner points
-141.3900146    -51.93266296
-141.4911346    -51.76631927
-141.1131744    -51.86675644
-141.21521    -51.70064163
========== RESULTS WAVE VERSION 16.10.2018 ====================
IMAGE SIZE  X: 4376     Y:4770    col:row     POLARIZATION:VV
COVERAGE    X: 20.31241273km       Y: 19.71453028km 
RESOLUTION dX: 4.641776218m       dY:4.133025215m  
resolution of original product 4.641776218m x 4.133025215m;   raster step x:5997.174874m  
===============================================================
FLAGS: H=HIGH PROBABILITY SEA STATE, I=LAND(ISLAND), O=OUTLIER NO SEA STATE, N=NO WIND AVAILABLE, SEA STATE NOT VISIBLE, M=MEAN PROBABILITY SEA STATE, L= LOW PROBABILITY SEA STATE
Filtering wave length
 integration  Lmin=1m
 integration  Lmax=2200m
  peak        Lmin=100m
               FFT=1024pixels, 4753.178847m 
   mean-Hs (SWH_c)=1.186642151m
         mean-wind=12.81008339m/s
--------------0--------------1---------2---------3---------4---------5---------6---------7---------8---------9--------10--------11--------12--------13--------14--------15--------16--------17--------18--------19------------------20--------21--------22--------23--------24--------25--------26--------27--------28--------29--------30--------31--------32--------33--------34--------35--------36--------37--------38--------39--------40--------41--------42--------43--------44--------45--------46--------47--------48--------49--------50--------51--------52--------53--------54--------55--------56--------57--------58--------59--------60--------61--------62--------63--------64--------65--------66--------67--------68--------69--------70--------71--------72--------73
            LAT            LON  P-LENGHT     SWH_o     SWH_c     P-DIR      LINE     POINT     ROW-Y     COL-X  M-INTENC        dB      WIND INC-ANGLE  ENERGY-M  ENERGY-N  ENERGY-R ENERGY-NN  FG-DEPTH      FLAG         HEADING-DEG    E30-75   E75-390  E390-600 meanincut   meanout   cut/out  STD-NORM  SPEC-MAX   GL-MEAN    GL-VAR      CORR   ENTROPY   HOMOGEN    ENERGY  CONTRAST  DISSIMIL     STD-O    E 1-30 E600-2000   E2000 >      GODA  LONG-HIG     Tmean  CONVOLUT  MEAN-DIR  relation     Sy/Sx  SKEWNESS  KURTOSIS  cutoff-A >50/10000     INT*V   INT-LOG  S-1_g1f1  S-2_g1f2  S-3_g1f3  S-4_g2f1  S-5_g2f2  S-6_g2f3  S-7_g3f1  S-8_g3f2  S-9_g3f3 S-10_g1f4 S-11_g2f4 S-12_g3f4 S-13_g1f5 S-14_g2f5 S-15_g3f5 S-16_g4f1 S-17_g4f2 S-18_g4f3 S-19_g4f4 S-20_g4f5
--------------1--------------2---------3---------4---------5---------6---------7---------8---------9--------10--------11--------12--------13--------14--------15--------16--------17--------18--------19--------20------------------21--------22--------23--------24--------25--------26--------27--------28--------29--------30--------31--------32--------33--------34--------35--------36--------37--------38--------39--------40--------41--------42--------43--------44--------45--------46--------47--------48--------49--------50--------51--------52--------53--------54--------55--------56--------57--------58--------59--------60--------61--------62--------63--------64--------65--------66--------67--------68--------69--------70--------71--------72--------73--------74
     -51.882614    -141.347229     239.9      1.26      2.36     106.5         1         1      1000      1000    582.57   -12.347      12.9      35.8   286.304     0.564     176.1   0.07945      58.1         H               344.1  0.048008  0.019702  0.000722  1.927384  0.709923  2.714921  1.066332     19.90   11.0528  139.7738   0.12121   6.85015   0.12366   0.00211 245.66525  11.05239     621.2  0.492883  0.002696  0.000404  0.000112  0.182470  6.936218  0.567357    105.45  1.000033  1.000003     2.381    12.246      86.6      95.6     328.4     625.2     12.43     -3.10      2.75      1.16     -0.45      1.65      1.11      0.85     -1.08     -4.21     -0.43      1.16      0.32      0.05      0.10     -7.46     -0.34      3.13      0.02      0.36
     -51.863117    -141.265198     265.5      1.23      2.36     108.3         1         2      1000      2292    555.72   -12.551      12.9      36.1   284.473     0.559     105.6   0.07683     100.0         H               344.1  0.047456  0.019753  0.000635  1.940431  0.713294  2.720381  1.060593     16.89   10.5450  128.4047   0.11725   6.76797   0.12896   0.00231 226.69965  10.58384     589.3  0.489198  0.001680  0.000203  0.000121  0.181541  6.938740  0.561514    104.01  1.000070  1.000006     2.332    11.738      90.6      95.1     295.5     579.7     12.24     -3.31      2.95      1.52     -0.88      1.90      1.33      0.71     -0.52     -3.95     -0.73      0.17      0.07      0.08      0.44     -6.23     -0.89      3.08      0.22      0.30
     -51.843739    -141.183975     265.5      1.20      2.36     108.3         1         3      1000      3584    533.58   -12.728      12.8      36.5   284.319     0.558     117.0   0.07638     100.0         H               344.1  0.047402  0.019703  0.000678  1.952914  0.693189  2.817289  1.060647     27.10   10.1193  119.6724   0.11774   6.69399   0.13299   0.00250 211.16637  10.18943     565.9  0.488903  0.001743  0.000262  0.000113  0.184141  6.947855  0.561592    105.41  1.000043  1.000005     2.332    11.777      86.6      94.9     271.0     564.9     12.45     -3.65      3.43      1.37     -0.71      1.59      0.83      0.94     -1.33     -4.77     -0.49      0.70      0.29     -0.01      0.36     -6.52     -0.79      3.43      0.52     -0.26
     -51.832024    -141.378082     270.3      1.21      2.36     104.8         2         1      2451      1000    582.10   -12.350      12.9      35.8   284.089     0.558     131.3   0.07707     100.0         H               344.1  0.047862  0.019029  0.000634  1.886913  0.695948  2.711286  1.060444     25.14   11.0513  138.9062   0.11908   6.85218   0.12368   0.00211 244.72833  11.03917     617.3  0.488835  0.001860  0.000312  0.000115  0.181096  6.923059  0.561279    105.02  1.000048  1.000003     2.336    11.835      88.6      95.6     325.6     616.4     12.33     -3.74      3.02      1.51     -0.66      1.77      0.92      1.16     -1.02     -4.47     -0.59      0.79      0.55     -0.34      0.67     -6.31     -0.71      3.32      0.17     -1.01
     -51.812546    -141.296143     265.5      1.11      2.36     108.3         2         2      2451      2292    548.62   -12.607      12.8      36.1   283.661     0.555      76.0   0.07576     100.0         H               344.1  0.047859  0.018547  0.000567  1.814744  0.705365  2.572772  1.057204     17.95   10.4097  124.9740   0.11491   6.74588   0.12971   0.00236 221.22710  10.46323     579.9  0.487197  0.001122  0.000132  0.000111  0.180953  6.919196  0.557506    106.67  1.000053  1.000003     2.314    11.620      84.8      95.0     286.3     569.9     12.14     -3.62      2.56      2.00     -0.67      1.78      0.73      1.18     -0.93     -4.43     -0.62      0.88     -0.25     -0.05      0.63     -5.48     -0.78      3.28      0.38     -0.20
     -51.793186    -141.214996     265.5      1.23      2.36     108.3         2         3      2451      3584    563.84   -12.488      13.3      36.5   286.887     0.566     257.7   0.07934     100.0         H               344.1  0.048786  0.019134  0.000792  1.922014  0.716657  2.681915  1.068357     20.69   10.6968  132.9388   0.12258   6.79081   0.12757   0.00226 233.28497  10.72385     602.4  0.493023  0.003541  0.000698  0.000111  0.179539  6.913197  0.569268    105.42  1.000025  1.000003     2.366    11.934      92.7      95.4     307.2     592.9     12.23     -3.62      3.34      1.48     -0.58      1.63      1.63      0.80     -1.19     -4.60     -0.54      0.28      0.09     -0.21      1.21     -7.58     -0.58      2.91      0.99     -1.48
     -51.781422    -141.408875     265.5      1.18      2.36     108.3         3         1      3902      1000    566.56   -12.468      12.7      35.8   285.053     0.560     134.5   0.07666     100.0         H               344.1  0.048114  0.019322  0.000684  1.918970  0.716903  2.676749  1.062619     23.06   10.7496  132.6992   0.11769   6.80223   0.12686   0.00222 234.16473  10.77350     602.0  0.490388  0.001950  0.000338  0.000112  0.183944  6.935703  0.563996    105.74  1.000043  1.000003     2.369    12.271      88.6      95.4     308.3     631.6     12.58     -3.99      3.90      1.52     -0.88      1.59      0.57      1.67     -1.50     -5.46     -0.36      1.23      0.48     -0.01      0.57     -6.54     -1.09      2.52      1.20     -0.36
     -51.761967    -141.327026     252.1      1.16      2.36     107.3         3         2      3902      2292    529.68   -12.760      12.5      36.1   286.288     0.563     150.0   0.07640      75.6         H               344.1  0.047938  0.019894  0.000695  1.961034  0.703151  2.788924  1.064974     24.07   10.0402  118.8257   0.11795   6.67813   0.13421   0.00255 209.61942  10.13617     564.1  0.492049  0.002463  0.000316  0.000112  0.184388  6.945651  0.566747    103.42  1.000063  1.000004     2.356    11.916      90.6      94.6     268.4     562.7     12.60     -3.22      3.85      1.61     -0.81      1.72      0.60      0.97     -1.40     -4.58     -1.01      1.37      0.83     -0.19      0.34     -6.79     -0.35      2.13     -0.45     -0.80
     -51.742630    -141.245956     270.3      1.10      2.36     104.8         3         3      3902      3584    513.95   -12.891      12.5      36.5   284.029     0.558     118.8   0.07533     100.0         H               344.1  0.047823  0.019339  0.000622  1.909305  0.706130  2.703901  1.060165     21.68    9.7382  111.7872   0.11618   6.62408   0.13697   0.00268 197.59912   9.83632     544.8  0.488419  0.001865  0.000233  0.000112  0.184364  6.931840  0.561337    105.37  1.000083  1.000006     2.342    11.908      90.6      94.5     250.3     545.5     12.63     -4.09      4.18      1.52     -0.66      1.45      0.53      1.15     -0.96     -4.91     -0.75      0.85      0.26      0.50      0.35     -6.10     -0.61      1.14      0.38      0.57
