corner points
-170.7653198    46.88308716
-170.8220215    47.06134415
-170.5069275    46.92047882
-170.5626984    47.09879303
========== RESULTS WAVE VERSION 16.10.2018 ====================
IMAGE SIZE  X: 5471     Y:4920    col:row     POLARIZATION:VV
COVERAGE    X: 20.02484132km       Y: 20.23281421km 
RESOLUTION dX: 3.660179367m       dY:4.112360613m  
resolution of original product 3.660179367m x 4.112360613m;   raster step x:5999.033982m  
===============================================================
FLAGS: H=HIGH PROBABILITY SEA STATE, I=LAND(ISLAND), O=OUTLIER NO SEA STATE, N=NO WIND AVAILABLE, SEA STATE NOT VISIBLE, M=MEAN PROBABILITY SEA STATE, L= LOW PROBABILITY SEA STATE
Filtering wave length
 integration  Lmin=1m
 integration  Lmax=2200m
  peak        Lmin=100m
               FFT=1024pixels, 3748.023672m 
   mean-Hs (SWH_c)=4.256519775m
         mean-wind=9.109258652m/s
--------------0--------------1---------2---------3---------4---------5---------6---------7---------8---------9--------10--------11--------12--------13--------14--------15--------16--------17--------18--------19------------------20--------21--------22--------23--------24--------25--------26--------27--------28--------29--------30--------31--------32--------33--------34--------35--------36--------37--------38--------39--------40--------41--------42--------43--------44--------45--------46--------47--------48--------49--------50--------51--------52--------53--------54--------55--------56--------57--------58--------59--------60--------61--------62--------63--------64--------65--------66--------67--------68--------69--------70--------71--------72--------73
            LAT            LON  P-LENGHT     SWH_o     SWH_c     P-DIR      LINE     POINT     ROW-Y     COL-X  M-INTENC        dB      WIND INC-ANGLE  ENERGY-M  ENERGY-N  ENERGY-R ENERGY-NN  FG-DEPTH      FLAG         HEADING-DEG    E30-75   E75-390  E390-600 meanincut   meanout   cut/out  STD-NORM  SPEC-MAX   GL-MEAN    GL-VAR      CORR   ENTROPY   HOMOGEN    ENERGY  CONTRAST  DISSIMIL     STD-O    E 1-30 E600-2000   E2000 >      GODA  LONG-HIG     Tmean  CONVOLUT  MEAN-DIR  relation     Sy/Sx  SKEWNESS  KURTOSIS  cutoff-A >50/10000     INT*V   INT-LOG  S-1_g1f1  S-2_g1f2  S-3_g1f3  S-4_g2f1  S-5_g2f2  S-6_g2f3  S-7_g3f1  S-8_g3f2  S-9_g3f3 S-10_g1f4 S-11_g2f4 S-12_g3f4 S-13_g1f5 S-14_g2f5 S-15_g3f5 S-16_g4f1 S-17_g4f2 S-18_g4f3 S-19_g4f4 S-20_g4f5
--------------1--------------2---------3---------4---------5---------6---------7---------8---------9--------10--------11--------12--------13--------14--------15--------16--------17--------18--------19--------20------------------21--------22--------23--------24--------25--------26--------27--------28--------29--------30--------31--------32--------33--------34--------35--------36--------37--------38--------39--------40--------41--------42--------43--------44--------45--------46--------47--------48--------49--------50--------51--------52--------53--------54--------55--------56--------57--------58--------59--------60--------61--------62--------63--------64--------65--------66--------67--------68--------69--------70--------71--------72--------73--------74
      46.926384    -170.728378     252.9      4.15      5.27     118.7         1         1      1000      1000   3113.85    -5.067       9.3      23.5   459.624     1.020     249.4   0.29970      77.3         H               345.5  0.121309  0.144522  0.004216  8.012947  1.113079  7.198903  1.428310    232.01    5.7072   69.0203   0.35056   5.48425   0.26402   0.01341  89.64872   5.71389    4446.9  0.748548  0.002466  0.000038  0.000332  0.243171  7.614279  1.088156    105.35  1.000418  1.000065     4.702    53.033     160.0      83.0     133.8     766.1     16.26     -4.96     11.90      0.17      0.39      3.67     -4.57      3.33     -4.95     -5.05      0.05      2.60      3.12      3.04      0.25     -7.23      0.16      2.03      0.89      2.05
      46.937729    -170.650146     255.1      4.41      5.27     107.6         1         2      1000      2639   2936.61    -5.322       9.7      24.0   458.267     1.022     301.1   0.30331      82.7         H               345.5  0.118140  0.147663  0.005173  7.757286  1.133921  6.841118  1.435531    282.75    5.3211   61.6453   0.35033   5.35601   0.27692   0.01528  80.09801   5.35841    4215.3  0.747924  0.003604  0.000101  0.000352  0.247840  7.711187  1.089836    104.70  1.000421  1.000068     4.712    49.693     160.0      81.7     116.6     684.5     16.24     -5.05     12.13      0.35     -0.04      4.14     -4.25      3.37     -5.44     -5.93     -0.14      2.93      3.75      3.20     -0.64     -8.24     -0.26      2.40      1.58      2.43
      46.948818    -170.573318     238.6      4.59      5.27     117.0         1         3      1000      4278   2516.85    -5.991       9.0      24.4   471.963     1.059     294.6   0.31819      56.7         H               345.5  0.123925  0.158501  0.006006  7.964822  1.218219  6.538087  1.457152    305.68    4.5352   47.9533   0.35385   5.06112   0.30938   0.02081  61.97112   4.62845    3667.3  0.768118  0.003252  0.000050  0.000344  0.245420  7.692544  1.131894    107.74  1.000440  1.000069     5.342    79.173     160.0      78.5      88.2     702.0     16.23     -5.49     11.82     -0.51      0.36      3.34     -3.69      3.65     -4.72     -5.75      0.07      3.13      3.51      2.80      0.44     -8.72      0.28      2.59      0.78      1.81
      46.979259    -170.745132     259.5      4.76      5.27     104.3         2         1      2459      1000   2967.49    -5.276       8.8      23.5   479.555     1.079     351.5   0.32603      98.1         H               345.5  0.126403  0.166940  0.005146  8.566306  1.205366  7.106806  1.470908    441.83    5.3910   65.3481   0.36103   5.36017   0.28039   0.01589  83.51154   5.42050    4364.3  0.777100  0.004458  0.000072  0.000377  0.251007  7.711280  1.155382    105.18  1.000441  1.000069     5.034    61.403     160.0      81.3     125.2     769.9     16.68     -5.46     13.00     -0.72      0.56      2.52     -5.09      3.33     -6.11     -6.63      0.38      3.37      4.98      1.92     -1.44     -7.69      0.59      1.56      1.74      1.29
      46.990608    -170.666809     250.1      4.06      5.27     110.9         2         2      2459      2639   2776.78    -5.565       9.1      24.0   457.332     1.017     280.9   0.29855      72.0         H               345.5  0.120992  0.142556  0.004872  7.882332  1.149245  6.858705  1.430348    294.49    5.0273   55.8359   0.34752   5.25646   0.28694   0.01679  72.86398   5.09304    3971.3  0.745843  0.003553  0.000052  0.000343  0.246556  7.643579  1.084814    106.92  1.000438  1.000067     4.703    49.744     153.8      80.8     104.2     642.3     16.36     -5.78     11.89     -0.34      0.27      3.45     -4.39      4.02     -5.66     -6.84      0.35      3.61      3.69      2.34     -0.39     -8.24     -0.27      3.08      1.75      1.46
      47.001705    -170.589890     272.8      4.23      5.27     108.9         2         3      2459      4278   2539.11    -5.953       9.1      24.4   459.229     1.023     357.0   0.30414     100.0         H               345.5  0.118273  0.144907  0.005194  7.751194  1.125226  6.888566  1.434712    363.37    4.5682   47.8716   0.34972   5.08213   0.30501   0.01995  62.25940   4.66155    3642.6  0.750171  0.004646  0.000161  0.000366  0.249638  7.662131  1.091075    112.24  1.000391  1.000060     4.755    50.500     160.0      79.0      87.0     602.8     16.63     -7.31     12.00     -1.08      1.44      2.41     -4.42      4.32     -4.94     -7.64      0.84      4.24      1.55      3.10      0.79     -9.24      2.30      0.52      1.79      2.72
      47.032135    -170.761917     244.6      4.02      5.27     114.0         3         1      3918      1000   2984.10    -5.252       8.8      23.5   454.387     1.005     258.1   0.29449      63.6         H               345.5  0.119247  0.141552  0.004564  8.185021  1.161632  7.046142  1.421803    265.24    5.4511   63.6881   0.34828   5.40276   0.27227   0.01459  83.01334   5.48398    4242.1  0.736840  0.002928  0.000060  0.000323  0.240706  7.608617  1.071104    103.50  1.000410  1.000063     4.493    42.875     153.8      82.1     120.5     663.9     15.99     -4.51     12.11      0.69      0.34      3.79     -4.15      2.61     -5.20     -4.55     -0.13      2.05      3.75      2.67     -0.32     -7.18      0.38      2.31      0.40      1.28
      47.043491    -170.683502     250.1      4.01      5.27     110.9         3         2      3918      2639   2761.13    -5.589       9.0      24.0   459.720     1.019     301.8   0.30009      72.0         H               345.5  0.119973  0.140743  0.004804  7.908974  1.156629  6.837954  1.430182    348.75    4.9971   55.3662   0.34735   5.24528   0.28787   0.01696  72.26893   5.06966    3948.5  0.749744  0.003969  0.000081  0.000336  0.244165  7.612494  1.085485    109.25  1.000373  1.000058     4.738    54.290     153.8      80.7     103.1     667.4     16.41     -5.83     11.62     -0.67      0.98      3.13     -4.25      3.55     -5.12     -6.55      0.62      3.75      2.90      2.51      0.57     -8.73      1.47      2.24      1.43      1.14
      47.054588    -170.606506     272.8      4.08      5.27     108.9         3         3      3918      4278   2529.67    -5.969       9.1      24.4   457.151     1.020     268.1   0.30229     100.0         H               345.5  0.121284  0.142786  0.004844  8.018517  1.143752  7.010713  1.431155    258.91    4.5637   47.4948   0.34929   5.08395   0.30392   0.01970  61.80891   4.66059    3620.2  0.748527  0.002880  0.000052  0.000324  0.245735  7.628327  1.087217    103.36  1.000445  1.000069     4.778    50.633     160.0      79.1      86.7     597.4     16.35     -4.25     11.77     -0.28      0.11      3.89     -3.93      2.90     -5.22     -5.59      0.85      2.72      4.29      2.55     -0.38     -8.82     -0.13      2.87      2.40      1.17
