corner points
-149.0335236    -41.31928635
-149.0977631    -41.1426239
-148.7958221    -41.26802826
-148.8608093    -41.09150314
========== RESULTS WAVE VERSION 16.10.2018 ====================
IMAGE SIZE  X: 5471     Y:4911    col:row     POLARIZATION:VV
COVERAGE    X: 20.60786559km       Y: 20.32122206km 
RESOLUTION dX: 3.766745675m       dY:4.137899014m  
resolution of original product 3.766745675m x 4.137899014m;   raster step x:5996.659115m  
===============================================================
FLAGS: H=HIGH PROBABILITY SEA STATE, I=LAND(ISLAND), O=OUTLIER NO SEA STATE, N=NO WIND AVAILABLE, SEA STATE NOT VISIBLE, M=MEAN PROBABILITY SEA STATE, L= LOW PROBABILITY SEA STATE
Filtering wave length
 integration  Lmin=1m
 integration  Lmax=2200m
  peak        Lmin=100m
               FFT=1024pixels, 3857.147572m 
   mean-Hs (SWH_c)=0.2m
         mean-wind=6.820782185m/s
--------------0--------------1---------2---------3---------4---------5---------6---------7---------8---------9--------10--------11--------12--------13--------14--------15--------16--------17--------18--------19------------------20--------21--------22--------23--------24--------25--------26--------27--------28--------29--------30--------31--------32--------33--------34--------35--------36--------37--------38--------39--------40--------41--------42--------43--------44--------45--------46--------47--------48--------49--------50--------51--------52--------53--------54--------55--------56--------57--------58--------59--------60--------61--------62--------63--------64--------65--------66--------67--------68--------69--------70--------71--------72--------73
            LAT            LON  P-LENGHT     SWH_o     SWH_c     P-DIR      LINE     POINT     ROW-Y     COL-X  M-INTENC        dB      WIND INC-ANGLE  ENERGY-M  ENERGY-N  ENERGY-R ENERGY-NN  FG-DEPTH      FLAG         HEADING-DEG    E30-75   E75-390  E390-600 meanincut   meanout   cut/out  STD-NORM  SPEC-MAX   GL-MEAN    GL-VAR      CORR   ENTROPY   HOMOGEN    ENERGY  CONTRAST  DISSIMIL     STD-O    E 1-30 E600-2000   E2000 >      GODA  LONG-HIG     Tmean  CONVOLUT  MEAN-DIR  relation     Sy/Sx  SKEWNESS  KURTOSIS  cutoff-A >50/10000     INT*V   INT-LOG  S-1_g1f1  S-2_g1f2  S-3_g1f3  S-4_g2f1  S-5_g2f2  S-6_g2f3  S-7_g3f1  S-8_g3f2  S-9_g3f3 S-10_g1f4 S-11_g2f4 S-12_g3f4 S-13_g1f5 S-14_g2f5 S-15_g3f5 S-16_g4f1 S-17_g4f2 S-18_g4f3 S-19_g4f4 S-20_g4f5
--------------1--------------2---------3---------4---------5---------6---------7---------8---------9--------10--------11--------12--------13--------14--------15--------16--------17--------18--------19--------20------------------21--------22--------23--------24--------25--------26--------27--------28--------29--------30--------31--------32--------33--------34--------35--------36--------37--------38--------39--------40--------41--------42--------43--------44--------45--------46--------47--------48--------49--------50--------51--------52--------53--------54--------55--------56--------57--------58--------59--------60--------61--------62--------63--------64--------65--------66--------67--------68--------69--------70--------71--------72--------73--------74
     -41.273727    -149.001999     145.9      0.40      1.89     130.9         1         1      1000      1000   2729.50    -5.639       6.6      22.9   273.069     0.642      57.1   0.13162      14.4         H               346.2  0.059982  0.027989  0.000679  2.561714  0.864920  2.961792  1.136054     16.80    4.9701   37.8183   0.22218   5.35673   0.24683   0.01093  58.83171   5.07129    3100.8  0.553208  0.000809  0.000022  0.000123  0.189312  7.023129  0.664890    120.90  1.000136  1.000010     2.865    17.927      65.3      85.3      72.9     363.7     11.74     -3.05     -1.41      2.78     -2.50      2.00      0.01      0.67      1.25     -2.15     -0.26     -0.13     -2.56     -2.16      0.39     -4.04     -1.77      3.02      0.67     -0.89
     -41.258682    -148.932114     288.8      0.41      1.89      17.4         1         2      1000      2592   2488.05    -6.041       6.6      23.3   274.617     0.648      68.3   0.13438     100.0         H               346.2  0.061086  0.029450  0.000600  2.654608  0.870553  3.049334  1.141489     21.21    4.4936   31.8299   0.22590   5.17285   0.26479   0.01315  49.27980   4.62116    2840.1  0.556214  0.000867  0.000045  0.000127  0.190238  7.040103  0.671096    118.15  1.000114  1.000010     2.909    18.793      66.4      83.6      60.7     348.1     11.78     -2.64     -2.05      2.70     -3.36      2.45     -0.09      0.52      1.50     -2.09     -0.17     -0.47     -2.42     -2.07      0.45     -3.89     -2.59      3.63      0.72     -0.47
     -41.243877    -148.863556     154.8      0.41      1.89     137.0         1         3      1000      4184   2274.60    -6.431       6.7      23.8   273.952     0.646      61.0   0.13461      16.6         H               346.2  0.060920  0.028934  0.000699  2.697084  0.881171  3.060795  1.139710     15.43    4.0660   26.5546   0.22641   4.99343   0.28332   0.01574  41.08451   4.21483    2592.4  0.555324  0.000788  0.000034  0.000125  0.190536  7.037676  0.669460    121.66  1.000133  1.000011     2.910    19.356      65.3      81.8      50.6     334.2     11.88     -3.61     -0.80      2.73     -2.22      1.71     -0.14      1.39      1.07     -1.87     -0.09     -0.06     -2.75     -1.79      0.72     -4.31     -1.10      2.66      0.89     -0.03
     -41.221565    -149.021027     152.5      0.42      1.89     127.7         2         1      2450      1000   2816.42    -5.503       6.9      22.9   272.155     0.642      58.6   0.13273      16.0         H               346.2  0.060210  0.027660  0.000625  2.539919  0.875099  2.902434  1.136474     20.41    5.1423   40.2833   0.22482   5.41811   0.24080   0.01028  62.45358   5.23254    3200.6  0.553542  0.000813  0.000027  0.000126  0.190037  7.025901  0.665551    124.53  1.000128  1.000010     2.832    17.201      66.4      85.8      77.6     363.2     11.75     -3.49     -1.57      2.89     -2.37      2.31      0.07      0.97      1.12     -1.97     -0.47      0.20     -2.44     -2.37      0.40     -4.16     -0.95      3.68      0.47     -0.61
     -41.206532    -148.951202     162.6      0.42      1.89     122.5         2         2      2450      2592   2539.20    -5.953       6.8      23.3   272.581     0.640      45.6   0.13140      18.6         H               346.2  0.059618  0.028007  0.000614  2.614176  0.878724  2.974970  1.134529     17.89    4.5945   32.7627   0.22211   5.21452   0.26003   0.01257  50.97115   4.71678    2880.8  0.552088  0.000548  0.000013  0.000128  0.190429  7.034021  0.662743    123.96  1.000145  1.000011     2.853    17.760      65.3      84.0      62.8     333.3     11.65     -3.52     -1.03      3.30     -2.83      2.12      0.14      0.57      1.04     -1.53     -0.43     -0.36     -3.00     -2.26      0.47     -3.61     -1.24      3.40      0.16     -0.50
     -41.191738    -148.882721     161.1      0.42      1.89     127.5         2         3      2450      4184   2293.37    -6.395       6.8      23.8   271.996     0.642      70.2   0.13306      18.2         H               346.2  0.059617  0.027768  0.000680  2.563123  0.865649  2.960927  1.136314     15.40    4.1055   26.9086   0.22533   5.01148   0.28089   0.01543  41.69061   4.25353    2606.1  0.553389  0.000977  0.000039  0.000123  0.190163  7.030093  0.665009    120.22  1.000154  1.000012     2.826    17.111      66.4      82.0      51.3     290.6     11.81     -3.64     -1.24      2.65     -2.63      2.04      0.10      0.94      0.93     -1.66     -0.13     -0.46     -2.82     -1.82      0.89     -4.50     -1.41      3.52      0.73     -0.76
     -41.169399    -149.040039     142.6      0.43      1.89     132.3         3         1      3900      1000   2857.26    -5.440       7.0      22.9   272.091     0.641      58.5   0.13310      13.7         H               346.2  0.061173  0.027433  0.000643  2.513020  0.874963  2.872144  1.135659     20.38    5.2280   41.3413   0.22476   5.44845   0.23766   0.00996  64.09841   5.31071    3244.6  0.551943  0.000749  0.000032  0.000129  0.187776  6.996088  0.664139    124.10  1.000145  1.000011     2.846    17.597      66.4      86.1      80.1     386.4     11.78     -3.13     -1.51      2.77     -3.32      2.35      0.18      0.64      0.90     -1.92     -0.32     -0.44     -2.61     -2.43      0.45     -4.38     -2.11      3.82      0.62     -0.88
     -41.154377    -148.970261     146.6      0.43      1.89     133.8         3         2      3900      2592   2609.88    -5.834       7.1      23.3   271.837     0.641      50.5   0.13318      14.6         H               346.2  0.058969  0.027176  0.000624  2.522132  0.855844  2.946952  1.135360     20.85    4.7320   34.6028   0.22380   5.26731   0.25490   0.01194  53.71704   4.84726    2963.2  0.554299  0.000683  0.000020  0.000128  0.186502  6.998963  0.663643    123.98  1.000136  1.000011     2.837    17.601      66.4      84.5      66.3     341.2     11.62     -3.14     -1.45      3.15     -2.93      1.85      0.17      0.48      1.27     -1.68     -0.32     -0.11     -2.63     -2.43      0.36     -4.04     -1.51      2.79      0.53     -0.86
     -41.139599    -148.901840     140.6      0.42      1.89     126.7         3         3      3900      4184   2288.17    -6.405       6.8      23.8   272.523     0.639      66.5   0.13059      13.3         H               346.2  0.059101  0.027020  0.000655  2.521457  0.847751  2.974292  1.133597     20.25    4.0965   26.6754   0.22075   5.00855   0.28116   0.01544  41.57329   4.24928    2593.9  0.551970  0.000903  0.000042  0.000132  0.189194  7.015287  0.661355    123.47  1.000143  1.000012     2.803    16.946      67.5      82.0      50.8     294.9     11.77     -4.29     -0.95      3.13     -2.90      1.98      0.15      0.65      1.32     -2.10     -0.93     -0.31     -2.98     -2.60      0.43     -4.18     -0.85      2.33      0.38     -0.92
